"FilingID","SEC File Number"
1092132,"811-09152"
1104172,"811-22511"
1104172,"811-22043"
1104172,"811-08743"
1104172,"811-05845"
1104172,"811-21977"
1092022,"811-10103"
1100434,"811-22172"
1102212,"814-00841"
1102212,"811-22802"
1106890,"811-05685"
1109903,"811-22668"
1107192,"811-08542"
1109963,"811-04708"
1109963,"811-03738"
1109963,"811-08789"
1109963,"811-07725"
1109963,"811-07238"
1109963,"811-21965"
1109963,"811-04556"
1109963,"811-04419"
1109963,"811-08194"
1109963,"811-22920"
1109992,"811-04984"
1109992,"811-09603"
1109992,"811-23239"
1110750,"811-22172"
1113316,"811-22759"
1115325,"811-22004"
1115325,"811-22438"
1115325,"811-21553"
1115325,"811-7428"
1115325,"811-22051"
1115325,"811-21786"
1115417,"811-03790"
1115417,"811-03023"
1115417,"811-04416"
1115417,"811-03153"
1117794,"811-06722"
1117794,"811-22298"
1115429,"811-09521"
1115429,"811-08274"
1117035,"811-22708"
1117035,"811-07257"
1117035,"811-05186"
1117035,"811-07572"
1117035,"811-01944"
1117035,"811-10263"
1117035,"811-03623"
1117035,"811-22781"
1122049,"811-07873"
1122049,"811-07747"
1122049,"811-07755"
1122049,"811-07943"
1122049,"811-07751"
1122049,"811-05309"
1122049,"811-07687"
1122049,"811-07619"
1122049,"811-21979"
1122049,"811-22023"
1122049,"811-09161"
1122049,"811-05235"
1122049,"811-22272"
1122049,"811-07606"
1122049,"811-21152"
1122049,"811-07486"
1122049,"811-07484"
1122049,"811-06383"
1122049,"811-07616"
1122049,"811-09455"
1122049,"811-22274"
1122049,"811-09135"
1122049,"811-05238"
1122049,"811-22271"
1122049,"811-21211"
1122049,"811-07608"
1122049,"811-06385"
1122049,"811-06265"
1122049,"811-22273"
1122049,"811-06384"
1122049,"811-10345"
1122049,"811-09297"
1122049,"811-22323"
1122049,"811-09475"
1122049,"811-21449"
1122049,"811-05488"
1122049,"811-05120"
1122049,"811-22391"
1122049,"811-22425"
1122049,"811-22003"
1122049,"811-22329"
1122049,"811-22374"
1122049,"811-22058"
1122049,"811-06548"
1122049,"811-06622"
1122049,"811-06693"
1122049,"811-06623"
1122049,"811-06624"
1122049,"811-07056"
1122049,"811-07490"
1122049,"811-21215"
1122049,"811-05642"
1122049,"811-22752"
1122049,"811-22699"
1122049,"811-22658"
1122049,"811-22253"
1122049,"811-22779"
1122049,"811-21293"
1122049,"811-22936"
1122049,"811-21212"
1122049,"811-22967"
1122049,"811-21809"
1122049,"811-22970"
1122049,"811-22988"
1122049,"811-22971"
1122049,"811-08333"
1122049,"811-07278"
1122049,"811-23051"
1122049,"811-23074"
1122049,"811-23141"
1122049,"811-23075"
1122049,"811-23102"
1122054,"811-07873"
1122054,"811-07747"
1122054,"811-07755"
1122054,"811-07943"
1122054,"811-07751"
1122054,"811-05309"
1122054,"811-07687"
1122054,"811-07619"
1122054,"811-21979"
1122054,"811-22023"
1122054,"811-09161"
1122054,"811-05235"
1122054,"811-22272"
1122054,"811-07606"
1122054,"811-21152"
1122054,"811-07486"
1122054,"811-07484"
1122054,"811-06383"
1122054,"811-07616"
1122054,"811-09455"
1122054,"811-22274"
1122054,"811-09135"
1122054,"811-05238"
1122054,"811-22271"
1122054,"811-21211"
1122054,"811-07608"
1122054,"811-06385"
1122054,"811-06265"
1122054,"811-22273"
1122054,"811-06384"
1122054,"811-10345"
1122054,"811-09297"
1122054,"811-22323"
1122054,"811-09475"
1122054,"811-21449"
1122054,"811-05488"
1122054,"811-05120"
1122054,"811-22391"
1122054,"811-22425"
1122054,"811-22003"
1122054,"811-22329"
1122054,"811-22374"
1122054,"811-22058"
1122054,"811-06548"
1122054,"811-06622"
1122054,"811-06693"
1122054,"811-06623"
1122054,"811-06624"
1122054,"811-07056"
1122054,"811-07490"
1122054,"811-21215"
1122054,"811-05642"
1122054,"811-22752"
1122054,"811-22699"
1122054,"811-22658"
1122054,"811-22253"
1122054,"811-22779"
1122054,"811-21293"
1122054,"811-22936"
1122054,"811-21212"
1122054,"811-22967"
1122054,"811-21809"
1122054,"811-22970"
1122054,"811-22988"
1122054,"811-22971"
1122054,"811-08333"
1122054,"811-07278"
1122054,"811-23051"
1122054,"811-23074"
1122054,"811-23141"
1122054,"811-23075"
1122054,"811-23102"
1122064,"811-21979"
1122093,"811-08333"
1122093,"811-22058"
1122093,"811-21979"
1122126,"811-22668"
1103439,"811-22310"
1104123,"811-22004"
1104123,"811-22438"
1104123,"811-21553"
1104123,"811-7428"
1104123,"811-22051"
1104123,"811-21786"
1104732,"811-22549"
1104732,"811-21853"
1104708,"811-22110"
1104708,"811-21720"
1104749,"811-9689"
1104749,"811-9253"
1104749,"811-9255"
1104749,"811-21806"
1104749,"811-21269"
1104749,"811-22005"
1104749,"811-21331"
1104749,"811-21507"
1104841,"811-04297"
1105159,"811-21552"
1105159,"811-22575"
1105159,"811-21295"
1105159,"811-21295"
1109624,"811-04984"
1109624,"811-8194"
1109202,"811-08918"
1111239,"811-01976"
1116749,"811-22562"
1116749,"811-22845"
1119048,"811-03790"
1117541,"811-21719"
1121639,"811-22933"
1123886,"811-06400"
1123653,"811-22915"
1104212,"811-22974"
1105109,"811-4255"
1105109,"811-21715"
1105137,"811-4255"
1105137,"811-21715"
1105139,"811-8194"
1105183,"811-23040"
1105183,"811-23032"
1105046,"811-22549"
1105586,"811-09253"
1105710,"811-04984"
1105710,"811-21757"
1105596,"811-09253"
1105425,"811-21462"
1105425,"811-22106"
1105425,"811-22409"
1105425,"811-22585"
1105425,"811-22525"
1105425,"811-07572"
1105425,"811-22690"
1106338,"811-8194"
1106338,"811-8894"
1106338,"811-21987"
1106789,"811-8056"
1106961,"811-22027"
1106961,"811-03153"
1106767,"811-23017"
1107664,"811-21335"
1107664,"811-01355"
1107664,"811-07986"
1107664,"811-05550"
1107664,"811-01743"
1107664,"811-21308"
1108165,"811-03081"
1108165,"811-07512"
1108165,"811-05202"
1108165,"811-05125"
1108165,"811-06400"
1108165,"811-3990"
1108735,"811-22655"
1108884,"811-22549"
1108423,"811-21422"
1110276,"811-22172"
1110277,"811-21359"
1110277,"811-02201"
1110277,"811-22027"
1110277,"811-21719"
1110956,"811-21720"
1110956,"811-04419"
1110956,"811-07674"
1110956,"811-04556"
1110956,"811-07953"
1110956,"811-5629"
1110956,"811-8319"
1110956,"811-07428"
1110956,"811-07322"
1110956,"811-8894"
1110956,"811-08090"
1110956,"811-8274"
1110956,"811-06431"
1110956,"811-03213"
1110956,"811-05141"
1110956,"811-10385"
1110956,"811-07572"
1110956,"811-05186"
1110956,"811-07725"
1110956,"811-03153"
1110956,"811-07257"
1110956,"811-07238"
1110956,"811-03738"
1110956,"811-08789"
1110956,"811-8764"
1110956,"811-21897"
1110956,"811-22127"
1110956,"811-10183"
1110956,"811-03056"
1110956,"811-22811"
1110956,"811-03364"
1110956,"811-04878"
1110956,"811-21295"
1110956,"811-21991"
1110956,"811-22027"
1110956,"811-3738"
1110956,"811-23148"
1114045,"811-21589"
1114045,"811-9054"
1114045,"811-7261"
1114045,"811-5012"
1114045,"811-8777"
1114385,"811-22208"
1114486,"811-6673"
1114486,"811-4044"
1116578,"811-21720"
1117105,"811-08194"
1117105,"811-21583"
1117105,"811-21712"
1117105,"811-21846"
1117105,"811-23059"
1114565,"811-08690"
1114565,"811-21714"
1114565,"811-02183"
1114565,"811-05531"
1114565,"811-22562"
1114565,"811-22845"
1114565,"811-04108"
1114565,"811-10589"
1114565,"811-22153"
1114565,"811-22771"
1114565,"811-22993"
1114565,"811-23052"
1117796,"811-21527"
1117796,"811-21528"
1117796,"811-21730"
1117796,"811-22367"
1117796,"811-22940"
1117796,"811-22941"
1117796,"811-22942"
1117800,"811-22626"
1117800,"811-22678"
1118431,"811-9689"
1118431,"811-9253"
1118431,"811-9255"
1118431,"811-21806"
1118431,"811-21269"
1118431,"811-22005"
1118431,"811-21331"
1118431,"811-21507"
1116586,"811-21732"
1116586,"811-07912"
1118748,"811-05186"
1118748,"811-09721"
1118748,"811-04984"
1118748,"811-06318"
1118748,"811-22613"
1118748,"811-07953"
1118748,"811-06722"
1118748,"811-10263"
1118748,"811-04676"
1118748,"811-08918"
1118748,"811-08894"
1118748,"811-21779"
1118748,"811-04146"
1118748,"811-03833"
1118748,"811-10183"
1118748,"811-03990"
1118748,"811-21335"
1118748,"811-10385"
1118748,"811-05141"
1118748,"811-07816"
1118748,"811-10379"
1118748,"811-21077"
1118748,"811-21188"
1118748,"811-21238"
1118748,"811-10555"
1118748,"811-21734"
1118748,"811-21311"
1118748,"811-22121"
1118748,"811-21374"
1118748,"811-21601"
1118748,"811-10377"
1118748,"811-21076"
1118748,"811-21187"
1118748,"811-10381"
1118748,"811-21078"
1118748,"811-21189"
1118748,"811-08216"
1118748,"811-03153"
1118748,"811-03447"
1118748,"811-07238"
1118748,"811-04556"
1118748,"811-04419"
1118748,"811-08764"
1118748,"811-05028"
1118748,"811-08399"
1118748,"811-22250"
1118748,"811-22375"
1118748,"811-22376"
1118748,"811-05514"
1118748,"811-22673"
1118748,"811-22758"
1118748,"811-08090"
1118748,"811-22959"
1118748,"811-22865"
1118748,"811-23211"
1118748,"811-03833"
1120060,"811-22912"
1120060,"811-09253"
1120060,"811-22781"
1120060,"811-01716"
1120060,"811-08764"
1120060,"811-07820"
1120060,"811-07572"
1120097,"811-22525"
1122142,"811-22110"
1117025,"811-22747"
1121603,"811-08194"
1123877,"811-22208"
1123877,"811-22208"
1123877,"811-22208"
1123877,"811-22208"
1123877,"811-22208"
1122780,"811-06400"
1122762,"811-05426"
1124408,"811-07883"
1124442,"811-07883"
1123878,"811-22549"
1123523,"811-10399"
1123523,"811-23072"
1124711,"811-22172"
1122981,"811-10385"
1122981,"811-22153"
1122981,"811-05141"
1122981,"811-21335"
1121788,"811-01597"
1124735,"811-08542"
1124813,"811-22974"
1119880,"811-22961"
1119939,"811-05443"
1119939,"811-21547"
1119939,"811-21080"
1119939,"811-22047"
1119939,"811-21319"
1119939,"811-21484"
1119939,"811-09237"
1119939,"811-22949"
1119939,"811-67787"
1106323,"814-01151"
1120893,"811-04767"
1119572,"811-23084"
1120997,"811-05742"
1123114,"811-08253"
1123629,"811-06199"
1123368,"811-23128"
1104565,"811-05426"
1104657,"811-21720"
1104682,"811-1911"
1104682,"811-7840"
1104682,"811-21364"
1073392,"811-9821"
1105335,"811-7852"
1107953,"811-22641"
1107953,"811-22743"
1106800,"811-21475"
1110797,"811-22263"
1111297,"811-03023"
1110137,"811-01241"
1112389,"811-21488"
1112389,"811-08059"
1112389,"811-21677"
1106028,"811-22245"
1106028,"811-22452"
1106028,"811-22795"
1106028,"811-22652"
1106028,"811-22559"
1115629,"811-22576"
1113589,"811-23056"
1113589,"811-04878"
1113589,"811-23065"
1113589,"811-22912"
1117770,"811-6275"
1117770,"811-7059"
1117770,"811-4525"
1117770,"811-21454"
1117770,"811-08203"
1117770,"811-7055"
1117770,"811-4400"
1117770,"811-07143"
1117770,"811-07749"
1117770,"811-07153"
1117770,"811-22557"
1117770,"811-22218"
1117770,"811-09995"
1117770,"811-3566"
1117770,"811-579"
1117770,"811-07381"
1117770,"811-4119"
1117770,"811-5986"
1117770,"811-21919"
1117770,"811-21185"
1117770,"811-07639"
1117770,"811-21055"
1117770,"811-2958"
1117770,"811-10063"
1117770,"811-07075"
1117770,"811-6665"
1117770,"811-07605"
1117770,"811-4358"
1117770,"811-1710"
1117770,"811-958"
1117770,"811-2396"
1117770,"811-07173"
1117770,"811-2603"
1117770,"811-22410"
1117770,"811-08371"
1117770,"811-08279"
1117770,"811-21149"
1117770,"811-5299"
1117770,"811-3894"
1117770,"811-696"
1117770,"811-2215"
1117770,"811-4998"
1117770,"811-4521"
1117770,"811-22243"
1117770,"811-7093"
1117770,"811-7095"
1117770,"811-08207"
1117770,"811-3055"
1117770,"811-4163"
1117770,"811-2684"
1117770,"811-3872"
1117770,"811-10093"
1117770,"811-22293"
1117770,"811-5860"
1117770,"811-07209"
1117770,"811-07353"
1117770,"811-4441"
1117770,"811-4519"
1117770,"811-22620"
1117770,"811-22810"
1117770,"811-07225"
1117770,"811-22939"
1117770,"811-22968"
1117770,"811-5833"
1117770,"811-07145"
1117770,"811-23180"
1118502,"811-22398"
1120058,"811-9491"
1120058,"811-21624"
1120738,"811-21720"
1121034,"811-22549"
1122129,"811-23081"
1122129,"811-23116"
1122129,"811-23118"
1123426,"811-05992"
1123426,"811-08002"
1123456,"814-01237"
1113879,"811-10509"
1113879,"811-07572"
1113879,"811-03153"
1117146,"811-21732"
1117146,"811-22710"
1125125,"811-7445"
1125125,"811-3451"
1125125,"811-5601"
1125125,"811-4878"
1125125,"811-3231"
1125125,"811-3447"
1125125,"811-7257"
1125125,"811-22107"
1125125,"811-22480"
1125125,"811-9025"
1125125,"811-22862"
1125125,"811-23015"
1123927,"811-05038"
1123927,"811-06260"
1123927,"811-08257"
1123927,"811-04041"
1123927,"811-22127"
1125332,"811-01597"
1123412,"811-04670"
1123412,"811-04146"
1123412,"811-21779"
1123412,"811-02021"
1123412,"811-22781"
1123412,"811-01236"
1125365,"811-04670"
1125365,"811-04146"
1125365,"811-21779"
1125365,"811-02021"
1125365,"811-22781"
1125365,"811-01236"
1123546,"811-06686"
1123546,"811-21295"
1123546,"811-04893"
1125114,"811-05159"
1125114,"811-10263"
1125114,"811-23207"
1104454,"811-05430"
1104454,"811-09599"
1104454,"811-09819"
1104454,"811-07567"
1104454,"811-08837"
1104454,"811-05141"
1104454,"811-03459"
1104454,"811-10183"
1104454,"811-08090"
1104454,"811-04146"
1104454,"811-08839"
1104454,"811-21145"
1104454,"811-07953"
1104454,"811-08361"
1104454,"811-04041"
1104454,"811-08257"
1104454,"811-07257"
1104454,"811-04878"
1104454,"811-09689"
1104454,"811-22705"
1104454,"811-22542"
1104454,"811-21853"
1104454,"811-22838"
1104454,"811-21719"
1104454,"811-22480"
1104454,"811-05904"
1104454,"811-00483"
1104454,"811-02735"
1104454,"811-03715"
1104454,"811-05216"
1104454,"811-05324"
1104454,"811-21435"
1104454,"811-01494"
1104478,"811-22211"
1104495,"811-21949"
1104495,"811-00642"
1104495,"811-07507"
1104495,"811-01236"
1104495,"811-05689"
1104495,"811-05655"
1104495,"811-02671"
1104495,"811-03657"
1104495,"811-08382"
1104495,"811-05767"
1104495,"811-05002"
1104495,"811-06103"
1104495,"811-05970"
1104495,"811-06073"
1104495,"811-03196"
1104495,"811-06671"
1104495,"811-06698"
1104495,"811-04670"
1104495,"811-04049"
1104495,"811-06071"
1104495,"811-02527"
1104495,"811-00042"
1104495,"811-03495"
1104495,"811-08606"
1104495,"811-05896"
1104495,"811-03632"
1104495,"811-05385"
1104495,"811-04257"
1104495,"811-00043"
1104495,"811-00043"
1104495,"811-02021"
1104495,"811-06041"
1104495,"811-04632"
1104495,"811-05983"
1104495,"811-22487"
1104327,"811-7685"
1108933,"811-22894"
1111214,"811-8228"
1111214,"811-8228"
1111214,"811-21720"
1111533,"811-21589"
1111533,"811-9054"
1111533,"811-7261"
1111533,"811-5012"
1111533,"811-8777"
1111497,"811-22549"
1105923,"811-0819"
1112389,"811-21902"
1112389,"811-22621"
1112389,"811-22057"
1112389,"811-21485"
1112389,"811-03153"
1112574,"811-22172"
1112732,"814-01136"
1111023,"811-22915"
1108831,"811-21852"
1108831,"811-22127"
1108831,"811-4075"
1114288,"811-07870"
1114288,"811-09945"
1114166,"811-4984"
1114550,"811-09521"
1114550,"811-06400"
1078595,"811-22110"
1113336,"811-04782"
1115557,"811-08257"
1115557,"811-04041"
1115557,"811-09521"
1116277,"811-22468"
1116277,"811-05141"
1116277,"811-07923"
1116321,"811-22842"
1115090,"811-04767"
1114856,"811-09913"
1114856,"811-01424"
1114856,"811-01540"
1114856,"811-02699"
1114856,"811-06463"
1114856,"811-05426"
1114856,"811-05686"
1114856,"811-03826"
1114856,"811-07890"
1114856,"811-05460"
1114856,"811-07452"
1114856,"811-02729"
1114856,"811-06590"
1114856,"811-05597"
1114856,"811-06591"
1114856,"811-07868"
1114856,"811-02090"
1114856,"811-07404"
1114856,"811-22043"
1114856,"811-02611"
1114856,"811-05769"
1114856,"811-06567"
1114856,"811-06362"
1114856,"811-07398"
1114856,"811-08743"
1114856,"811-05845"
1114856,"811-06471"
1114856,"811-06537"
1114856,"811-22793"
1114856,"811-22577"
1114856,"811-22957"
1114856,"811-23186"
1118081,"811-04323"
1118081,"811-00242"
1118081,"811-09945"
1118081,"811-08282"
1118081,"811-06241"
1118081,"811-22099"
1118081,"811-23146"
1117027,"811-08234"
1118149,"811-08090"
1118573,"811-22509"
1119664,"811-21359"
1119664,"811-02201"
1119664,"811-22027"
1119664,"811-21719"
1111198,"811-6569"
1120098,"811-21422"
1121112,"811-21962"
1116589,"811-10401"
1116589,"811-07257"
1116589,"811-04878"
1116589,"811-10263"
1116589,"811-23015"
1121718,"814-01237"
1121528,"811-5518"
1121726,"811-23084"
1111399,"811-05407"
1121913,"811-04279"
1121913,"811-05017"
1121913,"811-06569"
1121913,"811-22525"
1122060,"811-07873"
1122060,"811-07747"
1122060,"811-07755"
1122060,"811-07943"
1122060,"811-07751"
1122060,"811-07619"
1122060,"811-08333"
1122060,"811-09037"
1122060,"811-21979"
1122060,"811-22023"
1122060,"811-05309"
1122060,"811-07687"
1122060,"811-05120"
1122060,"811-05235"
1122060,"811-05238"
1122060,"811-05488"
1122060,"811-22253"
1122060,"811-22272"
1122060,"811-22274"
1122060,"811-22271"
1122060,"811-22273"
1122060,"811-07056"
1122060,"811-06548"
1122060,"811-06622"
1122060,"811-06623"
1122060,"811-06624"
1122060,"811-06693"
1122060,"811-10491"
1122060,"811-21137"
1122060,"811-21293"
1122060,"811-21333"
1122060,"811-21407"
1122060,"811-21471"
1122060,"811-22058"
1122060,"811-21619"
1122060,"811-21809"
1122060,"811-21903"
1122060,"811-22003"
1122060,"811-22329"
1122060,"811-22374"
1122060,"811-22391"
1122060,"811-22425"
1122060,"811-22482"
1122060,"811-22518"
1122060,"811-09571"
1122060,"811-21494"
1122060,"811-21579"
1122060,"811-06265"
1122060,"811-06383"
1122060,"811-06385"
1122060,"811-06384"
1122060,"811-07278"
1122060,"811-07486"
1122060,"811-07484"
1122060,"811-07490"
1122060,"811-07606"
1122060,"811-07616"
1122060,"811-07608"
1122060,"811-09161"
1122060,"811-09135"
1122060,"811-09297"
1122060,"811-09455"
1122060,"811-10345"
1122060,"811-09475"
1122060,"811-21152"
1122060,"811-21212"
1122060,"811-21211"
1122060,"811-21449"
1122060,"811-22323"
1122060,"811-22658"
1122060,"811-22699"
1122060,"811-22752"
1122060,"811-22820"
1122060,"811-22779"
1122060,"811-22877"
1122060,"811-05642"
1122060,"811-22936"
1122060,"811-22988"
1122060,"811-22970"
1122060,"811-22971"
1122060,"811-22967"
1122060,"811-21213"
1122060,"811-23051"
1122060,"811-23074"
1122060,"811-23161"
1122060,"811-23102"
1122060,"811-23141"
1122060,"811-23075"
1122061,"811-21979"
1122799,"811-03967"
1122799,"811-06618"
1122799,"811-04325"
1122799,"811-03690"
1121340,"811-23072"
1124035,"811-23234"
1123587,"811-21237"
1123640,"811-22842"
1116529,"811-21720"
1116529,"811-22743"
1122471,"811-06557"
1122471,"811-21422"
1125322,"811-04550"
1125322,"811-03833"
1125322,"811-08333"
1125322,"811-03213"
1125322,"811-07852"
1125322,"811-22127"
1124892,"811-09053"
1108798,"811-22172"
1115173,"811-07257"
1115173,"811-08236"
1115185,"811-09781"
1115185,"811-03023"
1115197,"811-6400"
1114613,"814-00646"
1114613,"811-22481"
1114613,"811-22591"
1115094,"811-04014"
1115094,"811-21991"
1115094,"811-07820"
1115094,"811-04878"
1115094,"811-01530"
1116084,"811-09781"
1115498,"811-21949"
1115498,"811-00642"
1115498,"811-07507"
1115498,"811-01236"
1115498,"811-05689"
1115498,"811-05655"
1115498,"811-02671"
1115498,"811-03657"
1115498,"811-08382"
1115498,"811-05767"
1115498,"811-05002"
1115498,"811-06103"
1115498,"811-05970"
1115498,"811-06073"
1115498,"811-03196"
1115498,"811-06671"
1115498,"811-06698"
1115498,"811-04670"
1115498,"811-04049"
1115498,"811-06071"
1115498,"811-02527"
1115498,"811-00042"
1115498,"811-03495"
1115498,"811-08606"
1115498,"811-05896"
1115498,"811-03632"
1115498,"811-05385"
1115498,"811-04257"
1115498,"811-00043"
1115498,"811-00043"
1115498,"811-02021"
1115498,"811-06041"
1115498,"811-04632"
1115498,"811-05983"
1115498,"811-22487"
1080855,"811-21770"
1080855,"811-21296"
1080855,"811-5032"
1080855,"811-8319"
1080855,"811-08090"
1080855,"811-23207"
1116360,"811-21720"
1116360,"811-04419"
1116360,"811-07674"
1116360,"811-04556"
1116360,"811-07953"
1116360,"811-5629"
1116360,"811-8319"
1116360,"811-07428"
1116360,"811-07322"
1116360,"811-8894"
1116360,"811-08090"
1116360,"811-8274"
1116360,"811-06431"
1116360,"811-03213"
1116360,"811-05141"
1116360,"811-10385"
1116360,"811-07572"
1116360,"811-05186"
1116360,"811-07725"
1116360,"811-03153"
1116360,"811-07257"
1116360,"811-07238"
1116360,"811-03738"
1116360,"811-08789"
1116360,"811-8764"
1116360,"811-21897"
1116360,"811-22127"
1116360,"811-10183"
1116360,"811-03056"
1116360,"811-22811"
1116360,"811-03364"
1116360,"811-04878"
1116360,"811-21295"
1116360,"811-21991"
1116360,"811-22027"
1116360,"811-3738"
1116360,"811-23148"
1117730,"811-00242"
1117761,"811-22488"
1117761,"811-22686"
1117761,"811-22393"
1117761,"814-00757"
1117761,"814-00926"
1117761,"814-01047"
1117761,"814-01151"
1117761,"811-22542"
1120061,"811-21359"
1120061,"811-02201"
1120061,"811-22027"
1120061,"811-21719"
1120684,"811-08542"
1121049,"811-6275"
1121049,"811-7059"
1121049,"811-4525"
1121049,"811-21454"
1121049,"811-08203"
1121049,"811-7055"
1121049,"811-4400"
1121049,"811-07143"
1121049,"811-07749"
1121049,"811-07153"
1104180,"811-06400"
1104419,"811-05742"
1104539,"811-23159"
1083892,"811-05426"
1104771,"811-22747"
1108290,"811-22819"
1113870,"811-10401"
1113476,"811-22641"
1113476,"811-21295"
1113476,"811-09253"
1113476,"811-01716"
1113476,"811-22920"
1113942,"814-00755"
1113942,"814-01013"
1113967,"811-2229"
1116526,"811-22027"
1117316,"811-4550"
1117316,"811-22321"
1117316,"811-22551"
1117316,"811-03833"
1111521,"811-23084"
1120137,"814-01117"
1125289,"811-6275"
1125289,"811-7059"
1125289,"811-4525"
1125289,"811-21454"
1125289,"811-08203"
1125289,"811-7055"
1125289,"811-4400"
1125289,"811-07143"
1125289,"811-07749"
1125289,"811-07153"
1125289,"811-22557"
1125289,"811-22218"
1125289,"811-09995"
1125289,"811-3566"
1125289,"811-579"
1125289,"811-07381"
1125289,"811-4119"
1125289,"811-5986"
1125289,"811-21919"
1125289,"811-21185"
1125289,"811-07639"
1125289,"811-21055"
1125289,"811-2958"
1125289,"811-10063"
1125289,"811-07075"
1125289,"811-6665"
1125289,"811-07605"
1125289,"811-4358"
1125289,"811-1710"
1125289,"811-958"
1125289,"811-2396"
1125289,"811-07173"
1125289,"811-2603"
1125289,"811-22410"
1125289,"811-08371"
1125289,"811-08279"
1125289,"811-21149"
1125289,"811-5299"
1125289,"811-3894"
1125289,"811-696"
1125289,"811-2215"
1125289,"811-4998"
1125289,"811-4521"
1125289,"811-22243"
1125289,"811-7093"
1125289,"811-7095"
1125289,"811-08207"
1125289,"811-3055"
1125289,"811-4163"
1125289,"811-2684"
1125289,"811-3872"
1125289,"811-10093"
1125289,"811-22293"
1125289,"811-5860"
1125289,"811-07209"
1125289,"811-07353"
1125289,"811-4441"
1125289,"811-4519"
1125289,"811-22620"
1125289,"811-22810"
1125289,"811-07225"
1125289,"811-22939"
1125289,"811-22968"
1125289,"811-5833"
1125289,"811-07145"
1125289,"811-23180"
1124497,"811-04550"
1124497,"811-03833"
1124497,"811-08333"
1124497,"811-03213"
1124497,"811-07852"
1124497,"811-22127"
1124769,"811-07062"
1092285,"811-22718"
1106363,"811-10263"
1106363,"811-22559"
1108074,"811-05646"
1109355,"811-09253"
1109355,"811-07953"
1109355,"811-07238"
1109355,"811-04878"
1109355,"811-07257"
1109355,"811-03213"
1109355,"811-22127"
1109355,"811-07763"
1109355,"811-21779"
1109355,"811-04146"
1109355,"811-09255"
1109355,"811-21507"
1109355,"811-09689"
1109355,"811-22005"
1109355,"811-03738"
1109355,"811-08789"
1109355,"811-22811"
1109355,"811-10183"
1109355,"811-03990"
1109355,"811-09491"
1109355,"811-07763"
1109355,"811-05199"
1109355,"811-22648"
1109355,"811-23148"
1109355,"811-03447"
1109355,"811-08941"
1109292,"811-07572"
1110967,"811-09301"
1110967,"811-08961"
1110967,"811-08520"
1111025,"811-22549"
1108498,"811-22904"
1105298,"811-07257"
1105298,"811-04878"
1111096,"811-08495"
1111096,"811-03213"
1113295,"811-01436"
1113295,"811-01597"
1113295,"811-21662"
1113556,"811-22127"
1113556,"811-08004"
1113556,"811-05518"
1113556,"811-08764"
1114877,"811-06400"
1114987,"811-09729"
1114987,"811-09102"
1114987,"811-08831"
1114987,"811-08073"
1114987,"811-07319"
1114987,"811-22649"
1114987,"811-07332"
1114987,"811-08162"
1114987,"811-10027"
1114145,"811-03023"
1117790,"811-09301"
1117790,"811-08961"
1117790,"811-08520"
1117814,"811-03802"
1117814,"811-04255"
1117814,"811-07572"
1117814,"811-03213"
1117814,"811-10401"
1117814,"811-08236"
1117814,"811-03153"
1117814,"811-03447"
1117814,"811-05186"
1117814,"811-21715"
1117814,"811-08894"
1117814,"811-22613"
1117814,"811-22396"
1117814,"811-08764"
1117814,"811-00582"
1117814,"811-21168"
1117814,"811-21167"
1117814,"811-21169"
1117814,"811-21421"
1117814,"811-22770"
1117814,"811-22069"
1117814,"811-22386"
1117814,"811-22476"
1117814,"811-22475"
1117814,"811-22474"
1117814,"811-22816"
1117814,"811-22815"
1117814,"811-22814"
1117814,"811-07257"
1117814,"811-03459"
1117814,"811-03618"
1117814,"811-03623"
1117814,"811-05601"
1117814,"811-03940"
1117814,"811-21991"
1117814,"811-06318"
1117814,"811-23170"
1117814,"811-23171"
1117814,"811-23176"
1119322,"811-4676"
1120715,"811-03015"
1121049,"811-22557"
1121049,"811-22218"
1121049,"811-09995"
1121049,"811-3566"
1121049,"811-579"
1121049,"811-07381"
1121049,"811-4119"
1121049,"811-5986"
1121049,"811-21919"
1121049,"811-21185"
1121049,"811-07639"
1121049,"811-21055"
1121049,"811-2958"
1121049,"811-10063"
1121049,"811-07075"
1121049,"811-6665"
1121049,"811-07605"
1121049,"811-4358"
1121049,"811-1710"
1121049,"811-958"
1121049,"811-2396"
1121049,"811-07173"
1121049,"811-2603"
1121049,"811-22410"
1121049,"811-08371"
1121049,"811-08279"
1121049,"811-21149"
1121049,"811-5299"
1121049,"811-3894"
1121049,"811-696"
1121049,"811-2215"
1121049,"811-4998"
1121049,"811-4521"
1121049,"811-22243"
1121049,"811-7093"
1121049,"811-7095"
1121049,"811-08207"
1121049,"811-3055"
1121049,"811-4163"
1121049,"811-2684"
1121049,"811-3872"
1121049,"811-10093"
1121049,"811-22293"
1121049,"811-5860"
1121049,"811-07209"
1121049,"811-07353"
1121049,"811-4441"
1121049,"811-4519"
1121049,"811-22620"
1121049,"811-22810"
1121049,"811-07225"
1121049,"811-22939"
1121049,"811-22968"
1121049,"811-5833"
1121049,"811-07145"
1121049,"811-23180"
1121561,"814-01185"
1121578,"811-22838"
1123540,"811-09205"
1123615,"811-05685"
1107786,"811-04984"
1107786,"811-21990"
1107786,"811-21732"
1107786,"811-08274"
1107786,"811-22338"
1107786,"811-22491"
1107786,"811-04325"
1107786,"811-21779"
1107786,"811-05186"
1107786,"811-03857"
1124585,"811-05037"
1121458,"811-4676"
1091688,"811-22538"
1104185,"811-10401"
1105168,"811-6275"
1105168,"811-7059"
1105168,"811-4525"
1105168,"811-21454"
1105168,"811-08203"
1105168,"811-7055"
1105168,"811-4400"
1105168,"811-07143"
1105168,"811-07749"
1105168,"811-07153"
1105168,"811-22557"
1105168,"811-22218"
1105168,"811-09995"
1105168,"811-3566"
1105168,"811-579"
1105168,"811-07381"
1105168,"811-4119"
1105168,"811-5986"
1105168,"811-21919"
1105168,"811-21185"
1105168,"811-07639"
1105168,"811-21055"
1105168,"811-2958"
1105168,"811-10063"
1105168,"811-07075"
1105168,"811-6665"
1105168,"811-07605"
1105168,"811-4358"
1105168,"811-1710"
1105168,"811-958"
1105168,"811-2396"
1105168,"811-07173"
1105168,"811-2603"
1105168,"811-22410"
1105168,"811-08371"
1105168,"811-08279"
1105168,"811-21149"
1105168,"811-5299"
1105168,"811-3894"
1105168,"811-696"
1105168,"811-2215"
1105168,"811-4998"
1105168,"811-4521"
1105168,"811-22243"
1105168,"811-7093"
1105168,"811-7095"
1105168,"811-08207"
1105168,"811-3055"
1105168,"811-4163"
1105168,"811-2684"
1105168,"811-3872"
1105168,"811-10093"
1105168,"811-22293"
1105168,"811-5860"
1105168,"811-07209"
1105168,"811-07353"
1105168,"811-4441"
1105168,"811-4519"
1105168,"811-22620"
1105168,"811-22810"
1105168,"811-07225"
1105168,"811-22939"
1105168,"811-22968"
1105168,"811-5833"
1105168,"811-07145"
1105168,"811-23180"
1106191,"811-04984"
1106191,"811-08918"
1106191,"811-07257"
1106191,"811-05601"
1106191,"811-00834"
1106191,"811-07763"
1106191,"811-7852"
1106191,"811-03213"
1106191,"811-07428"
1106191,"811-08236"
1106191,"811-08261"
1106191,"811-22613"
1106191,"811-22641"
1106191,"811-03153"
1106191,"811-05186"
1106191,"811-08894"
1106191,"811-06318"
1106191,"811-22811"
1106191,"811-07064"
1106191,"811-0269899"
1106191,"811-06312"
1106191,"811-08071"
1106191,"811-21751"
1106191,"811-21511"
1106191,"811-04815"
1106191,"811-05199"
1106191,"811-06618"
1106191,"811-22781"
1106191,"811-23148"
1108040,"811-22819"
1109607,"811-23066"
1109661,"811-06400"
1107278,"811-4815"
1107278,"811-8261"
1107278,"811-21713"
1107278,"811-21582"
1109925,"811-22732"
1111887,"811-06260"
1105633,"811-21625"
1114030,"811-09053"
1114262,"811-22534"
1113594,"811-22655"
1113594,"811-06719"
1116026,"811-58433"
1116044,"811-03940"
1116044,"811-22613"
1116868,"811-08282"
1116868,"811-06241"
1116868,"811-04323"
1116868,"811-00242"
1116868,"811-06400"
1116868,"811-03752"
1116868,"811-03364"
1116868,"811-03618"
1116868,"811-10183"
1116868,"811-04556"
1116868,"811-07852"
1116868,"811-08274"
1116868,"811-21714"
1116868,"811-21720"
1116868,"811-07763"
1116868,"811-07572"
1116868,"811-03459"
1116868,"811-05186"
1116868,"811-22641"
1116868,"811-04367"
1116868,"811-22838"
1116868,"811-10263"
1116868,"811-07953"
1116868,"811-21991"
1116868,"811-03153"
1116868,"811-03990"
1116868,"811-07076"
1116868,"811-22811"
1116868,"811-21732"
1116868,"811-02224"
1116868,"811-22127"
1118049,"811-04920"
1118061,"811-22110"
1115024,"811-05349"
1115024,"811-08361"
1115024,"811-01545"
1110824,"811-06686"
1110824,"811-21295"
1110824,"811-04893"
1119489,"811-4982"
1119765,"811-05038"
1105473,"811-06342"
1105473,"811-05770"
1105473,"811-04611"
1105473,"811-06094"
1105473,"811-06120"
1105473,"811-08076"
1105473,"811-22132"
1105473,"811-05075"
1105473,"811-04603"
1105473,"811-06652"
1105713,"811-06096"
1105713,"811-22525"
1105713,"811-04419"
1105713,"811-04456"
1106118,"811-3023"
1106118,"811-9253"
1106118,"811-9689"
1109650,"811-22213"
1109650,"811-22668"
1113309,"811-04087"
1113309,"811-22811"
1113309,"811-8270"
1115565,"811-08841"
1115565,"811-05983"
1115565,"811-06041"
1115041,"811-00642"
1115497,"811-04670"
1115497,"811-04146"
1115497,"811-21779"
1115497,"811-02021"
1115497,"811-22781"
1115497,"811-01236"
1108444,"811-7959"
1116623,"811-23196"
1117236,"811-21720"
1117236,"811-22963"
1118015,"811-21720"
1120275,"811-04438"
1120275,"811-06342"
1120275,"811-04611"
1120275,"811-08266"
1120275,"811-08050"
1120275,"811-06115"
1120275,"811-06024"
1120275,"811-06674"
1124849,"811-03605"
1124849,"811-22555"
1124849,"811-06698"
1124849,"811-06351"
1124849,"811-08274"
1124849,"811-07507"
1124849,"811-06071"
1124849,"811-02224"
1124849,"811-07852"
1124849,"811-08236"
1102196,"811-00215"
1102196,"811-00649"
1102196,"811-00790"
1102196,"811-01193"
1102196,"811-01352"
1102196,"811-01400"
1102196,"811-01796"
1102196,"811-02105"
1102196,"811-02460"
1102196,"811-02628"
1102196,"811-02676"
1102196,"811-02737"
1102196,"811-02741"
1102196,"811-02841"
1102196,"811-02861"
1102196,"811-02890"
1102196,"811-03010"
1102196,"811-03114"
1102196,"811-03221"
1102196,"811-03320"
1102196,"811-03329"
1102196,"811-03361"
1102196,"811-03455"
1102196,"811-03466"
1102196,"811-03518"
1102196,"811-03583"
1102196,"811-03587"
1102196,"811-03723"
1102196,"811-03725"
1102196,"811-03737"
1102196,"811-03759"
1102196,"811-03785"
1102196,"811-03855"
1102196,"811-04008"
1102196,"811-04085"
1102196,"811-04118"
1102196,"811-04707"
1102196,"811-04861"
1102196,"811-05361"
1102196,"811-05511"
1102196,"811-06397"
1102196,"811-06398"
1102196,"811-06452"
1102196,"811-06453"
1102196,"811-06454"
1102196,"811-07139"
1102196,"811-07205"
1102196,"811-07807"
1102196,"811-21667"
1102196,"811-22083"
1102196,"811-22796"
1102196,"811-05251"
1104006,"811-23066"
1104305,"811-6136"
1108387,"811-5583"
1108387,"811-7876"
1108387,"811-6378"
1108387,"811-8394"
1108387,"811-6135"
1108387,"811-4985"
1108387,"811-8226"
1108387,"811-6336"
1108387,"811-5914"
1118062,"811-22110"
1117805,"811-00242"
1117805,"811-05186"
1117805,"811-22486"
1117866,"811-21979"
1118082,"811-22525"
1119977,"811-21757"
1121940,"811-04854"
1122540,"811-09521"
1122540,"811-7852"
1103284,"811-3023"
1105860,"811-08194"
1105999,"811-22655"
1106985,"811-06730"
1106985,"811-00134"
1106985,"811-09687"
1106985,"811-00126"
1106985,"811-07916"
1106985,"811-10221"
1106985,"811-07707"
1106985,"811-01716"
1106985,"811-00204"
1106985,"811-08426"
1106985,"811-03131"
1106985,"811-06554"
1106985,"811-08188"
1106985,"811-07391"
1106985,"811-02383"
1106985,"811-04791"
1106985,"811-07618"
1106985,"811-08294"
1106985,"811-06068"
1106985,"811-05398"
1106985,"811-05088"
1106985,"811-21673"
1106985,"811-05555"
1106985,"811-21034"
1106985,"811-10573"
1106985,"811-07732"
1106985,"811-22671"
1106985,"811-10575"
1106985,"811-21497"
1106985,"811-08403"
1106985,"811-13797"
1106985,"811-23100"
1115567,"811-21172"
1115567,"811-21779"
1110583,"811-02224"
1110583,"811-03738"
1110583,"811-07797"
1110583,"811-08495"
1110583,"811-10509"
1110583,"811-21624"
1110583,"811-08274"
1110583,"811-08894"
1110583,"811-08090"
1110583,"811-04041"
1110583,"811-03857"
1110583,"811-07953"
1110583,"811-04419"
1110583,"811-04556"
1110583,"811-22811"
1110583,"811-03213"
1110583,"811-03836"
1110583,"811-07238"
1110583,"811-05141"
1110583,"811-05547"
1110583,"811-09491"
1110583,"811-10385"
1115814,"811-22933"
1115826,"814-01080"
1119765,"811-21761"
1116486,"811-08194"
1116486,"811-22175"
1116486,"811-22245"
1117984,"811-22488"
1117984,"811-22686"
1117984,"811-22393"
1117984,"814-00757"
1117984,"814-00926"
1117984,"814-01047"
1117984,"814-01151"
1117984,"811-22542"
1119807,"811-22819"
1120249,"811-07959"
1119927,"811-22172"
1120565,"811-23019"
1119643,"811-21757"
1119643,"811-04676"
1119643,"811-07572"
1119643,"811-22920"
1121188,"811-09053"
1106664,"811-22543"
1121150,"811-06618"
1121150,"811-04325"
1121150,"811-74551"
1121150,"811-03459"
1121150,"811-22538"
1121484,"811-22925"
1121071,"811-08234"
1122048,"811-07619"
1122048,"811-21979"
1122048,"811-21407"
1122048,"811-22058"
1122048,"811-21471"
1122048,"811-21293"
1122048,"811-21732"
1122048,"811-07076"
1122048,"811-22820"
1122048,"811-05601"
1122048,"811-08333"
1120624,"811-07873"
1120624,"811-07747"
1120624,"811-07755"
1120624,"811-07943"
1120624,"811-07751"
1120624,"811-07619"
1120624,"811-08333"
1120624,"811-09037"
1120624,"811-21979"
1120624,"811-22023"
1120624,"811-05309"
1120624,"811-07687"
1120624,"811-05120"
1120624,"811-05235"
1120624,"811-05238"
1120624,"811-05488"
1120624,"811-22253"
1120624,"811-22272"
1120624,"811-22274"
1120624,"811-22271"
1120624,"811-22273"
1120624,"811-07056"
1120624,"811-06548"
1120624,"811-06622"
1120624,"811-06623"
1120624,"811-06624"
1120624,"811-06693"
1120624,"811-10491"
1120624,"811-21137"
1120624,"811-21293"
1120624,"811-21333"
1120624,"811-21407"
1120624,"811-21471"
1120624,"811-22058"
1120624,"811-21619"
1120624,"811-21809"
1120624,"811-21903"
1120624,"811-22003"
1120624,"811-22329"
1120624,"811-22374"
1120624,"811-22391"
1120624,"811-22425"
1120624,"811-22482"
1120624,"811-22518"
1120624,"811-09571"
1120624,"811-21494"
1120624,"811-21579"
1120624,"811-06265"
1120624,"811-06383"
1120624,"811-06385"
1120624,"811-06384"
1120624,"811-07278"
1120624,"811-07486"
1120624,"811-07484"
1120624,"811-07490"
1120624,"811-07606"
1120624,"811-07616"
1120624,"811-07608"
1120624,"811-09161"
1120624,"811-09135"
1120624,"811-09297"
1120624,"811-09455"
1120624,"811-10345"
1120624,"811-09475"
1120624,"811-21152"
1120624,"811-21212"
1120624,"811-21211"
1120624,"811-21449"
1120624,"811-22323"
1120624,"811-22658"
1120624,"811-22699"
1120624,"811-22752"
1120624,"811-22820"
1120624,"811-22779"
1120624,"811-22877"
1120624,"811-05642"
1120624,"811-22936"
1120624,"811-22988"
1120624,"811-22970"
1120624,"811-22971"
1120624,"811-22967"
1120624,"811-21213"
1120624,"811-23051"
1120624,"811-23074"
1120624,"811-23161"
1120624,"811-23102"
1120624,"811-23141"
1120624,"811-23075"
1122268,"811-22710"
1122863,"811-22743"
1119725,"811-22338"
1119725,"811-23096"
1119725,"811-22781"
1113026,"811-4052"
1113026,"811-4254"
1113026,"811-5497"
1113026,"811-5812"
1113026,"811-6110"
1113026,"811-6310"
1113026,"811-6444"
1113026,"811-6506"
1113026,"811-6629"
1113026,"811-6740"
1113026,"811-7362"
1113026,"811-7920"
1113026,"811-8709"
1113026,"811-8985"
1113026,"811-10407"
1113026,"811-21128"
1113026,"811-21337"
1113026,"811-21343"
1113026,"811-21467"
1113026,"811-21609"
1113026,"811-22265"
1113026,"811-22294"
1113026,"811-22334"
1113026,"811-22338"
1113026,"811-22369"
1113026,"811-22444"
1113026,"811-22491"
1113026,"811-22546"
1113026,"811-22405"
1113026,"811-22693"
1113026,"811-22734"
1113026,"811-22805"
1113026,"811-22628"
1113026,"811-22836"
1113026,"811-22850"
1113026,"811-22910"
1113026,"811-22582"
1113026,"811-23096"
1124013,"811-21720"
1124132,"811-08257"
1124132,"811-04041"
1124132,"811-07953"
1124132,"811-22959"
1122472,"811-21719"
1124066,"811-21719"
1119413,"811-07168"
1124071,"811-22743"
1124071,"811-22641"
1124632,"811-22446"
1124632,"811-22763"
1124632,"811-22764"
1125126,"811-7445"
1125126,"811-3451"
1125126,"811-5601"
1125126,"811-4878"
1125126,"811-3231"
1125126,"811-3447"
1125126,"811-7257"
1125126,"811-22107"
1125126,"811-22480"
1125126,"811-9025"
1125126,"811-22862"
1125126,"811-23015"
1124492,"811-21872"
1123050,"811-06161"
1123050,"811-21284"
1123050,"811-21338"
1123050,"811-21989"
1123050,"811-21417"
1123050,"811-03738"
1123050,"811-04058"
1123050,"811-04146"
1123050,"811-09253"
1123050,"811-10509"
1123050,"811-21779"
1123050,"811-22167"
1123050,"811-05186"
1123050,"811-06400"
1123050,"811-22975"
1123050,"811-10183"
1123050,"811-05749"
1123050,"811-22712"
1123050,"811-23039"
1123050,"811-03623"
1122147,"811-22743"
1125281,"811-08789"
1125281,"811-01879"
1125281,"811-07736"
1119619,"811-22956"
1123414,"811-08841"
1123414,"811-05983"
1123414,"811-06041"
1125348,"811-09053"
1114631,"811-22110"
1116261,"811-22468"
1108235,"811-22235"
1116989,"811-06400"
1115743,"811-10401"
1115743,"811-02884"
1121399,"811-22027"
1122987,"811-09781"
1122987,"811-03023"
1117895,"811-10145"
1123805,"811-23196"
1123751,"811-03833"
1122993,"811-06318"
1122993,"811-04676"
1122993,"811-21732"
1122993,"811-03651"
1122993,"811-10509"
1122993,"811-08928"
1122993,"811-07102"
1122993,"811-10267"
1123800,"811-21872"
1123848,"811-21719"
1120889,"811-05339"
1123963,"811-09571"
1123963,"811-21494"
1123963,"811-21579"
1123963,"811-21471"
1123963,"811-21407"
1123963,"811-22518"
1123963,"811-08333"
1123963,"811-09037"
1123963,"811-21333"
1123963,"811-07572"
1123963,"811-22781"
1123980,"811-04244"
1107315,"811-22027"
1110653,"811-04984"
1110653,"811-08918"
1110653,"811-07257"
1110653,"811-05601"
1110653,"811-00834"
1110653,"811-07763"
1110653,"811-7852"
1110653,"811-03213"
1110653,"811-07428"
1110653,"811-08236"
1110653,"811-08261"
1110653,"811-22613"
1110653,"811-22641"
1110653,"811-03153"
1110653,"811-05186"
1110653,"811-08894"
1110653,"811-06318"
1110653,"811-22811"
1110653,"811-07064"
1110653,"811-0269899"
1110653,"811-06312"
1110653,"811-08071"
1110653,"811-21751"
1110653,"811-21511"
1110653,"811-04815"
1110653,"811-05199"
1110653,"811-06618"
1110653,"811-22781"
1110653,"811-23148"
1113771,"811-2123"
1112842,"811-22298"
1112609,"811-21979"
1114670,"811-23084"
1119649,"811-05038"
1119649,"811-21761"
1121882,"811-06342"
1121882,"811-05770"
1121882,"811-04611"
1121882,"811-06094"
1121882,"811-06120"
1121882,"811-08076"
1121882,"811-22132"
1121882,"811-05075"
1121882,"811-04603"
1121882,"811-06652"
1121744,"811-22525"
1125363,"811-08841"
1125363,"811-05983"
1125363,"811-06041"
1105051,"811-241422"
1105509,"811-04244"
1107794,"811-22110"
1107875,"811-22842"
1107905,"811-05742"
1107143,"811-04438"
1107143,"811-06342"
1107143,"811-04611"
1107143,"811-08266"
1107143,"811-08050"
1107143,"811-06115"
1107143,"811-06024"
1107143,"811-06674"
1111469,"811-07257"
1111469,"811-04279"
1111469,"811-09435"
1111469,"811-23015"
1111467,"811-04676"
1111467,"811-05186"
1111467,"811-07102"
1111467,"811-07257"
1111467,"811-08104"
1111467,"811-07953"
1111467,"811-21335"
1111467,"811-23015"
1111231,"811-10385"
1111231,"811-22153"
1111627,"811-23016"
1114923,"811-07572"
1114923,"811-21137"
1114923,"811-03447"
1114923,"811-07572"
1114923,"811-01944"
1114923,"811-07572"
1117317,"811-00558"
1117317,"811-07589"
1117317,"811-04615"
1117317,"811-08629"
1117317,"811-23222"
1117317,"811-23215"
1117317,"811-23232"
1114563,"811-3578"
1114563,"811-8168"
1123290,"811-22700"
1123290,"811-22918"
1123307,"811-22454"
1123307,"811-22685"
1123307,"811-22527"
1108123,"811-21335"
1108123,"811-01355"
1108123,"811-07986"
1108123,"811-05550"
1108123,"811-01743"
1108123,"811-21308"
1120157,"811-21765"
1120157,"811-21496"
1120157,"811-07572"
1120157,"811-23135"
1107224,"811-21720"
1114938,"811-22452"
1116130,"811-23178"
1116130,"811-23203"
1116130,"811-23247"
1118177,"811-07257"
1118177,"811-04878"
1117881,"811-05426"
1119169,"811-2114"
1119591,"811-05601"
1119591,"811-07257"
1119591,"811-22538"
1119591,"811-05514"
1119606,"811-22538"
1119609,"811-22718"
1119621,"811-22718"
1119523,"811-22954"
1119523,"811-21719"
1119813,"811-22321"
1120938,"811-22525"
1122511,"811-07257"
1122511,"811-04878"
1122511,"811-03153"
1122511,"811-22906"
1122511,"811-22781"
1122511,"811-01716"
1116601,"811-05371"
1122449,"811-03221"
1122449,"811-04008"
1105954,"811-23159"
1106226,"811-23216"
1106254,"811-23205"
1113742,"811-06400"
1112541,"811-03364"
1114247,"811-22172"
1113576,"811-22447"
1119442,"811-23178"
1119442,"811-23203"
1119442,"811-23247"
1105437,"811-07972"
1105437,"811-02806"
1105437,"811-00249"
1105437,"811-00750"
1105437,"811-04413"
1105437,"811-04997"
1105437,"811-08457"
1105437,"811-06324"
1105437,"811-04304"
1105437,"811-02071"
1105437,"811-03363"
1105437,"811-02715"
1105437,"811-03850"
1105437,"811-06322"
1105437,"811-05162"
1105437,"811-21335"
1105437,"811-07742"
1105437,"811-04547"
1105437,"811-03910"
1105437,"811-22050"
1105437,"811-07810"
1105437,"811-07410"
1105437,"811-07420"
1105437,"811-04973"
1105437,"811-04364"
1105437,"811-07460"
1105437,"811-10401"
1105437,"811-08236"
1105437,"811-08228"
1105437,"811-08090"
1105437,"811-07428"
1105437,"811-06318"
1105437,"811-05601"
1105437,"811-03447"
1105437,"811-03153"
1105437,"811-10267"
1105437,"811-03990"
1105437,"811-04989"
1105437,"811-10183"
1105437,"811-08236"
1105437,"811-03153"
1105437,"811-04809"
1105437,"811-08789"
1103806,"811-07959"
1122095,"811-08333"
1122095,"811-22058"
1122095,"811-21979"
1123990,"811-22452"
1110782,"811-07528"
1122976,"811-04777"
1122976,"811-04775"
1122976,"811-02794"
1122976,"811-02594"
1122976,"811-02031"
1122976,"811-06102"
1122976,"811-03090"
1122976,"811-05262"
1122976,"811-02464"
1122976,"811-04492"
1122976,"811-07992"
1122976,"811-21780"
1122976,"811-03327"
1122976,"811-22033"
1122976,"811-04253"
1122976,"811-02032"
1122976,"811-00859"
1122976,"811-00203"
1122976,"811-04096"
1122976,"811-06174"
1122976,"811-08326"
1122976,"811-09537"
1122976,"811-05822"
1122976,"811-05078"
1122976,"811-05754"
1122976,"811-04992"
1122976,"811-05567"
1122976,"811-05440"
1122976,"811-05785"
1122976,"811-04975"
1122976,"811-04841"
1122976,"811-05912"
1122976,"811-07238"
1122976,"811-21991"
1122976,"811-21335"
1122976,"811-10385"
1122976,"811-21732"
1122976,"811-21744"
1122976,"811-07852"
1122976,"811-03738"
1122976,"811-04984"
1122976,"811-04556"
1122976,"811-04419"
1122976,"811-05186"
1122976,"811-07953"
1122976,"811-03364"
1122976,"811-08090"
1122976,"811-04146"
1122976,"811-10183"
1122976,"811-03618"
1122976,"811-05141"
1122976,"811-03990"
1122976,"811-08274"
1122976,"811-02224"
1122976,"811-22127"
1122976,"811-08879"
1122976,"811-03732"
1122976,"811-03833"
1122976,"811-03213"
1122976,"811-08789"
1122976,"811-22838"
1122976,"811-22542"
1122976,"811-03459"
1122976,"811-07725"
1122976,"811-22781"
1122976,"811-23148"
1123410,"811-22617"
1123410,"811-9205"
1125046,"811-22756"
1125102,"811-21589"
1125102,"811-9054"
1125102,"811-7261"
1125102,"811-5012"
1125102,"811-8777"
1124120,"811-04254"
1124120,"811-06740"
1124120,"811-06310"
1124120,"811-06110"
1124120,"811-21864"
1124120,"811-05141"
1124120,"811-10603"
1124120,"811-21337"
1124120,"811-21343"
1124120,"811-21609"
1124120,"811-22265"
1124120,"811-22294"
1124120,"811-22334"
1124120,"811-22444"
1124120,"811-8709"
1124120,"811-04052"
1124120,"811-10385"
1124658,"811-08495"
1124658,"811-22153"
1104489,"811-22466"
1104489,"811-22517"
1104507,"811-22718"
1106030,"811-22208"
1112252,"811-22548"
1112126,"811-03213"
1112126,"811-04556"
1112126,"811-03451"
1112126,"811-05371"
1112126,"811-07257"
1112126,"811-03153"
1112126,"811-07572"
1112126,"811-22920"
1112126,"811-23080"
1113261,"811-22747"
1111804,"811-05010"
1113247,"811-21274"
1113247,"811-04984"
1113623,"811-04087"
1113623,"811-22811"
1113623,"811-8270"
1113701,"811-23019"
1113612,"811-21190"
1113612,"811-22561"
1113612,"811-22027"
1114080,"811-06400"
1112629,"811-07257"
1112629,"811-04878"
1112629,"811-03153"
1112629,"811-22906"
1112629,"811-22781"
1112629,"811-01716"
1114128,"811-07257"
1114128,"811-04878"
1114128,"811-03153"
1114128,"811-22906"
1114128,"811-22781"
1114128,"811-01716"
1113773,"811-23066"
1114165,"811-21720"
1106074,"811-22398"
1115143,"811-05028"
1115143,"811-08399"
1115143,"811-22375"
1119437,"811-08234"
1121073,"811-22172"
1123732,"811-04367"
1123732,"811-22172"
1110307,"811-22641"
1110319,"811-22920"
1110378,"811-22894"
1112959,"811-23019"
1113489,"811-21757"
1113489,"811-04676"
1113489,"811-07572"
1113489,"811-22920"
1114094,"811-03153"
1114094,"811-02968"
1114094,"811-04627"
1114094,"811-21934"
1114094,"811-04676"
1114094,"811-08941"
1114094,"811-22997"
1114324,"811-22395"
1114817,"811-22747"
1116225,"811-22153"
1116456,"811-21719"
1116591,"811-21680"
1116591,"811-07455"
1116591,"811-00945"
1116591,"811-22608"
1116591,"811-04642"
1116591,"811-22906"
1116591,"811-22110"
1116591,"811-07447"
1116591,"811-04708"
1116591,"811-22153"
1116591,"811-22819"
1116591,"811-23078"
1116591,"811-04739"
1116591,"811-05620"
1114659,"811-21552"
1114659,"811-22575"
1114659,"811-21295"
1114659,"811-21295"
1116174,"811-07572"
1116174,"811-21137"
1116174,"811-03447"
1116174,"811-07572"
1116174,"811-01944"
1116174,"811-07572"
1117786,"811-6722"
1117786,"811-21761"
1117786,"811-22678"
1117792,"811-22678"
1098227,"811-22641"
1118094,"811-22641"
1111527,"811-22648"
1117578,"811-06318"
1117578,"811-00242"
1122971,"811-00582"
1123992,"814-01136"
1113970,"811-22172"
1114515,"811-7739"
1114558,"811-06400"
1114528,"811-05010"
1115994,"811-21991"
1115994,"811-04556"
1115994,"811-04338"
1115994,"811-07470"
1115994,"811-22842"
1115994,"811-06400"
1120947,"811-04782"
1120947,"811-07583"
1120947,"811-08928"
1108133,"811-09781"
1122189,"811-08598"
1105130,"811-21422"
1107635,"811-22680"
1107171,"811-01400"
1107171,"811-07205"
1107171,"811-22083"
1107171,"811-00215"
1107171,"811-00649"
1107171,"811-00790"
1107171,"811-01193"
1107171,"811-01352"
1107171,"811-02628"
1107171,"811-02676"
1107171,"811-02737"
1107171,"811-02741"
1107171,"811-02841"
1107171,"811-02861"
1107171,"811-02890"
1107171,"811-03010"
1107171,"811-03114"
1107171,"811-03221"
1107171,"811-03320"
1107171,"811-03329"
1107171,"811-03361"
1107171,"811-03455"
1107171,"811-03466"
1107171,"811-03518"
1107171,"811-03583"
1107171,"811-03587"
1107171,"811-03723"
1107171,"811-03725"
1107171,"811-03737"
1107171,"811-03759"
1107171,"811-03785"
1107171,"811-03855"
1107171,"811-04008"
1107171,"811-04085"
1107171,"811-04118"
1107171,"811-04707"
1107171,"811-04861"
1107171,"811-05361"
1107171,"811-05511"
1107171,"811-06397"
1107171,"811-06398"
1107171,"811-06452"
1107171,"811-06453"
1107171,"811-06454"
1107171,"811-07139"
1107171,"811-07807"
1107171,"811-21667"
1107171,"811-01796"
1107171,"811-02105"
1107171,"811-02460"
1107171,"811-22796"
1107171,"811-05251"
1105179,"811-07343"
1105179,"811-03981"
1105179,"811-05186"
1105179,"811-03623"
1105179,"811-07257"
1105179,"811-04878"
1105179,"811-04419"
1105179,"811-09805"
1105179,"811-06677"
1105179,"811-09101"
1105179,"811-08085"
1105179,"811-08565"
1105179,"811-08915"
1105179,"811-07064"
1105981,"811-8253"
1106048,"811-08572"
1106404,"811-08941"
1106404,"811-05186"
1106404,"811-09521"
1106404,"811-04984"
1104805,"811-06569"
1106534,"811-04041"
1106534,"811-04878"
1106534,"811-06520"
1106534,"811-6490"
1106534,"811-22933"
1106534,"811-22121"
1105780,"811-04708"
1105780,"811-03738"
1105780,"811-08789"
1105780,"811-07725"
1105780,"811-07238"
1105780,"811-21965"
1105780,"811-04556"
1105780,"811-04419"
1105780,"811-08194"
1105780,"811-22920"
1106574,"811-58433"
1121544,"811-22951"
1117539,"811-23084"
1120690,"814-00813"
1120690,"814-01185"
1120641,"811-08002"
1076948,"811-05992"
1076948,"811-08002"
1076948,"811-22920"
1104143,"811-04878"
1104143,"811-07257"
1104143,"811-21777"
1104154,"811-22648"
1105470,"811-22732"
1105853,"811-8894"
1105853,"811-2754"
1105870,"811-08194"
1105766,"814-00755"
1105766,"814-01013"
1105920,"811-22440"
1105920,"811-21720"
1105928,"811-22440"
1105928,"811-21720"
1107167,"811-7445"
1107167,"811-3451"
1107167,"811-5601"
1107167,"811-4878"
1107167,"811-3231"
1107167,"811-3447"
1107167,"811-7257"
1107167,"811-22107"
1107167,"811-22480"
1107167,"811-9025"
1107167,"811-22862"
1107167,"811-23015"
1107654,"811-07470"
1107688,"814-00861"
1107688,"814-00862"
1107694,"811-03790"
1107694,"811-05601"
1107694,"811-03153"
1107694,"811-08236"
1107694,"811-22480"
1107694,"811-10183"
1107694,"811-22838"
1107837,"811-22638"
1107837,"811-22624"
1107876,"811-22819"
1106458,"811-21949"
1106458,"811-00642"
1106458,"811-07507"
1106458,"811-01236"
1106458,"811-05689"
1106458,"811-05655"
1106458,"811-02671"
1106458,"811-03657"
1106458,"811-08382"
1106458,"811-05767"
1106458,"811-05002"
1106458,"811-06103"
1106458,"811-05970"
1106458,"811-06073"
1106458,"811-03196"
1106458,"811-06671"
1106458,"811-06698"
1106458,"811-04670"
1106458,"811-04049"
1106458,"811-06071"
1106458,"811-02527"
1106458,"811-00042"
1106458,"811-03495"
1106458,"811-08606"
1106458,"811-05896"
1106458,"811-03632"
1106458,"811-05385"
1106458,"811-04257"
1106458,"811-00043"
1106458,"811-00043"
1106458,"811-02021"
1106458,"811-06041"
1106458,"811-04632"
1108496,"811-22680"
1114897,"811-07572"
1114897,"811-21137"
1114897,"811-03447"
1114897,"811-07572"
1114897,"811-01944"
1114897,"811-07572"
1113539,"811-22509"
1114983,"811-05028"
1114983,"811-08399"
1114983,"811-22375"
1114347,"811-23066"
1120103,"811-02328"
1117927,"811-05693"
1117927,"811-06190"
1117927,"811-07513"
1117927,"811-05346"
1124385,"811-01879"
1124385,"811-07736"
1124385,"811-03990"
1124385,"811-03015"
1124385,"811-05141"
1124385,"811-07725"
1124385,"811-04419"
1124385,"811-08789"
1124385,"811-03833"
1124385,"811-03459"
1124385,"811-03153"
1124385,"811-22811"
1124385,"811-03738"
1124385,"811-07953"
1124385,"811-21744"
1124385,"811-23148"
1124385,"811-07238"
1105119,"811-22525"
1105143,"811-4255"
1105143,"811-21715"
1101031,"811-21872"
1109244,"811-05629"
1109244,"811-01400"
1109244,"811-07205"
1109244,"811-00215"
1109244,"811-00649"
1109244,"811-00790"
1109244,"811-01193"
1109244,"811-01352"
1109244,"811-02546"
1109244,"811-02676"
1109244,"811-02737"
1109244,"811-02841"
1109244,"811-03010"
1109244,"811-03114"
1109244,"811-03221"
1109244,"811-03329"
1109244,"811-03466"
1109244,"811-03583"
1109244,"811-03587"
1109244,"811-03759"
1109244,"811-03785"
1109244,"811-03855"
1109244,"811-04008"
1109244,"811-04085"
1109244,"811-04118"
1109244,"811-04707"
1109244,"811-05251"
1109244,"811-05361"
1109244,"811-05511"
1109244,"811-21667"
1109244,"811-01796"
1109244,"811-02105"
1109244,"811-22796"
1110567,"811-22894"
1110917,"811-22454"
1110917,"811-22685"
1110917,"811-22527"
1110959,"811-21432"
1110959,"811-07102"
1110959,"811-07572"
1110959,"811-22819"
1112111,"811-09221"
1112111,"811-22110"
1102004,"811-05962"
1102004,"811-01530"
1102004,"811-07852"
1102004,"811-08894"
1114351,"811-08841"
1114351,"811-05983"
1114351,"811-06041"
1115922,"811-23234"
1117925,"811-04178"
1117925,"811-06258"
1117925,"811-00781"
1117925,"811-03630"
1117925,"811-02280"
1117925,"811-05635"
1117925,"811-02742"
1117925,"811-05693"
1117925,"811-07513"
1117925,"811-00058"
1117925,"811-07121"
1117925,"811-01403"
1117925,"811-03386"
1117925,"811-04524"
1117925,"811-03061"
1117925,"811-05989"
1117925,"811-05133"
1117925,"811-02796"
1117925,"811-04616"
1117925,"811-00653"
1117925,"811-06190"
1117925,"811-07237"
1117925,"811-00159"
1117925,"811-05740"
1117925,"811-04518"
1117925,"811-05498"
1117925,"811-04529"
1117925,"811-04527"
1117925,"811-02608"
1117925,"811-06128"
1117925,"811-07626"
1117925,"811-05977"
1117925,"811-03741"
1117925,"811-04528"
1117925,"811-05802"
1117925,"811-05452"
1117925,"811-21598"
1117925,"811-02675"
1117925,"811-04345"
1117925,"811-03897"
1117925,"811-05346"
1117925,"811-22654"
1122083,"811-2541"
1122083,"811-05903"
1122083,"811-03764"
1122083,"811-3969"
1122083,"811-2868"
1122083,"811-2345"
1122083,"811-04755"
1122083,"811-21496"
1122083,"811-21549"
1122083,"811-21586"
1122083,"811-21636"
1122083,"811-21727"
1122083,"811-21842"
1122083,"811-21905"
1122083,"811-22039"
1122083,"811-22442"
1122083,"811-22528"
1122083,"811-21774"
1122083,"811-21944"
1122083,"811-22019"
1122083,"811-22519"
1122083,"811-22452"
1122083,"811-21539"
1122083,"811-22738"
1122083,"811-22652"
1122083,"811-22245"
1122083,"811-22559"
1122083,"811-22717"
1122083,"811-22795"
1122083,"811-22709"
1122083,"811-22767"
1122083,"811-22902"
1122083,"811-23072"
1122083,"811-23199"
1122083,"811-23147"
1122556,"811-22680"
1120813,"811-22338"
1120813,"811-03015"
1108459,"811-23196"
1114016,"811-9869"
1114016,"811-10157"
1114016,"811-1700"
1114016,"811-1608"
1114016,"811-4986"
1114016,"811-2790"
1114016,"811-4356"
1114016,"811-537"
1114016,"811-3395"
1114016,"811-6481"
1114016,"811-3479"
1114016,"811-4787"
1114016,"811-7288"
1114016,"811-6243"
1114016,"811-4149"
1114016,"811-7851"
1114016,"811-4450"
1114016,"811-6336"
1114016,"811-21357"
1114016,"811-8962"
1114016,"811-5583"
1114016,"811-5569"
1114016,"811-4267"
1114016,"811-7866"
1114016,"811-4706"
1114016,"811-5459"
1114016,"811-7038"
1114016,"811-09491"
1114016,"811-07953"
1114016,"811-21744"
1114016,"811-03364"
1114016,"811-5629"
1114016,"811-8894"
1114016,"811-04146"
1114016,"811-08090"
1104901,"811-22743"
1105351,"811-22838"
1105846,"811-23226"
1106458,"811-05983"
1106458,"811-22487"
1108036,"811-01090"
1108036,"811-08764"
1108278,"811-23084"
1108132,"811-22378"
1108166,"811-22718"
1105327,"811-23016"
1110389,"811-21726"
1110501,"811-05443"
1110501,"811-21547"
1110501,"811-21080"
1110501,"811-22047"
1110501,"811-21319"
1110501,"811-21484"
1110501,"811-09237"
1110501,"811-22949"
1110501,"811-67787"
1110615,"811-00215"
1110615,"811-00649"
1110615,"811-00790"
1110615,"811-01193"
1110615,"811-01352"
1110615,"811-01400"
1110615,"811-01796"
1110615,"811-02105"
1110615,"811-02460"
1110615,"811-02628"
1110615,"811-02676"
1110615,"811-02737"
1110615,"811-02741"
1110615,"811-02841"
1110615,"811-02861"
1110615,"811-02890"
1110615,"811-03010"
1110615,"811-03114"
1110615,"811-03221"
1110615,"811-03320"
1110615,"811-03329"
1110615,"811-03361"
1110615,"811-03455"
1110615,"811-03466"
1110615,"811-03518"
1110615,"811-03583"
1110615,"811-03587"
1110615,"811-03723"
1110615,"811-03725"
1110615,"811-03737"
1110615,"811-03759"
1110615,"811-03785"
1110615,"811-03855"
1110615,"811-04008"
1110615,"811-04085"
1110615,"811-04118"
1110615,"811-04707"
1110615,"811-04861"
1110615,"811-05361"
1110615,"811-05511"
1110615,"811-06397"
1110615,"811-06398"
1110615,"811-06452"
1110615,"811-06453"
1110615,"811-06454"
1110615,"811-07139"
1110615,"811-07205"
1110615,"811-07807"
1110615,"811-21667"
1110615,"811-22083"
1110615,"811-22796"
1110615,"811-05251"
1111184,"811-03940"
1111184,"811-09903"
1111184,"811-08495"
1111184,"811-10399"
1111194,"811-23063"
1111194,"811-22245"
1111907,"811-06260"
1110778,"811-3940"
1110778,"811-04556"
1110778,"811-03213"
1110778,"811-06400"
1110778,"811-03651"
1110778,"811-05186"
1110778,"811-04419"
1110778,"811-07674"
1110778,"811-08495"
1110778,"811-08272"
1110778,"811-21991"
1111945,"811-08542"
1111982,"811-3940"
1111982,"811-04556"
1111982,"811-03213"
1111982,"811-06400"
1111982,"811-03651"
1111982,"811-05186"
1111982,"811-04419"
1111982,"811-07674"
1111982,"811-08495"
1111982,"811-08272"
1111982,"811-21991"
1112008,"811-03627"
1112046,"811-22110"
1112044,"811-21589"
1112044,"811-9054"
1112044,"811-7261"
1112044,"811-5012"
1112044,"811-8777"
1112160,"811-05037"
1107951,"811-4982"
1112193,"811-22926"
1112193,"811-22925"
1112273,"811-22743"
1112278,"811-07257"
1112278,"811-04878"
1112316,"811-22718"
1112406,"811-21872"
1112616,"811-06653"
1112616,"811-10401"
1112195,"811-21720"
1112453,"811-21720"
1112453,"811-05083"
1112453,"811-04297"
1113784,"811-2123"
1105145,"811-07572"
1105145,"811-21137"
1105145,"811-03447"
1105145,"811-07572"
1105145,"811-01944"
1105145,"811-07572"
1114000,"811-23019"
1113260,"811-22865"
1112410,"811-8270"
1104629,"811-07257"
1114055,"811-2123"
1114178,"811-22634"
1114178,"811-22792"
1114178,"811-22635"
1114178,"811-22792"
1114441,"811-22298"
1114485,"811-6673"
1114485,"811-4044"
1115089,"811-21940"
1115089,"811-21549"
1115089,"811-22528"
1115089,"811-22738"
1115089,"811-22652"
1115089,"811-22902"
1115089,"811-22559"
1114354,"814-01237"
1115039,"811-21172"
1115039,"811-21779"
1115159,"811-23109"
1115159,"811-23133"
1115159,"811-23134"
1114285,"811-5583"
1114285,"811-7876"
1114285,"811-6378"
1114285,"811-8394"
1114285,"811-6135"
1114285,"811-4985"
1114285,"811-8226"
1114285,"811-6336"
1114285,"811-5914"
1115425,"811-22980"
1116019,"811-06400"
1116019,"811-07239"
1116019,"811-07257"
1116019,"811-04878"
1116019,"811-05601"
1116019,"811-07428"
1116019,"811-21991"
1116019,"811-21732"
1116019,"811-04984"
1116019,"811-07102"
1116019,"811-22838"
1116019,"811-21335"
1116019,"811-22781"
1116019,"811-22920"
1116054,"811-03940"
1115969,"814-01022"
1116141,"811-21719"
1116907,"811-01728"
1116907,"811-03851"
1116907,"811-04993"
1116907,"811-08062"
1116907,"811-00216"
1116833,"811-08194"
1116833,"811-21583"
1116833,"811-21712"
1116833,"811-21846"
1116833,"811-23059"
1117077,"811-22894"
1114392,"811-3313"
1114392,"811-21824"
1102031,"811-07953"
1102031,"811-22959"
1117345,"811-3023"
1117062,"811-21757"
1117062,"811-04676"
1117062,"811-07572"
1117062,"811-22920"
1103662,"811-22540"
1104911,"811-22507"
1115048,"811-03153"
1115048,"811-02968"
1115048,"811-04627"
1115048,"811-21934"
1115048,"811-04676"
1115048,"811-08941"
1115048,"811-22997"
1118214,"811-04010"
1116902,"811-08529"
1118284,"811-21719"
1118284,"811-08542"
1118859,"811-03015"
1118859,"811-03153"
1118859,"811-05371"
1119214,"811-05782"
1119214,"811-4416"
1119214,"811-7850"
1119312,"811-21719"
1119312,"811-05038"
1119312,"811-22613"
1119312,"811-07076"
1119312,"811-07917"
1119312,"811-07257"
1119312,"811-08236"
1119312,"811-22781"
1119312,"811-22811"
1119312,"811-05601"
1119312,"811-22842"
1119294,"811-8918"
1119600,"811-05601"
1119600,"811-07257"
1119600,"811-22538"
1074109,"811-22680"
1105095,"811-22889"
1105953,"814-01080"
1108111,"811-09781"
1108252,"811-05037"
1104817,"811-06400"
1108042,"811-22208"
1108572,"811-07142"
1108723,"811-07572"
1108723,"811-01944"
1108723,"811-22742"
1118653,"814-00646"
1118653,"811-22481"
1118653,"811-22591"
1119912,"811-21113"
1119954,"811-05443"
1119954,"811-21547"
1119954,"811-21080"
1119954,"811-22047"
1119954,"811-21319"
1119954,"811-21484"
1119954,"811-09237"
1119954,"811-22949"
1119954,"811-67787"
1122946,"811-03605"
1122946,"811-22555"
1122946,"811-06698"
1122946,"811-06351"
1122946,"811-08274"
1122946,"811-07507"
1122946,"811-06071"
1122946,"811-02224"
1122946,"811-07852"
1122946,"811-08236"
1106518,"811-22655"
1106131,"811-07443"
1109861,"811-04550"
1109861,"811-03833"
1109861,"811-22321"
1103933,"811-03153"
1103933,"811-02968"
1103933,"811-04627"
1103933,"811-21934"
1103933,"811-04676"
1103933,"811-08941"
1103933,"811-22997"
1105737,"811-3916"
1105737,"811-02968"
1105737,"811-21991"
1116242,"811-22468"
1116242,"811-05141"
1116242,"811-07923"
1116783,"811-22634"
1116783,"811-22792"
1116783,"811-22635"
1116783,"811-22792"
1114016,"811-21732"
1114016,"811-07912"
1114016,"811-04279"
1114016,"811-03738"
1114016,"811-22801"
1114016,"811-06400"
1114016,"811-05186"
1114016,"811-10183"
1114016,"811-22486"
1114016,"811-23214"
1114016,"811-08226"
1105467,"811-07572"
1105467,"811-01944"
1105467,"811-22781"
1105467,"811-5075"
1105467,"811-04603"
1105467,"811-05141"
1105467,"811-10385"
1105467,"811-22880"
1105467,"811-08764"
1105467,"811-3836"
1105467,"811-23029"
1119764,"811-09301"
1119764,"811-08961"
1119764,"811-08520"
1117917,"811-07513"
1119788,"811-03967"
1119788,"811-04325"
1119788,"811-05037"
1119788,"811-07912"
1119857,"811-22406"
1119826,"811-05038"
1121513,"811-8918"
1120859,"811-04279"
1120859,"811-05017"
1120859,"811-06569"
1120859,"811-22525"
1124353,"811-05514"
1123855,"811-22110"
1106995,"811-22842"
1107886,"811-22466"
1107886,"811-22517"
1107832,"811-02546"
1107832,"811-21990"
1107832,"811-05251"
1107832,"811-05511"
1107832,"811-04861"
1107832,"811-02105"
1107832,"811-03364"
1107926,"811-00825"
1104795,"811-22759"
1107454,"811-22912"
1107454,"811-22915"
1109154,"811-21117"
1109154,"811-21195"
1109154,"811-21201"
1109154,"811-22500"
1109154,"811-22859"
1113098,"811-05984"
1113098,"811-05601"
1113098,"811-07455"
1113098,"811-21732"
1113098,"811-07257"
1119033,"811-21720"
1119033,"811-04419"
1119033,"811-07674"
1119033,"811-04556"
1119033,"811-07953"
1119033,"811-5629"
1119033,"811-8319"
1119033,"811-07428"
1119033,"811-07322"
1119033,"811-8894"
1119033,"811-08090"
1119033,"811-8274"
1119033,"811-06431"
1119033,"811-03213"
1119033,"811-05141"
1119033,"811-10385"
1119033,"811-07572"
1119033,"811-05186"
1119033,"811-07725"
1119033,"811-03153"
1119033,"811-07257"
1119033,"811-07238"
1119033,"811-03738"
1119033,"811-08789"
1119033,"811-8764"
1119033,"811-21897"
1119033,"811-22127"
1119033,"811-10183"
1119033,"811-03056"
1119033,"811-22811"
1119033,"811-03364"
1119033,"811-04878"
1119033,"811-21295"
1119033,"811-21991"
1119033,"811-22027"
1119033,"811-3738"
1119033,"811-23148"
1119600,"811-05514"
1119623,"811-23214"
1118352,"811-04719"
1120018,"811-21475"
1119885,"814-01185"
1103295,"811-00994"
1120223,"811-21836"
1120353,"811-06318"
1120367,"811-6569"
1119490,"811-04984"
1119490,"811-08918"
1119490,"811-07257"
1119490,"811-05601"
1119490,"811-00834"
1119490,"811-07763"
1119490,"811-7852"
1119490,"811-03213"
1119490,"811-07428"
1119490,"811-08236"
1119490,"811-08261"
1119490,"811-22613"
1119490,"811-22641"
1119490,"811-03153"
1119490,"811-05186"
1119490,"811-08894"
1119490,"811-06318"
1119490,"811-22811"
1119490,"811-07064"
1119490,"811-0269899"
1119490,"811-06312"
1119490,"811-08071"
1119490,"811-21751"
1119490,"811-21511"
1119490,"811-04815"
1119490,"811-05199"
1119490,"811-06618"
1119490,"811-22781"
1119490,"811-23148"
1118457,"811-22110"
1121219,"811-22543"
1122053,"811-07619"
1122053,"811-21979"
1122053,"811-21407"
1122053,"811-22058"
1122053,"811-21471"
1122053,"811-21293"
1122053,"811-21732"
1122053,"811-07076"
1122053,"811-22820"
1122053,"811-05601"
1122053,"811-08333"
1121901,"814-01237"
1122480,"811-22680"
1121213,"811-21462"
1121213,"811-22106"
1121213,"811-22409"
1121213,"811-22585"
1121213,"811-22525"
1121213,"811-07572"
1121213,"811-22690"
1118471,"811-22172"
1113189,"811-03023"
1113189,"811-22912"
1120705,"811-03940"
1120705,"811-09903"
1120705,"811-08495"
1120705,"811-1879"
1122502,"814-01132"
1122501,"811-03940"
1122501,"811-09903"
1122501,"811-08495"
1122501,"811-1879"
1122275,"811-22655"
1122463,"811-23234"
1122746,"811-22747"
1122959,"811-04415"
1120035,"811-08002"
1120035,"811-08764"
1123285,"811-22732"
1123300,"811-22110"
1123403,"811-22525"
1121879,"811-08764"
1121879,"811-22920"
1121879,"811-08236"
1121687,"811-22525"
1123498,"811-00582"
1123500,"811-10509"
1123500,"811-07572"
1123500,"811-03153"
1122084,"811-04878"
1122084,"811-07257"
1122084,"811-21777"
1123900,"811-3023"
1123961,"811-09571"
1123961,"811-21494"
1123961,"811-21579"
1123961,"811-21471"
1123961,"811-21407"
1123961,"811-22518"
1123961,"811-08333"
1123961,"811-09037"
1123961,"811-21333"
1123961,"811-07572"
1123961,"811-22781"
1123741,"811-7852"
1110242,"811-01879"
1110242,"811-07736"
1110242,"811-03990"
1110242,"811-03015"
1110242,"811-05141"
1110242,"811-07725"
1110242,"811-04419"
1110242,"811-08789"
1110242,"811-03833"
1110242,"811-03459"
1110242,"811-03153"
1110242,"811-22811"
1110242,"811-03738"
1110242,"811-07953"
1110242,"811-21744"
1110242,"811-23148"
1110242,"811-07238"
1107849,"811-10183"
1107849,"811-10385"
1107849,"811-21128"
1107849,"811-21467"
1107849,"811-22405"
1107849,"811-22546"
1107849,"811-22693"
1107849,"811-22805"
1107849,"811-05141"
1107849,"811-05186"
1107849,"811-06444"
1107849,"811-22811"
1107849,"811-01530"
1107849,"811-03015"
1107849,"811-07953"
1107849,"811-22338"
1107849,"811-23107"
1107849,"811-23148"
1107849,"811-8894"
1124475,"811-01879"
1124475,"811-07736"
1124475,"811-03990"
1124475,"811-03015"
1124475,"811-05141"
1124475,"811-07725"
1124475,"811-04419"
1124475,"811-08789"
1124475,"811-03833"
1124475,"811-03459"
1124475,"811-03153"
1124475,"811-22811"
1124475,"811-03738"
1124475,"811-07953"
1124475,"811-21744"
1124475,"811-23148"
1124475,"811-07238"
1123451,"811-07959"
1124387,"811-21422"
1124413,"811-22003"
1124413,"811-1879"
1124413,"811-07257"
1124413,"811-05601"
1124413,"811-7736"
1123085,"811-04236"
1123085,"811-10491"
1123085,"811-21407"
1123085,"811-04878"
1123085,"811-22534"
1123085,"811-5186"
1124779,"811-04236"
1124779,"811-10491"
1124779,"811-21407"
1124779,"811-04878"
1124779,"811-22534"
1124779,"811-5186"
1121440,"811-09221"
1121440,"811-22110"
1124967,"811-04984"
1124967,"811-06400"
1110488,"811-05518"
1110488,"811-07257"
1110488,"811-04878"
1110488,"811-21777"
1110488,"811-08789"
1110488,"811-09903"
1110488,"811-08194"
1110488,"811-08764"
1110488,"811-21991"
1110488,"811-08894"
1110488,"811-00560"
1110488,"811-03153"
1110488,"811-05141"
1110488,"811-05186"
1110488,"811-10385"
1110488,"811-10401"
1110488,"811-22781"
1110488,"811-22811"
1110488,"811-04367"
1110488,"811-23148"
1110488,"811-21779"
1115617,"811-05601"
1109567,"811-06557"
1109567,"811-03153"
1109567,"811-23207"
1109567,"811-07705"
1109570,"811-06557"
1109570,"811-07705"
1125057,"811-23084"
1125094,"811-22626"
1125094,"811-22678"
1124085,"811-04254"
1124085,"811-06740"
1124085,"811-06110"
1124085,"811-22338"
1124085,"811-21864"
1124085,"811-05141"
1124085,"811-10603"
1124085,"811-21477"
1124085,"811-22265"
1124085,"811-22294"
1124085,"811-22444"
1124085,"811-22334"
1124085,"811-06310"
1124085,"811-04052"
1124085,"811-10263"
1124085,"811-10385"
1096669,"814-01180"
1084072,"811-03459"
1104162,"811-05202"
1104162,"814-01064"
1104366,"811-7762"
1104366,"811-9092"
1104366,"811-21991"
1104366,"811-21732"
1104599,"811-3940"
1104599,"811-21829"
1104651,"811-09813"
1104651,"811-10385"
1104651,"811-03153"
1104651,"811-8894"
1104723,"811-22747"
1105763,"811-22732"
1107963,"811-07572"
1108341,"811-22549"
1109427,"811-22153"
1106462,"811-03940"
1106462,"811-05518"
1109606,"811-21872"
1109725,"811-22549"
1109725,"811-21079"
1113719,"811-04710"
1113719,"811-8004"
1115100,"811-21719"
1115246,"811-21940"
1115246,"811-21549"
1115246,"811-22528"
1115246,"811-22738"
1115246,"811-22652"
1115246,"811-22902"
1115246,"811-22559"
1115059,"811-04438"
1115059,"811-06342"
1115059,"811-04611"
1115059,"811-08266"
1115059,"811-08050"
1115059,"811-06115"
1115059,"811-06024"
1115059,"811-06674"
1115213,"811-05514"
1115635,"811-22549"
1115635,"811-21853"
1115530,"811-22895"
1115530,"811-08437"
1112438,"811-05742"
1112438,"811-22061"
1112438,"811-02661"
1112438,"811-03290"
1104620,"811-04419"
1104620,"811-05186"
1104620,"811-06318"
1104620,"811-07572"
1104620,"811-07674"
1104620,"811-07912"
1104620,"811-08090"
1104620,"811-08941"
1104620,"811-10183"
1104620,"811-10509"
1104620,"811-5629"
1104620,"811-8764"
1104620,"811-22613"
1104620,"811-22127"
1104620,"811-21624"
1104620,"811-10263"
1104620,"811-07332"
1104620,"811-06400"
1104620,"811-22865"
1115868,"811-07102"
1115976,"811-07655"
1115976,"811-06400"
1115976,"811-5518"
1116778,"811-21720"
1116908,"811-22972"
1119074,"811-08529"
1120261,"811-9689"
1120261,"811-9253"
1120261,"811-9255"
1120261,"811-21806"
1120261,"811-21269"
1120261,"811-22005"
1120261,"811-21331"
1120261,"811-21507"
1120697,"811-9491"
1120697,"811-21624"
1120839,"814-01157"
1120681,"811-08542"
1122907,"811-7685"
1122907,"811-21732"
1124823,"811-21779"
1124823,"811-07257"
1124823,"811-04878"
1124823,"811-04556"
1124823,"811-05141"
1124823,"811-05186"
1124823,"811-06444"
1124823,"811-07852"
1124823,"811-10385"
1124823,"811-22338"
1124823,"811-04419"
1124823,"811-21128"
1124823,"811-23096"
1124823,"811-07953"
1124988,"811-22003"
1124988,"811-1879"
1124988,"811-07257"
1124988,"811-05601"
1124988,"811-7736"
1122251,"811-00994"
1124851,"811-08789"
1124851,"811-01879"
1124851,"811-07736"
1103461,"811-09253"
1103461,"811-58433"
1103461,"811-22912"
1103461,"811-04984"
1103461,"811-05742"
1106392,"811-10263"
1106392,"811-22559"
1105789,"811-08941"
1105789,"811-05186"
1105789,"811-09521"
1105789,"811-04984"
1106305,"811-03023"
1122221,"811-22894"
1109147,"811-6719"
1123186,"811-22507"
1123650,"811-09521"
1123650,"811-7852"
1123227,"811-05742"
1110191,"811-05684"
1110191,"811-10405"
1110191,"811-21210"
1110191,"811-21901"
1110191,"811-21980"
1110191,"811-22016"
1113717,"811-22998"
1114665,"811-07704"
1114665,"811-08764"
1114665,"811-07572"
1114665,"811-21991"
1114665,"811-07443"
1114665,"811-01027"
1114665,"811-05962"
1114665,"811-05344"
1114665,"811-03153"
1114665,"811-03623"
1114665,"811-03990"
1114665,"811-05186"
1114665,"811-07257"
1114665,"811-22811"
1114665,"811-05371"
1119199,"811-23084"
1120022,"811-03967"
1120022,"811-04325"
1120022,"811-05037"
1120022,"811-07912"
1121859,"811-22549"
1121581,"811-08529"
1121581,"811-08495"
1121581,"811-04984"
1122952,"811-09301"
1122952,"811-08961"
1122952,"811-08520"
1119422,"811-4984"
1124301,"811-08234"
1124004,"811-22454"
1124004,"811-22685"
1124159,"811-10263"
1124159,"811-04254"
1124159,"811-06740"
1124159,"811-06310"
1124159,"811-03618"
1124159,"811-05186"
1124159,"811-07257"
1124159,"811-04878"
1124159,"811-06110"
1124159,"811-21864"
1124159,"811-04146"
1124159,"811-08274"
1124159,"811-09025"
1124159,"811-05141"
1124159,"811-02351"
1124159,"811-10603"
1124159,"811-21337"
1124159,"811-21343"
1124159,"811-21403"
1124159,"811-21467"
1124159,"811-21477"
1124159,"811-21609"
1124159,"811-21779"
1124159,"811-22265"
1124159,"811-22294"
1124159,"811-22334"
1124159,"811-22369"
1124159,"811-22444"
1124159,"811-22734"
1124159,"811-7920"
1124159,"811-8709"
1124159,"811-22338"
1124159,"811-03153"
1124159,"811-03447"
1124159,"811-04052"
1124159,"811-05141"
1124159,"811-05371"
1124159,"811-10263"
1124159,"811-10385"
1106924,"811-23205"
1106923,"811-06730"
1106923,"811-00134"
1106923,"811-09687"
1106923,"811-00126"
1106923,"811-07916"
1106923,"811-10221"
1106923,"811-07707"
1106923,"811-01716"
1106923,"811-00204"
1106923,"811-08426"
1106923,"811-03131"
1106923,"811-06554"
1106923,"811-08188"
1106923,"811-07391"
1106923,"811-02383"
1106923,"811-04791"
1106923,"811-07618"
1106923,"811-08294"
1106923,"811-06068"
1106923,"811-05398"
1106923,"811-05088"
1106923,"811-21673"
1106923,"811-05555"
1106923,"811-21034"
1106923,"811-10573"
1106923,"811-07732"
1106923,"811-22671"
1106923,"811-10575"
1106923,"811-21497"
1106923,"811-08403"
1106923,"811-13797"
1106923,"811-23100"
1106193,"811-02896"
1106193,"811-04661"
1106193,"811-07343"
1106193,"811-09999"
1106193,"811-09805"
1106193,"811-04930"
1106193,"811-09439"
1106193,"811-04024"
1106193,"811-04864"
1106193,"811-06677"
1106193,"811-09101"
1106193,"811-08085"
1106193,"811-08565"
1106193,"811-03712"
1106193,"811-08587"
1106193,"811-07811"
1106193,"811-05206"
1106193,"811-03084"
1106193,"811-02619"
1106193,"811-02992"
1106193,"811-03175"
1106193,"811-05594"
1106193,"811-07215"
1106193,"811-03981"
1106193,"811-08915"
1106193,"811-07064"
1106193,"811-01612"
1106193,"811-03421"
1106193,"811-03422"
1106193,"811-05053"
1106193,"811-03623"
1106193,"811-05186"
1106193,"811-01660"
1106193,"811-22632"
1106193,"811-03336"
1106193,"811-22724"
1106227,"811-58433"
1107088,"811-22245"
1107088,"811-22452"
1107088,"811-22795"
1107088,"811-22652"
1107088,"811-22559"
1107343,"811-21056"
1107343,"811-02810"
1107343,"811-02537"
1107343,"811-02599"
1107343,"811-02560"
1107343,"811-03965"
1107343,"811-02302"
1107343,"811-01777"
1107343,"811-03044"
1107343,"811-02551"
1107343,"811-04158"
1108023,"811-08495"
1108023,"811-03213"
1108180,"811-22743"
1108180,"811-22641"
1108655,"811-04556"
1108655,"811-21991"
1108655,"811-08274"
1108655,"811-08764"
1108655,"811-09521"
1108655,"811-07674"
1108655,"811-04419"
1108682,"814-01025"
1105266,"811-21715"
1105266,"811-58433"
1105266,"811-04255"
1105266,"811-04984"
1105266,"811-07572"
1108790,"811-03153"
1108790,"811-08236"
1116630,"811-00558"
1116630,"811-07589"
1116630,"811-04615"
1116630,"811-08629"
1116630,"811-23222"
1116630,"811-23215"
1116630,"811-23232"
1117723,"811-07572"
1117723,"811-08542"
1117723,"811-04323"
1117723,"811-00242"
1117723,"811-22811"
1117723,"811-07953"
1117723,"811-08918"
1117723,"811-22525"
1117968,"811-7723"
1118055,"811-07870"
1118055,"811-09945"
1117686,"811-21913"
1117413,"811-03738"
1117413,"811-03364"
1117413,"811-10263"
1117413,"811-10183"
1117413,"811-08495"
1117413,"811-03459"
1117413,"811-07572"
1117413,"811-05186"
1117413,"811-03623"
1117413,"811-07238"
1117413,"811-04603"
1117413,"811-05407"
1117413,"811-05349"
1117413,"811-08361"
1117413,"811-22781"
1117413,"811-08894"
1117413,"811-05075"
1117413,"811-07725"
1117413,"811-03015"
1117413,"811-03153"
1117413,"811-08090"
1117413,"811-07953"
1117413,"811-22865"
1117413,"811-09477"
1117413,"811-10267"
1117413,"814-00998"
1117413,"811-23013"
1117413,"814-01234"
1117413,"814-01215"
1117413,"811-04878"
1117413,"811-22979"
1117413,"811-22856"
1120399,"811-21475"
1120441,"811-04984"
1120441,"811-08918"
1120441,"811-07257"
1120441,"811-05601"
1120441,"811-00834"
1120441,"811-07763"
1120441,"811-7852"
1120441,"811-03213"
1120441,"811-07428"
1120441,"811-08236"
1120441,"811-08261"
1120441,"811-22613"
1120441,"811-22641"
1120441,"811-03153"
1120441,"811-05186"
1120441,"811-08894"
1120441,"811-06318"
1120441,"811-22811"
1120441,"811-07064"
1120441,"811-0269899"
1120441,"811-06312"
1120441,"811-08071"
1120441,"811-21751"
1120441,"811-21511"
1120441,"811-04815"
1120441,"811-05199"
1120441,"811-06618"
1120441,"811-22781"
1120441,"811-23148"
1120467,"814-01237"
1123471,"811-8228"
1123471,"811-8228"
1123471,"811-21720"
1122776,"811-03599"
1122776,"811-07537"
1122776,"811-04875"
1122776,"811-08030"
1122776,"811-22532"
1105926,"811-22933"
1105936,"811-22488"
1105936,"811-22686"
1105936,"811-22393"
1105936,"814-00757"
1105936,"814-00926"
1105936,"814-01047"
1105936,"814-01151"
1105936,"811-22542"
1106606,"811-07257"
1106606,"811-04878"
1106606,"811-03153"
1106606,"811-22906"
1106606,"811-22781"
1106606,"811-01716"
1106750,"811-21422"
1106817,"811-21589"
1106817,"811-9054"
1106817,"811-7261"
1106817,"811-5012"
1106817,"811-8777"
1111853,"811-21719"
1110652,"811-22438"
1110652,"811-08817"
1110652,"811-08895"
1110652,"811-21786"
1110652,"811-22144"
1110652,"811-22051"
1110652,"811-05629"
1110652,"811-07428"
1110652,"811-08319"
1110652,"811-05410"
1110652,"811-21938"
1110652,"811-10223"
1110652,"811-22025"
1110652,"811-06352"
1110652,"811-08934"
1110652,"811-02514"
1110652,"811-07651"
1110652,"811-08220"
1110652,"811-05773"
1110652,"811-02361"
1110652,"811-02565"
1110652,"811-22004"
1110652,"811-21553"
1113465,"811-04782"
1113465,"811-07583"
1113465,"811-08928"
1115494,"811-10385"
1115494,"811-22153"
1115511,"811-8194"
1077918,"811-21872"
1119014,"811-3023"
1119773,"811-22172"
1118356,"811-22710"
1119921,"811-22027"
1121258,"811-03790"
1121389,"811-7959"
1121930,"811-03833"
1123676,"811-22680"
1104617,"811-09607"
1105435,"811-6275"
1105435,"811-7059"
1105435,"811-4525"
1105435,"811-21454"
1105435,"811-08203"
1105435,"811-7055"
1105435,"811-4400"
1105435,"811-07143"
1105435,"811-07749"
1105435,"811-07153"
1105435,"811-22557"
1105435,"811-22218"
1105435,"811-09995"
1105435,"811-3566"
1105435,"811-579"
1105435,"811-07381"
1105435,"811-4119"
1105435,"811-5986"
1105435,"811-21919"
1105435,"811-21185"
1105435,"811-07639"
1105435,"811-21055"
1105435,"811-2958"
1105435,"811-10063"
1105435,"811-07075"
1105435,"811-6665"
1105435,"811-07605"
1105435,"811-4358"
1105435,"811-1710"
1105435,"811-958"
1105435,"811-2396"
1105435,"811-07173"
1105435,"811-2603"
1105435,"811-22410"
1105435,"811-08371"
1105435,"811-08279"
1105435,"811-21149"
1105435,"811-5299"
1105435,"811-3894"
1105435,"811-696"
1105435,"811-2215"
1105435,"811-4998"
1105435,"811-4521"
1105435,"811-22243"
1105435,"811-7093"
1105435,"811-7095"
1105435,"811-08207"
1105435,"811-3055"
1105435,"811-4163"
1105435,"811-2684"
1105435,"811-3872"
1105435,"811-10093"
1105435,"811-22293"
1105435,"811-5860"
1105435,"811-07209"
1105435,"811-07353"
1105435,"811-4441"
1105435,"811-4519"
1105435,"811-22620"
1105435,"811-22810"
1105435,"811-07225"
1105435,"811-22939"
1105435,"811-22968"
1105435,"811-5833"
1105435,"811-07145"
1105435,"811-23180"
1104843,"811-8894"
1104843,"811-2754"
1105463,"811-08922"
1105463,"811-05084"
1107622,"811-04526"
1107622,"811-22743"
1113862,"811-21720"
1115889,"811-03153"
1115889,"811-08236"
1116616,"811-04767"
1116642,"811-04767"
1114738,"811-22743"
1116657,"811-23002"
1118340,"811-21720"
1124615,"811-8056"
1125131,"811-05038"
1125131,"811-06260"
1125131,"811-08257"
1125131,"811-04041"
1125131,"811-22127"
1106134,"811-00825"
1106351,"811-10263"
1106351,"811-22559"
1106747,"811-06400"
1107996,"811-6719"
1115831,"811-22487"
1108469,"811-22708"
1108469,"811-21991"
1111335,"811-21113"
1120803,"811-23019"
1122130,"811-23109"
1122130,"811-23133"
1122130,"811-23134"
1122860,"811-22525"
1119659,"811-08194"
1119659,"811-21583"
1119659,"811-21712"
1119659,"811-21846"
1119659,"811-23059"
1106249,"814-00794"
1106249,"814-01128"
1106396,"811-10263"
1106396,"811-22559"
1106399,"811-10263"
1106399,"811-22559"
1104902,"811-9094"
1108477,"811-21720"
1069252,"811-22894"
1112419,"811-03967"
1112419,"811-04325"
1112419,"811-05037"
1112419,"811-07912"
1110558,"811-00582"
1110558,"811-8234"
1111796,"811-22563"
1112495,"811-08894"
1112495,"811-10041"
1112495,"811-22730"
1112495,"811-22613"
1112558,"811-21719"
1112568,"811-22172"
1112523,"811-21991"
1112523,"811-06563"
1112523,"811-21719"
1112523,"811-22482"
1112523,"811-21652"
1112523,"811-22877"
1112523,"811-22842"
1112523,"811-22811"
1112523,"811-08918"
1112523,"811-03940"
1112067,"811-06400"
1112158,"811-23207"
1112777,"811-22517"
1112836,"811-22655"
1112836,"811-21872"
1114634,"811-22127"
1114634,"811-08004"
1114634,"811-05518"
1114634,"811-08764"
1111015,"811-04236"
1111015,"811-10491"
1111015,"811-21407"
1111015,"811-04878"
1111015,"811-22534"
1111015,"811-5186"
1112789,"811-21079"
1112789,"811-21895"
1112789,"811-22251"
1112789,"811-21666"
1115956,"811-07142"
1119538,"811-3023"
1119605,"811-22538"
1117479,"811-23084"
1121527,"811-21853"
1121541,"811-07043"
1121541,"811-04681"
1121541,"811-21478"
1121541,"811-04474"
1121541,"811-04098"
1121541,"811-04627"
1121541,"811-01530"
1121541,"811-05445"
1121541,"811-02368"
1121541,"811-07239"
1121541,"811-02652"
1121541,"811-06093"
1121541,"811-05972"
1121541,"811-05628"
1121541,"811-09005"
1121541,"811-02554"
1121541,"811-22114"
1121541,"811-01685"
1121541,"811-02687"
1121541,"811-05340"
1121541,"811-04570"
1121541,"811-06083"
1121541,"811-04571"
1121541,"811-04526"
1121541,"811-07803"
1121541,"811-03916"
1121541,"811-03919"
1121541,"811-07175"
1121541,"811-02968"
1121541,"811-05962"
1121541,"811-58431"
1121541,"811-01776"
1121541,"811-00121"
1121541,"811-07443"
1121541,"811-00834"
1121541,"811-01027"
1121541,"811-22619"
1120602,"811-22708"
1124723,"811-10303"
1113030,"811-58433"
1113030,"811-22882"
1120221,"811-04708"
1120221,"811-03738"
1120221,"811-08789"
1120221,"811-07725"
1120221,"811-07238"
1120221,"811-21965"
1120221,"811-04556"
1120221,"811-04419"
1120221,"811-08194"
1120221,"811-22920"
1109573,"811-06557"
1109573,"811-07705"
1106427,"811-03752"
1106427,"811-08918"
1106427,"811-21482"
1106129,"811-7959"
1113046,"811-06431"
1113046,"811-09521"
1113046,"811-08894"
1114694,"811-23084"
1114712,"811-08542"
1113688,"811-07168"
1113688,"811-21237"
1115030,"811-04603"
1115030,"811-21622"
1115161,"811-22110"
1107954,"811-10157"
1107954,"811-05583"
1107954,"811-08034"
1107954,"811-04986"
1107954,"811-8894"
1107954,"811-8090"
1107954,"811-06243"
1107954,"811-23124"
1118761,"811-23128"
1119359,"811-10183"
1119359,"811-05186"
1119359,"811-22127"
1119359,"811-4603"
1119359,"811-21991"
1119359,"811-09491"
1119359,"811-7238"
1119359,"811-04279"
1119359,"811-2993"
1119359,"811-3990"
1123143,"811-21726"
1123318,"811-21335"
1123318,"811-01355"
1123318,"811-07986"
1123318,"811-05550"
1123318,"811-01743"
1123318,"811-21308"
1124082,"811-21962"
1117858,"811-04984"
1117858,"811-06400"
1115231,"811-06557"
1115231,"811-07923"
1115231,"811-08918"
1115231,"811-07705"
1120132,"811-8352"
1118147,"811-04015"
1118147,"811-02258"
1118147,"811-21676"
1118147,"811-21735"
1118147,"811-21745"
1118147,"811-05038"
1118147,"811-05514"
1118147,"811-04878"
1118147,"811-09025"
1118147,"811-06400"
1118147,"811-10263"
1118147,"811-07257"
1118147,"811-05186"
1118147,"811-08918"
1118147,"811-21732"
1118147,"811-22375"
1118147,"811-23015"
1118147,"811-22781"
1118147,"811-22427"
1118147,"811-22380"
1125091,"811-22678"
1125093,"811-21527"
1125093,"811-21528"
1125093,"811-21730"
1125093,"811-22367"
1125093,"811-22940"
1125093,"811-22941"
1125093,"811-22942"
1121145,"811-10263"
1121145,"811-21779"
1121145,"811-03618"
1121145,"811-04254"
1121145,"811-07257"
1121145,"811-05186"
1121145,"811-06310"
1121145,"811-06740"
1121145,"811-10407"
1121145,"811-04052"
1121145,"811-21864"
1121145,"811-06318"
1121145,"811-04146"
1121145,"811-08274"
1121145,"811-09025"
1121145,"811-05141"
1121145,"811-04878"
1121145,"811-06110"
1121145,"811-02351"
1121145,"811-10603"
1121145,"811-21337"
1121145,"811-21343"
1121145,"811-21403"
1121145,"811-21467"
1121145,"811-21477"
1121145,"811-21609"
1121145,"811-22265"
1121145,"811-22294"
1121145,"811-22369"
1121145,"811-22444"
1121145,"811-22734"
1121145,"811-6506"
1121145,"811-6629"
1121145,"811-7362"
1121145,"811-7920"
1121145,"811-8709"
1121145,"811-8985"
1121145,"811-22334"
1121145,"811-06444"
1121145,"811-22338"
1121145,"811-5497"
1121145,"811-03153"
1121145,"811-03447"
1121145,"811-04419"
1121145,"811-06506"
1121145,"811-10385"
1121145,"811-21128"
1124259,"811-22628"
1124259,"811-06444"
1124259,"811-22836"
1124259,"811-21128"
1122902,"811-05514"
1107394,"811-22576"
1110172,"811-22842"
1119782,"811-05992"
1119782,"811-08002"
1124074,"811-22338"
1102798,"811-8659"
1104261,"811-22466"
1104261,"811-22517"
1085214,"811-22436"
1085213,"811-22436"
1105182,"811-4255"
1105182,"811-21715"
1104633,"811-21949"
1104633,"811-00642"
1104633,"811-07507"
1104633,"811-01236"
1104633,"811-05689"
1104633,"811-05655"
1104633,"811-02671"
1104633,"811-03657"
1104633,"811-08382"
1104633,"811-05767"
1104633,"811-05002"
1104633,"811-06103"
1104633,"811-05970"
1104633,"811-06073"
1104633,"811-03196"
1104633,"811-06671"
1104633,"811-06698"
1104633,"811-04670"
1104633,"811-04049"
1104633,"811-06071"
1104633,"811-02527"
1104633,"811-00042"
1104633,"811-03495"
1104633,"811-08606"
1104633,"811-05896"
1104633,"811-03632"
1104633,"811-05385"
1104633,"811-04257"
1104633,"811-00043"
1104633,"811-00043"
1104633,"811-02021"
1104633,"811-06041"
1104633,"811-04632"
1104633,"811-05983"
1104633,"811-22487"
1105256,"811-23024"
1104870,"811-22634"
1104870,"811-22792"
1104870,"811-22635"
1104870,"811-22792"
1105290,"811-21719"
1105572,"811-07257"
1106155,"811-09813"
1106155,"811-10385"
1106155,"811-03153"
1106155,"811-8894"
1105155,"811-08918"
1105155,"811-03006"
1106295,"811-21720"
1109326,"811-10401"
1108617,"811-09253"
1108617,"811-07953"
1108617,"811-07238"
1108617,"811-04878"
1108617,"811-07257"
1108617,"811-03213"
1108617,"811-22127"
1108617,"811-07763"
1108617,"811-21779"
1108617,"811-04146"
1108617,"811-09255"
1108617,"811-21507"
1108617,"811-09689"
1108617,"811-22005"
1108617,"811-03738"
1108617,"811-08789"
1108617,"811-22811"
1108617,"811-10183"
1108617,"811-03990"
1108617,"811-09491"
1108617,"811-07763"
1108617,"811-05199"
1108617,"811-22648"
1108617,"811-23148"
1108617,"811-03447"
1108617,"811-08941"
1108625,"811-09253"
1110626,"811-07102"
1110626,"811-8234"
1109054,"811-08234"
1096912,"811-04537"
1096912,"811-22655"
1096912,"811-01355"
1096912,"811-01743"
1096912,"811-05550"
1112632,"811-06653"
1112632,"811-10401"
1112703,"811-22634"
1112703,"811-22792"
1112703,"811-22635"
1112703,"811-22792"
1113512,"811-08918"
1114858,"811-05624"
1114858,"811-07607"
1114858,"811-06044"
1114858,"811-06515"
1114858,"811-03692"
1114858,"811-03980"
1113824,"811-04708"
1113824,"811-03738"
1113824,"811-08789"
1113824,"811-07725"
1113824,"811-07238"
1113824,"811-21965"
1113824,"811-04556"
1113824,"811-04419"
1113824,"811-08194"
1113824,"811-22920"
1119905,"811-22933"
1123612,"811-05685"
1123657,"814-01237"
1114584,"811-21496"
1094872,"811-22447"
1110605,"811-21726"
1113805,"811-04777"
1113805,"811-04775"
1113805,"811-02794"
1113805,"811-02594"
1113805,"811-02031"
1113805,"811-06102"
1113805,"811-03090"
1113805,"811-05262"
1113805,"811-02464"
1113805,"811-04492"
1113805,"811-07992"
1113805,"811-21780"
1113805,"811-03327"
1113805,"811-22033"
1113805,"811-04253"
1113805,"811-02032"
1113805,"811-00859"
1113805,"811-00203"
1113805,"811-04096"
1113805,"811-06174"
1113805,"811-08326"
1113805,"811-09537"
1113805,"811-05822"
1113805,"811-05078"
1113805,"811-05754"
1113805,"811-04992"
1113805,"811-05567"
1113805,"811-05440"
1113805,"811-05785"
1113805,"811-04975"
1113805,"811-04841"
1113805,"811-05912"
1113805,"811-07238"
1113805,"811-21991"
1113805,"811-21335"
1113805,"811-10385"
1113805,"811-21732"
1113805,"811-21744"
1113805,"811-07852"
1113805,"811-03738"
1113805,"811-04984"
1113805,"811-04556"
1113805,"811-04419"
1113805,"811-05186"
1113805,"811-07953"
1113805,"811-03364"
1113805,"811-08090"
1113805,"811-04146"
1113805,"811-10183"
1113805,"811-03618"
1113805,"811-05141"
1113805,"811-03990"
1113805,"811-08274"
1113805,"811-02224"
1113805,"811-22127"
1113805,"811-08879"
1113805,"811-03732"
1113805,"811-03833"
1113805,"811-03213"
1113805,"811-08789"
1113805,"811-22838"
1113805,"811-22542"
1113805,"811-03459"
1113805,"811-07725"
1113805,"811-22781"
1113805,"811-23148"
1116296,"811-22842"
1116939,"811-23178"
1116939,"811-23203"
1116939,"811-23247"
1113900,"811-22154"
1113900,"811-21852"
1113900,"811-22127"
1113900,"811-22328"
1113900,"811-04367"
1113900,"811-05199"
1113900,"811-08481"
1113900,"811-07238"
1113900,"811-03738"
1113900,"811-08572"
1113900,"811-08319"
1113900,"811-22736"
1113900,"811-00266"
1113900,"811-09645"
1113900,"811-00002"
1113900,"811-21732"
1113900,"811-05186"
1113900,"811-22255"
1113900,"811-06318"
1113063,"811-7239"
1113063,"811-8234"
1113063,"811-22838"
1113063,"811-4676"
1117485,"811-06279"
1117485,"811-07704"
1117485,"811-02224"
1117485,"811-07763"
1117485,"811-10183"
1117485,"811-00242"
1117485,"811-04323"
1117485,"811-06400"
1117485,"811-03153"
1117485,"811-08274"
1117485,"811-8894"
1118166,"814-01237"
1120089,"811-3074"
1120175,"811-22110"
1120214,"811-22572"
1120286,"811-08685"
1120286,"811-22552"
1121699,"811-22525"
1122315,"811-22641"
1122317,"811-22641"
1120559,"811-21475"
1125177,"811-04041"
1125177,"811-04878"
1125177,"811-06520"
1125177,"811-6490"
1125177,"811-22933"
1125177,"811-22121"
