"FilingID","Reference ID","Other Business Name","AL","AK","AZ","AR","CA","CO","CT","DE","DC","FL","GA","GU","HI","ID","IL","IN","IA","KS","KY","LA","ME","MD","MA","MI","MN","MS","MO","MT","NE","NV","NH","NJ","NM","NY","NC","ND","OH","OK","OR","PA","PR","RI","SC","SD","TN","TX","UT","VT","VI","VA","WA","WV","WI","WY","Other"
1206192,2605,"LOCAM GESTIONI","","","","","","","","","","","","","","","","","","","","","","","","","","","","","","","","","","","","","","","","","","","","","","","","","","","","","","","ITALY"
1206192,2605,"THE LOCAM GROUP","","","","","","","","","","","","","","","","","","","","","","","","","","","","","","","","","","","","","","","","","","","","","","","","","","","","","","","ITALY"
1206192,2605,"LOCAM CREDIT SOLUTIONS","","","","","","","","","","","","","","","","","","","","","","","","","","","","","","","","","","","","","","","","","","","","","","","","","","","","","","","ITALY"
1209909,1932,"ENHANCED EQUITY FUNDS","","","","","","","","","","","","","","","","","","","","","","","","","","","","","","","","","","Y","","","","","","","","","","","","","","","","","","","","",""
1209909,1934,"ENHANCED EQUITY FUNDS","","","","","","","","","","","","","","","","","","","","","","","","","","","","","","","","","","Y","","","","","","","","","","","","","","","","","","","","",""
1209909,1935,"ENHANCED EQUITY FUNDS","","","","","","","","","","","","","","","","","","","","","","","","","","","","","","","","","","Y","","","","","","","","","","","","","","","","","","","","",""
1209909,1937,"ENHANCED HEALTHCARE PARTNERS","","","","","","","","","","","","","","","","","","","","","","","","","","","","","","","","","","Y","","","","","","","","","","","","","","","","","","","","",""
1212630,3176,"LUBERT-ADLER MANAGEMENT, L.P.","","","","","","","","Y","","","Y","","","","","","","","","","","","","","","","","","","","","","","","","","","","","Y","","","","","","","","","","","","","","",""
1212630,3177,"LEGAY RESORT ASSETS, LLC","","","","","","","","Y","","","Y","","","","","","","","","","","","","","","","","","","","","","","","","","","","","Y","","","","","","","","","","","","","","",""
1212630,3179,"L-A ASSET MANAGEMENT, LLC","","","","","","","","Y","","","Y","","","","","","","","","","","","","","","","","","","","","","","","","","","","","Y","","","","","","","","","","","","","","",""
1212630,3180,"L-A FINANCIAL MANAGEMENT, L.P.","","","","","","","","Y","","","Y","","","","","","","","","","","","","","","","","","","","","","","","","","","","","Y","","","","","","","","","","","","","","",""
1212630,3184,"LUBERT-ALDER REAL ESTATE MANAGEMENT COMPANY, L.P.","","","","","","","","Y","","","Y","","","","","","","","","","","","","","","","","","","","","","","","","","","","","Y","","","","","","","","","","","","","","",""
1212630,3191,"L-A URBAN FINANCIAL MANAGEMENT, L.P.","","","","","","","","Y","","","Y","","","","","","","","","","","","","","","","","","","","","","","","","","","","","Y","","","","","","","","","","","","","","",""
1212811,3176,"LUBERT-ADLER MANAGEMENT, L.P.","","","","","","","","Y","","","Y","","","","","","","","","","","","","","","","","","","","","","","","","","","","","Y","","","","","","","","","","","","","","",""
1212811,3177,"LEGAY RESORT ASSETS, LLC","","","","","","","","Y","","","Y","","","","","","","","","","","","","","","","","","","","","","","","","","","","","Y","","","","","","","","","","","","","","",""
1212811,3179,"L-A ASSET MANAGEMENT, LLC","","","","","","","","Y","","","Y","","","","","","","","","","","","","","","","","","","","","","","","","","","","","Y","","","","","","","","","","","","","","",""
1212811,3180,"L-A FINANCIAL MANAGEMENT, L.P.","","","","","","","","Y","","","Y","","","","","","","","","","","","","","","","","","","","","","","","","","","","","Y","","","","","","","","","","","","","","",""
1212811,3184,"LUBERT-ALDER REAL ESTATE MANAGEMENT COMPANY, L.P.","","","","","","","","Y","","","Y","","","","","","","","","","","","","","","","","","","","","","","","","","","","","Y","","","","","","","","","","","","","","",""
1212811,3191,"L-A URBAN FINANCIAL MANAGEMENT, L.P.","","","","","","","","Y","","","Y","","","","","","","","","","","","","","","","","","","","","","","","","","","","","Y","","","","","","","","","","","","","","",""
1214385,2894,"TUDOR CAPITAL EUROPE LLP","","","","","","","","","","","","","","","","","","","","","","","","","","","","","","","","","","","","","","","","","","","","","","","","","","","","","","","UNITED KINGDOM"
1214385,2896,"TUDOR CAPITAL AUSTRALIA PTY LTD.","","","","","","","","","","","","","","","","","","","","","","","","","","","","","","","","","","","","","","","","","","","","","","","","","","","","","","","AUSTRALIA"
1214535,1406,"LBC CHICAGO MANAGEMENT, LLC","","","","","Y","","","Y","","","","","","","Y","","","","","","","","","","","","","","","","","","","","","","","","","Y","","","","","","","","","","","","","","",""
1214535,1407,"LBC CREDIT PARTNERS, INC.","","","","","","","","","","","","","","","","","","","","","","","","","","","","","","","","","","Y","","","","","","Y","","","","","","","","","","","","","","",""
1215129,2894,"TUDOR CAPITAL EUROPE LLP","","","","","","","","","","","","","","","","","","","","","","","","","","","","","","","","","","","","","","","","","","","","","","","","","","","","","","","UNITED KINGDOM"
1215129,2896,"TUDOR CAPITAL AUSTRALIA PTY LTD.","","","","","","","","","","","","","","","","","","","","","","","","","","","","","","","","","","","","","","","","","","","","","","","","","","","","","","","AUSTRALIA"
1215583,1478,"OAKTREE CAPITAL (HONG KONG) LIMITED, AUSTRALIA BRANCH","","","","","","","","","","","","","","","","","","","","","","","","","","","","","","","","","","","","","","","","","","","","","","","","","","","","","","","SYDNEY, AUSTRALIA"
1216769,4684,"LLR II SUBMANGER, LLC","","","","","","","","","","","","","","","","","","","","","","","","","","","","","","","","","","","","","","","","Y","","","","","","","","","","","","","","",""
1220005,1532,"HUDSON ADVISORS L.P. DBA HUDSON ADVISORS NEW YORK L.P.","","","","","","","","","","","","","","","","","","","","","","","","","","","","","","","","","","Y","","","","","","","","","","","","","","","","","","","","",""
1220040,2205,"LONE STAR GLOBAL ACQUISITIONS, LTD. AKA LONE STAR","Y","Y","Y","Y","Y","Y","Y","Y","Y","Y","Y","Y","Y","Y","Y","Y","Y","Y","Y","Y","Y","Y","Y","Y","Y","Y","Y","Y","Y","Y","Y","Y","Y","Y","Y","Y","Y","Y","Y","Y","Y","Y","Y","Y","Y","Y","Y","Y","Y","Y","Y","Y","Y","Y",""
1220040,2205,"LONE STAR GLOBAL ACQUISITIONS, LTD. AKA LONE STAR FUNDS","Y","Y","Y","Y","Y","Y","Y","Y","Y","Y","Y","Y","Y","Y","Y","Y","Y","Y","Y","Y","Y","Y","Y","Y","Y","Y","Y","Y","Y","Y","Y","Y","Y","Y","Y","Y","Y","Y","Y","Y","Y","Y","Y","Y","Y","Y","Y","Y","Y","Y","Y","Y","Y","Y",""
1220040,2206,"LONE STAR LATIN AMERICA ACQUISITIONS, LLC AKA LONE STAR","","","","","","","","","","Y","","","","","","","","","","","","","","","","","","","","","","","","","","","","","","","","","","","","","","","","","","","","",""
1220040,2206,"LONE STAR LATIN AMERICA ACQUISITIONS, LLC AKA LONE STAR FUNDS","","","","","","","","","","Y","","","","","","","","","","","","","","","","","","","","","","","","","","","","","","","","","","","","","","","","","","","","",""
1220040,2207,"LONE STAR NORTH AMERICA ACQUISITIONS, LLC AKA LONE STAR","","","","","","","","","","","","","","","","","","","","","","","","","","","","","","","","","","Y","","","","","","","","","","","","","","","","","","","","",""
1220040,2207,"LONE STAR NORTH AMERICA ACQUISITIONS, LLC AKA LONE STAR FUNDS","","","","","","","","","","","","","","","","","","","","","","","","","","","","","","","","","","Y","","","","","","","","","","","","","","","","","","","","",""
1220519,5361,"POLARIS PARTNERS","","","","","Y","","","","","","","","","","","","","","","","","","","","","","","","","","","","","","","","","","","","","","","","","","","","","","","","","",""
1222385,5375,"THE REPRESENTATIVE OFFICE OF LOMBARD INVESTMENTS (HK) LIMITED IN HO CHI MINH CITY","","","","","","","","","","","","","","","","","","","","","","","","","","","","","","","","","","","","","","","","","","","","","","","","","","","","","","","VIETNAM"
1223030,2205,"LONE STAR GLOBAL ACQUISITIONS, LTD. AKA LONE STAR","Y","Y","Y","Y","Y","Y","Y","Y","Y","Y","Y","Y","Y","Y","Y","Y","Y","Y","Y","Y","Y","Y","Y","Y","Y","Y","Y","Y","Y","Y","Y","Y","Y","Y","Y","Y","Y","Y","Y","Y","Y","Y","Y","Y","Y","Y","Y","Y","Y","Y","Y","Y","Y","Y",""
1223030,2205,"LONE STAR GLOBAL ACQUISITIONS, LTD. AKA LONE STAR FUNDS","Y","Y","Y","Y","Y","Y","Y","Y","Y","Y","Y","Y","Y","Y","Y","Y","Y","Y","Y","Y","Y","Y","Y","Y","Y","Y","Y","Y","Y","Y","Y","Y","Y","Y","Y","Y","Y","Y","Y","Y","Y","Y","Y","Y","Y","Y","Y","Y","Y","Y","Y","Y","Y","Y",""
1223030,2206,"LONE STAR LATIN AMERICA ACQUISITIONS, LLC AKA LONE STAR","","","","","","","","","","Y","","","","","","","","","","","","","","","","","","","","","","","","","","","","","","","","","","","","","","","","","","","","",""
1223030,2206,"LONE STAR LATIN AMERICA ACQUISITIONS, LLC AKA LONE STAR FUNDS","","","","","","","","","","Y","","","","","","","","","","","","","","","","","","","","","","","","","","","","","","","","","","","","","","","","","","","","",""
1223030,2207,"LONE STAR NORTH AMERICA ACQUISITIONS, LLC AKA LONE STAR","","","","","","","","","","","","","","","","","","","","","","","","","","","","","","","","","","Y","","","","","","","","","","","","","","","","","","","","",""
1223030,2207,"LONE STAR NORTH AMERICA ACQUISITIONS, LLC AKA LONE STAR FUNDS","","","","","","","","","","","","","","","","","","","","","","","","","","","","","","","","","","Y","","","","","","","","","","","","","","","","","","","","",""
1223292,3792,"COURT SQUARE ADVISORS, LLC","","","","","","","","","","","","","","","","","","","","","","","Y","","","","","","","","","","","Y","","","","","","","","","","","","","","","","","","","","",""
1223292,3794,"COURT SQUARE CAPITAL MANAGER III, L.P.","","","","","","","","","","","","","","","","","","","","","","","Y","","","","","","","","","","","Y","","","","","","","","","","","","","","","","","","","","",""
1223292,4289,"COURT SQUARE ADVISORS, LLC","","","","","","","","","","","","","","","","","","","","","","","Y","","","","","","","","","","","Y","","","","","","","","","","","","","","","","","","","","",""
1223292,4290,"COURT SQUARE ADVISORS, LLC","","","","","","","","","","","","","","","","","","","","","","","Y","","","","","","","","","","","Y","","","","","","","","","","","","","","","","","","","","",""
1223417,2082,"THE COURY FIRM","","","","","Y","","","","","","","","","","","","","","","","","","","","","","","","","","","","","","","","","","","Y","","","","","","","","","","","","","","",""
1225346,2610,"APPLESEED CAPITAL","","","","","","","","Y","","","","","","","Y","","","","","","","Y","","","","","","","","","","","","Y","","","Y","","","","","","","","","","","","","","","","","",""
