"FilingID","ReferenceID","Name of Adviser","SEC File Number","CRD Number"
1134882,192746,"SKIPJACK CAPITAL","",289334
1125851,120684,"DEUTSCHE ALTERNATIVE ASSET MANAGEMENT (GLOBAL) LIMITED","801-66274",139526
1127250,19413,"SARASIN FUNDS MANAGEMENT (IRELAND) LIMITED","",
1127250,19420,"SARASIN FUNDS MANAGEMENT (IRELAND) LIMITED","",
1127250,19428,"SARASIN FUNDS MANAGEMENT (IRELAND) LIMITED","",
1134066,184830,"PIVOTAL BIOVENTURE PARTNERS MANAGEMENT LTD","",
1126001,38275,"PINEBRIDGE INVESTMENTS IRELAND LIMITED","",
1126001,171888,"PINEBRIDGE INVESTMENTS IRELAND LIMITED","",
1126001,171887,"PINEBRIDGE INVESTMENTS IRELAND LIMITED","",
1126001,38396,"PINEBRIDGE INVESTMENTS IRELAND LIMITED","",
1126006,38275,"PINEBRIDGE INVESTMENTS IRELAND LIMITED","",
1126006,171888,"PINEBRIDGE INVESTMENTS IRELAND LIMITED","",
1126006,171887,"PINEBRIDGE INVESTMENTS IRELAND LIMITED","",
1126006,38396,"PINEBRIDGE INVESTMENTS IRELAND LIMITED","",
1133802,192746,"SKIPJACK CAPITAL","",289334
1114921,192962,"FJ LABS MANAGEMENT, LLC","",283062
1114921,190619,"FJ LABS MANAGEMENT, LLC","",283062
1114921,190614,"FJ LABS MANAGEMENT, LLC","",283062
1114921,190618,"FJ LABS MANAGEMENT, LLC","",283062
1114921,190620,"FJ LABS MANAGEMENT, LLC","",283062
1114921,190615,"FJ LABS MANAGEMENT, LLC","",283062
1114921,192961,"FJ LABS MANAGEMENT, LLC","",283062
1114921,190617,"FJ LABS MANAGEMENT, LLC","",283062
1114921,190621,"FJ LABS MANAGEMENT, LLC","",283062
1114921,192963,"FJ LABS MANAGEMENT, LLC","",283062
1114921,192964,"FJ LABS MANAGEMENT, LLC","",283062
1125646,61512,"PINEBRIDGE INVESTMENTS IRELAND LIMITED","",
1125646,13317,"PINEBRIDGE ASIA PARTNERS II, LIMITED","",
1139768,58109,"RAIM LIMITED","",
1131600,37234,"SURNIA INVESTMENT MANAGEMENT, LTD","",
1128974,38275,"PINEBRIDGE INVESTMENTS IRELAND LIMITED","",
1128974,171888,"PINEBRIDGE INVESTMENTS IRELAND LIMITED","",
1128974,171887,"PINEBRIDGE INVESTMENTS IRELAND LIMITED","",
1128974,38396,"PINEBRIDGE INVESTMENTS IRELAND LIMITED","",
1128449,191712,"CAPRICORN CAPITAL PARTNERS UK LIMITED","",
1128449,171371,"DMS OMS","802-106788",173927
1128449,171153,"DMS OMS","802-106788",173927
1128449,171315,"KESTREL PARTNERS OR KESTREL INVESTMENT PARTNERS","801-99337",226573
1128449,171337,"DMS OMS","802-106788",173927
1128449,171323,"DMS OMS","802-106788",173927
1128449,171339,"DMS OMS","802-106788",173927
1128449,191713,"CAPRICORN CAPITAL PARTNERS UK LIMITED","",
1122443,61262,"WORTH VENTURE PARTNERS, LLC","",
1135653,179194,"ADVANTAGE PARTNERS (H.K.) LIMITED","",
1094468,190147,"B&P ASSET MANAGEMENT (BERMUDA) LTD.","",
1140342,193335,"PARALOS ASSET MANAGEMENT","802-110165",287872
1140342,184104,"PARALOS ASSET MANAGEMENT","802-110165",287872
1140342,184091,"PARALOS ASSET MANAGEMENT","802-110165",287872
1140342,193336,"PARALOS ASSET MANAGEMENT","802-110165",287872
1140342,193235,"PARALOS ASSET MANAGEMENT","802-110165",287872
1140342,193338,"PARALOS ASSET MANAGEMENT","802-110165",287872
1130068,166251,"THE OBSERVATORY US INC.","",
1122179,191492,"MACOMA CAPITAL GROUP, LLC","802-77034",164961
1122179,191488,"MACOMA CAPITAL GROUP, LLC","802-77034",164961
1122179,191493,"MACOMA CAPITAL GROUP, LLC","802-77034",164961
1128620,57944,"JEFFERIES INVESTMENT ADVISERS, LLC","",
1126759,57745,"CREADOR MANAGEMENT COMPANY I LTD","",
1126759,77731,"CREADOR MANAGEMENT COMPANY II LTD","",
1126759,57744,"CREADOR MANAGEMENT COMPANY II LTD","",
1126759,57742,"CREADOR MANAGEMENT COMPANY I LTD","",
1126759,164164,"CREADOR MANAGEMENT III LTD","",
1140083,193240,"ANDEAN SOCIAL INFRASTRUCTURE GP LIMITED","",
1129482,27821,"JABRE CAPITAL PARTNERS LP","",
1129482,27753,"JABRE CAPITAL PARTNERS LP","",
1129482,27846,"JABRE CAPITAL PARTNERS LP","",
1129482,27831,"JABRE CAPITAL PARTNERS LP","",
1139755,57976,"RAIM LIMITED","",
