"FilingID","Primary Business","Business Name"
1140148,"ANGEL NETWORK",""
1144309,"ABERDEEN GLOBAL SERVICES SA (AGS) PRIMARY BUSINESS IS COLLECTIVE PORTFOLIO MANAGEMENT OF UCITS FUNDS AND AIF: THIS INCLUDES UCITS MARKETING AND DISTRIBUTION AND TRANSFER AGENCY SERVICES.",""
1148889,"GBP PROVIDES CAPACITY-BUILDING SUPPORT TO SMALL OR MEDIUM-SIZED ENTERPRISES WITH A SPECIFIC SOCIAL MISSION, TO ENGAGE, EMPLOY, AND/OR BENEFIT LOW INCOME PEOPLE.",""
1158493,"EVO DEVELOPMENT GROUP, LLC SPECIALIZES IN OWNING, DEVELOPING, OPERATING COMMERCIAL REAL ESTATE AND MULTIFAMILY HOUSING",""
1150580,"VANGUARD GROUP (IRELAND) LIMITED ACTS AS MANAGER OF IRISH-DOMICILED MUTUAL FUNDS.",""
1156502,"RESEARCH SERVICES.",""
1150845,"CERES PARTNERS, LLC IS THE MANAGER OF CERES FARMS, LLC, A POOLED INVESTMENT VEHICLE THAT INVESTS DIRECTLY IN U.S. CROPLAND AND DOES NOT INVEST IN SECURITIES.",""
1146660,"MANAGER OF IRELAND COLLECTIVE INVESTMENT SCHEMES (SPONSOR OF POOLED INVESTMENT VEHICLES)",""
1153191,"AVANT, INC. OPERATES AN ONLINE CONSUMER LENDING PLATFORM.","AVANT OPERATES AS AVANTCREDIT IN THE U.K."
1158435,"PRIVATE PLACEMENT VENTURE CAPITAL","ALUMNI VENTURES GROUP"
1152611,"REAL ESTATE LENDING; FINANCE AND INVESTMENTS; AND THE SALE (UNDER EXEMPTION) OF LOANS SECURED BY DEEDS OF TRUST",""
1143804,"INVESTOR",""
