"FilingID","Primary Business","Business Name"
1250915,"INVESTMENT MANAGEMENT I.E HEDGE FUND","MACROWATERS ASIA FUND MANAGEMENT LIMITED (HONG KONG)"
1251180,"EQUITY RESEARCH, CORPORATE FINANCE MERGERS AND ACQUISITION SERVICES",""
1258122,"DIVORCE ATTORNEY",""
1252019,"NO OTHER BUSINESS BESIDES THE INVESTMENT ADVISORY BUSINESS.",""
1255500,"RESEARCH SERVICES.",""
1243816,"FINANCIAL SERVICES",""
1244463,"RESEARCH CONSULTANT FOR UNIVERSITY OF NORTH FLORIDA RENEWABLE ENERGY PROJECT","FOURTH PARTY AFFILIATES,  LLC"
1249903,"ASSET MANAGEMENT AND LOAN SERVICING.",""
1256667,"AVANT, INC. OPERATES AN ONLINE CONSUMER LENDING PLATFORM.","AVANT OPERATES AS AVANTCREDIT IN THE U.K."
1242943,"MANAGING CAPITAL ACCOUNTS COMPOSED OF PRIVATE FUNDS AND FUNDS RAISED THROUGH PUBLIC PRIVATE PARTNERSHIPS AND FEDERAL AND STATE TAX CREDIT PROGRAMS, THAT MAKE EQUITY AND DEBT INVESTMENTS AND CREATE QUALITY JOBS IN UNDERSERVED MARKETS","AFFILIATES OPERATING UNDER NAMES CDVCA AND CDVCA SUB-CDE. A COMPLETE LIST IS AVAILABLE UPON REQUEST."
1255485,"OPPORTUNITY FINANCE NETWORK (""OFN"") IS A LEADING NATIONAL NETWORK OF COMMUNITY DEVELOPMENT FINANCIAL INSTITUTIONS (""CDFIS"").OFN SUPPORTS ITS MEMBER CDFIS & CDFI INDUSTRY WITH CAPITAL & ADVOCACY ACTIVITIES TO DRIVE CHANGE IN UNDERSERVED COMMUNITIES",""
1243402,"RESEARCH CONSULTANT FOR UNIVERSITY OF NORTH FLORIDA RENEWABLE ENERGY PROJECT","FOURTH PARTY AFFILIATES,  LLC"
1252823,"MASECO ASSET MANAGEMENT LIMITED IS GENERAL PARTNER AND INVESTMENT MANAGER OF THE MASECO ALTERNATIVE CREDIT FUND LP AND INVESTMENT ADVISER TO THE MASECO ALTERNATIVE CREDIT FUND SPC",""
1249890,"AIFML IS THE GLOBAL DISTRIBUTOR FOR ABERDEEN'S LUXEMBOURG DOMICILED UCITS FUNDS AND IS RESPONSIBLE FOR THE APPOINTMENT OF SUB-DISTRIBUTORS IN COUNTRIES AROUND THE WORLD FOR THE FUNDS' DISTRIBUTION.",""
1253524,"NO OTHER BUSINESS BESIDES THE INVESTMENT ADVISORY BUSINESS.",""
1247153,"FUND MANAGEMENT",""
1244408,"RESEARCH CONSULTANT FOR UNIVERSITY OF NORTH FLORIDA RENEWABLE ENERGY PROJECT","FOURTH PARTY AFFILIATES,  LLC"
1252668,"DOCK SQUARE PROVIDES MERCHANT BANKING SERVICES",""
1238045,"FUND MANAGEMENT",""
1222642,"NO OTHER BUSINESS BESIDES THE INVESTMENT ADVISORY BUSINESS.",""
1253598,"DOCK SQUARE PROVIDES MERCHANT BANKING SERVICES",""
1253739,"OPPORTUNITY FINANCE NETWORK (""OFN"") IS A LEADING NATIONAL NETWORK OF COMMUNITY DEVELOPMENT FINANCIAL INSTITUTIONS (""CDFIS"").OFN SUPPORTS ITS MEMBER CDFIS & CDFI INDUSTRY WITH CAPITAL & ADVOCACY ACTIVITIES TO DRIVE CHANGE IN UNDERSERVED COMMUNITIES",""
