"FilingID","Primary Business","Business Name"
1134353,"AIFML IS THE GLOBAL DISTRIBUTOR FOR ABERDEEN'S LUXEMBOURG DOMICILED UCITS FUNDS AND IS RESPONSIBLE FOR THE APPOINTMENT OF SUB-DISTRIBUTORS IN COUNTRIES AROUND THE WORLD FOR THE FUNDS' DISTRIBUTION.",""
1134411,"ABERDEEN GLOBAL SERVICES SA (AGS) PRIMARY BUSINESS IS COLLECTIVE PORTFOLIO MANAGEMENT OF UCITS FUNDS AND AIF: THIS INCLUDES UCITS MARKETING AND DISTRIBUTION AND TRANSFER AGENCY SERVICES.",""
1126454,"LENDING",""
1129736,"AIFML IS THE GLOBAL DISTRIBUTOR FOR ABERDEEN'S LUXEMBOURG DOMICILED UCITS FUNDS AND IS RESPONSIBLE FOR THE APPOINTMENT OF SUB-DISTRIBUTORS IN COUNTRIES AROUND THE WORLD FOR THE FUNDS' DISTRIBUTION.",""
1138421,"GLOBAL FINANCIAL ADVISORY INCLUDE M&A AND STRATEGIC ADVISORY AND FINANCING ADVISORY (INCLUDING RESTRUCTURING) TO GOVERNMENTS, CORPORATIONS, INSTITUTIONS AND INDIVIDUALS.",""
1134246,"HONEYCOMB DEVELOPMENT, LLC SERVES AS THE GENERAL PARTNER OF HONEYCOMB ECONOMIC DEVELOPMENT FUND, L.P., WHICH ENGAGES PRIMARILY IN REAL ESTATE INVESTING.",""
1135368,"PROVISION OF OFFICE SPACE AND HANDS-ON SUPPORT AND SERVICES TO PORTFOLIO COMPANIES OF COLLECTIVE INVESTMENT VEHICLES ADVISED BY THE ADVISER.",""
1129489,"WE ARE AN INVESTMENT MANAGEMENT COMPANY FOR ULTRA HIGH NET WORTH INDIVIDUALS AND SMALL INSTITUTIONS (FOR NON-US CLIENTS).",""
1117499,"THE ENGINE ACCELERATOR, INC. MANAGES THE ENGINE ACCELERATOR PROGRAM WHICH PROVIDES ACCESS TO SPACE, SPECIALIZED RESOURCES & EXPERTISE TO ENABLE START-UP & EARLY STAGE DEVELOPMENT COMPANIES TO GROW AND CONTRIBUTE TO THE GREATER CAMBRIDGE & BOSTON ECONOMY.",""
1126159,"PROVIDING ANALYTICAL CONSULTING SERVICES, INCLUDING TRANSACTIONAL, CASH FLOW, VALUATION, AND MARKET DEVELOPMENTS.",""
1129732,"AIFML IS THE GLOBAL DISTRIBUTOR FOR ABERDEEN'S LUXEMBOURG DOMICILED UCITS FUNDS AND IS RESPONSIBLE FOR THE APPOINTMENT OF SUB-DISTRIBUTORS IN COUNTRIES AROUND THE WORLD FOR THE FUNDS' DISTRIBUTION.",""
1139303,"OUR PRIMARY BUSINESS IS TO PROVIDE A COST-EFFECTIVE SOLUTION THAT ALLOWS EMERGING FUND MANAGERS TO CREATE AND LAUNCH A FUND WITH THEIR OWN INITIAL SEED CAPITAL. WE ACT AS THE ADMINISTRATIVE MANAGER FOR A DELAWARE SEPARATE SERIES LLC.",""
