"FilingID","Application Number","Date of Order"
6207,"803-124","01/06/1998"
8662,"803-112","01/06/1998"
9797,"803-108","07/08/1997"
851909,"803-124","01/06/1998"
11868,"803-108","07/08/1997"
7740,"803-110","07/08/1997"
10920,"803-106","07/08/1997"
11341,"803-112","01/06/1998"
13204,"803-124","01/06/1998"
15349,"803-140","02/17/2000"
16849,"803-124","01/06/1998"
21044,"803-108","07/08/1997"
21760,"803-110","07/08/1997"
24770,"803-80158259","01/22/2001"
28037,"803-106","07/08/1997"
29870,"803-124","01/06/1998"
30197,"803-108","07/08/1997"
35264,"803-124","01/06/1998"
40188,"803-116","01/08/1998"
30328,"803-112","01/06/1998"
42158,"803-110","07/08/1997"
42541,"803-119369","03/19/2002"
42553,"803-60975","03/19/2002"
44658,"803-106","07/08/1997"
44729,"803-106","07/08/1997"
44742,"803-112","01/06/1998"
46287,"803-108","07/08/1997"
48680,"803-108","07/08/1997"
49301,"803-116","01/08/1998"
51607,"803-60975","03/19/2002"
51666,"803-124","01/06/1998"
52677,"803-124","01/06/1998"
55404,"803-116","01/08/1998"
62952,"803-124","01/06/1998"
65397,"803-108","07/08/1997"
59054,"803-106","07/08/1997"
70846,"803-203A-2F","01/20/2003"
71066,"803-203A-2(F)","01/20/2003"
70394,"803-""203A-2(F)""","01/20/2003"
73514,"803-203A-2(F)","01/20/2003"
73788,"803-108","07/08/1997"
74283,"803-124","01/06/1998"
77051,"803-116","01/08/1998"
77577,"803-112","01/06/1998"
80520,"803-203A-2(F)","01/20/2003"
78898,"803-203A-2(F)","01/20/2003"
74714,"803-RULE 203A-2(F)","01/20/2003"
74891,"803-203A-2(F)","01/20/2003"
74725,"803-PER 203A-2(F)","01/20/2003"
82539,"803-203A-2(F)","12/12/2002"
84180,"803-124","01/06/1998"
83632,"803-203A-2(F)","01/20/2003"
85225,"803-203A-2(F)","01/20/2003"
85246,"803-203A-2(F)","01/20/2003"
85957,"803-PER 203A-2(F)","01/20/2003"
87203,"803-203A-2(F)","01/20/2003"
88755,"803-203A-2(F)","12/12/2002"
89157,"803-801-45233","07/17/1997"
89291,"803-203A-2(F)","01/20/2003"
90665,"803-203A-2(F)","12/12/2002"
91203,"803-203A-2(F)","01/20/2003"
94521,"803-SECTION 203A-2(F)","01/20/2003"
97067,"803-108","07/08/1997"
98731,"803-801-62056","05/16/2003"
102860,"803-203A-2(F)","01/20/2003"
104010,"803-106","07/08/1997"
105551,"803-112","01/06/1998"
114820,"803-203A-2(F)","01/20/2003"
115767,"803-124","01/06/1998"
115738,"803-112","01/06/1998"
123724,"803-124","01/06/1998"
126631,"803-108","07/08/1997"
127061,"803-112","01/06/1998"
132556,"803-106","07/08/1997"
132573,"803-106","07/08/1997"
132883,"803-112","01/06/1998"
125619,"803-175","03/09/2004"
134041,"803-112","01/06/1998"
139433,"803-108","07/08/1997"
156597,"803-112","01/06/1998"
169537,"803-124","01/06/1998"
165066,"803-112","01/06/1998"
174865,"803-124","01/06/1998"
176507,"803-112","01/06/1998"
177486,"803-106","07/08/1997"
177498,"803-106","07/08/1997"
184010,"803-112","01/06/1998"
187083,"803-112","01/06/1998"
186883,"803-108","07/08/1997"
191905,"803-175","03/09/2004"
192765,"803-106","07/08/1997"
192770,"803-106","07/08/1997"
192790,"803-106","07/08/1997"
195560,"803-108","07/08/1997"
209733,"803-124","01/06/1998"
216408,"803-175","03/09/2004"
220033,"803-175","03/09/2004"
226857,"803-112","01/06/1998"
238057,"803-112","01/06/1998"
243264,"803-112","01/06/1998"
247975,"803-108","07/08/1997"
251195,"803-112","01/06/1998"
251277,"803-124","01/06/1998"
251799,"803-124","01/06/1998"
251810,"803-124","01/06/1998"
270839,"803-112","01/06/1998"
275686,"803-124","01/06/1998"
280928,"803-112","01/06/1998"
284704,"803-112","01/06/1998"
298866,"803-124","01/06/1998"
306130,"803-112","01/06/1998"
305522,"803-108","07/08/1997"
307789,"803-112","01/06/1998"
339722,"803-124","01/06/1998"
345616,"803-112","01/06/1998"
347982,"803-124","01/06/1998"
352858,"803-108","07/08/1997"
357642,"803-124","01/06/1998"
367395,"803-124","01/06/1998"
369157,"803-108","07/08/1997"
376751,"803-112","01/06/1998"
406207,"803-124","01/06/1998"
406804,"803-124","01/06/1998"
405353,"803-112","01/06/1998"
431327,"803-108","07/08/1997"
431427,"803-112","01/06/1998"
437058,"803-112","01/06/1998"
448989,"803-112","01/06/1998"
458661,"803-803- 124","01/06/1998"
469203,"803-112","01/06/1998"
486448,"803-803- 124","01/06/1998"
487875,"803-112","01/06/1998"
494971,"803-108","07/08/1997"
495890,"803-112","01/06/1998"
499226,"803-112","01/06/1998"
510600,"803-112","01/06/1998"
513777,"803-112","01/06/1998"
523048,"803-- 124","01/06/1998"
538748,"803-112","01/06/1998"
562732,"803-112","01/06/1998"
582899,"803-108","07/08/1997"
607397,"803-124","01/06/1998"
624848,"803-112","01/06/1998"
642482,"803-108","07/08/1997"
651240,"803-112","01/06/1998"
672241,"803-108","07/08/1997"
673954,"803-124","01/06/1998"
701127,"803-112","01/06/1998"
719031,"803-124","01/06/1998"
752275,"803-108","07/08/1997"
758661,"803-112","01/06/1998"
772366,"803-78702","10/25/2013"
788837,"803-124","01/06/1998"
806416,"803-112","01/06/1998"
813004,"803-112","01/06/1998"
813090,"803-112","01/06/1998"
815972,"803-112","01/06/1998"
815299,"803-124","01/06/1998"
846080,"803-108","07/08/1997"
840634,"803-124","01/06/1998"
