"FilingID","Other Name","BD","RR","Pool","FCM","Real Estate","Insurance","Bank","Trust","Municipal","Swap Dealer","Swap Participant","Accountant","Lawyer","Other","Other Description"
1043396,"ARETE WEALTH MANAGEMENT, LLC","Y","N","N","N","N","N","N","N","N","N","N","N","N","N",""
1043396,"ARETE INSURANCE AGENCY, LLC","N","N","N","N","N","Y","N","N","N","N","N","N","N","N",""
1043396,"ARETE CONSULTING, LLC","N","N","N","N","N","N","N","N","N","N","N","N","N","Y","CONSULTING AND INVESTOR RELATIONS"
1044210,"ROCKWAY WEALTH PARTNERS","N","Y","N","N","N","N","N","N","N","N","N","N","N","N",""
1044210,"FIVE TALENTS FINANCIAL MANAGEMETN GROUP","N","Y","N","N","N","N","N","N","N","N","N","N","N","N",""
1044210,"DESLA WEALTH MANAGEMENT","N","Y","N","N","N","N","N","N","N","N","N","N","N","N",""
1045644,"HORTER FINANCIAL STRATEGIES","N","N","N","N","N","Y","N","N","N","N","N","N","N","N",""
1048546,"PATTON & ASSOCIATES, LLC","N","N","N","N","N","N","N","N","N","N","N","Y","N","N",""
1054908,"MAXIE E. WRENN, JR.","N","N","N","N","N","Y","N","N","N","N","N","N","N","N",""
1051633,"AMERICAN BENEFITS PLANNING GROUP INC.","N","N","N","N","N","Y","N","N","N","N","N","N","N","N",""
1051633,"FREEDOM DIVORCE ADVISORS","N","N","N","N","N","N","N","N","N","N","N","N","N","Y","FINANCIAL PLANNING"
1043734,"NONE","Y","N","N","N","N","N","N","N","N","N","N","N","N","N",""
1050007,"CALDWELL, TAYLOR AND BROWN, LTD.","N","N","N","N","N","N","N","N","N","N","N","Y","N","N",""
1052885,"NONE","Y","N","N","N","N","N","N","N","N","N","N","N","N","N",""
1044177,"CHAPIN DAVIS INSURANCE INC","N","N","N","N","N","Y","N","N","N","N","N","N","N","N",""
1044280,"HORTER FINANCIAL STRATEGIES","N","N","N","N","N","Y","N","N","N","N","N","N","N","N",""
1053908,"WILMINGTON CAPITAL SECURITIES, LLC","Y","N","N","N","N","N","N","N","N","N","N","N","N","N",""
1049427,"DAVENPORT TRUST COMPANY","N","N","N","N","N","N","N","Y","N","N","N","N","N","N",""
1049427,"DAVENPORT FINANCIAL ADVISORS","N","N","N","N","N","N","N","N","N","N","N","N","N","Y","CORPORATE FINANCE"
1058139,"PURSHE KAPLAN SMITH","N","Y","N","N","N","N","N","N","N","N","N","N","N","N",""
1058641,"RELIANCE INSURANCE AGENCY, LLC","N","N","N","N","N","Y","N","N","N","N","N","N","N","N",""
1045860,"HORTER FINANCIAL STRATEGIES","N","N","N","N","N","Y","N","N","N","N","N","N","N","N",""
1049036,"HORTER FINANCIAL STRATEGIES","N","N","N","N","N","Y","N","N","N","N","N","N","N","N",""
1043821,"CAPITAL INVESTMENT GROUP, INC.","N","Y","N","N","N","N","N","N","N","N","N","N","N","N",""
1049612,"INDIVIDUALS IN THEIR SEPARATE CAPACITY","N","Y","N","N","N","Y","N","N","N","N","N","N","N","N",""
1049221,"ADVISORY GROUP EQUITY SERVICES LTD","Y","N","N","N","N","N","N","N","N","N","N","N","N","N",""
1049221,"ESTATE INSURANCE SERVICES LTD","N","N","N","N","N","Y","N","N","N","N","N","N","N","N",""
1056844,"FIRST CLEARING","Y","N","N","N","N","N","N","N","N","N","N","N","N","Y","CLEARING SERVICES"
1050140,"FIRST CLEARING","Y","N","N","N","N","N","N","N","N","N","N","N","N","Y","CLEARING SERVICES"
1050370,"HORTER FINANCIAL STRATEGIES","N","N","N","N","N","Y","N","N","N","N","N","N","N","N",""
1048060,"ELLIOTT COVE INSURANCE AGENCY","N","N","N","N","N","Y","N","N","N","N","N","N","N","N",""
1053305,"PIPER JAFFRAY & CO.","N","Y","N","N","N","N","N","N","N","N","N","N","N","N",""
1050720,"LPL FINANCIAL","N","Y","N","N","N","N","N","N","N","N","N","N","N","N",""
1054604,"B.I. FINANCIAL AND INSURANCE SERVICES, LLC","N","N","N","N","N","Y","N","N","N","N","N","N","N","N",""
1054604,"BI FINANCIAL SERVICES","N","N","N","N","N","Y","N","N","N","N","N","N","N","N",""
1054604,"BROKERS INTERNATIONAL FINANCIAL AND INSURANCE SERVICES","N","N","N","N","N","Y","N","N","N","N","N","N","N","N",""
1054862,"KLOPFENSTEIN FINANCIAL GROUP, LLC","N","N","N","N","N","Y","N","N","N","N","N","N","N","N",""
1045875,"SANTANDER INVESTMENT SERVICES","Y","N","N","N","N","Y","N","N","N","N","N","N","N","N",""
1051848,"ROCKWAY WEALTH PARTNERS","N","Y","N","N","N","N","N","N","N","N","N","N","N","N",""
1051848,"FIVE TALENTS FINANCIAL MANAGEMETN GROUP","N","Y","N","N","N","N","N","N","N","N","N","N","N","N",""
1051848,"DESLA WEALTH MANAGEMENT","N","Y","N","N","N","N","N","N","N","N","N","N","N","N",""
1051998,"K2 ADVISORS, LLC -- RELYING ADVISER","N","N","Y","N","N","N","N","N","N","N","N","N","N","N",""
1055378,"NONE","Y","N","N","N","N","N","N","N","N","N","N","N","N","N",""
1050877,"CAPITAL MANAGEMENT SECURITIES, INC. - BROKER DEALER","N","Y","N","N","N","Y","N","N","N","N","N","N","N","N",""
1053895,"SPC INSURANCE, LLC","N","N","N","N","N","Y","N","N","N","N","N","N","N","N",""
1053895,"SELLA & MARTINIC, LLC","N","N","N","N","N","N","N","N","N","N","N","Y","N","N",""
1051721,"COMPREHENSIVE ASSET MANAGEMENT AND SERVICING, INC.","N","Y","N","N","N","N","N","N","N","N","N","N","N","N",""
1057882,"FIRST CLEARING","Y","N","N","N","N","N","N","N","N","N","N","N","N","Y","CLEARING SERVICES"
1057882,"WELLS FARGO ADVISORS","Y","N","N","N","N","N","N","N","N","N","N","N","N","Y","INSURANCE PRODUCT SALES"
1054728,"FOUNDERS FINANCIAL INSURANCE NETWORK","N","N","N","N","N","Y","N","N","N","N","N","N","N","N",""
1054728,"BISHOP ASSOCIATES","N","N","N","N","N","N","N","N","N","N","N","Y","N","N",""
1054728,"WISE SOLUTIONS MANAGEMENT","N","N","N","N","N","N","N","N","N","N","N","Y","N","N",""
1054728,"CHREST CPA TAX AND FINANCIAL PC","N","N","N","N","N","N","N","N","N","N","N","Y","N","N",""
1054728,"RAGER, LEHMAN, & HOUCK PC, CPAS & BUSINESS ADVISORS","N","N","N","N","N","N","N","N","N","N","N","Y","N","N",""
1054728,"ESTABROOK AND COMPANY, PC","N","N","N","N","N","N","N","N","N","N","N","Y","N","N",""
1054728,"STEVEN KATZ, CPA LLC","N","N","N","N","N","N","N","N","N","N","N","Y","N","N",""
1054728,"CINDY EVERLY, CPA","N","N","N","N","N","N","N","N","N","N","N","Y","N","N",""
1054728,"COX HOLLIDA & PROFESSIONALS PLLC","N","N","N","N","N","N","N","N","N","N","N","Y","N","N",""
1054728,"ROY, NOYE & ASSOCIATES CPA PC","N","N","N","N","N","N","N","N","N","N","N","Y","N","N",""
1054728,"REA & SHOEMAKER, P.C.","N","N","N","N","N","N","N","N","N","N","N","Y","N","N",""
1054728,"ALLENDER CPA","N","N","N","N","N","N","N","N","N","N","N","Y","N","N",""
1054728,"FOUNDERS FINANCIAL INS. AGENCY","N","N","N","N","N","Y","N","N","N","N","N","N","N","N",""
1053081,"JDL SECURITIES CORPORATION","Y","N","N","N","N","N","N","N","N","N","N","N","N","N",""
1046861,"NONE","Y","N","N","N","N","N","N","N","N","N","N","N","N","N",""
1044914,"MIRACLE MILE INSURANCE SERVICES LLC","N","N","N","N","N","Y","N","N","N","N","N","N","N","N",""
1056251,"HORTER FINANCIAL STRATEGIES","N","N","N","N","N","Y","N","N","N","N","N","N","N","N",""
1057712,"COMMUNITYAMERICA TRUST SERVICES","N","N","N","N","N","N","N","Y","N","N","N","N","N","N",""
1046215,"PYRAMID SAN JUAN ISLANDS PLLC","N","N","N","N","N","N","N","N","N","N","N","Y","N","N",""
1046215,"EMPIRICAL INSURANCE, LLC","N","N","N","N","N","Y","N","N","N","N","N","N","N","N",""
1046215,"EMPIRICAL TAX SERVICES, LLC","N","N","N","N","N","N","N","N","N","N","N","Y","N","N",""
1046576,"TMD & ASSOCIATES, INC.","N","N","N","N","N","Y","N","N","N","N","N","N","N","N",""
1046612,"BHWM TRUST","N","N","N","N","N","N","N","Y","N","N","N","N","N","N",""
1046612,"BHWM INSURANCE SERVICES","N","N","N","N","N","Y","N","N","N","N","N","N","N","N",""
1048307,"COOKSON PEIRCE WEALTH MANAGEMENT, LLC","N","N","N","N","N","Y","N","N","N","N","N","N","N","N",""
1050859,"PAUL STANLEY","N","Y","N","N","N","Y","N","N","N","N","N","N","N","N",""
1050859,"DIANE DUBOIS","N","Y","N","N","N","Y","N","N","N","N","N","N","N","N",""
1050859,"JOSEPH SKEES","N","Y","N","N","N","Y","N","N","N","N","N","N","N","N",""
1050859,"NATHANIEL CARY","N","N","N","N","N","Y","N","N","N","N","N","N","N","N",""
1051480,"CAPITAL MANAGEMENT SECURITIES, INC.","Y","Y","N","N","N","N","N","N","N","N","N","N","N","N",""
1051545,"AMERICAN BENEFITS PLANNING GROUP INC.","N","N","N","N","N","Y","N","N","N","N","N","N","N","N",""
1051545,"FREEDOM DIVORCE ADVISORS","N","N","N","N","N","N","N","N","N","N","N","N","N","Y","FINANCIAL PLANNING"
1054452,"CALTON & ASSOCIATES, INC.","N","Y","N","N","N","N","N","N","N","N","N","N","N","N",""
1055705,"SANTANDER INVESTMENT SERVICES","Y","N","N","N","N","Y","N","N","N","N","N","N","N","N",""
1042652,"RYAN FINANCIAL, INC.","N","Y","N","N","N","N","N","N","N","N","N","N","N","N",""
1047377,"SANTANDER INVESTMENT SERVICES","Y","N","N","N","N","Y","N","N","N","N","N","N","N","N",""
1048913,"GOOD LIFE IA, LLC","N","N","N","N","N","Y","N","N","N","N","N","N","N","N",""
1044172,"CHAPIN DAVIS INSURANCE INC","N","N","N","N","N","Y","N","N","N","N","N","N","N","N",""
1047581,"HORTER FINANCIAL STRATEGIES","N","N","N","N","N","Y","N","N","N","N","N","N","N","N",""
1048218,"DURSO CAPITAL MANAGEMENT","N","N","N","N","N","N","N","N","N","N","N","N","N","Y","FINANCIAL PLANNER"
1049388,"NONE","Y","N","N","N","N","N","N","N","N","N","N","N","N","N",""
1049249,"SEASONS OF ADVICE INSURANCE SERVICES, LLC","N","N","N","N","N","Y","N","N","N","N","N","N","N","N",""
1049249,"HCA CONSULTING, INC. D/B/A SEASONS OF ADVICE CONSULTING","N","N","N","N","N","N","N","N","N","N","N","N","N","Y","CONSULTANTS"
1052831,"DEBT ADVISORS GROUP","N","N","N","N","N","N","N","N","N","N","N","N","N","Y","DEBT FINANCING CONSULTING"
1057721,"HORTER FINANCIAL STRATEGIES","N","N","N","N","N","Y","N","N","N","N","N","N","N","N",""
1036802,"SANDERS MORRIS HARRIS LLC","N","Y","N","N","N","Y","N","N","N","N","N","N","N","N",""
1045417,"WEAVER WEALTH MANAGEMENT","N","N","N","N","N","Y","N","N","N","N","N","N","N","N",""
1054340,"MARK CORTAZZO","N","Y","N","N","N","Y","N","N","N","N","N","N","N","N",""
1054450,"HC INSURANCE SERVICES, LLC","N","N","N","N","N","Y","N","N","N","N","N","N","N","N",""
1048191,"NONE","Y","N","N","N","N","N","N","N","N","N","N","N","N","N",""
1055034,"ARBOR COURT CAPITAL, LLC","N","Y","N","N","N","N","N","N","N","N","N","N","N","N",""
1045447,"WEAVER WEALTH MANAGEMENT","N","N","N","N","N","Y","N","N","N","N","N","N","N","N",""
1049843,"RAYMOND JAMES FINANCIAL SERVICES","N","Y","N","N","N","N","N","N","N","N","N","N","N","N",""
1043474,"CANDACE SHIRA ASSOCIATES, LLC","N","N","N","N","N","Y","N","N","N","N","N","N","N","N",""
1050990,"CANTER COMPANIES","N","N","N","N","Y","N","N","N","N","N","N","N","N","N",""
1055380,"NONE","Y","N","N","N","N","N","N","N","N","N","N","N","N","N",""
1058587,"ST GERMAIN SECURITIES INC","Y","N","N","N","N","N","N","N","N","N","N","N","N","N",""
1049946,"HORTER FINANCIAL STRATEGIES","N","N","N","N","N","Y","N","N","N","N","N","N","N","N",""
1047220,"HORTER FINANCIAL STRATEGIES","N","N","N","N","N","Y","N","N","N","N","N","N","N","N",""
1052608,"ADVISORY GROUP EQUITY SERVICES LTD","Y","N","N","N","N","N","N","N","N","N","N","N","N","N",""
1052608,"ESTATE INSURANCE SERVICES LTD","N","N","N","N","N","Y","N","N","N","N","N","N","N","N",""
1045481,"MODERN WOODMEN GENERAL AGENCY","N","N","N","N","N","Y","N","N","N","N","N","N","N","N",""
1056068,"U.S. BANCORP INSURANCE AND INVESTMENTS, INC.","N","N","N","N","N","Y","N","N","N","N","N","N","N","N",""
1056068,"U.S. BANCORP INSURANCE SERVICES OF MONTANA, INC.","N","N","N","N","N","Y","N","N","N","N","N","N","N","N",""
1056068,"U.S. BANCORP INSURANCE SERVICES, LLC","N","N","N","N","N","Y","N","N","N","N","N","N","N","N",""
1058283,"ROCKWAY WEALTH PARTNERS","N","Y","N","N","N","N","N","N","N","N","N","N","N","N",""
1058283,"FIVE TALENTS FINANCIAL MANAGEMETN GROUP","N","Y","N","N","N","N","N","N","N","N","N","N","N","N",""
1058283,"DESLA WEALTH MANAGEMENT","N","Y","N","N","N","N","N","N","N","N","N","N","N","N",""
1056144,"WATERFORD CAPITAL INC.","N","Y","N","N","N","N","N","N","N","N","N","N","N","N",""
1044218,"MAPLEWOOD INVESTMENT ADVISORS INC","N","Y","N","N","N","N","N","N","N","N","N","N","N","N",""
1048477,"SIMONDAVIS BROKERAGE SERVICES","N","N","N","N","N","Y","N","N","N","N","N","N","N","N",""
1048477,"C-HALL","N","N","N","N","N","Y","N","N","N","N","N","N","N","N",""
1050076,"KUMLANDER, DONOFRIO, HAY & PEHL, CPAS LLP","N","N","N","N","N","N","N","N","N","N","N","Y","N","N",""
1053507,"NONE","Y","N","N","N","N","N","N","N","N","N","N","N","N","N",""
1053847,"GOOD LIFE IA, LLC","N","N","N","N","N","Y","N","N","N","N","N","N","N","N",""
1056931,"NEPSIS RETIREMENT SERVICES, INC.","N","N","N","N","N","N","N","N","N","N","N","N","N","Y","QUALIFIED RETIREMENT ACCOUNT ADMINISTRATION"
1057051,"FOUNDERS FINANCIAL INSURANCE NETWORK","N","N","N","N","N","Y","N","N","N","N","N","N","N","N",""
1057051,"BISHOP ASSOCIATES","N","N","N","N","N","N","N","N","N","N","N","Y","N","N",""
1057051,"WISE SOLUTIONS MANAGEMENT","N","N","N","N","N","N","N","N","N","N","N","Y","N","N",""
1057051,"CHREST CPA TAX AND FINANCIAL PC","N","N","N","N","N","N","N","N","N","N","N","Y","N","N",""
1057051,"RAGER, LEHMAN, & HOUCK PC, CPAS & BUSINESS ADVISORS","N","N","N","N","N","N","N","N","N","N","N","Y","N","N",""
1057051,"ESTABROOK AND COMPANY, PC","N","N","N","N","N","N","N","N","N","N","N","Y","N","N",""
1057051,"STEVEN KATZ, CPA LLC","N","N","N","N","N","N","N","N","N","N","N","Y","N","N",""
1057051,"CINDY EVERLY, CPA","N","N","N","N","N","N","N","N","N","N","N","Y","N","N",""
1057051,"COX HOLLIDA & PROFESSIONALS PLLC","N","N","N","N","N","N","N","N","N","N","N","Y","N","N",""
1057051,"ROY, NOYE & ASSOCIATES CPA PC","N","N","N","N","N","N","N","N","N","N","N","Y","N","N",""
1057051,"REA & SHOEMAKER, P.C.","N","N","N","N","N","N","N","N","N","N","N","Y","N","N",""
1057051,"ALLENDER CPA","N","N","N","N","N","N","N","N","N","N","N","Y","N","N",""
1057051,"FOUNDERS FINANCIAL INS. AGENCY","N","N","N","N","N","Y","N","N","N","N","N","N","N","N",""
1048855,"INTERNATIONAL ASSETS ADVISORY, LLC","N","Y","N","N","N","N","N","N","N","N","N","N","N","N",""
1051743,"ROSS, SINCLAIRE AND ASSOCIATES, LLC","Y","N","N","N","N","N","N","N","Y","N","N","N","N","N",""
1058211,"GOOD LIFE IA, LLC","N","N","N","N","N","Y","N","N","N","N","N","N","N","N",""
1056616,"FIRST DOMINION CAPITAL CORPORATION","N","Y","N","N","N","N","N","N","N","N","N","N","N","N",""
1056683,"FIRST CLEARING","Y","N","N","N","N","N","N","N","N","N","N","N","N","Y","CLEARING SERVICES"
1044577,"HORTER FINANCIAL STRATEGIES","N","N","N","N","N","Y","N","N","N","N","N","N","N","N",""
1058109,"JONATHAN M. SATOVSKY (INDIVIDUAL CAPACITY)","N","Y","N","N","N","N","N","N","N","N","N","N","N","N",""
1043784,"BEACH POINT ADVISORS LLC","N","N","Y","N","N","N","N","N","N","N","N","N","N","N",""
1053621,"RELIANCE INSURANCE AGENCY, LLC","N","N","N","N","N","Y","N","N","N","N","N","N","N","N",""
1054161,"SEASONS OF ADVICE INSURANCE SERVICES, LLC","N","N","N","N","N","Y","N","N","N","N","N","N","N","N",""
1054161,"HCA CONSULTING, INC. D/B/A SEASONS OF ADVICE CONSULTING","N","N","N","N","N","N","N","N","N","N","N","N","N","Y","CONSULTANTS"
1054769,"TRIAD ADVISORS, INC.","N","Y","N","N","N","Y","N","N","N","N","N","N","N","N",""
1043881,"SANTANDER INVESTMENT SERVICES","Y","N","N","N","N","Y","N","N","N","N","N","N","N","N",""
1044517,"MODERN WOODMEN GENERAL AGENCY","N","N","N","N","N","Y","N","N","N","N","N","N","N","N",""
1041396,"UBS WEALTH MANAGEMENT AMERICAS","Y","N","N","Y","N","Y","N","N","N","N","N","N","N","N",""
1046511,"WINSLOW, EVANS & CROCKER INSURANCE AGENCY, INC","N","N","N","N","N","Y","N","N","N","N","N","N","N","N",""
1049027,"CETERA ADVISOR NETWORKS LLC","N","Y","N","N","N","N","N","N","N","N","N","N","N","N",""
1044100,"ROSS, SINCLAIRE AND ASSOCIATES, LLC","Y","N","N","N","N","N","N","N","Y","N","N","N","N","N",""
1047464,"FOUNDERS FINANCIAL INSURANCE NETWORK","N","N","N","N","N","Y","N","N","N","N","N","N","N","N",""
1047464,"BISHOP ASSOCIATES","N","N","N","N","N","N","N","N","N","N","N","Y","N","N",""
1047464,"WISE SOLUTIONS MANAGEMENT","N","N","N","N","N","N","N","N","N","N","N","Y","N","N",""
1047464,"CHREST CPA TAX AND FINANCIAL PC","N","N","N","N","N","N","N","N","N","N","N","Y","N","N",""
1047464,"RAGER, LEHMAN, & HOUCK PC, CPAS & BUSINESS ADVISORS","N","N","N","N","N","N","N","N","N","N","N","Y","N","N",""
1047464,"ESTABROOK AND COMPANY, PC","N","N","N","N","N","N","N","N","N","N","N","Y","N","N",""
1047464,"STEVEN KATZ, CPA LLC","N","N","N","N","N","N","N","N","N","N","N","Y","N","N",""
1047464,"CINDY EVERLY, CPA","N","N","N","N","N","N","N","N","N","N","N","Y","N","N",""
1047464,"COX HOLLIDA & PROFESSIONALS PLLC","N","N","N","N","N","N","N","N","N","N","N","Y","N","N",""
1047464,"ROY, NOYE & ASSOCIATES CPA PC","N","N","N","N","N","N","N","N","N","N","N","Y","N","N",""
1047464,"REA & SHOEMAKER, P.C.","N","N","N","N","N","N","N","N","N","N","N","Y","N","N",""
1047464,"ALLENDER CPA","N","N","N","N","N","N","N","N","N","N","N","Y","N","N",""
1047464,"FOUNDERS FINANCIAL INS. AGENCY","N","N","N","N","N","Y","N","N","N","N","N","N","N","N",""
1048654,"HORTER FINANCIAL STRATEGIES","N","N","N","N","N","Y","N","N","N","N","N","N","N","N",""
1051632,"AMERICAN BENEFITS PLANNING GROUP INC.","N","N","N","N","N","Y","N","N","N","N","N","N","N","N",""
1051632,"FREEDOM DIVORCE ADVISORS","N","N","N","N","N","N","N","N","N","N","N","N","N","Y","FINANCIAL PLANNING"
1054361,"FIRST CLEARING","Y","N","N","N","N","N","N","N","N","N","N","N","N","Y","CLEARING SERVICES"
1038387,"PURSHE KAPLAN SMITH","N","Y","N","N","N","N","N","N","N","N","N","N","N","N",""
1055859,"SOUND FINANCIAL STRATEGIES GROUP INC","N","Y","N","N","N","Y","N","N","N","N","N","N","N","N",""
1048903,"DAVENPORT TRUST COMPANY","N","N","N","N","N","N","N","Y","N","N","N","N","N","N",""
1048903,"DAVENPORT FINANCIAL ADVISORS","N","N","N","N","N","N","N","N","N","N","N","N","N","Y","CORPORATE FINANCE"
1050621,"HORTER FINANCIAL STRATEGIES","N","N","N","N","N","Y","N","N","N","N","N","N","N","N",""
1046870,"CETERA ADVISOR NETWORKS, LLC","N","Y","N","N","N","N","N","N","N","N","N","N","N","N",""
1052880,"NONE","Y","N","N","N","N","N","N","N","N","N","N","N","N","N",""
1042914,"PUPLAVA SECURITIES, INC.","Y","N","N","N","N","N","N","N","N","N","N","N","N","N",""
1046636,"CANTER COMPANIES","N","N","N","N","Y","N","N","N","N","N","N","N","N","N",""
1045498,"GOOD LIFE IA, LLC","N","N","N","N","N","Y","N","N","N","N","N","N","N","N",""
1047629,"PAUL STANLEY","N","Y","N","N","N","Y","N","N","N","N","N","N","N","N",""
1047629,"DIANE DUBOIS","N","Y","N","N","N","Y","N","N","N","N","N","N","N","N",""
1047629,"JOSEPH SKEES","N","Y","N","N","N","Y","N","N","N","N","N","N","N","N",""
1047629,"NATHANIEL CARY","N","N","N","N","N","Y","N","N","N","N","N","N","N","N",""
1047686,"BRIAN J. LOCKETT IS A REGISTERED REPRESENTATIVES OF INDEPENDENT FINANCIAL GROUP, LLC. AND LICENSED INSURANCE AGENT","N","Y","N","N","N","Y","N","N","N","N","N","N","N","N",""
1049041,"HORTER FINANCIAL STRATEGIES","N","N","N","N","N","Y","N","N","N","N","N","N","N","N",""
1045292,"HORTER FINANCIAL STRATEGIES","N","N","N","N","N","Y","N","N","N","N","N","N","N","N",""
1046372,"CALTON & ASSOCIATES, INC.","N","Y","N","N","N","N","N","N","N","N","N","N","N","N",""
1044969,"BOULAY INSURANCE SOLUTIONS, LLC","N","N","N","N","N","Y","N","N","N","N","N","N","N","N",""
1044969,"VALMARK SECURITIES, INC.","N","Y","N","N","N","N","N","N","N","N","N","N","N","N",""
1055348,"FIRST DOMINION CAPITAL CORPORATION","N","Y","N","N","N","N","N","N","N","N","N","N","N","N",""
1051689,"HORTER FINANCIAL STRATEGIES","N","N","N","N","N","Y","N","N","N","N","N","N","N","N",""
1052882,"NONE","Y","N","N","N","N","N","N","N","N","N","N","N","N","N",""
1052887,"NONE","Y","N","N","N","N","N","N","N","N","N","N","N","N","N",""
1054888,"FINANCIAL & TAX STRATEGIES, INC.","N","N","N","N","N","N","N","N","N","N","N","N","N","Y","STATE REGISTERED INVESTMENT ADVISOR"
1054888,"MICHAEL K. HARTMANN","N","N","N","N","N","Y","N","N","N","N","N","N","N","N",""
1054888,"EVONNE RYAN","N","N","N","N","N","Y","N","N","N","N","N","N","N","N",""
1054888,"MICHAEL K. HARTMANN, CPA","N","N","N","N","N","N","N","N","N","N","N","Y","N","N",""
1054876,"TRIAD ADVISORS, INC.","N","Y","N","N","N","Y","N","N","N","N","N","N","N","N",""
1045988,"HORTER FINANCIAL STRATEGIES","N","N","N","N","N","Y","N","N","N","N","N","N","N","N",""
1049386,"NONE","Y","N","N","N","N","N","N","N","N","N","N","N","N","N",""
1049182,"SANTANDER INVESTMENT SERVICES","Y","N","N","N","N","Y","N","N","N","N","N","N","N","N",""
1050553,"CHAPIN DAVIS INSURANCE INC","N","N","N","N","N","Y","N","N","N","N","N","N","N","N",""
1053500,"NONE","Y","N","N","N","N","N","N","N","N","N","N","N","N","N",""
1053268,"GC SYNEXUS CAPITAL LLC","N","N","Y","N","N","N","N","N","N","N","N","N","N","N",""
1053442,"PAUL STANLEY","N","Y","N","N","N","Y","N","N","N","N","N","N","N","N",""
1053442,"DIANE DUBOIS","N","Y","N","N","N","Y","N","N","N","N","N","N","N","N",""
1053442,"JOSEPH SKEES","N","Y","N","N","N","Y","N","N","N","N","N","N","N","N",""
1053442,"NATHANIEL CARY","N","N","N","N","N","Y","N","N","N","N","N","N","N","N",""
1056523,"CHAPIN DAVIS INSURANCE INC","N","N","N","N","N","Y","N","N","N","N","N","N","N","N",""
1044120,"GLADSTONE COVERAGE GROUP, LLC","N","N","N","N","N","Y","N","N","N","N","N","N","N","N",""
1046075,"HORTER FINANCIAL STRATEGIES","N","N","N","N","N","Y","N","N","N","N","N","N","N","N",""
1047956,"SAMCO CAPITAL MARKETS","N","Y","N","N","N","N","N","N","N","N","N","N","N","N",""
1048928,"AEGIS GENERAL AGENCY","N","N","N","N","N","Y","N","N","N","N","N","N","N","N",""
1049018,"HORTER FINANCIAL STRATEGIES","N","N","N","N","N","Y","N","N","N","N","N","N","N","N",""
1044572,"NONE","Y","N","N","N","N","N","N","N","N","N","N","N","N","N",""
1047722,"NONE","Y","N","N","N","N","N","N","N","N","N","N","N","N","N",""
1051301,"PREMIER PRODUCTS DISTRIBUTORS","N","N","N","N","N","N","N","N","N","N","N","N","N","Y","THIRD PARTY MARKETING"
1052848,"NONE","Y","N","N","N","N","N","N","N","N","N","N","N","N","N",""
1058085,"HORTER FINANCIAL STRATEGIES","N","N","N","N","N","Y","N","N","N","N","N","N","N","N",""
1044311,"MODERN WOODMEN GENERAL AGENCY","N","N","N","N","N","Y","N","N","N","N","N","N","N","N",""
1047621,"PAUL STANLEY","N","Y","N","N","N","Y","N","N","N","N","N","N","N","N",""
1047621,"DIANE DUBOIS","N","Y","N","N","N","Y","N","N","N","N","N","N","N","N",""
1047621,"JOSEPH SKEES","N","Y","N","N","N","Y","N","N","N","N","N","N","N","N",""
1047621,"NATHANIEL CARY","N","N","N","N","N","Y","N","N","N","N","N","N","N","N",""
1052282,"PYRAMID SAN JUAN ISLANDS PLLC","N","N","N","N","N","N","N","N","N","N","N","Y","N","N",""
1052282,"EMPIRICAL INSURANCE, LLC","N","N","N","N","N","Y","N","N","N","N","N","N","N","N",""
1052282,"EMPIRICAL TAX SERVICES, LLC","N","N","N","N","N","N","N","N","N","N","N","Y","N","N",""
1043733,"NONE","Y","N","N","N","N","N","N","N","N","N","N","N","N","N",""
1045940,"HORTER FINANCIAL STRATEGIES","N","N","N","N","N","Y","N","N","N","N","N","N","N","N",""
1049317,"CHARLES BENWAY, CPA","N","N","N","N","N","N","N","N","N","N","N","Y","N","N",""
1050010,"NONE","Y","N","N","N","N","N","N","N","N","N","N","N","N","N",""
1058254,"FIRST CLEARING","Y","N","N","N","N","N","N","N","N","N","N","N","N","Y","CLEARING SERVICES"
1058254,"WELLS FARGO ADVISORS","Y","N","N","N","N","N","N","N","N","N","N","N","N","Y","INSURANCE PRODUCT SALES"
1043898,"HORTER FINANCIAL STRATEGIES","N","N","N","N","N","Y","N","N","N","N","N","N","N","N",""
1047132,"MYRYAN AGENCY, LLC","N","N","N","N","N","Y","N","N","N","N","N","N","N","N",""
1047276,"ROCKWAY WEALTH PARTNERS","N","Y","N","N","N","N","N","N","N","N","N","N","N","N",""
1047276,"FIVE TALENTS FINANCIAL MANAGEMETN GROUP","N","Y","N","N","N","N","N","N","N","N","N","N","N","N",""
1047276,"DESLA WEALTH MANAGEMENT","N","Y","N","N","N","N","N","N","N","N","N","N","N","N",""
1047345,"TROXELL FINANCIAL ADVISORS","N","N","N","N","N","Y","N","N","N","N","N","N","N","N",""
1047345,"LPL FINANCIAL","N","Y","N","N","N","N","N","N","N","N","N","N","N","N",""
1048355,"HORTER FINANCIAL STRATEGIES","N","N","N","N","N","Y","N","N","N","N","N","N","N","N",""
1048911,"HORTER FINANCIAL STRATEGIES","N","N","N","N","N","Y","N","N","N","N","N","N","N","N",""
1052286,"PYRAMID SAN JUAN ISLANDS PLLC","N","N","N","N","N","N","N","N","N","N","N","Y","N","N",""
1052286,"EMPIRICAL INSURANCE, LLC","N","N","N","N","N","Y","N","N","N","N","N","N","N","N",""
1052286,"EMPIRICAL TAX SERVICES, LLC","N","N","N","N","N","N","N","N","N","N","N","Y","N","N",""
1054468,"HORTER FINANCIAL STRATEGIES","N","N","N","N","N","Y","N","N","N","N","N","N","N","N",""
1055041,"BOENNING & SCATTERGOOD","Y","N","N","N","N","Y","N","N","Y","N","N","N","N","N",""
1055744,"SANTANDER INVESTMENT SERVICES","Y","N","N","N","N","Y","N","N","N","N","N","N","N","N",""
1058336,"HORTER FINANCIAL STRATEGIES","N","N","N","N","N","Y","N","N","N","N","N","N","N","N",""
1046044,"ADVISORY GROUP EQUITY SERVICES LTD","Y","N","N","N","N","N","N","N","N","N","N","N","N","N",""
1046044,"ESTATE INSURANCE SERVICES LTD","N","N","N","N","N","Y","N","N","N","N","N","N","N","N",""
1050934,"GUIDANCE TAX & ACCOUNTING, LLC","N","N","N","N","N","N","N","N","N","N","N","Y","N","N",""
1050947,"HORTER FINANCIAL STRATEGIES","N","N","N","N","N","Y","N","N","N","N","N","N","N","N",""
1053646,"ARBOR COURT CAPITAL","N","Y","N","N","N","N","N","N","N","N","N","N","N","N",""
1056472,"HANCOCK INVESTMENT SERVICES, INC.","Y","N","N","N","N","N","N","N","N","N","N","N","N","N",""
1056832,"NEPSIS RETIREMENT SERVICES, INC.","N","N","N","N","N","N","N","N","N","N","N","N","N","Y","QUALIFIED RETIREMENT ACCOUNT ADMINISTRATION"
1058744,"NONE","Y","N","N","N","N","N","N","N","N","N","N","N","N","N",""
1044424,"NONE","Y","N","N","N","N","N","N","N","N","N","N","N","N","N",""
1055683,"CHAPIN DAVIS INSURANCE INC","N","N","N","N","N","Y","N","N","N","N","N","N","N","N",""
1055712,"SANTANDER INVESTMENT SERVICES","Y","N","N","N","N","Y","N","N","N","N","N","N","N","N",""
1057243,"FIRST CLEARING","Y","N","N","N","N","N","N","N","N","N","N","N","N","Y","CLEARING SERVICES"
1054694,"K2 ADVISORS, LLC -- RELYING ADVISER","N","N","Y","N","N","N","N","N","N","N","N","N","N","N",""
1036577,"ROBOTIC TRADING SOLUTIONS/SYSTEMS","N","N","N","N","N","N","N","N","N","N","N","N","N","Y","TRADING SOFTWARE"
1049845,"ACTUARIAL CONSULTING GROUP, INC.","N","N","N","N","N","Y","N","N","N","N","N","N","N","N",""
1050849,"PAUL STANLEY","N","Y","N","N","N","Y","N","N","N","N","N","N","N","N",""
1050849,"DIANE DUBOIS","N","Y","N","N","N","Y","N","N","N","N","N","N","N","N",""
1050849,"JOSEPH SKEES","N","Y","N","N","N","Y","N","N","N","N","N","N","N","N",""
1050849,"NATHANIEL CARY","N","N","N","N","N","Y","N","N","N","N","N","N","N","N",""
1043809,"HORTER FINANCIAL STRATEGIES","N","N","N","N","N","Y","N","N","N","N","N","N","N","N",""
1045641,"NONE","Y","N","N","N","N","N","N","N","N","N","N","N","N","N",""
1045836,"HORTER FINANCIAL STRATEGIES","N","N","N","N","N","Y","N","N","N","N","N","N","N","N",""
1058466,"DURSO CAPITAL MANAGEMENT","N","N","N","N","N","N","N","N","N","N","N","N","N","Y","FINANCIAL PLANNER"
1043588,"G&G ACCOUNTING SERVICES","N","N","N","N","N","N","N","N","N","N","N","Y","N","N",""
1051630,"SALT ROCK CAPITAL PARTNERS (CAYMAN) LP","N","N","Y","N","N","N","N","N","N","N","N","N","N","N",""
1054439,"HORTER FINANCIAL STRATEGIES","N","N","N","N","N","Y","N","N","N","N","N","N","N","N",""
1054483,"CETERA ADVISOR NETWORKS LLC","N","Y","N","N","N","N","N","N","N","N","N","N","N","N",""
1056258,"HANCOCK INVESTMENT SERVICES, INC.","Y","N","N","N","N","N","N","N","N","N","N","N","N","N",""
1050684,"THE STRATEGIC FINANCIAL ALLIANCE, INC.","Y","N","N","N","N","N","N","N","N","N","N","N","N","N",""
1047651,"FIRST DOMINION CAPITAL CORPORATION","N","Y","N","N","N","N","N","N","N","N","N","N","N","N",""
1033122,"FRONTIER INVESTMENT SERVICES","Y","N","N","N","N","N","N","N","N","N","N","N","N","N",""
1052889,"NONE","Y","N","N","N","N","N","N","N","N","N","N","N","N","N",""
1052988,"HORTER FINANCIAL STRATEGIES","N","N","N","N","N","Y","N","N","N","N","N","N","N","N",""
1053452,"PRIVATE CLIENT SERVICES","N","Y","N","N","N","N","N","N","N","N","N","N","N","N",""
1053476,"GLASS JACOBSON INVESTMENT ADVISORS, LLC D/B/A MY401K","N","N","N","N","N","N","N","N","N","N","N","N","N","Y","SALES OF EDUCATIONAL PRODUCTS"
1052131,"CRADOCK FINANCIAL MANAGEMENT, PLLC","N","N","N","N","N","N","N","N","N","N","N","Y","N","N",""
1051472,"CAPITAL MANAGEMENT SECURITIES, INC.","Y","Y","N","N","N","N","N","N","N","N","N","N","N","N",""
1054006,"COMMUNITYAMERICA TRUST SERVICES","N","N","N","N","N","N","N","Y","N","N","N","N","N","N",""
1053828,"ELLIOTT COVE INSURANCE AGENCY","N","N","N","N","N","Y","N","N","N","N","N","N","N","N",""
1053274,"NATIONAL PLANNING CORPORATION (""NPC OF AMERICA"" IN FL AND NY)","Y","N","N","N","N","Y","N","N","N","N","N","N","N","N",""
1058106,"MODERN WOODMEN GENERAL AGENCY","N","N","N","N","N","Y","N","N","N","N","N","N","N","N",""
1045142,"NONE","Y","N","N","N","N","N","N","N","N","N","N","N","N","N",""
1045042,"COMPREHENSIVE ASSET MANAGEMENT AND SERVICING, INC.","N","Y","N","N","N","N","N","N","N","N","N","N","N","N",""
1050626,"GUILFORD SAVINGS BANK","N","N","N","N","N","N","Y","N","N","N","N","N","N","N",""
1045121,"CANTER COMPANIES","N","N","N","N","Y","N","N","N","N","N","N","N","N","N",""
1048267,"U.S. BANCORP INSURANCE AND INVESTMENTS, INC.","N","N","N","N","N","Y","N","N","N","N","N","N","N","N",""
1048267,"U.S. BANCORP INSURANCE SERVICES OF MONTANA, INC.","N","N","N","N","N","Y","N","N","N","N","N","N","N","N",""
1048267,"U.S. BANCORP INSURANCE SERVICES, LLC","N","N","N","N","N","Y","N","N","N","N","N","N","N","N",""
1053722,"HORTER FINANCIAL STRATEGIES","N","N","N","N","N","Y","N","N","N","N","N","N","N","N",""
1055548,"NEPSIS RETIREMENT SERVICES, INC.","N","N","N","N","N","N","N","N","N","N","N","N","N","Y","QUALIFIED RETIREMENT ACCOUNT ADMINISTRATION"
1057523,"NONE","Y","N","N","N","N","N","N","N","N","N","N","N","N","N",""
1057994,"ROSS, SINCLAIRE AND ASSOCIATES, LLC","Y","N","N","N","N","N","N","N","Y","N","N","N","N","N",""
1047715,"AEGIS GENERAL AGENCY","N","N","N","N","N","Y","N","N","N","N","N","N","N","N",""
1049163,"HORTER FINANCIAL STRATEGIES","N","N","N","N","N","Y","N","N","N","N","N","N","N","N",""
1050260,"REGISTER FINANCIAL ASSOCIATES","N","Y","N","N","N","N","N","N","N","N","N","N","N","N",""
1050659,"NONE","Y","N","N","N","N","N","N","N","N","N","N","N","N","N",""
1050667,"ADVISORY GROUP EQUITY SERVICES LTD","Y","N","N","N","N","N","N","N","N","N","N","N","N","N",""
1050667,"ESTATE INSURANCE SERVICES LTD","N","N","N","N","N","Y","N","N","N","N","N","N","N","N",""
1053163,"GLADSTONE COVERAGE GROUP, LLC","N","N","N","N","N","Y","N","N","N","N","N","N","N","N",""
1053200,"SEASONS OF ADVICE INSURANCE SERVICES, LLC","N","N","N","N","N","Y","N","N","N","N","N","N","N","N",""
1053200,"HCA CONSULTING, INC. D/B/A SEASONS OF ADVICE CONSULTING","N","N","N","N","N","N","N","N","N","N","N","N","N","Y","CONSULTANTS"
1044170,"HORTER FINANCIAL STRATEGIES","N","N","N","N","N","Y","N","N","N","N","N","N","N","N",""
1048590,"AIFG CONSULTANTS, LTD.","N","N","N","N","N","Y","N","N","N","N","N","N","N","N",""
1048590,"PURSHE KAPLAN STERLING INVESTMENTS","N","Y","N","N","N","N","N","N","N","N","N","N","N","N",""
1057359,"UNITED PLANNERS FINANCIAL SERVICES","N","Y","N","N","N","N","N","N","N","N","N","N","N","N",""
1056964,"GLADSTONE COVERAGE GROUP, LLC","N","N","N","N","N","Y","N","N","N","N","N","N","N","N",""
1052833,"DEBT ADVISORS GROUP","N","N","N","N","N","N","N","N","N","N","N","N","N","Y","DEBT FINANCING CONSULTING"
