"FilingID","Other Business Name","AL","AK","AZ","AR","CA","CO","CT","DE","DC","FL","GA","GU","HI","ID","IL","IN","IA","KS","KY","LA","ME","MD","MA","MI","MN","MS","MO","MT","NE","NV","NH","NJ","NM","NY","NC","ND","OH","OK","OR","PA","PR","RI","SC","SD","TN","TX","UT","VT","VI","VA","WA","WV","WI","Other"
1094798,"WHITE HAT SP GP LLC (RELYING ADVISER)","","","","","","","","","","","","","","","","","","","","","","","","","","","","","","","","","","Y","","","","","","","","","","","","","","","","","","","",""
1105434,"HEARTLAND INDUSTRIAL ASSOCIATES L.L.C.","","","","","","","Y","Y","","","","","","","","","","","","","","","","","","","","","","","","","","","","","","","","","","","","","","","","","","","","","",""
1113141,"HATZIMEMOS / LIBBY","","","","","","","","","","","","","","","","","","","","","","","","","","","","","","","","","","Y","","","","","","","","","","","","","","","","","","","",""
1114775,"FJ LABS BOXED LLC","","","","","","","","","","","","","","","","","","","","","","","","","","","","","","","","","","Y","","","","","","","","","","","","","","","","","","","",""
1114775,"FJ LABS SYNDICATES LLC","","","","","","","","","","","","","","","","","","","","","","","","","","","","","","","","","","Y","","","","","","","","","","","","","","","","","","","",""
1114921,"FJ LABS BOXED LLC","","","","","","","","","","","","","","","","","","","","","","","","","","","","","","","","","","Y","","","","","","","","","","","","","","","","","","","",""
1114921,"FJ LABS SYNDICATES LLC","","","","","","","","","","","","","","","","","","","","","","","","","","","","","","","","","","Y","","","","","","","","","","","","","","","","","","","",""
1118522,"GFS MANAGEMENT, LLC (RELYING ADVISER)","","","","","","","","","","","","","","","","","","","","","","","","","","","","","","","","","","","","","","","","","","","","","","Y","","","","","","","",""
1123689,"CHARLES RIVER VENTURES","","","","","Y","","","","","","","","","","","","","","","","","","Y","","","","","","","","","","","","","","","","","","","","","","","","","","","","","","",""
1125721,"RJW CAPITAL","","","","","","","","","","","","","","","","","","","","","","","","","","","","","","","","","","Y","","","","","","Y","","","","","","","","","","","","","",""
1126346,"RASTEGAR VALUE FUND GP, LLC (RELYING ADVISER)","","","","","","","","","","","","","","","","","","","","","","","","","","","","","","","","","","","","","","","","","","","","","","Y","","","","","","","",""
1126346,"RASTEGAR INCOME FUND GP, LLC (RELYING ADVISER)","","","","","","","","","","","","","","","","","","","","","","","","","","","","","","","","","","","","","","","","","","","","","","Y","","","","","","","",""
1126346,"RASTEGAR INCOME FUND II GP, LLC (RELYING ADVISER)","","","","","","","","","","","","","","","","","","","","","","","","","","","","","","","","","","","","","","","","","","","","","","Y","","","","","","","",""
1126589,"AYIN SPECIAL OPPORTUNITIES GP LLC (RELYING ADVISER)","","","","","","","","","","","","","","","","","","","","","","","","","","","","","","","","","","Y","","","","","","","","","","","","","","","","","","","",""
1126926,"PERCEVA","","","","","","","","","","","","","","","","","","","","","","","","","","","","","","","","","","","","","","","","","","","","","","","","","","","","","","FRANCE"
1126928,"JPMORGAN ASSET MANAGEMENT","","","","","","","","","","","","","","","","","","","","","","","","","","","","","","","","","","","","","","","","","","","","","","","","","","","","","","NON-US"
1126990,"GARNETT & HELFRICH CAPITAL","","","","","Y","","","","","","","","","","","","","","","","","","","","","","","","","","","","","","","","","","","","","","","","","","","","","","","","",""
1127087,"TCG","","","","","Y","","","","","","","","","","","","","","","","","","","","","","","","","","","","","","","","","","","","","","","","","","","","","","","","",""
1127087,"TCG II","","","","","Y","","","","","","","","","","","","","","","","","","","","","","","","","","","","","","","","","","","","","","","","","","","","","","","","",""
1127087,"TCG III","","","","","Y","","","","","","","","","","","","","","","","","","","","","","","","","","","","","","","","","","","","","","","","","","","","","","","","",""
1127087,"TCG IIIA","","","","","Y","","","","","","","","","","","","","","","","","","","","","","","","","","","","","","","","","","","","","","","","","","","","","","","","",""
1127087,"PONOI CAPITAL LP","","","","","Y","","","","","","","","","","","","","","","","","","","","","","","","","","","","","","","","","","","","","","","","","","","","","","","","",""
1127369,"CARNELIAN ENERGY CAPITAL","","","","","","","","","","","","","","","","","","","","","","","","","","","","","","","","","","","","","","","","","","","","","","Y","","","","","","","",""
1128233,"AVENTICUM REAL ESTATE PARTNERS EUROPE GP LTD (RELYING ADVISER)","","","","","","","","","","","","","","","","","","","","","","","","","","","","","","","","","","","","","","","","","","","","","","","","","","","","","","GUERNSEY"
1128957,"THE GROWTH FUND PTY LTD","","","","","","","","","","","","","","","","","","","","","","","","","","","","","","","","","","","","","","","","","","","","","","","","","","","","","","AUSTRALIA / NEW ZEALAND"
1130435,"VENROCK","","","","","Y","","","","","","","","","","","","","","","","","","Y","","","","","","","","","","","Y","","","","","","","","","","","","","","","","","","","",""
1130435,"VEF MANAGEMENT V, LLC","","","","","Y","","","","","","","","","","","","","","","","","","Y","","","","","","","","","","","Y","","","","","","","","","","","","","","","","","","","",""
1130435,"VEF MANAGEMENT IV, LLC","","","","","Y","","","","","","","","","","","","","","","","","","Y","","","","","","","","","","","Y","","","","","","","","","","","","","","","","","","","",""
1130435,"VEF MANAGEMENT III, LLC","","","","","Y","","","","","","","","","","","","","","","","","","Y","","","","","","","","","","","Y","","","","","","","","","","","","","","","","","","","",""
1130435,"VENROCK MANAGEMENT, LLC","","","","","Y","","","","","","","","","","","","","","","","","","Y","","","","","","","","","","","Y","","","","","","","","","","","","","","","","","","","",""
1130435,"VENROCK MANAGEMENT V, LLC","","","","","Y","","","","","","","","","","","","","","","","","","Y","","","","","","","","","","","Y","","","","","","","","","","","","","","","","","","","",""
1130435,"VENROCK MANAGEMENT IV, LLC","","","","","Y","","","","","","","","","","","","","","","","","","Y","","","","","","","","","","","Y","","","","","","","","","","","","","","","","","","","",""
1130435,"VENROCK MANAGEMENT VI, LLC","","","","","Y","","","","","","","","","","","","","","","","","","Y","","","","","","","","","","","Y","","","","","","","","","","","","","","","","","","","",""
1130435,"VENROCK MANAGEMENT III, LLC","","","","","Y","","","","","","","","","","","","","","","","","","Y","","","","","","","","","","","Y","","","","","","","","","","","","","","","","","","","",""
1130435,"VENROCK MANAGEMENT VII, LLC","","","","","Y","","","","","","","","","","","","","","","","","","Y","","","","","","","","","","","Y","","","","","","","","","","","","","","","","","","","",""
1130435,"VENROCK MANAGEMENT VIII, LLC","","","","","Y","","","","","","","","","","","","","","","","","","Y","","","","","","","","","","","Y","","","","","","","","","","","","","","","","","","","",""
1130435,"VENROCK PARTNERS MANAGEMENT, LLC","","","","","Y","","","","","","","","","","","","","","","","","","Y","","","","","","","","","","","Y","","","","","","","","","","","","","","","","","","","",""
1130435,"VENROCK PARTNERS MANAGEMENT V, LLC","","","","","Y","","","","","","","","","","","","","","","","","","Y","","","","","","","","","","","Y","","","","","","","","","","","","","","","","","","","",""
1130435,"VENROCK PARTNERS MANAGEMENT VI, LLC","","","","","Y","","","","","","","","","","","","","","","","","","Y","","","","","","","","","","","Y","","","","","","","","","","","","","","","","","","","",""
1130523,"CINTRIFUSE FUND MANAGEMENT II, LLC (RELYING ADVISER)","","","","","","","","Y","","","","","","","","","","","","","","","","","","","","","","","","","","","","","","","","","","","","","","","","","","","","","",""
1131158,"JEFFERSON PARTNERS FUND 4.5, L.P.","","","","","","","","Y","","","","","","","","","","","","","","","","","","","","","","","","","","","","","","","","","","","","","","","","","","","","","",""
1131158,"JEFFERSON PARTNERS FUND IV (P.A)., L.P.","","","","","","","","Y","","","","","","","","","","","","","","","","","","","","","","","","","","","","","","","","","","","","","","","","","","","","","",""
1131158,"JEFFERSON PARTNERS FUND IV (U.S.), L.P.","","","","","","","","Y","","","","","","","","","","","","","","","","","","","","","","","","","","","","","","","","","","","","","","","","","","","","","",""
1131454,"AVANZ CAPITAL PARTNERS LP (A ""RELYING ADVISER"")","","","","","","","","","","","","","","","","","","","","","","Y","","","","","","","","","","","","","","","","","","","","","","","","","","","","","","","",""
1131523,"AMV","Y","Y","Y","Y","Y","Y","Y","Y","Y","Y","Y","Y","Y","Y","Y","Y","Y","Y","Y","Y","Y","Y","Y","Y","Y","Y","Y","Y","Y","Y","Y","Y","Y","Y","Y","Y","Y","Y","Y","Y","Y","Y","Y","Y","Y","Y","Y","Y","Y","Y","Y","Y","Y",""
1131523,"ACCUITIVE MEDICAL VENTURES","Y","Y","Y","Y","Y","Y","Y","Y","Y","Y","Y","Y","Y","Y","Y","Y","Y","Y","Y","Y","Y","Y","Y","Y","Y","Y","Y","Y","Y","Y","Y","Y","Y","Y","Y","Y","Y","Y","Y","Y","Y","Y","Y","Y","Y","Y","Y","Y","Y","Y","Y","Y","Y",""
1131523,"AMV MANAGEMENT PARTNERS, INC.","","","","","","","","","","Y","","","","","","","","","","","","","","","","","","","","","","","","","","","","","","","","","","","","","","","","","","","",""
1131523,"ACCUITIVE MEDICAL VENTURES, LLC","Y","Y","Y","Y","Y","Y","Y","Y","Y","Y","Y","Y","Y","Y","Y","Y","Y","Y","Y","Y","Y","Y","Y","Y","Y","Y","Y","Y","Y","Y","Y","Y","Y","Y","Y","Y","Y","Y","Y","Y","Y","Y","Y","Y","Y","Y","Y","Y","Y","Y","Y","Y","Y",""
1131523,"ACCUITIVE MEDICAL VENTURES II, LLC","Y","Y","Y","Y","Y","Y","Y","Y","Y","Y","Y","Y","Y","Y","Y","Y","Y","Y","Y","Y","Y","Y","Y","Y","Y","Y","Y","Y","Y","Y","Y","Y","Y","Y","Y","Y","Y","Y","Y","Y","Y","Y","Y","Y","Y","Y","Y","Y","Y","Y","Y","Y","Y",""
1131891,"ARUNDEL CAPITAL","","","","","","","","","","","","","","","","","","","","","","","","","","","","","","","","","","Y","","","","","","","","","","","","","","","","","","","",""
1133236,"MARKETX","","","","","Y","","","","","","","","","","","","","","","","","","","","","","","","","","","","","","","","","","","","","","","","","","","","","","","","",""
1133236,"MARKETX SECURITIES","","","","","Y","","","","","","","","","","","","","","","","","","","","","","","","","","","","","","","","","","","","","","","","","","","","","","","","",""
1134246,"HONEYCOMB CAPITAL, LLC","","","Y","","","","","","","","","","","","","","","","","","","","","","","","","","","","","","","","","","","","","","","","","","","","","","","","","","",""
1134246,"DESARROLLO PANAL, SA (PANAMA)","","","","","","","","","","","","","","","","","","","","","","","","","","","","","","","","","","","","","","","","","","","","","","","","","","","","","","PANAMA"
1134246,"HONEYCOMB DEVELOPMENT CO., LTD.","","","","","","","","","","","","","","","","","","","","","","","","","","","","","","","","","","","","","","","","","","","","","","","","","","","","","","TAIWAN"
1134353,"ABERDEEN STANDARD INVESTMENTS","Y","Y","Y","Y","Y","Y","Y","Y","Y","Y","Y","","Y","Y","Y","Y","Y","Y","Y","Y","Y","Y","Y","Y","Y","Y","Y","Y","Y","Y","Y","Y","Y","Y","Y","Y","Y","Y","Y","Y","Y","Y","Y","Y","Y","Y","Y","Y","","Y","Y","Y","Y",""
1134411,"ABERDEEN STANDARD INVESTMENTS","Y","Y","Y","Y","Y","Y","Y","Y","Y","Y","Y","","Y","Y","Y","Y","Y","Y","Y","Y","Y","Y","Y","Y","Y","Y","Y","Y","Y","Y","Y","Y","Y","Y","Y","Y","Y","Y","Y","Y","Y","Y","Y","Y","Y","Y","Y","Y","","Y","Y","Y","Y",""
1134643,"EVERSIDE CAPITAL PARTNERS COLLATERAL ADVISOR, LLC (""RELYING ADVISER"")","","","","","","","","","","","","","","","","","","","","","","","","","","","","","","","","","","Y","","","","","","","","","","","","","","","","","","","",""
1135051,"DFJ VENTURE XI PARTNERS, LLC","","","","","Y","","","","","","","","","","","","","","","","","","","","","","","","","","","","","","","","","","","","","","","","","","","","","","","","",""
1135051,"DFJ VENTURE XI MANAGEMENT COMPANY, LLC","","","","","Y","","","","","","","","","","","","","","","","","","","","","","","","","","","","","","","","","","","","","","","","","","","","","","","","",""
1135051,"DRAPER FISHER JURVETSON FUND IX PARTNERS L.P. (RELYING ADVISOR)","","","","","Y","","","","","","","","","","","","","","","","","","","","","","","","","","","","","","","","","","","","","","","","","","","","","","","","",""
1135051,"DRAPER FISHER JURVETSON FUND X PARTNERS, L.P. (RELYING ADVISOR)","","","","","Y","","","","","","","","","","","","","","","","","","","","","","","","","","","","","","","","","","","","","","","","","","","","","","","","",""
1135051,"DRAPER FISHER JURVETSON FUND VII PARTNERS, L.P. (RELYING ADVISOR)","","","","","Y","","","","","","","","","","","","","","","","","","","","","","","","","","","","","","","","","","","","","","","","","","","","","","","","",""
1135051,"DRAPER FISHER JURVETSON FUND VIII PARTNERS, L.P. (RELYING ADVISOR)","","","","","Y","","","","","","","","","","","","","","","","","","","","","","","","","","","","","","","","","","","","","","","","","","","","","","","","",""
1135051,"DRAPER FISHER JURVETSON MANAGEMENT COMPANY VI, LLC (RELYING ADVISOR)","","","","","Y","","","","","","","","","","","","","","","","","","","","","","","","","","","","","","","","","","","","","","","","","","","","","","","","",""
1135051,"DRAPER FISHER JURVETSON FUND X MANAGEMENT COMPANY, LLC (RELYING ADVISOR)","","","","","Y","","","","","","","","","","","","","","","","","","","","","","","","","","","","","","","","","","","","","","","","","","","","","","","","",""
1135051,"DRAPER FISHER JURVETSON FUND IX MANAGEMENT COMPANY, LLC (RELYING ADVISOR)","","","","","Y","","","","","","","","","","","","","","","","","","","","","","","","","","","","","","","","","","","","","","","","","","","","","","","","",""
1135051,"DRAPER FISHER JURVETSON FUND VII MANAGEMENT COMPANY, LLC (RELYING ADVISOR)","","","","","Y","","","","","","","","","","","","","","","","","","","","","","","","","","","","","","","","","","","","","","","","","","","","","","","","",""
1135051,"DRAPER FISHER JURVETSON FUND VIII MANAGEMENT COMPANY, LLC (RELYING ADVISOR)","","","","","Y","","","","","","","","","","","","","","","","","","","","","","","","","","","","","","","","","","","","","","","","","","","","","","","","",""
1135121,"DRAPER ASSOCIATES V, LLC (RELYING ADVISOR)","","","","","Y","","","","","","","","","","","","","","","","","","","","","","","","","","","","","","","","","","","","","","","","","","","","","","","","",""
1135134,"OPENVIEW ADVISORS, LLC - RELYING EXEMPT REPORTING ADVISOR","","","","","","","","","","","","","","","","","","","","","","","Y","","","","","","","","","","","","","","","","","","","","","","","","","","","","","","",""
1135538,"ALEPH LP II","","","","","","","","","","","","","","","","","","","","","","","","","","","","","","","","","","","","","","","","","","","","","","","","","","","","","","CAYMAN ISLAND"
1135538,"ALEPH-ALEPH LP","","","","","","","","","","","","","","","","","","","","","","","","","","","","","","","","","","","","","","","","","","","","","","","","","","","","","","CAYMAN ISLAND"
1135538,"ALEPH-ALEPH LP II","","","","","","","","","","","","","","","","","","","","","","","","","","","","","","","","","","","","","","","","","","","","","","","","","","","","","","CAYMAN ISLAND"
1136489,"RISING TIDE","","","","","Y","","","","","","","","","","","","","","","","","","","","","","","","","","","","","","","","","","","","","","","","","","","","","","","","",""
1137909,"NRD CAPITAL MANAGEMENT II, LLC (RELYING ADVISER)","","","","","","","","","","","Y","","","","","","","","","","","","","","","","","","","","","","","","","","","","","","","","","","","","","","","","","","",""
1138213,"LEVEL EQUITY PARTNERS (GP), LLC (RELYING ADVISER)","","","","","","","","","","","","","","","","","","","","","","","","","","","","","","","","","","Y","","","","","","","","","","","","","","","","","","","",""
1138213,"LEVEL EQUITY PARTNERS II (GP), LLC (RELYING ADVISER)","","","","","","","","","","","","","","","","","","","","","","","","","","","","","","","","","","Y","","","","","","","","","","","","","","","","","","","",""
1138213,"LEVEL EQUITY PARTNERS III (GP), LLC (RELYING ADVISER)","","","","","","","","","","","","","","","","","","","","","","","","","","","","","","","","","","Y","","","","","","","","","","","","","","","","","","","",""
1138468,"EDGESTONE CAPITAL PARTNERS","","","","","","","","","","","","","","","","","","","","","","","","","","","","","","","","","","","","","","","","","","","","","","","","","","","","","","CANADA"
1139944,"BV6IM, L.L.C.","","","","","","Y","","Y","","","","","","","","","","","","","","Y","","","","","","","","","","","","","","","","","","","","","","","","","","","","","","","",""
1139944,"BV PARTNERS MANAGEMENT, L.L.C.","","","","","","Y","","Y","","","","","","","","","","","","","","Y","","","","","","","","","","","","","","","","","","","","","","","","","","","","","","","",""
1140517,"NEW CITY INVESTMENT MANAGERS","","","","","","","","","","","","","","","","","","","","","","","","","","","","","","","","","","","","","","","","","","","","","","","","","","","","","","UNITED KINGDOM"
1140770,"OPTUM VENTURES","","","","","","","","","","","","","","","","","","","","","","","Y","","","","","","","","","","","","","","","","","","","","","","","","","","","","","","",""
1141934,"HM4 PARTNERS, LP (RELYING ADVISER)","","","","","","","","","","","","","","","","","","","","","","","","","","","","","","","","","","","","","","","","","","","","","","Y","","","","","","","",""
1141934,"HM3/GP PARTNERS, LP (RELYING ADVISER)","","","","","","","","","","","","","","","","","","","","","","","","","","","","","","","","","","","","","","","","","","","","","","Y","","","","","","","",""
1141934,"HICKS, MUSE GP PARTNERS IV LP (RELYING ADVISER)","","","","","","","","","","","","","","","","","","","","","","","","","","","","","","","","","","","","","","","","","","","","","","Y","","","","","","","",""
1141934,"HICKS, MUSE GP PARTNERS III, LP (RELYING ADVISER)","","","","","","","","","","","","","","","","","","","","","","","","","","","","","","","","","","","","","","","","","","","","","","Y","","","","","","","",""
1141934,"HM EQUITY FUND IV/GP PARTNERS (1999) CV (RELYING ADVISER)","","","","","","","","","","","","","","","","","","","","","","","","","","","","","","","","","","","","","","","","","","","","","","Y","","","","","","","",""
1142419,"WEDBUSH CAPITAL MANAGEMENT, LLC (RELYING ADVISER)","","","","","Y","","","","","","","","","","","","","","","","","","","","","","","","","","","","","","","","","","","","","","","","","","","","","","","","",""
1142914,"SOFTBANK CAPITAL","","","","","","","","","","","","","","","","","","","","","","","Y","","","","","","","","","","","","","","","","","","","","","","","","","","","","","","",""
1143039,"NRD CAPITAL MANAGEMENT II, LLC (RELYING ADVISER)","","","","","","","","","","","Y","","","","","","","","","","","","","","","","","","","","","","","","","","","","","","","","","","","","","","","","","","",""
1143359,"KASE CAPITAL MANAGEMENT","","","","","","","","","","","","","","","","","","","","","","","","","","","","","","","","","","Y","","","","","","","","","","","","","","","","","","","",""
