"FilingID","ReferenceID","SubreferenceID","Website Address"
1058840,178088,68409,"WWW.ALTEGRIS.COM"
1058840,178089,68424,"WWW.ALTEGRIS.COM"
1058840,178087,68393,"WWW.ALTEGRIS.COM"
1058840,67161,34049,"WWW.ALTEGRIS.COM"
1058840,67162,34051,"WWW.ALTEGRIS.COM"
1058840,67168,34080,"WWW.ALTEGRIS.COM"
1058840,67167,34084,"WWW.ALTEGRIS.COM"
1058840,67160,34091,"WWW.ALTEGRIS.COM"
1058840,167417,61412,"WWW.ALTEGRIS.COM"
1058840,167416,61403,"WWW.ALTEGRIS.COM"
1058840,67163,34031,"WWW.ALTEGRIS.COM"
1058840,67166,34034,"WWW.ALTEGRIS.COM"
1058840,67156,34030,"WWW.ALTEGRIS.COM"
1058840,67169,34042,"WWW.ALTEGRIS.COM"
1058840,67171,34096,"WWW.ALTEGRIS.COM"
1060404,172815,65073,"WWW.WINTONCAPITAL.COM"
1058840,181138,69650,"WWW.ALTEGRIS.COM"
1058840,181137,69648,"WWW.ALTEGRIS.COM"
1060448,31239,66976,"WWW.CAISGROUP.COM"
1060448,31272,66982,"WWW.CAISGROUP.COM"
1058840,67157,34044,"WWW.ALTEGRIS.COM"
1062153,57036,34176,"WWW.PIPERJAFFRAY.COM"
1069589,57036,34176,"WWW.PIPERJAFFRAY.COM"
1058013,181094,69638,"HTTPS://WWW.ROTHSCHILDGESTION.FR/DASHBOARD.ASP"
1074585,56337,28232,"WWW.ASSETMANAGEMENT.HSBC.COM/FR"
1087432,62045,31546,"ICAPITALNETWORK.COM"
1094750,175732,67009,"WWW.SCHRODERS.LU"
1084994,17585,61713,"WWW.FNEX.COM"
1084461,48624,23396,"WWW.FARHILLS.COM"
1080073,29901,39906,"WWW.OPTIMA.COM"
1080073,29877,39907,"WWW.OPTIMA.COM"
1080073,29929,39912,"WWW.OPTIMA.COM"
1080073,29908,39917,"WWW.OPTIMA.COM"
1088338,8164,27936,"WWW.CAISGROUP.COM"
1074585,56337,28232,"WWW.ASSETMANAGEMENT.HSBC.COM/CH"
1074585,56337,28232,"WWW.ASSETMANAGEMENT.HSBC.COM/FI/GFC"
1074585,56337,28232,"WWW.ASSETMANAGEMENT.HSBC.COM/DK/GFC"
1074585,56337,28232,"WWW.FUNDINFO.COM"
1074585,56337,28232,"WWW.ASSETMANAGEMENT.HSBC.COM/SE/OMOSS/GFC"
1074585,56337,28232,"WWW.ASSETMANAGEMENT.HSBC.COM/NL"
1074585,56337,28232,"WWW.ASSETMANAGEMENT.HSBC.COM/BE"
1074585,56337,28232,"WWW.ASSETMANAGEMENT.HSBC.COM/IT"
1074585,56337,28232,"WWW.ASSETMANAGEMENT.HSBC.COM/NO/GFC"
1074585,56337,28231,"WWW.ASSETMANAGEMENT.HSBC.COM/MENA"
1074585,56337,28243,"WWW.ASSETMANAGEMENT.HSBC.COM/PL"
1074585,56337,28243,"WWW.ASSETMANAGEMENT.HSBC.COM/DE"
1074585,56337,28243,"WWW.ASSETMANAGEMENT.HSBC.COM/CZ"
1074585,56337,28244,"WWW.ASSETMANAGEMENT.HSBC.COM/AT"
1074585,56337,28247,"WWW.EXPAT.HSBC.COM/1/2/JERSEYFUNDINVESTMENTS"
1074585,56337,28247,"WWW.EXPAT.HSBC.COM/1/2/HSBC-EXPAT/WEALTH-MANAGEMENT/INVESTMENT-OPTIONS"
1074585,56337,28249,"WWW.ASSETMANAGEMENT.HSBC.COM/SG"
1074585,56337,28250,"WWW.ASSETMANAGEMENT.HSBC.COM/ES"
1074585,56337,28252,"WWW.ASSETMANAGEMENT.HSBC.COM.TW"
1074585,56337,28253,"WWW.ASSETMANAGEMENT.HSBC.COM/UK/ADVISERS/GFC?FUNDID=HGIF033&SH=AC"
1074585,56337,28253,"WWW.ASSETMANAGEMENT.HSBC.COM/UK/INSTITUTIONS/GFC?FUNDID=HGIF033&SH=IC"
1074585,56337,28270,"WWW.EXPAT.HSBC.COM/1/2/HSBC-EXPAT/WEALTH-MANAGEMENT/INVESTMENT-OPTIONS"
1074585,56337,28270,"WWW.EXPAT.HSBC.COM/1/2/JERSEYFUNDINVESTMENTS"
1074585,56337,28254,"WWW.INVESTORFUNDS.US.HSBC.COM/OFFSHORE/DEFAULT.FS"
1088221,168417,62011,"HTTP://WWW.RACEROCKCAP.US/"
1088221,185895,72806,"HTTPS://WWW.RACEROCKCAP.US"
1086898,166543,72297,"WWW.JPMORGANSECURITIES.COM"
1077536,47288,63410,"HTTP://WWW.TANGENTCAPITAL.COM/"
1085381,62013,31950,"WWW.ACCESSALPHA.COM"
1085381,120385,51641,"WWW.ACCESSALPHA.COM"
1098375,168417,62011,"HTTP://WWW.RACEROCKCAP.US/"
1098316,29901,39906,"WWW.OPTIMA.COM"
1098316,29877,39907,"WWW.OPTIMA.COM"
1098316,29929,39912,"WWW.OPTIMA.COM"
1098316,29908,39917,"WWW.OPTIMA.COM"
1098375,185895,72806,"HTTPS://WWW.RACEROCKCAP.US"
1098632,35443,41805,"HTTP://WELCOME.VENOVATE.COM"
1098632,35526,41806,"HTTP://WELCOME.VENOVATE.COM"
1098632,63164,41810,"HTTP://WELCOME.VENOVATE.COM"
1098632,35515,42609,"HTTP://WELCOME.VENOVATE.COM"
1098632,175867,67054,"HTTP://WELCOME.VENOVATE.COM"
1070419,25781,11704,"WWW.GMO.COM"
1070419,25781,11705,"WWW.GMO.COM"
1070419,25781,11706,"WWW.GMO.COM"
1070419,17029,10043,"WWW.GMO.COM"
1070419,17029,10044,"WWW.GMO.COM"
1070419,17029,10045,"WWW.GMO.COM"
1070419,17029,10047,"WWW.GMO.COM"
1070419,24661,10048,"WWW.GMO.COM"
1070419,24661,10049,"WWW.GMO.COM"
1070419,24661,10050,"WWW.GMO.COM"
1070419,24661,10051,"WWW.GMO.COM"
1070419,24698,10080,"WWW.GMO.COM"
1070419,24698,10079,"WWW.GMO.COM"
1070419,24698,10081,"WWW.GMO.COM"
1070419,24698,10083,"WWW.GMO.COM"
1070419,24705,10088,"WWW.GMO.COM"
1070419,24705,10089,"WWW.GMO.COM"
1070419,24705,10090,"WWW.GMO.COM"
1070419,24705,10091,"WWW.GMO.COM"
1070419,24820,10207,"WWW.GMO.COM"
1070419,24820,10208,"WWW.GMO.COM"
1070419,24820,10209,"WWW.GMO.COM"
1070419,24820,10210,"WWW.GMO.COM"
1070419,24830,10213,"WWW.GMO.COM"
1070419,24830,10214,"WWW.GMO.COM"
1070419,24830,10215,"WWW.GMO.COM"
1070419,24830,10216,"WWW.GMO.COM"
1070419,24835,10219,"WWW.GMO.COM"
1070419,24835,10220,"WWW.GMO.COM"
1070419,24835,10221,"WWW.GMO.COM"
1070419,24835,10222,"WWW.GMO.COM"
1070419,24877,10372,"WWW.GMO.COM"
1070419,24877,10373,"WWW.GMO.COM"
1070419,24877,10374,"WWW.GMO.COM"
1070419,25493,11534,"WWW.GMO.COM"
1070419,69920,35405,"WWW.GMO.COM"
1070419,69920,35406,"WWW.GMO.COM"
1070419,69920,35403,"WWW.GMO.COM"
1070419,54524,27392,"WWW.GMO.COM"
1070419,54524,27393,"WWW.GMO.COM"
1070419,54524,27394,"WWW.GMO.COM"
1070419,54524,27395,"WWW.GMO.COM"
1070419,54542,27436,"WWW.GMO.COM"
1070419,54542,27437,"WWW.GMO.COM"
1070419,54542,27438,"WWW.GMO.COM"
1070419,54542,27439,"WWW.GMO.COM"
1070419,25681,11633,"WWW.GMO.COM"
1070419,24877,10375,"WWW.GMO.COM"
1070419,69920,35404,"WWW.GMO.COM"
1070419,25493,11535,"WWW.GMO.COM"
1070419,25493,11536,"WWW.GMO.COM"
1070419,25493,11537,"WWW.GMO.COM"
1070419,25510,11538,"WWW.GMO.COM"
1070419,25510,11539,"WWW.GMO.COM"
1070419,25510,11540,"WWW.GMO.COM"
1070419,25510,11541,"WWW.GMO.COM"
1070419,25579,11583,"WWW.GMO.COM"
1070419,25579,11584,"WWW.GMO.COM"
1070419,25579,11585,"WWW.GMO.COM"
1070419,25579,11586,"WWW.GMO.COM"
1070419,25586,11592,"WWW.GMO.COM"
1070419,67619,34622,"WWW.GMO.COM"
1070419,67619,34623,"WWW.GMO.COM"
1070419,67619,34624,"WWW.GMO.COM"
1070419,67619,34625,"WWW.GMO.COM"
1070419,67618,34626,"WWW.GMO.COM"
1070419,67618,34627,"WWW.GMO.COM"
1070419,67618,34628,"WWW.GMO.COM"
1070419,67618,34629,"WWW.GMO.COM"
1070419,67782,34630,"WWW.GMO.COM"
1070419,67782,34631,"WWW.GMO.COM"
1070419,67782,34632,"WWW.GMO.COM"
1070419,67782,34633,"WWW.GMO.COM"
1070419,25586,11593,"WWW.GMO.COM"
1070419,25586,11594,"WWW.GMO.COM"
1070419,25586,11595,"WWW.GMO.COM"
1070419,25673,11626,"WWW.GMO.COM"
1070419,25673,11627,"WWW.GMO.COM"
1070419,25673,11628,"WWW.GMO.COM"
1070419,25673,11629,"WWW.GMO.COM"
1070419,25737,11666,"WWW.GMO.COM"
1070419,25681,11631,"WWW.GMO.COM"
1070419,25681,11632,"WWW.GMO.COM"
1070419,25681,11634,"WWW.GMO.COM"
1070419,25688,11638,"WWW.GMO.COM"
1070419,25688,11635,"WWW.GMO.COM"
1070419,25688,11636,"WWW.GMO.COM"
1070419,25688,11637,"WWW.GMO.COM"
1070419,25699,11641,"WWW.GMO.COM"
1070419,25699,11642,"WWW.GMO.COM"
1070419,25699,11643,"WWW.GMO.COM"
1070419,25699,11644,"WWW.GMO.COM"
1070419,25718,11651,"WWW.GMO.COM"
1070419,25718,11652,"WWW.GMO.COM"
1070419,25718,11653,"WWW.GMO.COM"
1070419,25718,11654,"WWW.GMO.COM"
1070419,25737,11668,"WWW.GMO.COM"
1070419,25737,11669,"WWW.GMO.COM"
1070419,25772,11699,"WWW.GMO.COM"
1070419,25772,11700,"WWW.GMO.COM"
1070419,25772,11701,"WWW.GMO.COM"
1070419,25772,11702,"WWW.GMO.COM"
1070419,25737,11667,"WWW.GMO.COM"
1070419,25781,11703,"WWW.GMO.COM"
1075444,7209,2860,"WWW.ALFIPARTNERS.COM"
1086184,178438,68603,"GQGPARTNERS.COM"
1086184,178436,68602,"GQGPARTNERS.COM"
1086184,178439,68604,"GQGPARTNERS.COM"
1088636,170806,63277,"HTTP\\WWW.EQ-CAP.COM"
1088636,185445,72502,"HTTP\\WWW.EQ-CAP.COM"
1079684,25464,16481,"WWW.COMMONFUND.ORG"
1079684,25478,16491,"WWW.COMMONFUND.ORG"
1079684,25485,16492,"WWW.COMMONFUND.ORG"
1079684,25487,16516,"WWW.COMMONFUND.ORG"
1079684,25491,16518,"WWW.COMMONFUND.ORG"
1079684,45960,22416,"WWW.COMMONFUND.ORG"
1099760,47151,72259,"HTTP://WWW.EATONPARTNERSLLC.COM/"
1093874,175603,73436,"WWW.CAISGROUP.COM"
1093874,186860,73437,"WWW.CAISGROUP.COM"
1064358,60924,30926,"HTTP://HODESWEILL.COM/"
1072692,3763,40667,"HTTPS://WWW.CAISGROUP.COM/"
1080211,184015,74765,"WWW.PROBITASPARTNERS.COM"
1081709,184173,71873,"WWW.NOAHWM.HK"
1081709,184173,71874,"HTTP://WWW.PRIVILEDGECAPITAL.CH"
1081709,184177,71875,"WWW.DB.COM"
1081709,184173,71872,"WWW.NB.COM"
1081709,184173,71871,"WWW.EFGAM.COM"
1081709,184173,71870,"WWW.DB.COM"
1081709,70015,39815,"HTTP://WWW.PRIVILEDGECAPITAL.CH"
1081709,4472,65203,"HTTPS://EMERALDPOINTCAPITAL.COM/"
1081709,70019,66102,"HTTP://WWW.PRIVILEDGECAPITAL.CH"
1081709,70013,67481,"HTTP://WWW.PRIVILEDGECAPITAL.CH"
1081709,58891,67480,"HTTP://WWW.PRIVILEDGECAPITAL.CH"
1081709,70018,66100,"HTTP://WWW.PRIVILEDGE.CH/"
1081709,4479,66095,"HTTPS://EMERALDPOINTCAPITAL.COM/"
1081709,184172,71863,"WWW.DB.COM"
1081709,184172,71864,"WWW.EFGAM.COM"
1081709,184172,71868,"HTTP://WWW.PRIVILEDGECAPITAL.CH"
1081709,184177,71877,"WWW.NB.COM"
1081709,184177,71876,"WWW.EFGAM.COM"
1081709,184177,71878,"WWW.NOAHWM.HK"
1081709,184177,71879,"HTTP://WWW.PRIVILEDGECAPITAL.CH"
1081709,184172,71865,"WWW.NB.COM"
1081709,184172,71866,"WWW.NOAHWM.HK"
1098358,27520,39748,"WWW.OPTIMA.COM"
1098358,27723,39667,"WWW.OPTIMA.COM"
1098358,27662,39672,"WWW.OPTIMA.COM"
1098358,27704,39674,"WWW.OPTIMA.COM"
1098358,27674,39677,"WWW.OPTIMA.COM"
1098358,27688,39685,"WWW.OPTIMA.COM"
1095043,22461,66917,"WWW.CLARITYSPRING.COM"
1095043,22461,67219,"WWW.TAMARACKVP.COM"
1079684,55990,28083,"WWW.COMMONFUND.ORG"
1079684,25443,16525,"WWW.COMMONFUND.ORG"
1079684,25445,16527,"WWW.COMMONFUND.ORG"
1079684,25446,16530,"WWW.COMMONFUND.ORG"
1079684,25450,16531,"WWW.COMMONFUND.ORG"
1079684,25165,16553,"WWW.COMMONFUND.ORG"
1079684,25167,16554,"WWW.COMMONFUND.ORG"
1079684,25142,16569,"WWW.COMMONFUND.ORG"
1079684,25146,16570,"WWW.COMMONFUND.ORG"
1079684,25462,16467,"WWW.COMMONFUND.ORG"
1079684,25469,16484,"WWW.COMMONFUND.ORG"
1079684,25471,16488,"WWW.COMMONFUND.ORG"
1079684,65856,33599,"WWW.COMMONFUND.ORG"
1079684,65857,33600,"WWW.COMMONFUND.ORG"
1079684,65859,33601,"WWW.COMMONFUND.ORG"
1079684,65860,33602,"WWW.COMMONFUND.ORG"
1079684,65861,33603,"WWW.COMMONFUND.ORG"
1079684,25455,16576,"WWW.COMMONFUND.ORG"
1079684,25459,16454,"WWW.COMMONFUND.ORG"
1079684,25162,16540,"WWW.COMMONFUND.ORG"
1079684,25150,16543,"WWW.COMMONFUND.ORG"
1079684,25153,16544,"WWW.COMMONFUND.ORG"
1079684,25157,16545,"WWW.COMMONFUND.ORG"
1079684,25195,16547,"WWW.COMMONFUND.ORG"
1079684,25170,16548,"WWW.COMMONFUND.ORG"
1079684,25179,16549,"WWW.COMMONFUND.ORG"
1079684,25186,16550,"WWW.COMMONFUND.ORG"
1079684,25192,16552,"WWW.COMMONFUND.ORG"
1079684,25439,16561,"WWW.COMMONFUND.ORG"
1079684,167075,61282,"WWW.COMMONFUND.ORG"
1079684,167076,61283,"WWW.COMMONFUND.ORG"
1079684,167077,61284,"WWW.COMMONFUND.ORG"
1079684,167078,61285,"WWW.COMMONFUND.ORG"
1079684,167069,61281,"WWW.COMMONFUND.ORG"
1079684,167079,61286,"WWW.COMMONFUND.ORG"
1079684,179629,69157,"WWW.COMMONFUND.ORG"
1079684,25463,16478,"WWW.COMMONFUND.ORG"
1072481,24700,17019,"WWW.COMMONFUND.ORG"
1072481,65948,33640,"WWW.COMMONFUND.ORG"
1072481,65946,33638,"WWW.COMMONFUND.ORG"
1072481,24261,16978,"WWW.COMMONFUND.ORG"
1072481,24329,16987,"WWW.COMMONFUND.ORG"
1072481,24417,16994,"WWW.COMMONFUND.ORG"
1072481,24453,16997,"WWW.COMMONFUND.ORG"
1072481,24436,16999,"WWW.COMMONFUND.ORG"
1072481,24378,17000,"WWW.COMMONFUND.ORG"
1072481,24378,17000,"WWW.COMMONFUND.ORG"
1072481,64237,32761,"WWW.COMMONFUND.ORG"
1072481,65947,33639,"WWW.COMMONFUND.ORG"
1072481,55743,27942,"WWW.COMMONFUND.ORG"
1072481,167161,61297,"WWW.COMMONFUND.ORG"
1072481,179174,68920,"WWW.COMMONFUND.ORG"
1072481,64240,32762,"WWW.COMMONFUND.ORG"
1072481,24461,17007,"WWW.COMMONFUND.ORG"
1072481,177761,68199,"WWW.COMMONFUND.ORG"
1072481,24728,17023,"WWW.COMMONFUND.ORG"
1072481,24706,17032,"WWW.COMMONFUND.ORG"
1072481,24493,17033,"WWW.COMMONFUND.ORG"
1072481,24714,17034,"WWW.COMMONFUND.ORG"
1072481,24486,17035,"WWW.COMMONFUND.ORG"
1072481,24312,17020,"WWW.COMMONFUND.ORG"
1072481,24487,17036,"WWW.COMMONFUND.ORG"
1072481,46055,22435,"WWW.COMMONFUND.ORG"
1072481,54698,27541,"WWW.COMMONFUND.ORG"
1072481,56131,28153,"WWW.COMMONFUND.ORG"
1072481,24475,17005,"WWW.COMMONFUND.ORG"
1072481,24719,18340,"WWW.COMMONFUND.ORG"
1072481,24424,18576,"WWW.COMMONFUND.ORG"
1072481,24384,18960,"WWW.COMMONFUND.ORG"
1072481,24057,18986,"WWW.COMMONFUND.ORG"
1072481,24469,17017,"WWW.COMMONFUND.ORG"
1072481,24397,19008,"WWW.COMMONFUND.ORG"
1072481,24132,16971,"WWW.COMMONFUND.ORG"
1072481,24408,16973,"WWW.COMMONFUND.ORG"
1072481,24243,16974,"WWW.COMMONFUND.ORG"
1072481,24338,16976,"WWW.COMMONFUND.ORG"
1084195,48983,23615,"WWW.OPTIMA.COM"
1086244,67157,34044,"WWW.ALTEGRIS.COM"
1086244,178088,68409,"WWW.ALTEGRIS.COM"
1086244,178089,68424,"WWW.ALTEGRIS.COM"
1086244,178087,68393,"WWW.ALTEGRIS.COM"
1086244,67161,34049,"WWW.ALTEGRIS.COM"
1086244,67162,34051,"WWW.ALTEGRIS.COM"
1086244,67168,34080,"WWW.ALTEGRIS.COM"
1086244,67160,34091,"WWW.ALTEGRIS.COM"
1086244,167417,61412,"WWW.ALTEGRIS.COM"
1086244,167416,61403,"WWW.ALTEGRIS.COM"
1086244,67163,34031,"WWW.ALTEGRIS.COM"
1086244,67166,34034,"WWW.ALTEGRIS.COM"
1086244,67156,34030,"WWW.ALTEGRIS.COM"
1086244,67169,34042,"WWW.ALTEGRIS.COM"
1086244,67171,34096,"WWW.ALTEGRIS.COM"
1086244,181137,69648,"WWW.ALTEGRIS.COM"
1071946,182846,71318,"WWW.BLUESANDCAPITAL.COM"
1100593,64568,32944,"WWW.NAPIERPARKGLOBAL.COM"
1100773,64568,32944,"WWW.NAPIERPARKGLOBAL.COM"
1076219,29005,14596,"WWW.TRESTLEPOINT.COM"
1076219,29909,15258,"WWW.TRESTLEPOINT.COM"
1076219,69701,64404,"WWW.TRESTLEPOINT.COM"
1083140,186711,73550,"WWW.MONTLAKECAP.COM"
1097112,1723,1095,"WWW.MERCURYCAPITALADVISORS.COM"
1097112,1723,1096,"WWW.SPARRINGPARTNERSCAPITAL.COM"
1078153,6422,2506,"HTTPS://FARHILLS.COM"
1078153,6448,2510,"HTTPS://FARHILLS.COM"
1078153,6446,2509,"HTTPS://FARHILLS.COM"
1078153,6399,2504,"HTTPS://FARHILLS.COM"
1078153,6414,2505,"HTTPS://FARHILLS.COM"
1098358,188377,74415,"WWW.OPTIMA.COM"
1098358,188369,74414,"WWW.OPTIMA.COM"
1075310,24574,65694,"ICAPITALNETWORK.COM"
1071615,8164,27936,"WWW.CAISGROUP.COM"
1088847,172815,65073,"WWW.WINTON.COM"
1075644,120322,51608,"WWW.HSBC.CA"
1069344,37577,18846,"WWW.PERINVEST.CO.UK"
1070976,167738,69108,"HTTP://IRONBARK.COM"
1070976,29919,15267,"HTTP://IRONBARKAM.COM"
1070976,30300,15454,"HTTP://IRONBARKAM.COM"
1070976,27867,13606,"HTTP://IRONBARKAM.COM"
1070976,28767,14483,"HTTP://IRONBARKAM.COM"
1070976,55836,27999,"HTTP://IRONBARKAM.COM"
1070976,29436,15212,"HTTP://IRONBARKAM.COM"
1070976,29389,15211,"HTTP://IRONBARKAM.COM"
1070976,29823,15218,"HTTP://IRONBARKAM.COM"
1070976,29887,15249,"HTTP://IRONBARKAM.COM"
1092863,168117,73203,"WWW.FCSCAP.COM"
1092863,26744,73206,"WWW.FCSCAP.COM"
1092863,168117,61759,"WWW.CLEARWAYCAPITAL.COM.AU"
1092863,26744,13066,"WWW.CLEARWAYCAPITAL.COM.AU"
1098577,60789,30551,"WWW.PINNACLETRUSTPARTNERS.COM"
1098577,4318,3931,"WWW.PINNACLETRUSTPARTNERS.COM"
1098577,4315,4157,"WWW.PINNACLETRUSTPARTNERS.COM"
1098577,4364,4161,"WWW.PINNACLETRUSTPARTNERS.COM"
1098577,4366,4163,"WWW.PINNACLETRUSTPARTNERS.COM"
1098577,60789,30556,"WWW.POLARIS-INVESTMENTS.CH"
1079966,17516,64604,"WWW.FARHILLS.COM (PASSWORD PROTECTED)"
1079966,16219,64590,"WWW.FARHILLS.COM  (PASSWORD PROTECTED)"
1079966,180727,69543,"WWW.FARHILLS.COM (PASSWORD PROTECTED)"
1074995,57136,33183,"HTTP://WWW.FMBINVESTMENTS.COM/EN/PERFORMANCE.HTM"
1074995,57136,61349,"HTTP://KIMFO-FS.COM/DISCLOSURE.HTM"
1074995,57136,63418,"WWW.PROACTIVEINVESTORS.COM"
1082254,55019,40527,"HTTPS://TWITTER.COM/CAMP1VENTURES"
1101115,17516,64604,"WWW.FARHILLS.COM (PASSWORD PROTECTED)"
1101115,16219,64590,"WWW.FARHILLS.COM  (PASSWORD PROTECTED)"
1101115,180727,69543,"WWW.FARHILLS.COM (PASSWORD PROTECTED)"
1049114,170061,62711,"WWW.ASHMOREGROUP.COM"
1049114,170065,62712,"WWW.ASHMOREGROUP.COM"
1049114,166381,61233,"WWW.ASHMOREGROUP.COM"
1049114,168064,61722,"WWW.ASHMOREGROUP.COM"
1082254,55019,40527,"HTTPS://PLUS.GOOGLE.COM/+CAMPONEVENTURES/POSTS"
1082254,55019,40527,"HTTPS://INSTAGRAM.COM/CAMPONEVENTURES/"
1082254,55019,40527,"WWW.CAMPONEVENTURES.COM"
1101115,16113,71802,"WWW.FARHILLS.COM (PASSWORD PROTECTED)"
1079966,16113,71802,"WWW.FARHILLS.COM (PASSWORD PROTECTED)"
1096903,174472,74089,"WWW.CRESTAWESTHALL.COM"
1082254,55019,40527,"HTTPS://WWW.FACEBOOK.COM/CAMPONEVENTURES"
1082254,55019,40527,"HTTPS://WWW.YOUTUBE.COM/USER/CAMPONEVENTURES"
1082254,55019,40527,"HTTPS://WWW.LINKEDIN.COM/COMPANY/CAMP-ONE-VENTURES-LLC"
1082254,51653,40571,"HTTPS://INSTAGRAM.COM/CAMPONEVENTURES/"
1082254,51653,40571,"HTTPS://PLUS.GOOGLE.COM/+CAMPONEVENTURES/POSTS"
1082254,51653,40571,"HTTPS://TWITTER.COM/CAMP1VENTURES"
1082254,51653,40571,"HTTPS://WWW.FACEBOOK.COM/CAMPONEVENTURES"
1082254,51653,40571,"HTTPS://WWW.YOUTUBE.COM/USER/CAMPONEVENTURES"
1082254,51653,40571,"HTTPS://WWW.LINKEDIN.COM/COMPANY/CAMP-ONE-VENTURES-LLC"
1082254,51653,40571,"HTTP://WWW.CAMPONEVENTURES.COM/"
1082254,55019,31527,"WWW.CAMPONEVENTURES.COM"
1082254,51653,31529,"WWW.CAMPONEVENTURES.COM"
1082254,55019,27702,"WWW.CAMPONEVENTURES.COM"
1082254,51653,25202,"WWW.CAMPONEVENTURES.COM"
1082254,51653,29427,"WWW.CAMPONEVENTURES.COM"
1082254,55019,29429,"WWW.CAMPONEVENTURES.COM"
1082254,171940,64209,"HTTPS://PLUS.GOOGLE.COM/+CAMPONEVENTURES/POSTS"
1082254,171940,64209,"HTTPS://INSTAGRAM.COM/CAMPONEVENTURES/"
1082254,171940,64209,"WWW.CAMPONEVENTURES.COM"
1082254,171940,64209,"HTTPS://TWITTER.COM/CAMP1VENTURES"
1082254,171940,64209,"HTTPS://WWW.FACEBOOK.COM/CAMPONEVENTURES"
1082254,171940,64209,"HTTPS://WWW.YOUTUBE.COM/USER/CAMPONEVENTURES"
1082254,171940,64209,"HTTPS://WWW.LINKEDIN.COM/COMPANY/CAMP-ONE-VENTURES-LLC"
1082254,171940,64210,"WWW.CAMPONEVENTURES.COM"
1082254,171940,64211,"WWW.CAMPONEVENTURES.COM"
1082254,171940,64212,"WWW.CAMPONEVENTURES.COM"
1077487,1723,1095,"WWW.MERCURYCAPITALADVISORS.COM"
1077487,1723,1096,"WWW.SPARRINGPARTNERSCAPITAL.COM"
1093020,168120,73239,"WWW.FCSCAP.COM"
1093020,6770,73242,"WWW.FCSCAP.COM"
1093020,168120,61760,"WWW.CLEARWAYCAPITAL.COM.AU"
1093020,6770,14400,"WWW.CLEARWAYCAPITAL.COM.AU"
1072014,56337,28232,"WWW.ASSETMANAGEMENT.HSBC.COM/CH"
1072014,56337,28232,"WWW.ASSETMANAGEMENT.HSBC.COM/FI/GFC"
1072014,56337,28232,"WWW.ASSETMANAGEMENT.HSBC.COM/DK/GFC"
1072014,56337,28232,"WWW.FUNDINFO.COM"
1072014,56337,28232,"WWW.ASSETMANAGEMENT.HSBC.COM/SE/OMOSS/GFC"
1072014,56337,28232,"WWW.ASSETMANAGEMENT.HSBC.COM/NL"
1072014,56337,28232,"WWW.ASSETMANAGEMENT.HSBC.COM/FR"
1072014,56337,28232,"WWW.ASSETMANAGEMENT.HSBC.COM/BE"
1072014,56337,28232,"WWW.ASSETMANAGEMENT.HSBC.COM/IT"
1072014,56337,28232,"WWW.ASSETMANAGEMENT.HSBC.COM/NO/GFC"
1072014,56337,28231,"WWW.ASSETMANAGEMENT.HSBC.COM/MENA"
1072014,56337,28243,"WWW.ASSETMANAGEMENT.HSBC.COM/HU"
1072014,56337,28243,"WWW.ASSETMANAGEMENT.HSBC.COM/DE"
1072014,56337,28243,"WWW.ASSETMANAGEMENT.HSBC.COM/CZ"
1072014,56337,28244,"WWW.ASSETMANAGEMENT.HSBC.COM/AT"
1072014,56337,28247,"WWW.EXPAT.HSBC.COM/1/2/JERSEYFUNDINVESTMENTS"
1072014,56337,28247,"WWW.EXPAT.HSBC.COM/1/2/HSBC-EXPAT/WEALTH-MANAGEMENT/INVESTMENT-OPTIONS"
1072014,56337,28249,"WWW.ASSETMANAGEMENT.HSBC.COM/SG"
1072014,56337,28250,"WWW.ASSETMANAGEMENT.HSBC.COM/ES"
1072014,56337,28252,"WWW.ASSETMANAGEMENT.HSBC.COM.TW"
1072014,56337,28253,"WWW.ASSETMANAGEMENT.HSBC.COM/UK/ADVISERS/GFC?FUNDID=HGIF033&SH=AC"
1072014,56337,28253,"WWW.ASSETMANAGEMENT.HSBC.COM/UK/INSTITUTIONS/GFC?FUNDID=HGIF033&SH=IC"
1072014,56337,28270,"WWW.EXPAT.HSBC.COM/1/2/HSBC-EXPAT/WEALTH-MANAGEMENT/INVESTMENT-OPTIONS"
1072014,56337,28270,"WWW.EXPAT.HSBC.COM/1/2/JERSEYFUNDINVESTMENTS"
1072014,56337,28254,"WWW.INVESTORFUNDS.US.HSBC.COM/OFFSHORE/DEFAULT.FS"
1080487,54456,30473,"HTTP://WWW.AMALGAMATEDBANK.COM"
1073815,168417,62011,"HTTP://WWW.RACEROCKCAP.US/"
1069398,8164,27936,"WWW.CAISGROUP.COM"
1073155,41054,33755,"WWW.ASHMOREGROUP.COM"
1073155,64006,33757,"WWW.ASHMOREGROUP.COM"
1073155,64009,33759,"WWW.ASHMOREGROUP.COM"
1073155,47088,33756,"WWW.ASHMOREGROUP.COM"
1086449,47151,72259,"HTTP://WWW.EATONPARTNERSLLC.COM/"
1079624,64568,32944,"WWW.NAPIERPARKGLOBAL.COM"
1089413,5594,2221,"HTTP://WWW.PINNACLETRUSTPARTNERS.COM"
1089413,5596,2223,"HTTP://WWW.PINNACLETRUSTPARTNERS.COM"
1089597,55929,28039,"WWW.SILVERLEAFPARTNERS.COM"
1089597,77713,43181,"WWW.SILVERLEAFPARTNERS.COM"
1089597,173381,65041,"WWW.SILVERLEAFPARTNERS.COM"
1101111,48624,23396,"WWW.FARHILLS.COM"
1101111,48624,75514,"WWW.KPGCAPITALPARTNERS.COM"
1082394,29430,72561,"HTTPS://ARTIVEST.CO"
1078317,181142,69658,"UBS.COM"
1078317,45066,22037,"LIQUIDITYDIRECT.COM"
1078317,45072,22038,"SUNGARD.COM"
1078317,45072,22039,"CASHPORTAL.UBS.COM"
1078317,45072,22040,"UBS.COM"
1078317,45072,22041,"UBS.COM"
1078317,45072,22042,"LIQUIDITYDIRECT.COM"
1078317,45073,22043,"SUNGARD.COM"
1078317,45039,22026,"LIQUIDITYDIRECT.COM"
1078317,45039,22029,"SUNGARD.COM"
1078317,45039,22030,"CASHPORTAL.UBS.COM"
1078317,45039,22031,"UBS.COM"
1078317,45039,22032,"UBS.COM"
1078317,45073,22044,"CASHPORTAL.UBS.COM"
1078317,45073,22045,"UBS.COM"
1078317,45073,22046,"UBS.COM"
1078317,45073,22047,"LIQUIDITYDIRECT.COM"
1078317,45066,22033,"SUNGARD.COM"
1078317,45066,22034,"CASHPORTAL.UBS.COM"
1078317,45066,22035,"UBS.COM"
1078317,45066,22036,"UBS.COM"
1078317,45073,64934,"GOLDMANSACHS.COM"
1078317,45039,64929,"GOLDMANSACHS.COM"
1078317,45066,64930,"GOLDMANSACHS.COM"
1078317,45072,64931,"GOLDMANSACHS.COM"
1078317,181145,72939,"GOLDMANSACHS.COM"
1078317,181145,72940,"UBS.COM"
1078317,45039,72943,"GLOBALLINK.COM"
1078317,45072,72949,"GLOBALLINK.COM"
1078317,45073,72952,"GLOBALLINK.COM"
1073800,186441,73630,"WWW.ICAPITALNETWORK.COM"
1073800,186753,73856,"WWW.ICAPITALNETWORK.COM"
1091524,19305,61939,"WWW.CDKGROUP.COM"
1091524,19372,61938,"WWW.CDKGROUP.COM"
1091524,19354,7444,"WWW.CDKGROUP.COM"
1091524,19236,7432,"WWW.CDKGROUP.COM"
1091524,19294,7437,"WWW.CDKGROUP.COM"
1091524,19325,7441,"WWW.CDKGROUP.COM"
1078317,181142,72505,"GOLDMANSACHS.COM"
1078317,45066,72947,"GLOBALLINK.COM"
1078317,181145,72494,"CASHPORTAL.UBS.COM"
1078317,181145,72496,"LIQUIDITYDIRECT.COM"
1078317,181145,72498,"GLOBALLINK.COM"
1078317,181145,72501,"UBS.COM"
1078317,181142,72503,"CASHPORTAL.UBS.COM"
1078317,181142,72504,"LIQUIDITYDIRECT.COM"
1078317,181142,72506,"GLOBALLINK.COM"
1078317,181142,72509,"UBS.COM"
1078317,181145,72499,"SUNGARD.COM"
1078317,181142,72507,"SUNGARD.COM"
1079213,189288,75237,"WWW.MMC.COM"
1090454,39192,19820,"WWW.OPTIMA.COM"
1090454,39473,19835,"WWW.OPTIMA.COM"
1090454,39486,19838,"WWW.OPTIMA.COM"
1095838,180024,69329,"WWW.CLARITYSPRING.COM"
1090339,62703,73416,"WWW.PERSHING.COM"
1090339,62703,73409,"WWW.PERSHING.COM"
1082394,28985,72553,"HTTPS://ARTIVEST.CO"
1079213,189271,75223,"WWW.BRIGHTONHOUSEASSOCIATES.COM"
1079213,189271,75224,"WWW.MMC.COM"
1079213,189271,75225,"WWW.CENTENIUMADV.COM"
1079213,189288,75235,"WWW.BRIGHTONHOUSEASSOCIATES.COM"
1079213,189288,75236,"WWW.CENTENIUMADV.COM"
1079213,173148,68919,"WWW.BRIGHTONHOUSEASSOCIATES.COM"
1079213,173145,68916,"WWW.BRIGHTONHOUSEASSOCIATES.COM"
1079213,173145,68915,"WWW.CENTENIUMADV.COM"
1079213,173140,68913,"WWW.BRIGHTONHOUSEASSOCIATES.COM"
1079213,173148,68918,"WWW.MMC.COM"
1079213,173145,68917,"WWW.MMC.COM"
1079213,173140,68911,"WWW.MMC.COM"
1079213,173140,68912,"WWW.CENTENIUMADV.COM"
1079213,173148,68914,"WWW.CENTENIUMADV.COM"
1074360,55437,31845,"HTTPS://SERVICES.INTRALINKS.COM/UI/FLEX/CIX.HTML"
1074360,61528,31112,"HTTPS://SERVICES.INTRALINKS.COM/UI/FLEX/CIX.HTML"
1074360,180700,69535,"HTTPS://SERVICES.INTRALINKS.COM/UI/FLEX/CIX.HTML"
1074360,61530,31113,"HTTPS://SERVICES.INTRALINKS.COM/UI/FLEX/CIX.HTML"
1074360,62157,66244,"HTTPS://SERVICES.INTRALINKS.COM/UI/FLEX/CIX.HTML"
1074360,180697,69532,"HTTPS://SERVICES.INTRALINKS.COM/UI/FLEX/CIX.HTML"
1074360,180699,69534,"HTTPS://SERVICES.INTRALINKS.COM/UI/FLEX/CIX.HTML"
1079441,170778,72522,"HTTP://VCPADVISORS.COM/"
1079441,64365,35592,"HTTP://VCPADVISORS.COM"
1089699,186007,74595,"WWW.ICAPITALNETWORK.COM"
1089699,173032,66997,"WWW.ICAPITALNETWORK.COM"
1089699,173025,66608,"WWW.ICAPITALNETWORK.COM"
1089699,186002,72890,"WWW.ICAPITALNETWORK.COM"
1079288,187367,73741,"HTTP://WWW.HSBC.CA"
1086664,184913,72270,"HTTP://WWW.ICAPITALNETWORK.COM"
1086664,184939,72276,"HTTP://WWW.ICAPITALNETWORK.COM"
1086664,173614,65195,"HTTP://WWW.ICAPITALNETWORK.COM"
1086664,173610,65187,"HTTP://WWW.ICAPITALNETWORK.COM"
1086664,173447,65188,"HTTP://WWW.ICAPITALNETWORK.COM"
1086664,173450,65189,"HTTP://WWW.ICAPITALNETWORK.COM"
1086664,173443,65190,"HTTP://WWW.ICAPITALNETWORK.COM"
1086664,75388,65191,"HTTP://WWW.ICAPITALNETWORK.COM"
1086664,166281,65192,"HTTP://WWW.ICAPITALNETWORK.COM"
1086664,173451,65322,"HTTP://WWW.ICAPITALNETWORK.COM"
1086664,174763,66330,"HTTP://WWW.ICAPITALNETWORK.COM"
1086664,184945,72282,"HTTP://ICAPITALNETWORK.COM"
1086664,184920,72272,"HTTP://ICAPITALNETWORK.COM"
1086664,184937,72273,"HTTP://WWW.ICAPITALNETWORK.COM"
1083235,72992,38262,"WWW.SCHEUERMANNCO.CH"
1083235,72472,38264,"WWW.GLOBALINTRINSICVALUEFUND.COM"
1083235,74065,40267,"WWW.SCHEUERMANNCO.CH"
1083235,74072,40272,"WWW.SCHEUERMANNCO.CH"
1083235,70380,38085,"WWW.SCHEUERMANNCO.CH"
1073837,76597,41616,"WWW.DODGEANDCOXWORLDWIDE.COM"
1073837,17998,6476,"WWW.DODGEANDCOXWORLDWIDE.COM"
1073837,18025,6477,"WWW.DODGEANDCOXWORLDWIDE.COM"
1073837,18027,6478,"WWW.DODGEANDCOXWORLDWIDE.COM"
1092202,53280,66899,"WWW.MERCURYIFUNDS.COM"
1092202,52768,66888,"WWW.MERCURYIFUNDS.COM"
1102592,176760,75683,"HTTPS://MERCURYCAPITALADVISORS.COM/"
1101826,189656,75786,"HTTP://WWW.SIXPOINTPARTNERS.COM/"
1101826,189433,75785,"HTTP://WWW.SIXPOINTPARTNERS.COM/"
1095546,172648,74535,"HTTPS://ARTIVEST.CO/ACCOUNTS/LOGIN/"
1093710,61349,41698,"ICAPITALNETWORK.COM"
1093710,76825,41716,"ICAPITALNETWORK.COM"
1096345,173669,66414,"PACCURRENT.COM"
1096345,173669,66410,"PACCURRENT.COM"
1091463,65131,74834,"WWW.EBWCAPITAL.COM"
1091463,65131,74455,"WWW.JOHANNGRAEMIGER.COM"
1095898,9298,3711,"WWW.CAMPBELL-LUTYENS.COM"
1095898,9287,3710,"WWW.CAMPBELL-LUTYENS.COM"
1096029,4069,74033,"HTTP://WWW.BROOKVINE.COM.AU/1/HOME"
1096029,4070,74035,"HTTP://WWW.BROOKVINE.COM.AU/1/HOME"
1096029,4072,74036,"HTTP://WWW.BROOKVINE.COM.AU/1/HOME"
1096029,4073,74041,"HTTP://WWW.BROOKVINE.COM.AU/1/HOME"
1096029,13344,74043,"HTTP://WWW.BROOKVINE.COM.AU/1/HOME"
1096029,13399,74051,"HTTP://WWW.BROOKVINE.COM.AU/1/HOME"
1096029,13449,74054,"HTTP://WWW.BROOKVINE.COM.AU/1/HOME"
1096029,13461,74056,"HTTP://WWW.BROOKVINE.COM.AU/1/HOME"
1096029,13493,74066,"HTTP://WWW.BROOKVINE.COM.AU/1/HOME"
1096029,4066,74031,"HTTP://WWW.BROOKVINE.COM.AU/1/HOME"
1096029,13475,74060,"HTTP://WWW.BROOKVINE.COM.AU/1/HOME"
1096029,13488,74064,"HTTP://WWW.BROOKVINE.COM.AU/1/HOME"
1096029,13351,74045,"HTTP://WWW.BROOKVINE.COM.AU/1/HOME"
1096029,4060,74029,"HTTP://WWW.BROOKVINE.COM.AU/1/HOME"
1096029,13357,74049,"HTTP://WWW.BROOKVINE.COM.AU/1/HOME"
1096029,13355,74047,"HTTP://WWW.BROOKVINE.COM.AU/1/HOME"
1096029,13469,74058,"HTTP://WWW.BROOKVINE.COM.AU/1/HOME"
1096029,13482,74062,"HTTP://WWW.BROOKVINE.COM.AU/1/HOME"
1098511,10896,25459,"WWW.TRIAGO.COM"
1098511,10896,25309,"WWW.TRIAGO.COM"
1091330,24574,65694,"ICAPITALNETWORK.COM"
1071113,60111,40757,"HTTP://WWW.ARTISANPARTNERSGLOBAL.COM/"
1089394,181094,69638,"HTTPS://WWW.ROTHSCHILDGESTION.FR/DASHBOARD.ASP"
1101258,8164,27936,"WWW.CAISGROUP.COM"
1103769,8164,27936,"WWW.CAISGROUP.COM"
1059492,14924,5389,"HTTP://WWW.PERINVEST.CO.UK"
1059492,5834,2576,"HTTP://WWW.PERINVEST.CO.UK"
1059492,15297,5508,"PERMAL.COM"
1059492,15264,5507,"PERMAL.COM"
1059492,5834,64819,"WWW.JPMORGAN.COM"
1089650,167839,75137,"WWW.AXIUSPARTNERS.COM/FUNDSMANAGEMENTPARTNRS"
1087032,162327,68075,"WWW.CAISGROUP.COM"
1087032,184999,72300,"WWW.CAISGROUP.COM"
1087032,185001,72301,"WWW.CAISGROUP.COM"
1100795,31239,66976,"WWW.CAISGROUP.COM"
1100795,31272,66982,"WWW.CAISGROUP.COM"
1101143,189678,75654,"WWW.SECTOR.NO"
1101143,189678,75654,"WWW.INCENTIVE-AS.COM"
1101143,157778,56891,"WWW.SECTOR.NO"
1101143,157778,56891,"WWW.INCENTIVE-AS.COM"
1085301,171889,73955,"HTTPS://WWW.ZANBATO.COM"
1085301,171886,73956,"HTTPS://WWW.ZANBATO.COM"
1085301,171885,73957,"HTTPS://WWW.ZANBATO.COM"
1085301,171884,73958,"HTTPS://WWW.ZANBATO.COM"
1097768,169992,62695,"WWW.HEDGECOSECURITIES.COM"
1097768,169992,62697,"WWW.SILVERLEAFPARTNERS.COM"
1085964,184797,72191,"WWW.GMO.COM"
1085964,184797,72190,"WWW.GMO.COM"
1085964,184797,72192,"WWW.GMO.COM"
1085964,184797,72193,"WWW.GMO.COM"
1085964,25781,11704,"WWW.GMO.COM"
1085964,25781,11705,"WWW.GMO.COM"
1085964,25781,11706,"WWW.GMO.COM"
1085964,17029,10043,"WWW.GMO.COM"
1085964,17029,10044,"WWW.GMO.COM"
1085964,17029,10045,"WWW.GMO.COM"
1085964,17029,10047,"WWW.GMO.COM"
1085964,24661,10048,"WWW.GMO.COM"
1085964,24661,10049,"WWW.GMO.COM"
1085964,24661,10050,"WWW.GMO.COM"
1085964,24661,10051,"WWW.GMO.COM"
1085964,24698,10080,"WWW.GMO.COM"
1085964,24698,10079,"WWW.GMO.COM"
1085964,24698,10081,"WWW.GMO.COM"
1085964,24698,10083,"WWW.GMO.COM"
1085964,24705,10088,"WWW.GMO.COM"
1085964,24705,10089,"WWW.GMO.COM"
1085964,24705,10090,"WWW.GMO.COM"
1085964,24705,10091,"WWW.GMO.COM"
1085964,24820,10207,"WWW.GMO.COM"
1085964,24820,10208,"WWW.GMO.COM"
1085964,24820,10209,"WWW.GMO.COM"
1085964,24820,10210,"WWW.GMO.COM"
1085964,24830,10213,"WWW.GMO.COM"
1085964,24830,10214,"WWW.GMO.COM"
1085964,24830,10215,"WWW.GMO.COM"
1085964,24830,10216,"WWW.GMO.COM"
1085964,24835,10219,"WWW.GMO.COM"
1085964,24835,10220,"WWW.GMO.COM"
1085964,24835,10221,"WWW.GMO.COM"
1085964,24835,10222,"WWW.GMO.COM"
1085964,24877,10372,"WWW.GMO.COM"
1085964,24877,10373,"WWW.GMO.COM"
1085964,24877,10374,"WWW.GMO.COM"
1085964,25493,11534,"WWW.GMO.COM"
1085964,69920,35405,"WWW.GMO.COM"
1085964,69920,35406,"WWW.GMO.COM"
1085964,69920,35403,"WWW.GMO.COM"
1085964,54524,27392,"WWW.GMO.COM"
1085964,54524,27393,"WWW.GMO.COM"
1085964,54524,27394,"WWW.GMO.COM"
1085964,54524,27395,"WWW.GMO.COM"
1085964,54542,27436,"WWW.GMO.COM"
1085964,54542,27437,"WWW.GMO.COM"
1085964,54542,27438,"WWW.GMO.COM"
1085964,54542,27439,"WWW.GMO.COM"
1085964,24877,10375,"WWW.GMO.COM"
1085964,69920,35404,"WWW.GMO.COM"
1085964,25493,11535,"WWW.GMO.COM"
1085964,25493,11536,"WWW.GMO.COM"
1085964,25493,11537,"WWW.GMO.COM"
1085964,25510,11538,"WWW.GMO.COM"
1085964,25510,11539,"WWW.GMO.COM"
1085964,25510,11540,"WWW.GMO.COM"
1085964,25510,11541,"WWW.GMO.COM"
1085964,25579,11583,"WWW.GMO.COM"
1085964,25579,11584,"WWW.GMO.COM"
1085964,25579,11585,"WWW.GMO.COM"
1085964,25579,11586,"WWW.GMO.COM"
1085964,25586,11592,"WWW.GMO.COM"
1085964,67619,34622,"WWW.GMO.COM"
1085964,67619,34623,"WWW.GMO.COM"
1085964,67619,34624,"WWW.GMO.COM"
1085964,67619,34625,"WWW.GMO.COM"
1085964,67618,34626,"WWW.GMO.COM"
1085964,67618,34627,"WWW.GMO.COM"
1085964,67618,34628,"WWW.GMO.COM"
1085964,67618,34629,"WWW.GMO.COM"
1085964,67782,34630,"WWW.GMO.COM"
1085964,67782,34631,"WWW.GMO.COM"
1085964,67782,34632,"WWW.GMO.COM"
1085964,67782,34633,"WWW.GMO.COM"
1085964,25586,11593,"WWW.GMO.COM"
1085964,25586,11594,"WWW.GMO.COM"
1085964,25586,11595,"WWW.GMO.COM"
1085964,25673,11626,"WWW.GMO.COM"
1085964,25673,11627,"WWW.GMO.COM"
1085964,25673,11628,"WWW.GMO.COM"
1085964,25673,11629,"WWW.GMO.COM"
1085964,25737,11666,"WWW.GMO.COM"
1085964,25688,11638,"WWW.GMO.COM"
1085964,25688,11635,"WWW.GMO.COM"
1085964,25688,11636,"WWW.GMO.COM"
1085964,25688,11637,"WWW.GMO.COM"
1085964,25699,11641,"WWW.GMO.COM"
1085964,25699,11642,"WWW.GMO.COM"
1085964,25699,11643,"WWW.GMO.COM"
1085964,25699,11644,"WWW.GMO.COM"
1085964,25718,11651,"WWW.GMO.COM"
1085964,25718,11652,"WWW.GMO.COM"
1085964,25718,11653,"WWW.GMO.COM"
1085964,25718,11654,"WWW.GMO.COM"
1085964,25737,11668,"WWW.GMO.COM"
1085964,25737,11669,"WWW.GMO.COM"
1085964,25772,11699,"WWW.GMO.COM"
1085964,25772,11700,"WWW.GMO.COM"
1085964,25772,11701,"WWW.GMO.COM"
1085964,25772,11702,"WWW.GMO.COM"
1085964,25737,11667,"WWW.GMO.COM"
1085964,25781,11703,"WWW.GMO.COM"
1085981,59282,29621,"WWW.GMO.COM"
1085981,59284,29623,"WWW.GMO.COM"
1085981,59261,29613,"WWW.GMO.COM"
1085981,59261,29614,"WWW.GMO.COM"
1085981,59261,29615,"WWW.GMO.COM"
1085981,59264,29617,"WWW.GMO.COM"
1085981,59261,29612,"WWW.GMO.COM"
1085981,59264,29593,"WWW.GMO.COM"
1085981,59264,29594,"WWW.GMO.COM"
1085981,59264,29595,"WWW.GMO.COM"
1085981,59264,29596,"WWW.GMO.COM"
1085981,59281,29599,"WWW.GMO.COM"
1085981,59281,29600,"WWW.GMO.COM"
1085981,59281,29601,"WWW.GMO.COM"
1085981,59281,29602,"WWW.GMO.COM"
1085981,59282,29603,"WWW.GMO.COM"
1085981,59282,29604,"WWW.GMO.COM"
1085981,59282,29605,"WWW.GMO.COM"
1085981,59282,29606,"WWW.GMO.COM"
1085981,59284,29607,"WWW.GMO.COM"
1085981,59284,29608,"WWW.GMO.COM"
1085981,59284,29609,"WWW.GMO.COM"
1085981,59284,29610,"WWW.GMO.COM"
1085981,59261,29619,"WWW.GMO.COM"
1085981,59281,29620,"WWW.GMO.COM"
1076802,16545,5939,"HODESWEILL.COM"
1076802,62757,32158,"HODESWEILL.COM"
