"FilingID","Fund Name","Fund ID","Adviser Name","Adviser SEC Number","Clients Solicited?"
1144572,"BTG PACTUAL ABSOLUTE RETURN II MASTER FUND",805-5015695299,"BTG PACTUAL ASSET MANAGEMENT US , LLC","801-71004","N"
1144389,"IK SMALL CAP FUND I",805-6078752733,"IK INVESTMENT PARTNERS LIMITED","802-74589","Y"
1144572,"BTG PACTUAL ABSOLUTE RETURN MASTER FUND, LP",805-8303692552,"BTG PACTUAL ASSET MANAGEMENT US , LLC","801-71004","N"
1144572,"BTG PACTUAL GLOBAL EMERGING MARKETS AND MACRO MASTER FUND LP",805-7479238879,"BTG PACTUAL ASSET MANAGEMENT US , LLC","801-71004","N"
1144309,"ABERDEEN GLOBAL - INDIAN EQUITY FUND",805-4931719822,"ABERDEEN ASSET MANAGEMENT ASIA LIMITED","801-62020","N"
1145606,"STONE MILLINER MACRO FUND LP",805-1763053235,"STONE MILLINER ASSET MANAGEMENT, LLP","802-74822","N"
1145606,"JPS MOORE, LP",805-6298473505,"STONE MILLINER ASSET MANAGEMENT, LLP","802-74822","N"
1145606,"STONE MILLINER MACRO FUND INC",805-5061288543,"STONE MILLINER ASSET MANAGEMENT, LLP","802-74822","Y"
1145606,"STONE MILLINER MACRO FUND DELAWARE LP",805-4686794655,"STONE MILLINER ASSET MANAGEMENT, LLP","802-74822","Y"
1137883,"NR 1 SP, A SEGREGATED PORTFOLIO OF LMA (EQUITIES) SPC",805-5517156357,"LIGHTHOUSE INVESTMENT PARTNERS, LLC","801-64978","N"
1137883,"MAP 216, A SEGREGATED PORTFOLIO OF LMA SPC",805-5073563535,"LIGHTHOUSE INVESTMENT PARTNERS, LLC","801-64978","N"
1149063,"EMORY CAPITAL SERIES FUND LLC",805-6543531376,"SCHONFELD STRATEGIC ADVISORS LLC","801-106963","N"
1149063,"WHITNEY CAPITAL SERIES FUND LLC",805-3974373214,"SCHONFELD STRATEGIC ADVISORS LLC","801-106963","N"
1149063,"DUKE CAPITAL SERIES FUND LLC",805-8694674034,"SCHONFELD STRATEGIC ADVISORS LLC","801-106963","N"
1156812,"TOPWATER STONEFLY FUND LLC",805-2756441721,"LEUCADIA ASSET MANAGEMENT LLC","801-78221","N"
1139376,"COVALIS CAPITAL ENHANCED MASTER FUND LTD",805-1837237624,"COVALIS CAPITAL LLP","802-107151","N"
1158393,"NR1 SP, A SEGREGATED PORTFOLIO OF NORTH ROCK SPC",805-5517156357,"LIGHTHOUSE INVESTMENT PARTNERS, LLC","801-64978","N"
1143594,"WHITNEY CAPITAL SERIES FUND LLC - SERIES E2",805-2944688894,"SCHONFELD STRATEGIC ADVISORS LLC","801-106963","N"
1158634,"PROPHECY ASSET MANAGEMENT, LP",805-1434018557,"PROPHECY ASSET MANAGEMENT LP","801-75390","N"
1139376,"COVALIS CAPITAL FUND LP",805-2150151221,"COVALIS CAPITAL LLP","802-107151","N"
1139376,"COVALIS CAPITAL MASTER FUND LTD",805-8829676640,"COVALIS CAPITAL LLP","802-107151","N"
1139376,"COVALIS CAPITAL FUND LTD",805-4821928056,"COVALIS CAPITAL LLP","802-107151","N"
1139376,"COVALIS CAPITAL ENHANCED FUND LP",805-8471798207,"COVALIS CAPITAL LLP","802-107151","N"
1139376,"COVALIS CAPITAL ENHANCED FUND LTD",805-5635445621,"COVALIS CAPITAL LLP","802-107151","N"
1145613,"CRESTLINE SUMMIT MASTER, SPC - PEAK SP",805-2961456286,"CRESTLINE MANAGEMENT, L.P.","801-61607","N"
1147261,"MAP 205, SEGREGATED PORTFOLIO OF LMA SPC",805-7495361554,"LIGHTHOUSE INVESTMENT PARTNERS, LLC","801-64978","N"
1138342,"TOPWATER STONEFLY FUND LLC",805-2756441721,"LEUCADIA ASSET MANAGEMENT LLC","801-78221","N"
1142210,"ANGELLIST-TOTE-FUND, A SERIES OF ANGELLIST-500-FUNDS, LLC",805-8312946106,"ANGELLIST ADVISORS","802-78135","N"
1142210,"ANGELLIST-ORMIRA-FUND, A SERIES OF ANGELLIST-500-FUNDS, LLC",805-1296189244,"ANGELLIST ADVISORS","802-78135","N"
1142210,"ANGELLIST-WBLE-FUND, A SERIES OF ANGELLIST-50EN-FUNDS, LLC",805-4749134410,"ANGELLIST ADVISORS","802-78135","N"
1142210,"ANGELLIST-CINS-FUND, A SERIES OF ANGELLIST-50IN-FUNDS, LLC",805-5952644401,"ANGELLIST ADVISORS","802-78135","N"
1142210,"ANGELLIST-KATE-FUND, A SERIES OF ANGELLIST-50EN-FUNDS, LLC",805-4852850189,"ANGELLIST ADVISORS","802-78135","N"
1142210,"ANGELLIST-CAFT-FUND, A SERIES OF ANGELLIST-500-FUNDS, LLC",805-7465694530,"ANGELLIST ADVISORS","802-78135","N"
1142210,"ANGELLIST-SOMA-FUND, A SERIES OF ANGELLIST-500-FUNDS, LLC",805-4613258608,"ANGELLIST ADVISORS","802-78135","N"
1142210,"A-CBS-16-FUND, A SERIES OF ANGELLIST-500-FUNDS, LLC",805-7314934275,"ANGELLIST ADVISORS","802-78135","N"
1142210,"A-HOI-31-FUND, A SERIES OF ANGELLIST-500-FUNDS, LLC",805-3650052072,"ANGELLIST ADVISORS","802-78135","N"
1142210,"A-SOX-19-FUND, A SERIES OF ANGELLIST-500-FUNDS, LLC",805-7946818496,"ANGELLIST ADVISORS","802-78135","N"
1142210,"A-CTG-13-FUND, A SERIES OF ANGELLIST-500-FUNDS, LLC",805-9310562244,"ANGELLIST ADVISORS","802-78135","N"
1142210,"A-SNG-17-FUND, A SERIES OF ANGELLIST-500-FUNDS, LLC",805-7903858128,"ANGELLIST ADVISORS","802-78135","N"
1142210,"A-HOI-PR-31-FUND, A SERIES OF ANGELLIST-500-FUNDS, LLC",805-5387259539,"ANGELLIST ADVISORS","802-78135","N"
1142210,"A-HAT-24-FUND, A SERIES OF ANGELLIST-500-FUNDS, LLC",805-7679908251,"ANGELLIST ADVISORS","802-78135","N"
1142210,"ANGELLIST-CKTA-12-FUND, A SERIES OF ANGELLIST-50EN-FUNDS, LLC",805-7842605132,"ANGELLIST ADVISORS","802-78135","N"
1142210,"A-RNZ-48-FUND, A SERIES OF ANGELLIST-500-FUNDS, LLC",805-4781664788,"ANGELLIST ADVISORS","802-78135","N"
1142210,"A-AVW-18-FUND, A SERIES OF ANGELLIST-50IN-FUNDS, LLC",805-5103004727,"ANGELLIST ADVISORS","802-78135","N"
1142210,"A-KJH-17-FUND, A SERIES OF ANGELLIST-IC-FUNDS, LLC",805-8036754728,"ANGELLIST ADVISORS","802-78135","N"
1142210,"A-ZKG-11-FUND, A SERIES OF ANGELLIST-500-FUNDS, LLC",805-7677321098,"ANGELLIST ADVISORS","802-78135","N"
1142210,"A-BVB-26-FUND, A SERIES OF ANGELLIST-50IN-FUNDS, LLC",805-2110693413,"ANGELLIST ADVISORS","802-78135","N"
1142210,"A-BYC-14-FUND, A SERIES OF ANGELLIST-50IN-FUNDS, LLC",805-7792698230,"ANGELLIST ADVISORS","802-78135","N"
1142210,"A-EVU-11-FUND, A SERIES OF ANGELLIST-50IN-FUNDS, LLC",805-6167414071,"ANGELLIST ADVISORS","802-78135","N"
1142210,"A-FAR-14-FUND, A SERIES OF ANGELLIST-50IN-FUNDS, LLC",805-3698505934,"ANGELLIST ADVISORS","802-78135","N"
1142210,"A-KMH-18-FUND, A SERIES OF ANGELLIST-50IN-FUNDS, LLC",805-5680089754,"ANGELLIST ADVISORS","802-78135","N"
1142210,"A-FPJ-18-FUND, A SERIES OF ANGELLIST-50IN-FUNDS, LLC",805-2069775292,"ANGELLIST ADVISORS","802-78135","N"
1142210,"A-YGV-17-FUND, A SERIES OF ANGELLIST-50IN-FUNDS, LLC",805-8838261627,"ANGELLIST ADVISORS","802-78135","N"
1142210,"A-ACU-11-FUND, A SERIES OF ANGELLIST-500-FUNDS, LLC",805-4191440056,"ANGELLIST ADVISORS","802-78135","N"
1142210,"A-IXS-18-FUND, A SERIES OF ANGELLIST-50IN-FUNDS, LLC",805-3202117487,"ANGELLIST ADVISORS","802-78135","N"
1142210,"A-AHL-21-FUND, A SERIES OF ANGELLIST-50IN-FUNDS, LLC",805-4682185627,"ANGELLIST ADVISORS","802-78135","N"
1150580,"VANGUARD EMERGING MARKETS STOCK INDEX FUND",805-1008263004,"VANGUARD GROUP INC","801-11953","N"
1150580,"VANGUARD PACIFIC EX-JAPAN STOCK INDEX FUND",805-9666881662,"VANGUARD GROUP INC","801-11953","N"
1150580,"VANGUARD JAPAN GOVERNMENT BOND INDEX FUND",805-5514262679,"VANGUARD GROUP INC","801-11953","N"
1150580,"VANGUARD US INVESTMENT GRADE CREDIT INDEX FUND",805-2274270124,"VANGUARD GROUP INC","801-11953","N"
1150580,"VANGUARD EUROZONE STOCK INDEX FUND",805-6072356426,"VANGUARD GROUP INC","801-11953","N"
1150580,"VANGUARD GLOBAL SHORT-TERM BOND INDEX FUND",805-4191096117,"VANGUARD GROUP INC","801-11953","N"
1150580,"VANGUARD UK GOVERNMENT BOND INDEX FUND",805-3472678319,"VANGUARD GROUP INC","801-11953","N"
1150580,"VANGUARD SRI EUROPEAN STOCK FUND",805-1831597482,"VANGUARD GROUP INC","801-11953","N"
1150580,"VANGUARD US GOVERNMENT BOND INDEX FUND",805-6577999498,"VANGUARD GROUP INC","801-11953","N"
1150580,"VANGUARD 20+ EURO TREASURY INDEX FUND",805-3049683562,"VANGUARD GROUP INC","801-11953","N"
1150580,"VANGUARD GLOBAL BOND INDEX FUND",805-8406017077,"VANGUARD GROUP INC","801-11953","N"
1150580,"VANGUARD GLOBAL SMALL CAP INDEX FUND",805-1389914252,"VANGUARD GROUP INC","801-11953","N"
1150580,"VANGUARD EUROPEAN STOCK INDEX FUND",805-8868733226,"VANGUARD GROUP INC","801-11953","N"
1150580,"VANGUARD SRI GLOBAL STOCK FUND",805-3870994200,"VANGUARD GROUP INC","801-11953","N"
1150580,"VANGUARD JAPAN STOCK INDEX FUND",805-6144906727,"VANGUARD GROUP INC","801-11953","N"
1150580,"VANGUARD EURO GOVERNMENT BOND INDEX FUND",805-3887364091,"VANGUARD GROUP INC","801-11953","N"
1150580,"VANGUARD UK INVESTMENT GRADE BOND INDEX FUND",805-2077737256,"VANGUARD GROUP INC","801-11953","N"
1150580,"VANGUARD UK SHORT-TERM INVESTMENT GRADE BOND FUND",805-4483268449,"VANGUARD GROUP INC","801-11953","N"
1156502,"INDIA CAPITAL FUND LIMITED",805-7646328011,"INDIA CAPITAL MANAGEMENT LIMITED","801-77056","N"
1158425,"GLASSBRIDGE QUANT STRATEGY OFFSHORE, LTD.",805-7867260960,"CLINTON GROUP, INC","801-39692","N"
1158425,"GLASSBRIDGE QUANT STRATEGY PARTNERS, LP",805-1123828887,"CLINTON GROUP, INC","801-39692","N"
1153733,"GALENA PRIVATE EQUITY RESOURCES FUND LP",805-1995245505,"GALENA ASSET MANAGEMENT SA","802-80120","N"
1153733,"GALENA PRIVATE EQUITY RESOURCES INVESTMENT LP",805-6788352286,"GALENA ASSET MANAGEMENT SA","802-80120","N"
1153733,"GALENA PRIVATE EQUITY RESOURCES CO-INVESTMENT LP",805-1364943958,"GALENA ASSET MANAGEMENT SA","802-80120","N"
1153733,"GALENA PRIVATE EQUITY RESOURCES CO-INVESTMENT 2 LP",805-4995872095,"GALENA ASSET MANAGEMENT SA","802-80120","N"
1153733,"GALENA PRIVATE EQUITY RESOURCES INVESTMENT 2 LP",805-4220000167,"GALENA ASSET MANAGEMENT SA","802-80120","N"
1149776,"ADP I L.P.",805-9233844091,"DEVELOPMENT PARTNERS INTERNATIONAL LLP","802-74686","N"
1149779,"AFRICAN DEVELOPMENT PARTNERS II L.P.",805-5514244578,"DEVELOPMENT PARTNERS INTERNATIONAL LLP","802-74686","N"
1149779,"ADP II HOLDING 4 L.P.",805-1269148455,"DEVELOPMENT PARTNERS INTERNATIONAL LLP","802-74686","N"
1149779,"ADP II HOLDING 7 L.P.",805-5346134521,"DEVELOPMENT PARTNERS INTERNATIONAL LLP","802-74686","N"
1149779,"ADP II HOLDING 8 L.P.",805-6380259841,"DEVELOPMENT PARTNERS INTERNATIONAL LLP","802-74686","N"
1142125,"ANDEAN SOCIAL INFRASTRUCTURE FUND I L.P.",805-4111796970,"LQA FUNDS SAS","802-111925","N"
1148550,"QUINBROOK LOW CARBON POWER LP",805-6110626467,"QUINBROOK INFRASTRUCTURE PARTNERS LLC","802-110179","N"
1138120,"WHITNEY CAPITAL SERIES FUND LLC",805-3974373214,"SCHONFELD STRATEGIC ADVISORS LLC","801-106963","N"
1147303,"SECONDARY CLUB DEAL II L.P.",805-4339165126,"HSBC ALTERNATIVE INVESTMENTS LIMITED","802-80518","N"
1147303,"THE REPUBLIC PRIVATE EQUITY TRUST",805-2988336948,"HSBC ALTERNATIVE INVESTMENTS LIMITED","802-80518","N"
1148881,"DISCOVERY MULTI MANAGER FUND, LLC SERIES D",805-9679833430,"DISCOVERY CAPITAL MANAGEMENT","801-109006","N"
1148881,"SAHAS MASTER (CAYMAN) SPC",805-8468020025,"T2AM, LLC","801-64432","N"
1146660,"FEDERATED SHORT-TERM U.S. GOV SECURITIES FUND",805-9152246226,"FEDERATED INVESTMENT COUNSELING","801-34611","N"
1146660,"FEDERATED SHORT-TERM U.S. PRIME FUND",805-2049522627,"FEDERATED INVESTMENT COUNSELING","801-34611","N"
1146660,"FEDERATED SHORT-TERM U.S. TREASURY SECURITIES FUND",805-2465637152,"FEDERATED INVESTMENT COUNSELING","801-34611","N"
1153738,"GALENA PRIVATE EQUITY RESOURCES INVESTMENT LP",805-6788352286,"GALENA ASSET MANAGEMENT SA","802-80120","N"
1153738,"GALENA PRIVATE EQUITY RESOURCES CO-INVESTMENT LP",805-1364943958,"GALENA ASSET MANAGEMENT SA","802-80120","N"
1153738,"GALENA PRIVATE EQUITY RESOURCES FUND LP",805-1995245505,"GALENA ASSET MANAGEMENT SA","802-80120","N"
1150735,"AUDA CAPITAL SCS SICAV-SIF VII: EUROPEAN PORTFOLIO",805-2840305582,"HQ CAPITAL PRIVATE EQUITY LLC","801-64151","N"
1150735,"JEFFERIES FINANCE EUROPE SCSP",805-7322125779,"JEFFERIES FINANCE LLC","801-74480","N"
1150735,"AUDA CAPITAL SCS SICAV-SIF - AUDA ASIA IV",805-1946139554,"HQ CAPITAL PRIVATE EQUITY LLC","801-64151","N"
1150735,"AUDA CAPITAL SCS SICAV-SIF - AUDA ASIA SECONDARY FUND",805-1238862643,"HQ CAPITAL PRIVATE EQUITY LLC","801-64151","N"
1150735,"AUDA CAPITAL SCS SICAV-SIF - VII: US PORTFOLIO",805-9498908840,"HQ CAPITAL PRIVATE EQUITY LLC","801-64151","N"
1150735,"HQ CAPITAL II SCS SICAV-SIF - AUDA SECONDARY FUND IV",805-8822334789,"HQ CAPITAL PRIVATE EQUITY LLC","801-64151","N"
1150735,"STEPSTONE SECONDARY OPPORTUNITIES FUND III OFFSHORE HOLDINGS SCSP",805-1338241339,"STEPSTONE GROUP LP","801-68079","N"
1150735,"STREETLANE SCS",805-2374538418,"GTIS PARTNERS","801-72428","N"
1150735,"SIRIUS GROCERY I SCSP",805-5404346543,"SIRIUS ASSET MANAGEMENT","802-101489","N"
1150735,"SIRIUS FUND II SCSP",805-7546015184,"SIRIUS ASSET MANAGEMENT","802-101489","N"
1150735,"PEAKSIDE REAL ESTATE FUND III, SCS",805-4781483087,"PEAKSIDE CAPITAL ADVISORS AG","802-75453","N"
1147716,"REFORMATION TECHNOLOGIES FUND LP",805-4987403583,"REFORMATION TECHNOLOGIES LLC","802-96313","N"
1149097,"BHC MACRO MASTER FUND LP",805-1876221215,"NEUBERGER BERMAN BRETON HILL ULC","801-108509","N"
1148552,"QUINBROOK LOW CARBON POWER LP",805-6110626467,"QUINBROOK INFRASTRUCTURE PARTNERS LLC","802-110179","N"
1146100,"SNOW LAKE CHINA MASTER FUND, LTD.",805-6356388733,"SNOW LAKE CAPITAL LIMITED","802-75577","N"
1146100,"SNOW LAKE CHINA MASTER LONG FUND, LTD.",805-2936217051,"SNOW LAKE CAPITAL LIMITED","802-75577","N"
1152745,"SILVER MOUNT FUND - THE CONSUMER HEALTH FUND",805-1309560623,"SILVER MOUNT CAPITAL LIMITED","802-111083","N"
1150231,"NUMEN CREDIT OPPORTUNITIES FUND INC.",805-4979643380,"NUMEN CAPITAL LLP","802-77778","N"
1146375,"FUND 1, A SERIES OF ESCONDIDO VENTURES, LP",805-9361306160,"ANGELLIST ADVISORS","802-78135","N"
1153408,"JAMES ALPHA SABRE DYNAMIC EQUITY MASTER FUND",805-5795307690,"JAMES ALPHA MANAGEMENT, LLC","801-74265","Y"
1153408,"BOOTHBAY ABSOLUTE RETURN STRATEGIES LP",805-1218316290,"BOOTHBAY FUND MANAGEMENT","801-80018","Y"
1143804,"A-AQS-28-FUND, A SERIES OF AX-KT-FUNDS, LLC",805-1043176345,"ANGELLIST ADVISORS","802-78135","N"
1143804,"A-OOY-22-FUND, SERIES OF AX-KT-FUNDS, LLC",805-5389983632,"ANGELLIST ADVISORS","802-78135","N"
1143804,"A-AEJ-34-FUND A, SERIES OF AX-KT-FUNDS, LLC",805-4199989736,"ANGELLIST ADVISORS","802-78135","N"
1157178,"RECURSIVE II, A SERIES OF RECURSIVE VENTURES II, LP",805-1022160716,"ANGELLIST ADVISORS","802-78135","N"
1149770,"ADP I LP",805-9233844091,"DEVELOPMENT PARTNERS INTERNATIONAL LLP","802-74686","N"
1149770,"AFRICAN DEVELOPMENT PARTNERS I, LLC",805-6752012701,"DEVELOPMENT PARTNERS INTERNATIONAL LLP","802-74686","N"
1151366,"TRUE PARTNER VOLATILITY (MASTER) FUND",805-5423547477,"TRUE PARTNER CAPITAL USA","801-107958","N"
1151366,"TRUE PARTNER FUND",805-1784420383,"TRUE PARTNER CAPITAL USA","801-107958","N"
1148416,"CONCORDE COLUMBUS GLOBAL OPPORTUNITY MASTER FUND, LTD.",805-8115288168,"BTA INVESTMENT ADVISORS LLC","802-80700","N"
1148416,"CONCORDE PI ALTERNATIVE INVESTMENT MASTER FUND, LTD.",805-6547968784,"BTA INVESTMENT ADVISORS LLC","802-80700","N"
1139776,"KORAL VENTURES, A SERIES OF KORAL VENTURES, LP",805-7008300295,"ANGELLIST ADVISORS","802-78135","N"
1148614,"CONCORDE COLUMBUS GLOBAL OPPORTUNITY MASTER FUND, LTD.",805-8115288168,"BTA INVESTMENT ADVISORS LLC","802-80700","N"
1148614,"CONCORDE PI ALTERNATIVE INVESTMENT MASTER FUND, LTD.",805-6547968784,"BTA INVESTMENT ADVISORS LLC","802-80700","N"
1147910,"EGERTON INVESTMENT PARTNERS, L.P.",805-3683849395,"EGERTON CAPITAL (UK) LLP","801-72167","N"
1147910,"EGERTON LONG-SHORT MASTER FUND LIMITED",805-5924573851,"EGERTON CAPITAL (UK) LLP","801-72167","N"
1152300,"FITA INVESTMENTS LLC",805-1572604181,"RIVE PRIVATE INVESTMENT S.A.","802-79794","N"
1150210,"ANZU INDUSTRIAL CAPITAL PARTNERS, L.P.",805-5772076787,"ANZU PARTNERS, LLC","802-110883","N"
1148554,"QUINBROOK LOW CARBON POWER LP",805-6110626467,"QUINBROOK INFRASTRUCTURE PARTNERS LLC","802-110179","N"
1154796,"RUSSELL GLOBAL SMALL CAP FUND",805-8429051390,"RUSSELL INVESTMENTS","801-17141","Y"
1139656,"FLEX I, A SERIES OF FLEX VENTURES LP",805-6568068062,"ANGELLIST ADVISORS","802-78135","N"
