"FilingID","Fund Name","Fund ID","Adviser Name","Adviser SEC Number","Clients Solicited?"
1128171,"EGERTON INVESTMENT PARTNERS, L.P.",805-3683849395,"EGERTON CAPITAL (UK) LLP","801-72167","N"
1128171,"EGERTON LONG-SHORT MASTER FUND LIMITED",805-5924573851,"EGERTON CAPITAL (UK) LLP","801-72167","N"
1139499,"INPOINT COMMERCIAL REAL ESTATE INCOME, INC",805-9978251584,"INLAND INPOINT ADVISOR, LLC","-","N"
1125872,"ANZU INDUSTRIAL CAPITAL PARTNERS FUND, L.P.",805-5772076787,"ANZU PARTNERS, LLC","802-110883","N"
1131178,"GLASSBRIDGE QUANT STRATEGY OFFSHORE, LTD.",805-7867260960,"CLINTON GROUP, INC","801-39692","N"
1131178,"GLASSBRIDGE QUANT STRATEGY PARTNERS, LP",805-1123828887,"CLINTON GROUP, INC","801-39692","N"
1135959,"TOPWATER STONEFLY FUND LLC",805-2756441721,"LEUCADIA ASSET MANAGEMENT LLC","801-78221","N"
1137678,"THE ECO PRODUCTS FUND, L.P.",805-6618462875,"EQUATOR, LLC","801-73002","N"
1138994,"THE SEGANTII ASIA PACIFIC EQUITY MULTI-STRATEGY FUND",805-1603734575,"SEGANTII CAPITAL","802-74924","N"
1138994,"MAP 510, A SUB-TRUST OF LMA IRELAND",805-4422620818,"LIGHTHOUSE INVESTMENT PARTNERS, LLC","801-64978","N"
1138994,"WHITNEY CAPITAL SERIES FUND LLC",805-3974373214,"SCHONFELD STRATEGIC ADVISORS LLC","801-106963","N"
1138994,"SCHONFELD FUNDAMENTAL EQUITY FUND LLC",805-9693867046,"SCHONFELD STRATEGIC ADVISORS LLC","801-106963","N"
1138994,"PALOMA INTERNATIONAL LP",805-5315493818,"PALOMA PARTNERS MANAGEMENT COMPANY","801-72796","N"
1138994,"ICM FLOATING RATE INCOME FUND LTD",805-3143132042,"3I DEBT MANAGEMENT US LLC","801-77039","N"
1131413,"DB SECONDARY OPPORTUNITIES FUND A, L.P.",805-7672566260,"DEUTSCHE ALTERNATIVE ASSET MANAGEMENT (GLOBAL) LIMITED","801-66274","N"
1131413,"DB SECONDARY OPPORTUNITIES FUND B, L.P.",805-5290758668,"DEUTSCHE ALTERNATIVE ASSET MANAGEMENT (GLOBAL) LIMITED","801-66274","N"
1131413,"DB SECONDARY OPPORTUNITIES FUND C, L.P.",805-2785925061,"DEUTSCHE ALTERNATIVE ASSET MANAGEMENT (GLOBAL) LIMITED","801-66274","N"
1131413,"DB SECONDARY OPPORTUNITIES FUND D, L.P.",805-5029010192,"DEUTSCHE ALTERNATIVE ASSET MANAGEMENT (GLOBAL) LIMITED","801-66274","N"
1131413,"DB SECONDARY OPPORTUNITIES FUND II, L.P.",805-4278084432,"DEUTSCHE ALTERNATIVE ASSET MANAGEMENT (GLOBAL) LIMITED","801-66274","N"
1131413,"SECONDARIES OPPORTUNITIES FUND III, LP",805-2899401493,"DEUTSCHE ALTERNATIVE ASSET MANAGEMENT (GLOBAL) LIMITED","801-66274","N"
1140663,"GT SPECIAL OPPORTUNITIES III, LP",805-1123039413,"GERBER/TAYLOR MANAGEMENT COMPANY","801-56698","N"
1140663,"GT INTERNATIONAL EQUITY QP FUND, LP",805-3568380211,"GERBER/TAYLOR MANAGEMENT COMPANY","801-56698","N"
1140663,"GT GLOBAL HEDGE LP",805-6198935424,"GERBER/TAYLOR MANAGEMENT COMPANY","801-56698","N"
1140663,"GT INTERNATIONAL EQUITY FUND, LP",805-1940738930,"GERBER/TAYLOR MANAGEMENT COMPANY","801-56698","N"
1131398,"CROSS OCEAN AVIATION FUND I (US) MASTER LP",805-2672135871,"CROSS OCEAN PARTNERS MANAGEMENT LP","801-108492","N"
1131398,"CROSS OCEAN AVIATION FUND I (INTL) MASTER LP",805-2798143180,"CROSS OCEAN PARTNERS MANAGEMENT LP","801-108492","N"
1125646,"PINEBRIDGE GLOBAL EMERGING MARKETS PARTNERS II, L.P.",805-4970537226,"PINEBRIDGE INVESTMENTS LLC","801-18759","Y"
1125646,"PINEBRIDGE GLOBAL DYNAMIC ASSET ALLOCATION FUND LLC",805-2179736723,"PINEBRIDGE INVESTMENTS LLC","801-18759","Y"
1139434,"BLACKSTONE TACTICAL OPPORTUNITIES RL FUND (LUX) SCSP",805-8284402924,"BLACKSTONE TACTICAL OPPORTUNITIES ADVISORS L.L.C.","801-73448","N"
1139814,"PALOMA INTERNATIONAL LP",805-5315493818,"PALOMA PARTNERS MANAGEMENT COMPANY","801-72796","N"
1139814,"MCP PRIVATE CAPITAL FUND III SCSP",805-9255517675,"METRIC CAPITAL PARTNERS LLP","802-81167","N"
1139814,"MCP PRIVATE CAPITAL (FEEDER) FUND III SCSP",805-3109647216,"METRIC CAPITAL PARTNERS LLP","802-81167","N"
1134885,"COMPASS SAV II,LLC",805-6689126107,"MIO PARTNERS, INC.","801-41495","N"
1130259,"EMORY CAPITAL SERIES FUND LLC",805-6543531376,"SCHONFELD STRATEGIC ADVISORS LLC","801-106963","N"
1130259,"WHITNEY CAPITAL SERIES FUND LLC",805-3974373214,"SCHONFELD STRATEGIC ADVISORS LLC","801-106963","N"
1130259,"FIFTY SEVEN SERIES FUND LLC",805-1864094225,"SCHONFELD STRATEGIC ADVISORS LLC","801-106963","N"
1138632,"COMPASS HTV LLC",805-7192318559,"MIO PARTNERS, INC.","801-41495","N"
1140517,"CQS ABS MASTER FUND LIMITED",805-3158996422,"CQS CAYMAN LIMITED PARTNERSHIP","802-75856","Y"
1140517,"CQS ASIAN OPPORTUNITIES MASTER FUND LIMITED",805-7548527927,"CQS CAYMAN LIMITED PARTNERSHIP","802-75856","N"
1140517,"BIWA FUND LIMITED",805-9568695704,"CQS CAYMAN LIMITED PARTNERSHIP","801-75856","N"
1140517,"CQS DIRECTIONAL OPPORTUNITIES MASTER FUND LIMITED",805-6634533527,"CQS CAYMAN LIMITED PARTNERSHIP","801-75856","N"
1140517,"CQS DIVERSIFIED FUND (SPC) LIMITED SEGREGATED PORTFOLIO ALPHA",805-6555371537,"CQS CAYMAN LIMITED PARTNERSHIP","801-75856","N"
1140517,"CQS DIVERSIFIED FUND (SPC) LIMITED SEGREGATED PORTFOLIO ALPHA II",805-6643355033,"CQS CAYMAN LIMITED PARTNERSHIP","801-75856","N"
1140517,"CQS GLOBAL CONVERTIBLE ARBITRAGE MASTER FUND LIMITED",805-8411917602,"CQS CAYMAN LIMITED PARTNERSHIP","801-75856","N"
1125461,"CHEYNE EUROPEAN EVENT DRIVEN FUND INC",805-5207235736,"CHEYNE CAPITAL MANAGEMENT (UK) LLP","-","N"
1125461,"CHEYNE EUROPEAN EVENT DRIVEN FUND LP",805-4706924177,"CHEYNE CAPITAL MANAGEMENT (UK) LLP","-","N"
1125461,"CHEYNE NEW EUROPE FUND INC",805-8241372325,"CHEYNE CAPITAL MANAGEMENT (UK) LLP","-","N"
1125461,"CHEYNE NEW EUROPE FUND LP",805-8479764651,"CHEYNE CAPITAL MANAGEMENT (UK) LLP","-","N"
1125461,"CHEYNE REAL ESTATE DEBT FUND INC CLASS A",805-7416696641,"CHEYNE CAPITAL MANAGEMENT (UK) LLP","-","N"
1125461,"CHEYNE REAL ESTATE DEBT FUND LP CLASS A",805-7988425741,"CHEYNE CAPITAL MANAGEMENT (UK) LLP","801-78313","N"
1125461,"CHEYNE REAL ESTATE CREDIT HOLDINGS FUND LP",805-3637544833,"CHEYNE CAPITAL MANAGEMENT (UK) LLP","801-78313","N"
1125461,"CHEYNE TOTAL RETURN CREDIT FUND DECEMBER 2019 LP",805-9175002140,"CHEYNE CAPITAL MANAGEMENT (UK) LLP","801-78313","N"
1125461,"CHEYNE TOTAL RETURN CREDIT FUND DECEMBER 2019 INC",805-4184179384,"CHEYNE CAPITAL MANAGEMENT (UK) LLP","801-78313","N"
1125461,"CHEYNE REAL ESTATE CREDIT HOLDINGS FUND INC",805-8650364341,"CHEYNE CAPITAL MANAGEMENT (UK) LLP","801-78313","N"
1125461,"CHEYNE TOTAL RETURN CREDIT FUND 1 LP - DECEMBER 2017",805-5776192236,"CHEYNE CAPITAL MANAGEMENT (UK) LLP","801-78313","N"
1125461,"CHEYNE TOTAL RETURN CREDIT FUND 1 INC - DECEMBER 2017",805-7298263710,"CHEYNE CAPITAL MANAGEMENT (UK) LLP","801-78313","N"
1125461,"CHEYNE REAL ESTATE CREDIT HOLDINGS FUND III LP",805-5936787519,"CHEYNE CAPITAL MANAGEMENT (UK) LLP","801-78313","N"
1125461,"CHEYNE REAL ESTATE CREDIT HOLDINGS FUND III INC",805-3619087055,"CHEYNE CAPITAL MANAGEMENT (UK) LLP","801-78313","N"
1125461,"PM MANAGER FUND SPC SEGREGATED PORTFOLIO 38",805-4022073063,"CHEYNE CAPITAL MANAGEMENT (UK) LLP","801-78313","N"
1125461,"CHEYNE GLOBAL EQUITY FUND LP",805-7124993164,"CHEYNE CAPITAL MANAGEMENT (UK) LLP","-","N"
1125461,"CHEYNE GLOBAL EQUITY FUND INC",805-3312734049,"CHEYNE CAPITAL MANAGEMENT (UK) LLP","-","N"
1125461,"CHEYNE TOTAL RETURN CREDIT FUND DECEMBER 2020 LP",805-1942161748,"CHEYNE CAPITAL MANAGEMENT (UK) LLP","801-78313","N"
1125461,"CHEYNE TOTAL RETURN CREDIT FUND DECEMBER 2020 INC",805-9397147523,"CHEYNE CAPITAL MANAGEMENT (UK) LLP","801-78313","N"
1125461,"CHEYNE TOTAL RETURN CREDIT FUND JUNE 2022 LP",805-7244567186,"CHEYNE CAPITAL MANAGEMENT (UK) LLP","801-787313","N"
1125461,"CHEYNE TOTAL RETURN CREDIT FUND JUNE 2022 INC",805-2877737445,"CHEYNE CAPITAL MANAGEMENT (UK) LLP","801-78313","N"
1125461,"CHEYNE REAL ESTATE CREDIT (CRECH) FUND V OPPORTUNISTIC SICAV SIF",805-9158176491,"CHEYNE CAPITAL MANAGEMENT (UK) LLP","801-787313","N"
1125461,"CHEYNE REAL ESTATE CREDIT (CRECH) FUND V OPPORTUNISTIC LP",805-6540470183,"CHEYNE CAPITAL MANAGEMENT (UK) LLP","801-787313","N"
1125461,"CHEYNE REAL ESTATE CREDIT (CRECH) FUND V OPPORTUNISTIC INC",805-8637765860,"CHEYNE CAPITAL MANAGEMENT (UK) LLP","801-787313","N"
1125461,"CHEYNE REAL ESTATE CREDIT (CRECH) FUND IV LOANS SICAV SIF",805-3720857602,"CHEYNE CAPITAL MANAGEMENT (UK) LLP","801-787313","N"
1125461,"CHEYNE REAL ESTATE CREDIT (CRECH) FUND IV LOANS LP",805-1603108250,"CHEYNE CAPITAL MANAGEMENT (UK) LLP","801-787313","N"
1125461,"CHEYNE REAL ESTATE CREDIT (CRECH) FUND IV LOANS INC",805-8928804704,"CHEYNE CAPITAL MANAGEMENT (UK) LLP","801-787313","N"
1125563,"BOOTHBAY ABSOLUTE RETURN STRATEGIES, LP",805-5663558974,"BOOTHBAY FUND MANAGEMENT","801-80018","N"
1133471,"GEP SPV LIMITED",805-2994977824,"ECM U.S. INC.","801-100379","N"
1133471,"GERMAN EQUITY PARTNERS III L.P.",805-8067342821,"ECM U.S. INC.","801-100379","N"
1133471,"GERMAN EQUITY PARTNERS IV GMBH & CO. KG",805-2999334170,"ECM U.S. INC.","801-100379","N"
1134353,"ABERDEEN GLOBAL - INDIAN EQUITY FUND",805-4931719822,"ABERDEEN ASSET MANAGEMENT ASIA LIMITED","801-62020","N"
1134411,"ABERDEEN GLOBAL - INDIAN EQUITY FUND",805-4931719822,"ABERDEEN ASSET MANAGEMENT ASIA LIMITED","801-62020","N"
1140460,"JPMAM CORAL 2 CAYMAN SS, LP",805-9111158155,"J.P. MORGAN ASSET MANAGEMENT","801-21011","N"
1140460,"ASIAN INFRASTRUCTURE & RELATED RESOURCES OPPORTUNITY FUND II CAYMAN CORP.",805-5237345366,"J.P. MORGAN ASSET MANAGEMENT","801-21011","N"
1140460,"ASIAN INFRASTRUCTURE & RELATED RESOURCES OPPORTUNITY FUND II CAYMAN, LP",805-9987959204,"J.P. MORGAN ASSET MANAGEMENT","801-21011","Y"
1140460,"ASIAN INFRASTRUCTURE & RELATED RESOURCES OPPORTUNITY FUND II UK, LP",805-6931955596,"J.P. MORGAN ASSET MANAGEMENT","801-64725","N"
1140460,"ASIAN INFRASTRUCTURE & RELATED RESOURCES OPPORTUNITY FUND II US, LLC",805-4667738727,"J.P. MORGAN ASSET MANAGEMENT","801-21011","N"
1140460,"ASIAN INFRASTRUCTURE & RELATED RESOURCES OPPORTUNITY FUND II US, LP",805-1176332288,"J.P. MORGAN ASSET MANAGEMENT","801-21011","Y"
1140460,"INDIA PROPERTY FUND II CAYMAN BPS, L.P.",805-3431737112,"J.P. MORGAN ASSET MANAGEMENT","801-21011","Y"
1140460,"INDIA PROPERTY FUND II CAYMAN LP",805-5249766403,"J.P. MORGAN ASSET MANAGEMENT","801-21011","Y"
1140460,"INDIA PROPERTY FUND II, LLC",805-3476978575,"J.P. MORGAN ASSET MANAGEMENT","801-21011","Y"
1140460,"INDIA PROPERTY FUND II LP",805-7700388410,"J.P. MORGAN ASSET MANAGEMENT","801-21011","Y"
1140460,"INDIA PROPERTY FUND II CAYMAN CORP.",805-3211398114,"J.P. MORGAN ASSET MANAGEMENT","801-21011","N"
1141708,"INVESTCORP PRIVATE EQUITY 2007 FUND, LP",805-2569422134,"INVESTCORP INVESTMENT ADVISERS LIMITED","801-64003","N"
1127891,"HOLLYPORT CAPITAL LLP",805-9727786026,"HOLLYPORT SECONDARY OPPORTUNITIES MANAGEMENT LIMITED","-","N"
1131893,"UOB PORTFOLIO ADVISORS PAN ASIA SELECT FUND, L.P.",805-1869510735,"PORTFOLIO ADVISORS LLC","801-46369","N"
1131893,"UOB PORTFOLIO ADVISORS PAN ASIA SELECT FUND (TAX EXEMPT), L.P.",805-5151091752,"PORTFOLIO ADVISORS LLC","801-46369","N"
1131893,"UOB PORTFOLIO ADVISORS PAN ASIA SELECT FUND II, L.P.",805-4688391976,"PORTFOLIO ADVISORS LLC","801-46369","N"
1131893,"UOB PORTFOLIO ADVISORS PAN ASIA SELECT FUND (TAX EXEMPT) II, L.P.",805-9434571329,"PORTFOLIO ADVISORS LLC","801-46369","N"
1131893,"UOB PORTFOLIO ADVISORS PAN ASIA SELECT FUND III, L.P.",805-4955524991,"PORTFOLIO ADVISORS LLC","801-46369","N"
1122443,"COMPASS MAV LLC",805-8071735243,"MIO PARTNERS, INC.","801-41495","N"
1123060,"WHITNEY CAPITAL SERIES FUND LLC",805-3974373214,"SCHONFELD STRATEGIC ADVISORS LLC","801-106963","N"
1131105,"NWI EMERGING MARKET FIXED INCOME MASTER FUND, LTD",805-4761403818,"NWI MANAGEMENT LP","801-74514","N"
1114921,"A-BVP-16-FUND, A SERIES OF ANGELLIST-FGR-FUNDS, LLC",805-9126774832,"ANGELLIST ADVISORS","802-78135","N"
1114921,"A-VAT-15-FUND, A SERIES OF ANGELLIST-FGR-FUNDS, LLC",805-7390541980,"ANGELLIST ADVISORS","802-78135","N"
1114921,"ANGELLIST-BEZE-FUND, A SERIES OF ANGELLIST-FGR-FUNDS, LLC",805-1035249661,"ANGELLIST ADVISORS","802-78135","N"
1114921,"ANGELLIST-HOME-11-FUND, A SERIES OF ANGELLIST-FGR-FUNDS, LLC",805-6203158105,"ANGELLIST ADVISORS","802-78135","N"
1114921,"ANGELLIST-LFTY-12-FUND, A SERIES OF ANGELLIST-FGR-FUNDS, LAC",805-5878924698,"ANGELLIST ADVISORS","802-78135","N"
1114921,"ANGELLIST-RAGG-FUND, A SERIES OF ANGELLIST-FGR-FUNDS, LLC",805-2415745944,"ANGELLIST ADVISORS","802-78135","N"
1114921,"ANGELLIST-RCOM-FUND, A SERIES OF ANGELLIST-FGR-FUNDS, LLC",805-4058252698,"ANGELLIST ADVISORS","802-78135","N"
1114921,"ANGELLIST-SUIT-FUND, A SERIES OF ANGELLIST-FGR-FUNDS, LLC",805-4004330780,"ANGELLIST ADVISORS","802-78135","N"
1114921,"ANGELLIST-TBIS-FUND, A SERIES OF ANGELLIST-FGR-FUNDS, LLC",805-5219431161,"ANGELLIST ADVISORS","802-78135","N"
1114921,"GM ANGEL BACKERS FUND I, A SERIES OF MASTER SYNDICATE FUNDS LLC",805-5241837588,"ANGELLIST ADVISORS","802-78135","N"
1137639,"NR 1 SP, A SEGREGATED PORTFOLIO OF NORTH ROCK SPC",805-5517156357,"LIGHTHOUSE INVESTMENT PARTNERS, LLC","801-64978","N"
1132559,"MVM FUND III (NO.2) LIMITED PARTNERSHIP",805-7118432568,"MVM PARTNERS LLP","802-74677","N"
1132559,"MVM FUND III LIMITED PARTNERSHIP",805-1952893189,"MVM PARTNERS LLP","802-74677","N"
1132559,"MVM INTERNATIONAL LIFE SCIENCES NO.1 LIMITED PARTNERSHIP",805-4348998757,"MVM PARTNERS LLP","802-74677","N"
1132559,"UK MEDICAL VENTURES FUND NO.1 LIMITED PARTNERSHIP",805-6750568438,"MVM PARTNERS LLP","802-74677","N"
1132559,"MVM IV LP",805-6557843345,"MVM PARTNERS LLP","802-74677","N"
1132559,"MVM IV CO-INVESTMENT I LP",805-1125831204,"MVM PARTNERS LLP","802-74677","N"
1140019,"MAP 220,  A SEGREGATED PORTFOLIO OF LMA SPC",805-2516450704,"LIGHTHOUSE INVESTMENT PARTNERS, LLC","801-64978","N"
1143619,"WHITNEY CAPITAL SERIES FUND LLC",805-3974373214,"SCHONFELD STRATEGIC ADVISORS LLC","801-106963","N"
1138754,"STANHOPE FUND 5",805-8820009643,"STANHOPE CAPITAL (CAYMAN) LIMITED","-","N"
1138754,"STANHOPE FUND 6",805-1326167997,"STANHOPE CAPITAL (CAYMAN) LIMITED","-","N"
1138754,"STANHOPE FUND 8",805-5489969049,"STANHOPE CAPITAL (CAYMAN) LTD","-","Y"
1143752,"STANHOPE FUND 9",805-8689385452,"STANHOPE CAPITAL (CAYMAN) LTD.","802-75923","N"
1139137,"PRELUDE OPPORTUNITY FUND, LP",805-1637413029,"PRELUDE CAPITAL MANAGEMENT, LLC","801-73598","N"
1138224,"PEMBERTON EUROPEAN MID-MARKET DEBT FUND I SCS, SICAV-FIS",805-4353823675,"PEMBERTON ASSET MANAGEMENT S.A","801-107832","N"
1138224,"PEMBERTON DEBT FUND SCS, SICAV-FIS",805-8250498092,"PEMBERTON ASSET MANAGEMENT S.A.","801-107832","N"
1135652,"MILLENNIUM PARTNERS,LP",805-3613464116,"MILLENNIUM MANAGEMENT LLC","801-73884","N"
1132841,"ONCE CAPITAL MANAGEMENT FUND, LP",805-2029785665,"ONCE CAPITAL MANAGMENT, LLC","-","N"
1135689,"TOPWATER STONEFLY FUND LLC",805-2756441721,"LEUCADIA ASSET MANAGEMENT LLC","801-78221","N"
1136963,"CEH FEEDER I L.P.",805-1960288329,"CEH FEEDER GP LIMITED","-","N"
1129736,"ABERDEEN GLOBAL - INDIAN EQUITY FUND",805-4931719822,"ABERDEEN ASSET MANAGEMENT ASIA LIMITED","801-62020","N"
1130770,"COMPASS SAV II LLC",805-6689126107,"MIO PARTNERS, INC.","801-41495","N"
1124717,"MAP 220,  A SEGREGATED PORTFOLIO OF LMA SPC",805-2516450704,"LIGHTHOUSE INVESTMENT PARTNERS, LLC","801-64978","N"
1137068,"IBIS-CMAV",805-8071735243,"MIO PARTNERS, INC.","801-41495","N"
1138598,"MERITAGE NFMB LLC",805-8644315053,"NORTHERN FUND MANAGEMENT AMERICA LLC","801-74504","N"
1138598,"NORTHERN SHIPPING FUND I LLC",805-4740450837,"NORTHERN FUND MANAGEMENT AMERICA LLC","801-74504","N"
1138598,"NORTHERN CHASSERAL LLC",805-8161469412,"NORTHERN FUND MANAGEMENT AMERICA LLC","801-74504","N"
1138598,"NORTHERN SHIPPING FUND II LLC",805-5940998155,"NORTHERN FUND MANAGEMENT AMERICA LLC","801-74504","N"
1127705,"ANZU INDUSTRIAL CAPITAL PARTNERS FUND, L.P.",805-5772076787,"ANZU PARTNERS, LLC","802-110883","N"
1120547,"DOUBLE HAVEN ASIA ABSOLUTE BOND MASTER FUND",805-1735783207,"DOUBLE HAVEN CAPITAL (HONG KONG) LIMITED","801-77566","N"
1125530,"PERMAL ADM EUROPEAN DEBT FUND LTD.",805-1014295390,"ASIA DEBT MANAGEMENT HONG KONG LIMITED","802-74549","N"
1125530,"ADM CEECAT RECOVERY FUND L.P. & PARALLEL FUNDS",805-1323378370,"ASIA DEBT MANAGEMENT HONG KONG LIMITED","802-74549","N"
1125530,"THE ADM MACULUS FUND II L.P.",805-2336311800,"ASIA DEBT MANAGEMENT HONG KONG LIMITED","802-74549","N"
1125530,"THE ADM MACULUS FUND III L.P.",805-7506014260,"ASIA DEBT MANAGEMENT HONG KONG LIMITED","802-74549","N"
1125530,"THE ADM MACULUS FUND V L.P.",805-4166549224,"ASIA DEBT MANAGEMENT HONG KONG LIMITED","802-74549","N"
1125530,"KAZAKHSTAN GROWTH FUND L.P.",805-9901273373,"ASIA DEBT MANAGEMENT HONG KONG LIMITED","802-74549","N"
1125530,"ADM KAZAKHSTAN CAPITAL RESTRUCTURING FUND C.V.",805-5636367688,"ASIA DEBT MANAGEMENT HONG KONG LIMITED","802-74549","N"
1140828,"CAPITAL GROUP ASIA PACIFIC EX-JAPAN (LUX)",805-2126809509,"CAPITAL RESEARCH AND MANAGEMENT COMPANY","801-8055","Y"
1140828,"CAPITAL GROUP EMERGING MARKETS DEBT FUND (LUX)",805-3232358095,"CAPITAL RESEARCH AND MANAGEMENT COMPANY","801-8055","Y"
1140828,"CAPITAL GROUP EMERGING MARKETS LOCAL CURRENCY DEBT FUND (LUX)",805-6686678360,"CAPITAL RESEARCH AND MANAGEMENT COMPANY","801-8055","Y"
1140828,"CAPITAL GROUP EMERGING MARKETS TOTAL OPPORTUNITIES (LUX)",805-3666513729,"CAPITAL RESEARCH AND MANAGEMENT COMPANY","801-8055","Y"
1140828,"CAPITAL GROUP EURO BOND FUND (LUX)",805-5605613848,"CAPITAL RESEARCH AND MANAGEMENT COMPANY","801-8055","Y"
1140828,"CAPITAL GROUP EURO CORPORATE BOND FUND (LUX)",805-6756825521,"CAPITAL RESEARCH AND MANAGEMENT COMPANY","801-8055","Y"
1140828,"CAPITAL GROUP GLOBAL ABSOLUTE INCOME GROWER (LUX)",805-5114595417,"CAPITAL RESEARCH AND MANAGEMENT COMPANY","801-8055","Y"
1140828,"CAPITAL GROUP GLOBAL BOND FUND (LUX)",805-4033950970,"CAPITAL RESEARCH AND MANAGEMENT COMPANY","801-8055","Y"
1140828,"CAPITAL GROUP GLOBAL EQUITY FUND (LUX)",805-1958854414,"CAPITAL RESEARCH AND MANAGEMENT COMPANY","801-8055","Y"
1140828,"CAPITAL GROUP GLOBAL HIGH INCOME OPPORTUNITIES (LUX)",805-9220742133,"CAPITAL RESEARCH AND MANAGEMENT COMPANY","801-8055","Y"
1140828,"CAPITAL GROUP JAPAN EQUITY FUND (LUX)",805-6847327250,"CAPITAL RESEARCH AND MANAGEMENT COMPANY","801-8055","Y"
1140828,"CAPITAL GROUP WORLD DIVIDEND GROWERS (LUX)",805-8607078300,"CAPITAL RESEARCH AND MANAGEMENT COMPANY","801-8055","Y"
1124912,"FUND A",805-7994449587,"INDO US CAPITAL, LLC","802-75277","N"
1126159,"ASG SOCHI PROJECT FINANCE, LP",805-1494569170,"BLACKROCK FINANCIAL MANAGEMENT, INC","801-48433","N"
1126159,"ASG SOCHI CONSUMER FINANCE, LP",805-2574402634,"BLACKROCK FINANCIAL MANAGEMENT, INC","801-48433","N"
1126159,"ASG SOCHI LIFE CONTINGENT SETTLEMENTS, LP",805-8906513061,"BLACKROCK FINANCIAL MANAGEMENT, INC","801-48433","N"
1126159,"ASG SOCHI GUARANTEED SETTLEMENTS, LP",805-6436516172,"BLACKROCK FINANCIAL MANAGEMENT, INC","801-48433","N"
1126159,"ASG SOCHI LEGAL FEE SECURITIZATION, LP",805-4177499959,"BLACKROCK FINANCIAL MANAGEMENT, INC","801-48433","N"
1126159,"ASG SOCHI SPECIALTY EQUITY & FINANCE, LP",805-7990908636,"BLACKROCK FINANCIAL MANAGEMENT, INC","801-48433","N"
1126159,"ASG SOCHI SPECIALTY EQUITY & FINANCE II, LP",805-6690857274,"BLACKROCK FINANCIAL MANAGEMENT, INC","801-48433","N"
1126159,"ASG SOCHI REPACK LLC",805-6855370785,"BLACKROCK FINANCIAL MANAGEMENT, INC","801-48433","N"
1129732,"ABERDEEN GLOBAL - INDIAN EQUITY FUND",805-4931719822,"ABERDEEN ASSET MANAGEMENT ASIA LIMITED","801-62020","N"
1133627,"COVALIS CAPITAL FUND LP",805-2150151221,"COVALIS CAPITAL LLP","802-107151","Y"
1133627,"COVALIS CAPITAL MASTER FUND LTD",805-8829676640,"COVALIS CAPITAL LLP","802-107151","N"
1133627,"COVALIS CAPITAL FUND LTD",805-4821928056,"COVALIS CAPITAL LLP","802-107151","Y"
1134388,"HERMES GLOBAL INVESTMENT FUNDS (CAYMAN) MASTER, SPC",805-4875733738,"HERMES INVESTMENT MANAGEMENT LIMITED","801-71218","Y"
1114775,"A-BVP-16-FUND, A SERIES OF ANGELLIST-FGR-FUNDS, LLC",805-9126774832,"ANGELLIST ADVISORS","802-78135","N"
1114775,"A-VAT-15-FUND, A SERIES OF ANGELLIST-FGR-FUNDS, LLC",805-7390541980,"ANGELLIST ADVISORS","802-78135","N"
1114775,"ANGELLIST-BEZE-FUND, A SERIES OF ANGELLIST-FGR-FUNDS, LLC",805-1035249661,"ANGELLIST ADVISORS","802-78135","N"
1114775,"ANGELLIST-HOME-11-FUND, A SERIES OF ANGELLIST-FGR-FUNDS, LLC",805-6203158105,"ANGELLIST ADVISORS","802-78135","N"
1114775,"ANGELLIST-LFTY-12-FUND, A SERIES OF ANGELLIST-FGR-FUNDS, LLC",805-5878924698,"ANGELLIST ADVISORS","802-78135","N"
1114775,"ANGELLIST-RAGG-FUND, A SERIES OF ANGELLIST-FGR-FUNDS, LLC",805-2415745944,"ANGELLIST ADVISORS","802-78135","N"
1114775,"ANGELLIST-RCOM-FUND, A SERIES OF ANGELLIST-FGR-FUNDS, LLC",805-4058252698,"ANGELLIST ADVISORS","802-78135","N"
1114775,"ANGELLIST-SUIT-FUND, A SERIES OF ANGELLIST-FGR-FUNDS, LLC",805-4004330780,"ANGELLIST ADVISORS","802-78135","N"
1114775,"ANGELLIST-TBIS-FUND, A SERIES OF ANGELLIST-FGR-FUNDS, LLC",805-5219431161,"ANGELLIST ADVISORS","802-78135","N"
1114775,"GM ANGEL BACKERS FUND I, A SERIES OF MASTER SYNDICATE FUNDS LLC",805-5241837588,"ANGELLIST ADVISORS","802-78135","N"
1126672,"SECONDARY CLUB DEAL II L.P.",805-4339165126,"HSBC ALTERNATIVE INVESTMENTS LIMITED","802-80518","N"
1126672,"THE REPUBLIC PRIVATE EQUITY TRUST",805-2988336948,"HSBC ALTERNATIVE INVESTMENTS LIMITED","802-80518","N"
1138370,"SANLAM CENTRE SUB-SAHARAN AFRICA EQUITY MASTER FUND LTD",805-6059237080,"CENTRE ASSET MANAGEMENT","801-66295","N"
1135540,"CONCORDE COLUMBUS GLOBAL OPPORTUNITY MASTER FUND, LTD.",805-8115288168,"BTA INVESTMENT ADVISORS LLC","802-80700","N"
1135540,"CONCORDE PI ALTERNATIVE INVESTMENT MASTER FUND, LTD.",805-6547968784,"BTA INVESTMENT ADVISORS LLC","802-80700","N"
1135149,"NR 1 SP, A SEGREGATED PORTFOLIO OF NORTH ROCK SPC",805-5517156357,"LIGHTHOUSE INVESTMENT PARTNERS, LLC","801-64978","N"
1135149,"MAP 207 SEGREGATED PORTFOLIO,  A SEGREGATED PORTFOLIO OF LMA SPC",805-7983612499,"LIGHTHOUSE INVESTMENT PARTNERS, LLC","801-64978","N"
