"FilingID","Other Name","BD","RR","Pool","FCM","Real Estate","Insurance","Bank","Trust","Municipal","Swap Dealer","Swap Participant","Accountant","Lawyer","Other","Other Description"
1146452,"NASAI LLC","N","N","N","N","N","Y","N","N","N","N","N","N","N","N",""
1152473,"JOSHUA E HOWEN, CPA","N","N","N","N","N","N","N","N","N","N","N","Y","N","N",""
1149316,"PACIFIC ALLIANCE ASSOCIATES LLC","Y","N","N","N","N","N","N","N","N","N","N","N","N","N",""
