"FilingID","ReferenceID","SubreferenceID","Foreign Regulatory Authority"
1141087,58256,118039,"Bermuda - Bermuda Monetary Authority"
1145451,39093,116936,"Bermuda - Bermuda Monetary Authority"
1145451,39093,116935,"Bermuda - Bermuda Monetary Authority"
1148736,43959,7959,"Bermuda - Bermuda Monetary Authority"
1147499,55571,109574,"Guernsey - Guernsey Financial Services Commission"
1149775,55571,109574,"Guernsey - Guernsey Financial Services Commission"
1149304,32857,7394,"Other - CAYMAN ISLANDS MONETARY AUTHORITY (CIMA)"
1148812,172929,117019,"Other - KINGDOM OF SAUDI ARABIA - CAPITAL MARKETS AUTHORITY"
1148812,172814,116980,"Other - KINGDOM OF SAUDI ARABIA - CAPITAL MARKETS AUTHORITY"
1149316,22136,4270,"Other - CAYMAN ISLANDS MONETARY AUTHORITY"
1149316,50037,9258,"Other - CAYMAN ISLANDS MONETARY AUTHORITY"
1149316,22136,4269,"Other - CAYMAN ISLANDS MONETARY AUTHORITY"
1149316,73928,39376,"Other - CAYMAN ISLANDS MONETARY AUTHORITY"
1149316,73932,39379,"Other - CAYMAN ISLANDS MONETARY AUTHORITY"
1149316,73932,39378,"Other - CAYMAN ISLANDS MONETARY AUTHORITY"
1149316,50037,9257,"Other - CAYMAN ISLANDS MONETARY AUTHORITY"
1149316,23013,4354,"Other - CAYMAN ISLANDS MONETARY AUTHORITY"
1149316,22994,4351,"Other - CAYMAN ISLANDS MONETARY AUTHORITY"
1149316,22136,9534,"Other - CAYMAN ISLANDS MONETARY AUTHORITY"
1149316,22985,4347,"Other - CAYMAN ISLANDS MONETARY AUTHORITY"
1149316,22136,4268,"Other - CAYMAN ISLANDS MONETARY AUTHORITY"
1153102,8724,2259,"Other - CAYMAN ISLANDS MONETARY AUTHORITY"
1155410,28167,5164,"Other - NOT REGULATED"
1155410,28213,5180,"Other - NOT REGULATED"
1155410,28213,5179,"Other - NOT REGULATED"
1155410,28183,5170,"Other - NOT REGULATED"
1147657,28167,5164,"Other - NOT REGULATED"
1147657,28213,5180,"Other - NOT REGULATED"
1147657,28213,5179,"Other - NOT REGULATED"
1147657,28183,5170,"Other - NOT REGULATED"
1155973,22991,116026,"Other - NONE"
1155973,22991,5504,"Other - NONE"
1155973,22991,5503,"Other - NONE"
1155973,22991,5502,"Other - CAYMAN ISLANDS MONETARY AUTHORITY"
1155973,22991,5501,"Other - CAYMAN ISLANDS MONETARY AUTHORITY"
1155973,22991,5499,"Other - NONE"
1155973,22991,4348,"Other - CAYMAN ISLANDS MONETARY AUTHORITY"
1155973,22991,5492,"Other - CAYMAN ISLANDS MONETARY AUTHORITY"
1151975,192715,121947,"Other - CAYMAN ISLANDS/CAYMAN ISLANDS MONETARY AUTHORITY"
1151975,192715,121948,"Other - CAYMAN ISLANDS/CAYMAN ISLANDS MONETARY AUTHORITY"
1151975,44430,8019,"Other - CAYMAN ISLANDS/CAYMAN ISLANDS MONETARY AUTHORITY"
1151975,44430,8022,"Other - CAYMAN ISLANDS/CAYMAN ISLANDS MONETARY AUTHORITY"
1148736,180141,118309,"Other - EXEMPT FROM REGISRATION WITH MONETARY AUTHORITY OF CAYMAN ISLANDS"
1148736,167642,115891,"Other - EXEMPT FROM REGISTRATION WITH MONETARY AUTHORITY OF CAYMAN ISLANDS"
1148736,167645,115900,"Other - EXEMPT FROM REGISTRATION WITH MONETARY AUTHORITY OF CAYMAN ISLANDS"
1148736,167645,115899,"Other - EXEMPT FROM REGISTRATION WITH MONETARY AUTHORITY OF THE CAYMAN ISLANDS"
1148736,167645,115898,"Other - EXEMPT FROM REGISTRATION WITH MONETARY AUTHORITY OF CAYMAN ISLANDS"
1148736,167642,115893,"Other - EXEMPT FROM REGISTRATION WITH MONETARY AUTHORITY OF CAYMAN ISLANDS"
1148736,167642,115892,"Other - EXEMPT FROM REGISTRATION WITH MONETARY AUTHORITY OF THE CAYMAN ISLANDS"
1148736,66579,13630,"Other - EXEMPT FROM REGISTRATION WITH THE CAYMAN ISLANDS MONETARY AUTHORITY"
1148736,66562,13626,"Other - EXEMPT FROM REGISTRATION WITH MONETARY AUTHORITY OF CAYMAN ISLANDS"
1148736,56600,11243,"Other - EXEMPT FROM REGISTRATION WITH MONETARY AUTHORITY OF CAYMAN ISLANDS"
1148736,56590,11219,"Other - EXEMPT FROM REGISTRATION WITH MONETARY AUTHORITY OF CAYMAN ISLANDS"
1148736,56600,11246,"Other - EXEMPT FROM REGISTRATION WITH MONETARY AUTHORITY OF CAYMAN ISLANDS"
1148736,56600,11245,"Other - EXEMPT FROM REGISTRATION WITH MONETARY AUTHORITY OF THE CAYMAN ISLANDS"
1148736,56597,11237,"Other - EXEMPT FROM REGISTRATION WITH THE MONETARY AUTHORITY OF CAYMAN ISLANDS"
1148736,56597,11236,"Other - EXEMPT FROM REGISTRATION WITH MONETARY AUTHORITY OF CAYMAN ISLANDS"
1148736,56597,11235,"Other - EXEMPT FROM REGISTRATION WITH MONETARY AUTHORITY OF THE CAYMAN ISLANDS"
1148736,56597,11234,"Other - EXEMPT FROM REGISTRATION WITH MONETARY AUTHORITY OF THE CAYMAN ISLANDS"
1148736,56590,11220,"Other - EXEMPT FROM REGISTRATION WITH MONETARY AUTHORITY OF CAYMAN ISLANDS"
1148736,56597,11233,"Other - EXEMPT FROM REGISTRATION"
1148736,43959,7960,"Other - NONE"
1150732,46571,8416,"Other - CAYMAN ISLANDS MONETARY AUTHORITY"
1150732,157792,106471,"Other - CAYMAN ISLANDS MONETARY AUTHORITY"
1145293,193740,122318,"India - Securities and Exchange Board of India"
1154202,65827,13451,"Jersey - Jersey Financial Services Commission"
1152696,65827,13451,"Jersey - Jersey Financial Services Commission"
1149122,194121,122310,"Luxembourg, Grand Duchy of - Commission to Surveillance of the Finance Sector"
1145293,193740,122335,"Mauritius, Republic of - Financial Services Commission"
1148812,172929,117019,"Singapore - Monetary Authority of Singapore"
1148812,172814,116980,"Singapore - Monetary Authority of Singapore"
1150734,171153,116748,"Ireland -  Central Bank of Ireland"
1150734,171153,116747,"Ireland -  Central Bank of Ireland"
1150734,171153,116746,"Ireland -  Central Bank of Ireland"
1150734,171153,116745,"Ireland -  Central Bank of Ireland"
1144555,180259,118413,"Ireland -  Central Bank of Ireland"
1150734,171153,116748,"United Kingdom - Financial Conduct Authority"
1150734,171153,116747,"United Kingdom - Financial Conduct Authority"
1150734,171153,116745,"United Kingdom - Financial Conduct Authority"
1150734,171153,116746,"United Kingdom - Financial Conduct Authority"
1155410,191483,121091,"United Kingdom - Financial Conduct Authority"
1155410,191483,121092,"United Kingdom - Financial Conduct Authority"
1147657,191483,121091,"United Kingdom - Financial Conduct Authority"
1147657,191483,121092,"United Kingdom - Financial Conduct Authority"
1153770,184471,119838,"Cayman Islands - Cayman Islands Monetary Authority"
1145336,168206,116010,"Cayman Islands - Cayman Islands Monetary Authority"
1155803,190801,120972,"Cayman Islands - Cayman Islands Monetary Authority"
1153778,177121,117810,"Cayman Islands - Cayman Islands Monetary Authority"
1149122,190346,120903,"Cayman Islands - Cayman Islands Monetary Authority"
1158425,192194,121217,"Cayman Islands - Cayman Islands Monetary Authority"
1149316,176165,117708,"Cayman Islands - Cayman Islands Monetary Authority"
1149316,176108,117651,"Cayman Islands - Cayman Islands Monetary Authority"
1146094,175106,117455,"Cayman Islands - Cayman Islands Monetary Authority"
1146094,175106,117454,"Cayman Islands - Cayman Islands Monetary Authority"
1146094,23675,4416,"Cayman Islands - Cayman Islands Monetary Authority"
1146094,23675,4415,"Cayman Islands - Cayman Islands Monetary Authority"
1146583,177958,117948,"Cayman Islands - Cayman Islands Monetary Authority"
1150100,193367,122082,"Cayman Islands - Cayman Islands Monetary Authority"
1146275,190572,120927,"Cayman Islands - Cayman Islands Monetary Authority"
1146275,190572,120928,"Cayman Islands - Cayman Islands Monetary Authority"
1134887,192888,122024,"Cayman Islands - Cayman Islands Monetary Authority"
1134887,192888,121981,"Cayman Islands - Cayman Islands Monetary Authority"
1147403,193965,122278,"Cayman Islands - Cayman Islands Monetary Authority"
1146948,193515,122139,"Cayman Islands - Cayman Islands Monetary Authority"
1157704,184510,119842,"Cayman Islands - Cayman Islands Monetary Authority"
1157704,184510,119843,"Cayman Islands - Cayman Islands Monetary Authority"
1145680,72373,58365,"Cayman Islands - Cayman Islands Monetary Authority"
1149816,194377,122353,"Cayman Islands - Cayman Islands Monetary Authority"
1138342,186719,122246,"Cayman Islands - Cayman Islands Monetary Authority"
1138342,186736,122247,"Cayman Islands - Cayman Islands Monetary Authority"
1150721,194194,122329,"Cayman Islands - Cayman Islands Monetary Authority"
1149817,194120,122309,"Cayman Islands - Cayman Islands Monetary Authority"
1153610,193367,122082,"Cayman Islands - Cayman Islands Monetary Authority"
1156617,194624,122396,"Cayman Islands - Cayman Islands Monetary Authority"
1143828,24841,4608,"Cayman Islands - Cayman Islands Monetary Authority"
1144555,64490,13277,"Cayman Islands - Cayman Islands Monetary Authority"
1150217,194508,122375,"Cayman Islands - Cayman Islands Monetary Authority"
1155784,63477,12864,"Cayman Islands - Cayman Islands Monetary Authority"
1151975,44430,14102,"Cayman Islands - Cayman Islands Monetary Authority"
1151975,44430,14101,"Cayman Islands - Cayman Islands Monetary Authority"
1151519,184524,120044,"Cayman Islands - Cayman Islands Monetary Authority"
1148046,193986,122277,"Cayman Islands - Cayman Islands Monetary Authority"
1155869,64827,13213,"Cayman Islands - Cayman Islands Monetary Authority"
1145376,193346,122085,"Cayman Islands - Cayman Islands Monetary Authority"
1142833,166914,115884,"Cayman Islands - Cayman Islands Monetary Authority"
1144572,193713,122211,"Cayman Islands - Cayman Islands Monetary Authority"
1147882,193990,122279,"Cayman Islands - Cayman Islands Monetary Authority"
1147882,193990,122280,"Cayman Islands - Cayman Islands Monetary Authority"
1140949,193330,122072,"Cayman Islands - Cayman Islands Monetary Authority"
1140949,193330,122073,"Cayman Islands - Cayman Islands Monetary Authority"
1151067,168206,116010,"Cayman Islands - Cayman Islands Monetary Authority"
