"FilingID","ReferenceID","SubreferenceID","Foreign Regulatory Authority"
1175215,201086,123456,"Australia - Australian Securities and Investments Commission"
1175215,201073,123453,"Australia - Australian Securities and Investments Commission"
1175215,201093,123458,"Australia - Australian Securities and Investments Commission"
1175215,201089,123457,"Australia - Australian Securities and Investments Commission"
1175215,201094,123459,"Australia - Australian Securities and Investments Commission"
1175215,201097,123460,"Australia - Australian Securities and Investments Commission"
1175215,201077,123454,"Australia - Australian Securities and Investments Commission"
1179713,39093,116936,"Bermuda - Bermuda Monetary Authority"
1179713,39093,116935,"Bermuda - Bermuda Monetary Authority"
1203315,36775,6815,"Bermuda - Bermuda Monetary Authority"
1170891,174116,117265,"Bermuda - Bermuda Monetary Authority"
1170129,58256,118039,"Bermuda - Bermuda Monetary Authority"
1166296,48234,8854,"Bermuda - Bermuda Monetary Authority"
1188717,180340,123169,"Brazil - Securities and Exchange Commission"
1188717,181291,118530,"Brazil - Securities and Exchange Commission"
1188717,180340,118488,"Brazil - Securities and Exchange Commission"
1199229,57213,120722,"Canada - Alberta Securities Commission"
1182133,68042,13933,"Canada - Alberta Securities Commission"
1182133,68042,13933,"Canada - British Columbia Securities Commission"
1182133,68042,13933,"Canada - Manitoba Securities Commission"
1182133,68042,13933,"Canada - Ontario Securities Commission"
1182133,68042,13933,"Canada - Quebec, Financial Markets Authority"
1203027,28542,10575,"Cayman Islands - Cayman Islands Stock Exchange Authority"
1173808,195943,122641,"Cayman Islands - Cayman Islands Stock Exchange Authority"
1195838,200292,123577,"Cayman Islands - Cayman Islands Stock Exchange Authority"
1163173,44794,8083,"Germany - German Federal Financial Supervisory Agency"
1198719,70373,17364,"Guernsey - Guernsey Financial Services Commission"
1179564,38092,7054,"Guernsey - Guernsey Financial Services Commission"
1177896,192819,122731,"Guernsey - Guernsey Financial Services Commission"
1168256,37579,6968,"Guernsey - Guernsey Financial Services Commission"
1194077,45953,8302,"Guernsey - Guernsey Financial Services Commission"
1194077,45939,8300,"Guernsey - Guernsey Financial Services Commission"
1194077,189719,120832,"Guernsey - Guernsey Financial Services Commission"
1193558,181429,118585,"Guernsey - Guernsey Financial Services Commission"
1193558,60460,13797,"Guernsey - Guernsey Financial Services Commission"
1178470,196535,122738,"Guernsey - Guernsey Financial Services Commission"
1178470,170367,116631,"Guernsey - Guernsey Financial Services Commission"
1178470,170366,116628,"Guernsey - Guernsey Financial Services Commission"
1178470,57618,11582,"Guernsey - Guernsey Financial Services Commission"
1178470,57617,11579,"Guernsey - Guernsey Financial Services Commission"
1173688,71228,29365,"Guernsey - Guernsey Financial Services Commission"
1186023,178314,118019,"Guernsey - Guernsey Financial Services Commission"
1181683,52489,10166,"Other - CAYMAN ISLANDS MONETARY AUTHORITY"
1164601,37784,7590,"Other - CAYMAN - CAYMAN ISLANDS MONETARY AUTHORITY (CIMA)"
1179101,54406,10708,"Other - CAYMAN ISLANDS MONETARY AUTHORITY"
1179101,54405,10707,"Other - CAYMAN ISLANDS MONETARY AUTHORITY"
1191933,53921,10568,"Other - CAYMAN ISLANDS MONETARY AUTHORITY"
1191024,23768,4430,"Other - CAYMAN ISLANDS MONETARY AUTHORITY"
1198475,48903,8971,"Other - CAYMAN ISLANDS MONETARY AUTHORITY"
1198475,48903,8970,"Other - CAYMAN ISLANDS MONETARY AUTHORITY"
1181209,2775,2988,"Other - CAYMAN ISLANDS MONETARY AUTHORITY"
1181209,2775,2989,"Other - CAYMAN ISLANDS MONETARY AUTHORITY"
1190168,49897,9315,"Other - CAYMAN ISLANDS - CAYMAN ISLANDS MONEATARY AUTHORITY"
1186687,47734,8730,"Other - CAYMAN ISLANDS MONETARY AUTHORITY"
1164223,32857,7394,"Other - CAYMAN ISLANDS MONETARY AUTHORITY (CIMA)"
1176126,5332,1642,"Other - CAYMAN ISLANDS - CAYMAN ISLANDS MONETARY AUTHORITY"
1176126,5354,1646,"Other - CAYMAN ISLANDS - CAYMAN ISLANDS MONETARY AUTHORITY"
1176126,5332,1643,"Other - CAYMAN ISLANDS - CAYMAN ISLANDS MONETARY AUTHORITY"
1176126,5354,10546,"Other - CAYMAN ISLANDS - CAYMAN ISLANDS MONETARY AUTHORITY"
1176126,184600,119865,"Other - CAYMAN ISLANDS - CAYMAN ISLANDS MONETARY AUTHORITY"
1190083,14033,3650,"Other - CAYMAN ISLANDS MONETARY AUTHORITY"
1190083,14033,2985,"Other - CAYMAN ISLANDS MONETARY AUTHORITY"
1191701,168521,116046,"Other - CAYMAN ISLANDS MONETARY AUTHORITY"
1191701,168521,116047,"Other - CAYMAN ISLANDS MONETARY AUTHORITY"
1191701,190160,120877,"Other - CAYMAN ISLANDS MONETARY AUTHORITY"
1191701,190160,120876,"Other - CAYMAN ISLANDS MONETARY AUTHORITY"
1177087,21456,4144,"Other - CAYMAN ISLANDS MONETARY AUTHORITY"
1177087,21456,4143,"Other - CAYMAN ISLANDS MONETARY AUTHORITY"
1162550,36237,10561,"Other - CAYMAN ISLANDS MONETARY AUTHORITY CIMA"
1162550,36158,6705,"Other - CAYMAN ISLANDS MONETARY AUTHORITY CIMA"
1198719,74161,43377,"Other - FINANCIAL SERVICES COMMISSION - BARBADOS"
1182702,17011,3383,"Other - CAYMAN ISLANDS MONETARY AUTHORITY"
1182702,58420,11781,"Other - NONE"
1172606,17011,3383,"Other - CAYMAN ISLANDS MONETARY AUTHORITY"
1172606,58420,11781,"Other - NONE"
1141565,193440,122108,"Other - CAYMAN ISLANDS - CAYMAN ISLANDS MONETARY AUTHORITY"
1189903,43642,7916,"Other - CAYMAN ISLANDS MONETARY AUTHORITY"
1157098,54139,10614,"Other - CAYMAN ISLANDS/CAYMAN ISLANDS MONETARY AUTHORITY"
1199366,43824,7941,"Other - CAYMAN ISLANDS MONETARY AUTHORITY"
1188229,25922,4775,"Other - CAYMANS ISLANDS/CAYMAN ISLANDS MONETARY AUTHORTY"
1180638,27676,7134,"Other - CAYMAN ISLANDS MONETARY AUTHORITY"
1180638,73736,39368,"Other - CAYMAN ISLANDS MONETARY AUTHORITY"
1180638,27184,6961,"Other - CAYMAN ISLANDS MONETARY AUTHORITY"
1198480,192715,121947,"Other - CAYMAN ISLANDS/CAYMAN ISLANDS MONETARY AUTHORITY"
1198480,192715,121948,"Other - CAYMAN ISLANDS/CAYMAN ISLANDS MONETARY AUTHORITY"
1198480,44430,8022,"Other - CAYMAN ISLANDS/CAYMAN ISLANDS MONETARY AUTHORITY"
1198480,44430,8019,"Other - CAYMAN ISLANDS/CAYMAN ISLANDS MONETARY AUTHORITY"
1191428,39015,7499,"Other - CAYMAN ISLANDS MONETARY AUTHORITY"
1202594,54596,10750,"Other - CAYMAN ISLAND MONETARY AUTHORITY"
1186031,172929,117019,"Other - KINGDOM OF SAUDI ARABIA - CAPITAL MARKETS AUTHORITY"
1186031,172814,116980,"Other - KINGDOM OF SAUDI ARABIA - CAPITAL MARKETS AUTHORITY"
1167755,18634,3883,"Other - CAYMAN ISLANDS MONETARY AUTHORITY"
1186907,55699,10996,"Other - CAYMAN ISLANDS MONETARY AUTHORITY"
1186907,56492,11190,"Other - CAYMAN ISLANDS MONETARY AUTHORITY"
1203155,15921,3229,"Other - CAYMAN ISLANDS MONETARY AUTHORITY"
1180059,38137,7061,"Other - REGISTRAR OF LIMITED PARTNERSHIPS, CAYMAN ISLANDS"
1180059,38050,7057,"Other - REGISTRAR OF LIMITED PARTNERSHIPS, CAYMAN ISLANDS"
1168256,37553,6960,"Other - GIBRALTAR - FINANCIAL SERVICES COMMISSION"
1203956,43792,7935,"Other - CAYMAN ISLANDS MONETARY AUTHORITY"
1202500,45579,8220,"Other - CAYMAN ISLANDS MONETARY AUTHORITY"
1202500,55706,10999,"Other - CAYMAN ISLANDS MONETARY AUTHORITY"
1202500,55706,10998,"Other - CAYMAN ISLANDS MONETARY AUTHORITY"
1202500,45579,8222,"Other - CAYMAN ISLANDS MONETARY AUTHORITY"
1201329,36083,6687,"Other - CAYMAN ISLANDS MONETARY AUTHORITY"
1195931,2655,1274,"Other - CIMA, CAYMAN ISLANDS"
1193789,29315,5508,"Other - CAYMAN ISLANDS MONETARY AUTHORITY"
1193789,29315,5507,"Other - CAYMAN ISLANDS MONETARY AUTHORITY"
1201908,53851,10601,"Other - CAYMAN ISLANDS MONETARY AUTHORITY"
1174747,55042,10860,"Other - CAYMAN ISLANDS MONETARY AUTHORITY"
1199835,22682,6094,"Other - CAYMAN ISLANDS-THE CAYMAN ISLANDS MONETARY AUTHORITY"
1166815,24883,9379,"Other - CAYMAN ISLANDS - CAYMAN ISLANDS MONETARY AUTHORITY"
1163165,5558,1679,"Other - CAYMAN ISLANDS MONETARY AUTHORITY"
1171258,35794,7551,"Other - CAYMAN ISLANDS MONETARY AUTHORITY"
1203276,44777,8097,"Other - CAYMAN ISLANDS MONETARY AUTHORITY"
1169975,192715,121947,"Other - CAYMAN ISLANDS/CAYMAN ISLANDS MONETARY AUTHORITY"
1169975,192715,121948,"Other - CAYMAN ISLANDS/CAYMAN ISLANDS MONETARY AUTHORITY"
1169975,44430,8019,"Other - CAYMAN ISLANDS/CAYMAN ISLANDS MONETARY AUTHORITY"
1169975,44430,8022,"Other - CAYMAN ISLANDS/CAYMAN ISLANDS MONETARY AUTHORITY"
1198811,19643,3864,"Other - CAYMAN ISLANDS/CAYMAN ISLANDS MONETARY AUTHORITY"
1186831,76319,48367,"Other - CAYMAN ISLANDS MONETARY AUTHORITY"
1186831,16925,3371,"Other - CAYMAN ISLANDS MONETARY AUTHORITY"
1186831,16925,3370,"Other - CAYMAN ISLANDS MONETARY AUTHORITY"
1195630,22136,4270,"Other - CAYMAN ISLANDS MONETARY AUTHORITY"
1195630,50037,9258,"Other - CAYMAN ISLANDS MONETARY AUTHORITY"
1195630,22136,4269,"Other - CAYMAN ISLANDS MONETARY AUTHORITY"
1195630,73928,39376,"Other - CAYMAN ISLANDS MONETARY AUTHORITY"
1195630,73932,39379,"Other - CAYMAN ISLANDS MONETARY AUTHORITY"
1195630,73932,39378,"Other - CAYMAN ISLANDS MONETARY AUTHORITY"
1195630,50037,9257,"Other - CAYMAN ISLANDS MONETARY AUTHORITY"
1195630,23013,4354,"Other - CAYMAN ISLANDS MONETARY AUTHORITY"
1195630,22136,9534,"Other - CAYMAN ISLANDS MONETARY AUTHORITY"
1195630,22985,4347,"Other - CAYMAN ISLANDS MONETARY AUTHORITY"
1195630,22136,4268,"Other - CAYMAN ISLANDS MONETARY AUTHORITY"
1175050,46886,8491,"Other - CIMA - CAYMAN ISLANDS MONETARY AUTHORITY"
1164296,3474,1378,"Other - CAYMAN ISLANDS MONETARY AUTHORITY"
1164296,3474,1377,"Other - CAYMAN ISLANDS MONETARY AUTHORITY"
1181292,23843,122876,"Other - NONE"
1170702,13251,2842,"Other - CAYMAN ISLAND MONETARY AUTHORITY"
1170702,13251,2840,"Other - CAYMAN ISLAND MONETARY AUTHORITY"
1170512,55596,10978,"Other - CAYMAN ISLANDS MONETARY AUTHORITY"
1197317,168855,116145,"Other - DELAWARE REVISED UNIFORM LIMITED PARTNERSHIP ACT"
1189193,193440,122108,"Other - CAYMAN ISLANDS - CAYMAN ISLANDS MONETARY AUTHORITY"
1173878,53420,10479,"Other - CAYMAN ISLAND MONETARY AUTHORITY"
1184464,16342,3282,"Other - IRISH FINANCIAL SERVICES REGULATORY AUTHORITY (IFSRA)"
1184464,16387,3290,"Other - IRISH FINANCIAL SERVICES REGULATORY AUTHORITY (IFSRA)"
1199769,27846,5128,"Other - CAYMAN ISLANDS MONETARY AUTHORITY"
1199769,27846,5127,"Other - CAYMAN ISLANDS MONETARY AUTHORITY"
1199769,27831,5123,"Other - CAYMAN ISLANDS MONETARY AUTHORITY"
1199769,27821,5121,"Other - CAYMAN ISLANDS MONETARY AUTHORITY"
1199769,27753,5116,"Other - CAYMAN ISLANDS MONETARY AUTHORITY"
1199769,27753,5114,"Other - CAYMAN ISLANDS MONETARY AUTHORITY"
1164484,32037,5862,"Other - CAYMAN ISLANDS MONETARY AUTHORITY"
1168310,192715,121947,"Other - CAYMAN ISLANDS/CAYMAN ISLANDS MONETARY AUTHORITY"
1168310,192715,121948,"Other - CAYMAN ISLANDS/CAYMAN ISLANDS MONETARY AUTHORITY"
1168310,44430,8019,"Other - CAYMAN ISLANDS/CAYMAN ISLANDS MONETARY AUTHORITY"
1168310,44430,8022,"Other - CAYMAN ISLANDS/CAYMAN ISLANDS MONETARY AUTHORITY"
1166184,193053,122029,"Hong Kong - Securities and Futures Commission"
1198475,48903,8972,"India - Securities and Exchange Board of India"
1178520,176363,117709,"Jersey - Jersey Financial Services Commission"
1178520,73211,33370,"Jersey - Jersey Financial Services Commission"
1178520,44418,13131,"Jersey - Jersey Financial Services Commission"
1178520,44417,13130,"Jersey - Jersey Financial Services Commission"
1178520,64578,13129,"Jersey - Jersey Financial Services Commission"
1178520,192191,121216,"Jersey - Jersey Financial Services Commission"
1192709,20296,3976,"Jersey - Jersey Financial Services Commission"
1192709,20942,4074,"Jersey - Jersey Financial Services Commission"
1191011,199501,123253,"Jersey - Jersey Financial Services Commission"
1191011,176363,117709,"Jersey - Jersey Financial Services Commission"
1191011,73211,33370,"Jersey - Jersey Financial Services Commission"
1191011,44418,13131,"Jersey - Jersey Financial Services Commission"
1191011,44417,13130,"Jersey - Jersey Financial Services Commission"
1191011,64578,13129,"Jersey - Jersey Financial Services Commission"
1191011,192191,121216,"Jersey - Jersey Financial Services Commission"
1174297,183858,119713,"Jersey - Jersey Financial Services Commission"
1174297,48010,8805,"Jersey - Jersey Financial Services Commission"
1191227,175707,117551,"Jersey - Jersey Financial Services Commission"
1181782,65827,13451,"Jersey - Jersey Financial Services Commission"
1170215,179996,118296,"Jersey - Jersey Financial Services Commission"
1201214,202853,123842,"Jersey - Jersey Financial Services Commission"
1168256,170121,117552,"Jersey - Jersey Financial Services Commission"
1180394,188300,120563,"Jersey - Jersey Financial Services Commission"
1180394,188300,120562,"Jersey - Jersey Financial Services Commission"
1181743,59631,117747,"Jersey - Jersey Financial Services Commission"
1181743,59631,12039,"Jersey - Jersey Financial Services Commission"
1181743,59631,12038,"Jersey - Jersey Financial Services Commission"
1188386,191877,121172,"Jersey - Jersey Financial Services Commission"
1149412,195071,122471,"Jersey - Jersey Financial Services Commission"
1149412,184732,119884,"Jersey - Jersey Financial Services Commission"
1200376,68840,14078,"Luxembourg, Grand Duchy of - Commission to Surveillance of the Finance Sector"
1200376,68847,14082,"Luxembourg, Grand Duchy of - Commission to Surveillance of the Finance Sector"
1200376,202449,123638,"Luxembourg, Grand Duchy of - Commission to Surveillance of the Finance Sector"
1168256,170121,117553,"Luxembourg, Grand Duchy of - Commission to Surveillance of the Finance Sector"
1168256,170121,117554,"Luxembourg, Grand Duchy of - Commission to Surveillance of the Finance Sector"
1192628,29614,5513,"Luxembourg, Grand Duchy of - Commission to Surveillance of the Finance Sector"
1192628,202243,123581,"Luxembourg, Grand Duchy of - Commission to Surveillance of the Finance Sector"
1197059,42323,7656,"Mauritius, Republic of - Financial Services Commission"
1198475,48903,8972,"Mauritius, Republic of - Financial Services Commission"
1188472,43511,7881,"Mauritius, Republic of - Financial Services Commission"
1186095,197967,123104,"Mauritius, Republic of - Financial Services Commission"
1159831,18092,5327,"Mauritius, Republic of - Financial Services Commission"
1188390,19062,5329,"Mauritius, Republic of - Financial Services Commission"
1202576,203386,123872,"Mauritius, Republic of - Financial Services Commission"
1163283,195016,122477,"Mauritius, Republic of - Financial Services Commission"
1197124,36622,6798,"Mauritius, Republic of - Financial Services Commission"
1183422,197223,122945,"Netherlands - The Netherlands Authority for the Financial Markets"
1183422,197223,122944,"Netherlands - The Netherlands Authority for the Financial Markets"
1151210,194410,122355,"Netherlands - The Netherlands Authority for the Financial Markets"
1186001,120369,83385,"Singapore - Monetary Authority of Singapore"
1186031,172929,117019,"Singapore - Monetary Authority of Singapore"
1186031,172814,116980,"Singapore - Monetary Authority of Singapore"
1200615,165158,114567,"British Virgin Islands - British Virgin Islands Financial Services Commission"
1166194,169784,116463,"British Virgin Islands - British Virgin Islands Financial Services Commission"
1186832,1930,1139,"British Virgin Islands - British Virgin Islands Financial Services Commission"
1198759,16005,3239,"British Virgin Islands - British Virgin Islands Financial Services Commission"
1196223,41998,7592,"British Virgin Islands - British Virgin Islands Financial Services Commission"
1187835,50443,9436,"British Virgin Islands - British Virgin Islands Financial Services Commission"
1187835,42413,7684,"British Virgin Islands - British Virgin Islands Financial Services Commission"
1160132,31241,5698,"British Virgin Islands - British Virgin Islands Financial Services Commission"
1170677,18608,3662,"British Virgin Islands - British Virgin Islands Financial Services Commission"
1187064,197750,123051,"British Virgin Islands - British Virgin Islands Financial Services Commission"
1187064,192990,122064,"British Virgin Islands - British Virgin Islands Financial Services Commission"
1161567,193642,122183,"Ireland -  Central Bank of Ireland"
1176554,178135,118004,"Ireland -  Central Bank of Ireland"
1181194,170363,116629,"Ireland -  Central Bank of Ireland"
1181194,170363,116630,"Ireland -  Central Bank of Ireland"
1184464,16387,3290,"Ireland -  Central Bank of Ireland"
1184464,16342,3282,"Ireland -  Central Bank of Ireland"
1190561,180259,118413,"Ireland -  Central Bank of Ireland"
1193571,46018,8314,"Ireland -  Central Bank of Ireland"
1191227,175707,117551,"United Kingdom - Financial Conduct Authority"
1184481,195033,122482,"United Kingdom - Financial Conduct Authority"
1184481,195033,122480,"United Kingdom - Financial Conduct Authority"
1186871,52110,117109,"United Kingdom - Financial Conduct Authority"
1162716,195033,122482,"United Kingdom - Financial Conduct Authority"
1162716,195033,122480,"United Kingdom - Financial Conduct Authority"
1181683,52489,116269,"Cayman Islands - Cayman Islands Monetary Authority"
1186019,177187,117817,"Cayman Islands - Cayman Islands Monetary Authority"
1186019,177187,117816,"Cayman Islands - Cayman Islands Monetary Authority"
1192602,57981,11703,"Cayman Islands - Cayman Islands Monetary Authority"
1174277,166896,115736,"Cayman Islands - Cayman Islands Monetary Authority"
1167130,196407,122717,"Cayman Islands - Cayman Islands Monetary Authority"
1170563,195621,122601,"Cayman Islands - Cayman Islands Monetary Authority"
1167237,120585,83431,"Cayman Islands - Cayman Islands Monetary Authority"
1167237,5021,12988,"Cayman Islands - Cayman Islands Monetary Authority"
1191813,30955,5647,"Cayman Islands - Cayman Islands Monetary Authority"
1164601,61813,12528,"Cayman Islands - Cayman Islands Monetary Authority"
1175154,190801,120972,"Cayman Islands - Cayman Islands Monetary Authority"
1188375,177954,117969,"Cayman Islands - Cayman Islands Monetary Authority"
1188375,177954,117968,"Cayman Islands - Cayman Islands Monetary Authority"
1186296,193515,122139,"Cayman Islands - Cayman Islands Monetary Authority"
1179101,186680,120306,"Cayman Islands - Cayman Islands Monetary Authority"
1178212,191456,121079,"Cayman Islands - Cayman Islands Monetary Authority"
1178212,120360,83384,"Cayman Islands - Cayman Islands Monetary Authority"
1173126,57999,14079,"Cayman Islands - Cayman Islands Monetary Authority"
1188360,61893,12571,"Cayman Islands - Cayman Islands Monetary Authority"
1188360,61893,12572,"Cayman Islands - Cayman Islands Monetary Authority"
1184680,180935,118473,"Cayman Islands - Cayman Islands Monetary Authority"
1184680,180934,118472,"Cayman Islands - Cayman Islands Monetary Authority"
1173090,68909,109582,"Cayman Islands - Cayman Islands Monetary Authority"
1173090,68909,14094,"Cayman Islands - Cayman Islands Monetary Authority"
1194540,48378,8895,"Cayman Islands - Cayman Islands Monetary Authority"
1170038,197955,123099,"Cayman Islands - Cayman Islands Monetary Authority"
1182559,183983,119761,"Cayman Islands - Cayman Islands Monetary Authority"
1170690,190545,120920,"Cayman Islands - Cayman Islands Monetary Authority"
1170690,190545,120921,"Cayman Islands - Cayman Islands Monetary Authority"
1161004,193990,122279,"Cayman Islands - Cayman Islands Monetary Authority"
1161004,193990,122280,"Cayman Islands - Cayman Islands Monetary Authority"
1160270,167298,115834,"Cayman Islands - Cayman Islands Monetary Authority"
1160152,170127,116615,"Cayman Islands - Cayman Islands Monetary Authority"
1160152,170127,116616,"Cayman Islands - Cayman Islands Monetary Authority"
1190083,172002,116854,"Cayman Islands - Cayman Islands Monetary Authority"
1171332,193965,122278,"Cayman Islands - Cayman Islands Monetary Authority"
1170682,192888,122024,"Cayman Islands - Cayman Islands Monetary Authority"
1170682,192888,121981,"Cayman Islands - Cayman Islands Monetary Authority"
1165202,169853,116518,"Cayman Islands - Cayman Islands Monetary Authority"
1198295,184471,119838,"Cayman Islands - Cayman Islands Monetary Authority"
1190091,185485,120063,"Cayman Islands - Cayman Islands Monetary Authority"
1190091,185485,120064,"Cayman Islands - Cayman Islands Monetary Authority"
1190894,66483,13592,"Cayman Islands - Cayman Islands Monetary Authority"
1190894,66483,13591,"Cayman Islands - Cayman Islands Monetary Authority"
1195064,46787,8472,"Cayman Islands - Cayman Islands Monetary Authority"
1173913,181338,118545,"Cayman Islands - Cayman Islands Monetary Authority"
1173913,181343,118548,"Cayman Islands - Cayman Islands Monetary Authority"
1173913,181342,118547,"Cayman Islands - Cayman Islands Monetary Authority"
1173913,181342,118546,"Cayman Islands - Cayman Islands Monetary Authority"
1187559,26207,4811,"Cayman Islands - Cayman Islands Monetary Authority"
1187559,58580,11822,"Cayman Islands - Cayman Islands Monetary Authority"
1170688,178667,118066,"Cayman Islands - Cayman Islands Monetary Authority"
1170688,178667,118067,"Cayman Islands - Cayman Islands Monetary Authority"
1182686,183983,119761,"Cayman Islands - Cayman Islands Monetary Authority"
1195420,185448,120056,"Cayman Islands - Cayman Islands Monetary Authority"
1195420,185442,120052,"Cayman Islands - Cayman Islands Monetary Authority"
1188805,180558,118376,"Cayman Islands - Cayman Islands Monetary Authority"
1171628,197771,123061,"Cayman Islands - Cayman Islands Monetary Authority"
1176070,167006,115771,"Cayman Islands - Cayman Islands Monetary Authority"
1168768,54025,10604,"Cayman Islands - Cayman Islands Monetary Authority"
1168768,54025,10603,"Cayman Islands - Cayman Islands Monetary Authority"
1162768,190604,120934,"Cayman Islands - Cayman Islands Monetary Authority"
1162499,63342,117236,"Cayman Islands - Cayman Islands Monetary Authority"
1191227,175707,117551,"Cayman Islands - Cayman Islands Monetary Authority"
1182064,168015,116017,"Cayman Islands - Cayman Islands Monetary Authority"
1170703,178861,118109,"Cayman Islands - Cayman Islands Monetary Authority"
1170703,178861,118380,"Cayman Islands - Cayman Islands Monetary Authority"
1165215,171186,116756,"Cayman Islands - Cayman Islands Monetary Authority"
1165215,171186,116757,"Cayman Islands - Cayman Islands Monetary Authority"
1160053,4729,1567,"Cayman Islands - Cayman Islands Monetary Authority"
1185975,56951,11401,"Cayman Islands - Cayman Islands Monetary Authority"
1185975,56951,11319,"Cayman Islands - Cayman Islands Monetary Authority"
1185975,56951,11320,"Cayman Islands - Cayman Islands Monetary Authority"
1185975,56951,11321,"Cayman Islands - Cayman Islands Monetary Authority"
1185975,186041,120210,"Cayman Islands - Cayman Islands Monetary Authority"
1185975,186041,120209,"Cayman Islands - Cayman Islands Monetary Authority"
1185975,186041,120208,"Cayman Islands - Cayman Islands Monetary Authority"
1185975,186041,120207,"Cayman Islands - Cayman Islands Monetary Authority"
1187341,181382,118581,"Cayman Islands - Cayman Islands Monetary Authority"
1187341,181382,118580,"Cayman Islands - Cayman Islands Monetary Authority"
1185206,65932,13473,"Cayman Islands - Cayman Islands Monetary Authority"
1182366,177932,117941,"Cayman Islands - Cayman Islands Monetary Authority"
1178155,191154,121038,"Cayman Islands - Cayman Islands Monetary Authority"
1173677,64751,13192,"Cayman Islands - Cayman Islands Monetary Authority"
1198564,201810,123508,"Cayman Islands - Cayman Islands Monetary Authority"
1198564,201762,123492,"Cayman Islands - Cayman Islands Monetary Authority"
1168190,187514,120413,"Cayman Islands - Cayman Islands Monetary Authority"
1168190,167320,120424,"Cayman Islands - Cayman Islands Monetary Authority"
1190383,64560,13124,"Cayman Islands - Cayman Islands Monetary Authority"
1183584,166914,115884,"Cayman Islands - Cayman Islands Monetary Authority"
1185021,45733,8257,"Cayman Islands - Cayman Islands Monetary Authority"
1201637,192226,123739,"Cayman Islands - Cayman Islands Monetary Authority"
1188474,62966,12770,"Cayman Islands - Cayman Islands Monetary Authority"
1186001,120369,83385,"Cayman Islands - Cayman Islands Monetary Authority"
1180369,183534,119656,"Cayman Islands - Cayman Islands Monetary Authority"
1180369,183534,119655,"Cayman Islands - Cayman Islands Monetary Authority"
1180386,179713,118276,"Cayman Islands - Cayman Islands Monetary Authority"
1180386,179713,118275,"Cayman Islands - Cayman Islands Monetary Authority"
1166674,90230,67364,"Cayman Islands - Cayman Islands Monetary Authority"
1170376,167177,115805,"Cayman Islands - Cayman Islands Monetary Authority"
1194231,179696,118235,"Cayman Islands - Cayman Islands Monetary Authority"
1194999,193045,122031,"Cayman Islands - Cayman Islands Monetary Authority"
1187220,67002,13725,"Cayman Islands - Cayman Islands Monetary Authority"
1186832,1871,117729,"Cayman Islands - Cayman Islands Monetary Authority"
1185972,179454,118208,"Cayman Islands - Cayman Islands Monetary Authority"
1173121,120451,83411,"Cayman Islands - Cayman Islands Monetary Authority"
1173121,120453,83412,"Cayman Islands - Cayman Islands Monetary Authority"
1173121,120452,83410,"Cayman Islands - Cayman Islands Monetary Authority"
1191713,193990,122279,"Cayman Islands - Cayman Islands Monetary Authority"
1191713,193990,122280,"Cayman Islands - Cayman Islands Monetary Authority"
1173116,190521,120915,"Cayman Islands - Cayman Islands Monetary Authority"
1173116,190521,120916,"Cayman Islands - Cayman Islands Monetary Authority"
1192738,58362,11770,"Cayman Islands - Cayman Islands Monetary Authority"
1187464,166975,123135,"Cayman Islands - Cayman Islands Monetary Authority"
1191357,180205,118317,"Cayman Islands - Cayman Islands Monetary Authority"
1198480,44430,14102,"Cayman Islands - Cayman Islands Monetary Authority"
1198480,44430,14101,"Cayman Islands - Cayman Islands Monetary Authority"
1202148,27061,4964,"Cayman Islands - Cayman Islands Monetary Authority"
1202594,54596,12748,"Cayman Islands - Cayman Islands Monetary Authority"
1193572,199492,123250,"Cayman Islands - Cayman Islands Monetary Authority"
1178704,63976,12978,"Cayman Islands - Cayman Islands Monetary Authority"
1170698,183960,119786,"Cayman Islands - Cayman Islands Monetary Authority"
1170698,169782,116461,"Cayman Islands - Cayman Islands Monetary Authority"
1170698,45140,8861,"Cayman Islands - Cayman Islands Monetary Authority"
1170698,45140,8136,"Cayman Islands - Cayman Islands Monetary Authority"
1163518,199670,123291,"Cayman Islands - Cayman Islands Monetary Authority"
1163518,195022,122463,"Cayman Islands - Cayman Islands Monetary Authority"
1186010,190240,120893,"Cayman Islands - Cayman Islands Monetary Authority"
1186010,190240,120892,"Cayman Islands - Cayman Islands Monetary Authority"
1186907,64864,13217,"Cayman Islands - Cayman Islands Monetary Authority"
1186907,64864,13218,"Cayman Islands - Cayman Islands Monetary Authority"
1186907,202578,123651,"Cayman Islands - Cayman Islands Monetary Authority"
1186907,202587,123653,"Cayman Islands - Cayman Islands Monetary Authority"
1195327,200063,123340,"Cayman Islands - Cayman Islands Monetary Authority"
1195327,175106,117455,"Cayman Islands - Cayman Islands Monetary Authority"
1195327,175106,117454,"Cayman Islands - Cayman Islands Monetary Authority"
1195327,23675,4416,"Cayman Islands - Cayman Islands Monetary Authority"
1195327,23675,4415,"Cayman Islands - Cayman Islands Monetary Authority"
1195327,200063,123341,"Cayman Islands - Cayman Islands Monetary Authority"
1202932,5006,116979,"Cayman Islands - Cayman Islands Monetary Authority"
1172544,58142,11738,"Cayman Islands - Cayman Islands Monetary Authority"
1172544,58142,11739,"Cayman Islands - Cayman Islands Monetary Authority"
1170700,65008,13270,"Cayman Islands - Cayman Islands Monetary Authority"
1170700,195603,122943,"Cayman Islands - Cayman Islands Monetary Authority"
1170700,65008,13269,"Cayman Islands - Cayman Islands Monetary Authority"
1181216,190760,120960,"Cayman Islands - Cayman Islands Monetary Authority"
1181216,190760,120959,"Cayman Islands - Cayman Islands Monetary Authority"
1167407,158916,107499,"Cayman Islands - Cayman Islands Monetary Authority"
1181146,59099,47378,"Cayman Islands - Cayman Islands Monetary Authority"
1181146,59099,47376,"Cayman Islands - Cayman Islands Monetary Authority"
1165269,182817,119545,"Cayman Islands - Cayman Islands Monetary Authority"
1165269,182817,119546,"Cayman Islands - Cayman Islands Monetary Authority"
1186857,167005,115769,"Cayman Islands - Cayman Islands Monetary Authority"
1186857,167005,115770,"Cayman Islands - Cayman Islands Monetary Authority"
1188010,1403,120873,"Cayman Islands - Cayman Islands Monetary Authority"
1169936,181387,118582,"Cayman Islands - Cayman Islands Monetary Authority"
1169936,181387,118583,"Cayman Islands - Cayman Islands Monetary Authority"
1169936,33858,6562,"Cayman Islands - Cayman Islands Monetary Authority"
1194537,65500,56378,"Cayman Islands - Cayman Islands Monetary Authority"
1194537,65500,13364,"Cayman Islands - Cayman Islands Monetary Authority"
1166342,195216,122523,"Cayman Islands - Cayman Islands Monetary Authority"
1201908,53851,10550,"Cayman Islands - Cayman Islands Monetary Authority"
1202947,185933,120645,"Cayman Islands - Cayman Islands Monetary Authority"
1201025,66787,13676,"Cayman Islands - Cayman Islands Monetary Authority"
1201025,67080,13741,"Cayman Islands - Cayman Islands Monetary Authority"
1195823,194120,122309,"Cayman Islands - Cayman Islands Monetary Authority"
1175431,66777,13717,"Cayman Islands - Cayman Islands Monetary Authority"
1181994,173770,117221,"Cayman Islands - Cayman Islands Monetary Authority"
1190702,179578,118224,"Cayman Islands - Cayman Islands Monetary Authority"
1173944,195987,122664,"Cayman Islands - Cayman Islands Monetary Authority"
1166815,175357,117483,"Cayman Islands - Cayman Islands Monetary Authority"
1166815,74058,42364,"Cayman Islands - Cayman Islands Monetary Authority"
1175769,60632,12260,"Cayman Islands - Cayman Islands Monetary Authority"
1161118,179446,118217,"Cayman Islands - Cayman Islands Monetary Authority"
1167743,193990,122279,"Cayman Islands - Cayman Islands Monetary Authority"
1167743,193990,122280,"Cayman Islands - Cayman Islands Monetary Authority"
1202438,203689,123925,"Cayman Islands - Cayman Islands Monetary Authority"
1189783,54775,119880,"Cayman Islands - Cayman Islands Monetary Authority"
1185883,180146,119852,"Cayman Islands - Cayman Islands Monetary Authority"
1165224,190545,120920,"Cayman Islands - Cayman Islands Monetary Authority"
1165224,190545,120921,"Cayman Islands - Cayman Islands Monetary Authority"
1161044,67121,13748,"Cayman Islands - Cayman Islands Monetary Authority"
1161044,67121,13749,"Cayman Islands - Cayman Islands Monetary Authority"
1161044,169783,116522,"Cayman Islands - Cayman Islands Monetary Authority"
1161044,169783,116462,"Cayman Islands - Cayman Islands Monetary Authority"
1160362,194906,122443,"Cayman Islands - Cayman Islands Monetary Authority"
1198543,177121,117810,"Cayman Islands - Cayman Islands Monetary Authority"
1192523,39284,7204,"Cayman Islands - Cayman Islands Monetary Authority"
1192523,39311,7207,"Cayman Islands - Cayman Islands Monetary Authority"
1192523,39245,7202,"Cayman Islands - Cayman Islands Monetary Authority"
1169162,179817,118259,"Cayman Islands - Cayman Islands Monetary Authority"
1197227,69921,61371,"Cayman Islands - Cayman Islands Monetary Authority"
1164798,65998,13502,"Cayman Islands - Cayman Islands Monetary Authority"
1164798,65997,13500,"Cayman Islands - Cayman Islands Monetary Authority"
1169941,181350,118550,"Cayman Islands - Cayman Islands Monetary Authority"
1169941,56397,11151,"Cayman Islands - Cayman Islands Monetary Authority"
1169975,44430,14102,"Cayman Islands - Cayman Islands Monetary Authority"
1169975,44430,14101,"Cayman Islands - Cayman Islands Monetary Authority"
1170731,5605,2395,"Cayman Islands - Cayman Islands Monetary Authority"
1184911,168445,120848,"Cayman Islands - Cayman Islands Monetary Authority"
1170100,169145,116160,"Cayman Islands - Cayman Islands Monetary Authority"
1194471,65123,13287,"Cayman Islands - Cayman Islands Monetary Authority"
1194471,65123,13288,"Cayman Islands - Cayman Islands Monetary Authority"
1188379,178861,118109,"Cayman Islands - Cayman Islands Monetary Authority"
1188379,178861,118380,"Cayman Islands - Cayman Islands Monetary Authority"
1196369,177954,117968,"Cayman Islands - Cayman Islands Monetary Authority"
1196369,177954,117969,"Cayman Islands - Cayman Islands Monetary Authority"
1176028,52852,10266,"Cayman Islands - Cayman Islands Monetary Authority"
1176028,33862,6647,"Cayman Islands - Cayman Islands Monetary Authority"
1170701,56686,11261,"Cayman Islands - Cayman Islands Monetary Authority"
1176021,177187,117817,"Cayman Islands - Cayman Islands Monetary Authority"
1176021,177187,117816,"Cayman Islands - Cayman Islands Monetary Authority"
1146942,169145,116160,"Cayman Islands - Cayman Islands Monetary Authority"
1162561,194969,122495,"Cayman Islands - Cayman Islands Monetary Authority"
1195630,176165,117708,"Cayman Islands - Cayman Islands Monetary Authority"
1195630,176108,117651,"Cayman Islands - Cayman Islands Monetary Authority"
1195630,200585,123375,"Cayman Islands - Cayman Islands Monetary Authority"
1185261,61533,12473,"Cayman Islands - Cayman Islands Monetary Authority"
1185261,61533,12472,"Cayman Islands - Cayman Islands Monetary Authority"
1185261,44753,8088,"Cayman Islands - Cayman Islands Monetary Authority"
1185261,44753,8080,"Cayman Islands - Cayman Islands Monetary Authority"
1181353,193346,122085,"Cayman Islands - Cayman Islands Monetary Authority"
1171307,177663,117886,"Cayman Islands - Cayman Islands Monetary Authority"
1168242,195353,122560,"Cayman Islands - Cayman Islands Monetary Authority"
1168242,195353,122559,"Cayman Islands - Cayman Islands Monetary Authority"
1178746,193713,122211,"Cayman Islands - Cayman Islands Monetary Authority"
1177122,192164,121205,"Cayman Islands - Cayman Islands Monetary Authority"
1177122,192164,121204,"Cayman Islands - Cayman Islands Monetary Authority"
1183360,57776,116942,"Cayman Islands - Cayman Islands Monetary Authority"
1183360,57779,33364,"Cayman Islands - Cayman Islands Monetary Authority"
1191186,171376,116786,"Cayman Islands - Cayman Islands Monetary Authority"
1179773,169119,116157,"Cayman Islands - Cayman Islands Monetary Authority"
1161443,167951,115965,"Cayman Islands - Cayman Islands Monetary Authority"
1165717,168821,116122,"Cayman Islands - Cayman Islands Monetary Authority"
1199701,53292,10439,"Cayman Islands - Cayman Islands Monetary Authority"
1199701,53292,10438,"Cayman Islands - Cayman Islands Monetary Authority"
1197304,76643,51368,"Cayman Islands - Cayman Islands Monetary Authority"
1197304,76643,51367,"Cayman Islands - Cayman Islands Monetary Authority"
1197304,187554,120421,"Cayman Islands - Cayman Islands Monetary Authority"
1174575,194969,122495,"Cayman Islands - Cayman Islands Monetary Authority"
1170706,179943,118277,"Cayman Islands - Cayman Islands Monetary Authority"
1191725,12222,2744,"Cayman Islands - Cayman Islands Monetary Authority"
1179079,14910,3138,"Cayman Islands - Cayman Islands Monetary Authority"
1179079,14910,3137,"Cayman Islands - Cayman Islands Monetary Authority"
1194705,181369,119500,"Cayman Islands - Cayman Islands Monetary Authority"
1173754,193986,122277,"Cayman Islands - Cayman Islands Monetary Authority"
1185215,190948,121112,"Cayman Islands - Cayman Islands Monetary Authority"
1170677,58578,11821,"Cayman Islands - Cayman Islands Monetary Authority"
1197317,168855,116146,"Cayman Islands - Cayman Islands Monetary Authority"
1190072,190572,120927,"Cayman Islands - Cayman Islands Monetary Authority"
1190072,190572,120928,"Cayman Islands - Cayman Islands Monetary Authority"
1195838,190442,123576,"Cayman Islands - Cayman Islands Monetary Authority"
1161210,179906,118273,"Cayman Islands - Cayman Islands Monetary Authority"
1173249,44680,13470,"Cayman Islands - Cayman Islands Monetary Authority"
1173827,191386,121078,"Cayman Islands - Cayman Islands Monetary Authority"
1199769,27821,117011,"Cayman Islands - Cayman Islands Monetary Authority"
1199769,27831,117010,"Cayman Islands - Cayman Islands Monetary Authority"
1179233,184524,120044,"Cayman Islands - Cayman Islands Monetary Authority"
1166198,64136,13012,"Cayman Islands - Cayman Islands Monetary Authority"
1172456,77271,120396,"Cayman Islands - Cayman Islands Monetary Authority"
1164484,32037,9877,"Cayman Islands - Cayman Islands Monetary Authority"
1190561,64490,13277,"Cayman Islands - Cayman Islands Monetary Authority"
1200039,173770,117221,"Cayman Islands - Cayman Islands Monetary Authority"
1187537,180194,123073,"Cayman Islands - Cayman Islands Monetary Authority"
1169952,178398,118033,"Cayman Islands - Cayman Islands Monetary Authority"
1191475,178193,118006,"Cayman Islands - Cayman Islands Monetary Authority"
1195687,168015,116017,"Cayman Islands - Cayman Islands Monetary Authority"
1182486,184510,119842,"Cayman Islands - Cayman Islands Monetary Authority"
1182486,184510,119843,"Cayman Islands - Cayman Islands Monetary Authority"
1175611,196135,122658,"Cayman Islands - Cayman Islands Monetary Authority"
1189609,190553,120924,"Cayman Islands - Cayman Islands Monetary Authority"
1178803,193713,122211,"Cayman Islands - Cayman Islands Monetary Authority"
1167079,169664,116436,"Cayman Islands - Cayman Islands Monetary Authority"
1168310,44430,14102,"Cayman Islands - Cayman Islands Monetary Authority"
1168310,44430,14101,"Cayman Islands - Cayman Islands Monetary Authority"
