"FilingID","Primary Business","Business Name"
1036721,"FULL SERVICE FINANCIAL PLANNING.",""
1048906,"THE PRIMARY BUSINESS OF LUCAS CAPITAL MANAGEMENT, LLC IS THE PORTFOLIO MANAGEMENT OF OUR FOUR HEDGE FUNDS IN TANDEM WITH CUSTOM PORTFOLIO MANAGEMENT OF OUR RETAIL CLIENTS.",""
1058722,"OUR PRIMARY BUSINESS IS SUPERVISING ADVISORS UNDER A BROKER DEALER RELATIONSHIP",""
1050200,"WE SERVE AS SPONSOR/INVESTMENT MANAGER/ADMINISTRATOR AND SHAREHOLDER SERVICING AGENT TO DOMINI FUNDS, AND AS ADMINISTRATOR FOR AN INTEREST-BEARING DEPOSIT ACCOUNT. WE OFFER A DISCRETIONARY SEPARATELY MANAGED ACCOUNT PROGRAM.",""
1058672,"THREE PRIMARY BUSINESSES - SELLING MARKETABLE SECURITIES FOR ANOTHER BD - CU-ISI AND BROKERED CD'S; INVESTMENT ADVISORY; AND RISK MANAGEMENT SERVICES - ALL FOR CREDIT UNIONS.",""
1044250,"BOK FINANCIAL ASSET MANAGEMENT, INC.,  PROVIDES PENSION CONSULTING, ADMINISTRATIVE AND ACTUARIAL SERVICES.",""
1046027,"WEALTH MANAGEMENT",""
1042744,"MANAGEMENT COMPANY OF INVESTMENT TRUSTS AUTHORIZED BY THE FINANCIAL SERVICE AGENCY OF JAPAN",""
1056890,"INVESCO'S PRIMARY BUSINESS IS THE MANAGEMENT, OPERATION, PROMOTION OF INVESTMENT FUNDS, INCLUDING: SALES, MARKETING, TRANSFER AGENCY, BACK OFFICE SUPPORT.  DISTRIBUTION OF INVESTMENT FUNDS THROUGH APPROPRIATE DISTRIBUTION CHANNELS NOT OPERATED BY INVESCO.",""
1046128,"INCOME TAX PREPARATION",""
1049626,"BENDER LANE ADVISORY, LLC (""BLA"") PROVIDES MULTI-FAMILY OFFICE SERVICES TO HIGH NET WORTH INDIVIDUALS AND FAMILIES.  BLA ALSO PROVIDES ACCOUNTING AND TAX SERVICES TO FAMILY LIMITED PARTNERSHIPS AND OTHER REGISTERED INVESTMENT ADVISERS.",""
1043629,"GGHC IS A DUALLY REGISTERED BROKER DEALER/ INVESTMENT ADVISOR THAT MANAGES APPROXIMATELY 7400 ACCOUNTS ON A DISCRETIONARY BASIS. GGHC INVESTS IN EQUITIES, OPTIONS ,  AND CORPORATE AND GOVERNMENT BONDS FOR THEIR CLIENTS.",""
1041773,"ICMA RETIREMENT CORPORATION PROVIDES RETIREMENT PLAN SERVICES TO STATE AND LOCAL GOVERNMENTS, INCLUDING PLAN ADMINISTRATION, PLAN RECORDKEEPING, AND PARTICIPANT EDUCATION SERVICES.",""
1050720,"KELLY CRANE'S PRIMARY BUSINESS IS ANOTHER SEC REGISTERED INVESTMENT ADVISORY FIRM.","NAPA VALLEY WEALTH MANAGEMENT, INC."
1055984,"GGHC IS A DUALLY REGISTERED BROKER DEALER/ INVESTMENT ADVISOR THAT MANAGES APPROXIMATELY 7400 ACCOUNTS ON A DISCRETIONARY BASIS. GGHC INVESTS IN EQUITIES, OPTIONS ,  AND CORPORATE AND GOVERNMENT BONDS FOR THEIR CLIENTS.",""
1058602,"THIRD-PARTY INVESTMENT ADMINISTRATION AND MANAGEMENT SERVICES FOR UNAFFILIATED INVESTMENT ADVISORS.",""
1044538,"TRU INDEPENDENCE ALSO PROVIDES A SERVICE TO INVESTMENT ADVISERS SEEKING TO LAUNCH THEIR OWN INDEPENDENT INVESTMENT ADVISORY FIRMS. THIS OFFERING PROVIDES FIRMS WITH OPERATIONAL AND CONSULTATIVE SUPPORT AIMED AT HELPING THEM START THEIR BUSINESSES.",""
1047265,"PRIMARY BUSINESS OF PRINCIPALS AND INVESTMENT ADVISER REPRESENTATIVES OF MERIT FINANCIAL GROUP LLC IS PROVIDING BROKERAGE SERVICES THROUGH LPL FINANCIAL, A REGISTERED BROKER/DEALER AND MEMBER FINRA/SIPC.",""
1044667,"SEE SCHEDULE D, MISCELLANEOUS",""
1044451,"PRIMARY BUSINESS OF PRINCIPALS AND INVESTMENT ADVISER REPRESENTATIVES OF MERIT FINANCIAL ADVISORS LLC IS PROVIDING BROKERAGE SERVICES THROUGH LPL FINANCIAL, A REGISTERED BROKER/DEALER AND MEMBER FINRA/SIPC.",""
1051135,"THE RETIREMENT PLAN COMPANY, LLC, WHICH IS THE 100% OWNER OF ASI IS IN THE BUSINESS OF PROVIDING RECORDKEEPING AND OTHER ADMINISTRATIVE SERVICES TO QUALIFIED RETIREMENT AND OTHER PENSION PLANS. THESE SERVICES CONSTITUTE THE MAJORITY OF THE FIRM'S BUSINESS.","THE RETIREMENT PLAN COMPANY, LLC"
1056389,"THE PRIMARY BUSINESS OF LUCAS CAPITAL MANAGEMENT, LLC IS THE PORTFOLIO MANAGEMENT OF OUR TWO HEDGE FUNDS IN TANDEM WITH CUSTOM PORTFOLIO MANAGEMENT OF OUR RETAIL CLIENTS.",""
1036667,"MANAGEMENT SERVICES OF INVESTMENT TRUST",""
1055070,"REGISTRANT DEVELOPS AND DELIVERS, JOINTLY WITH THIRD-PARTY PROVIDERS, FINANCIAL, INSURANCE, BANKING, DISCOUNT, AND TRAVEL SERVICES SPONSORED BY THE NATIONAL EDUCATION ASSOCIATION (THE ""NEA"") FOR EMPLOYEES OF ELIGIBLE EMPLOYERS.",""
1053401,"PERSONAL FINANCIAL PLANNING",""
1054452,"BALANCE SHEET AND ASSET & LIABILITY CONSULTING SERVICES TO CREDIT UNIONS",""
1055571,"ASSET MANAGEMENT GROUP INVESTMENT CORP'S PRIMARY BUSINESS IS ACTING AS THE GENERAL PARTNER OR MANAGING MEMBER OF PRIVATE FUNDS.",""
1050892,"FINANCIAL SERVICES, INCLUDING INSURANCE, INVESTMENTS, INVESTMENT ADVISORY SERVICES","AMERICAN FINANCIAL GROUP, LTD"
1058329,"THE RETIREMENT PLAN COMPANY, LLC, WHICH IS THE 100% OWNER OF ASI IS IN THE BUSINESS OF PROVIDING RECORDKEEPING AND OTHER ADMINISTRATIVE SERVICES TO QUALIFIED RETIREMENT AND OTHER PENSION PLANS. THESE SERVICES CONSTITUTE THE MAJORITY OF THE FIRM'S BUSINESS.","THE RETIREMENT PLAN COMPANY, LLC"
1041776,"OUR PRIMARY BUSINESS IS SUPERVISING ADVISORS UNDER A BROKER DEALER RELATIONSHIP",""
1055150,"PETER PESIC IS THE MANAGING DIRECTOR OF EZ CUSTOM SOFTWARE SOLUTIONS, INC., WHICH IS A PROVIDER OF STOCK OPTIONS SOFTWARE AND ADMINISTRATIVE SERVICES.","EZ CUSTOM SOFTWARE SOLUTIONS, INC."
1044318,"REGISTRANT DEVELOPS AND DELIVERS, JOINTLY WITH THIRD-PARTY PROVIDERS, FINANCIAL, INSURANCE, BANKING, DISCOUNT, AND TRAVEL SERVICES SPONSORED BY THE NATIONAL EDUCATION ASSOCIATION (THE ""NEA"") FOR EMPLOYEES OF ELIGIBLE EMPLOYERS.",""
1053718,"WE SERVE AS SPONSOR/INVESTMENT MANAGER/ADMINISTRATOR AND SHAREHOLDER SERVICING AGENT TO DOMINI FUNDS, AND AS ADMINISTRATOR FOR AN INTEREST-BEARING DEPOSIT ACCOUNT. WE OFFER A DISCRETIONARY SEPARATELY MANAGED ACCOUNT PROGRAM.",""
1054340,"FINANCIAL PLANNING",""
1044713,"COMPREHENSIVE FINANCIAL PLANNING FOR INDIVIDUALS INCLUDING TAX ADVICE, INCOME TAX PREPARATION, ESTATE PLANNING ADVICE, LEVERAGE PLANNING AND EMPLOYEE BENEFITS PLANNING.",""
1044019,"FINANCIAL PLANNING; BILL PAYING SERVICES; CFO SERVICES, TAX & ACCOUNTING SERVICES",""
1039909,"BACK OFFICE SERVICES TO OTHER REGISTERED INVESTMENT ADVISERS, INCLUDING PROVIDING TECHNOLOGY AND BACK OFFICE SERVICES.",""
1056253,"DICKMEYER BOYCE FINANCIAL MANAGEMENT INC., IS A FEE-ONLY FINANCIAL PLANNING AND WEALTH MANAGEMENT FIRM.",""
1051174,"THE FIRM FILES STUDENT LOAN CONSOLIDATION APPLICATIONS, STUDENT LOAN FORGIVENESS APPLICATIONS, AND ANNUAL RE-FILE APPLICATIONS AS PART OF ITS BUNDLE OF SERVICES.",""
1044664,"SEE SCHEDULE D, MISCELLANEOUS SECTION",""
1054029,"CRESCENT REAL ESTATE LLC HAS WHOLLY OWNED SUBSIDIARIES THAT PERFORM PROPERTY MANAGEMENT SERVICES","FLATIRON PROPERTY MANAGEMENT LLC;  CRESCENT PROPERTY MANAGEMENT LLC"
1058262,"CRESCENT REAL ESTATE LLC HAS WHOLLY OWNED SUBSIDIARIES THAT PERFORM PROPERTY MANAGEMENT SERVICES","FLATIRON PROPERTY MANAGEMENT LLC;  CRESCENT PROPERTY MANAGEMENT LLC"
1044372,"STRATEGIC ADVISORY, TAX PLANNING AND COMPLIANCE, FINANCIAL REPORTING.",""
1044890,"BOK FINANCIAL ASSET MANAGEMENT, INC.,  PROVIDES PENSION CONSULTING, ADMINISTRATIVE AND ACTUARIAL SERVICES.",""
1056600,"EMPLOYER SPONSORED RETIREMENT PLAN CONSULTING",""
1045040,"PLATFORM ADMINISTRATIVE SERVICES RELATED TO A WRAP FEE PROGRAM",""
1054181,"WE PROVIDE BACK OFFICE SERVICES AND TECHNOLOGY SOLUTIONS TO OTHER INDEPENDENT REGISTERED INVESTMENT ADVISERS.",""
1045360,"PRIVATE EQUITY INVESTING",""
1045364,"PRIVATE EQUITY INVESTING",""
1054622,"WE SERVE AS SPONSOR/INVESTMENT MANAGER/ADMINISTRATOR AND SHAREHOLDER SERVICING AGENT TO DOMINI FUNDS, AND AS ADMINISTRATOR FOR AN INTEREST-BEARING DEPOSIT ACCOUNT. WE OFFER A DISCRETIONARY SEPARATELY MANAGED ACCOUNT PROGRAM.",""
1052688,"THE FIRM CONCENTRATES ON OFFERING NON-DISCRETIONARY ORDER MANAGEMENT AND OTHER ADMINISTRATIVE, TECHNOLOGY AND DATA SERVICES TO CLIENTS INVESTING IN MARKETPLACE LOANS.",""
1055859,"INVESTMENT ADVISORY SERVICES",""
1057118,"CONSULTING SERVICES-ASSET ALLOCATION,INVESTMENT POLICY DEVELOPMENT,INVESTMENT MANAGER/FUND SEARCH AND SELECTION,PERFORMANCE MEASUREMENT,CUSTODIAL SEARCH,401(K) BUNDLED PROVIDER SEARCH,AND FINANCIAL ANALYSIS CONSULTING SERVICES",""
1044921,"TFI PROVIDES OR SUBCONTRACTS TO OTHERS TO PROVIDE SVCS TO QUAL TUITION PRGMS ON BEHALF OF ST SPONSORS: RECKEEPING AND PROCESSING OF ACCOUNT OWNER TRANS REQS, UNIT VALUE CALCS,FEDERAL TAX REP,PERF REPORTING,CERTAIN ADMIN SVCS AND MKTING",""
1046078,"TFI PROVIDES OR SUBCONTRACTS TO OTHERS TO PROVIDE SVCS TO QUAL TUITION PRGMS ON BEHALF OF ST SPONSORS: RECKEEPING AND PROCESSING OF ACCOUNT OWNER TRANS REQS, UNIT VALUE CALCS,FEDERAL TAX REP,PERF REPORTING,CERTAIN ADMIN SVCS AND MKTING",""
1052780,"COMPANY ISSUES, BUT DOES NOT SELL, FIXED AND VARIABLE ANNUITY PRODUCTS.  THE PRODUCTS ARE SOLD THROUGH BOTH AFFILIATED AND INDEPENDENT BROKER/DEALERS.",""
1046372,"BALANCE SHEET AND ASSET & LIABILITY CONSULTING SERVICES TO CREDIT UNIONS",""
1045963,"PROVIDING PROPERTY MANAGEMENT, CONSTRUCTION MANAGEMENT AND DEVELOPMENT MANAGEMENT SERVICES",""
1046021,"WEALTH MANAGEMENT",""
1052765,"THE FIRM CONCENTRATES ON OFFERING NON-DISCRETIONARY ORDER MANAGEMENT AND OTHER ADMINISTRATIVE, TECHNOLOGY AND DATA SERVICES TO CLIENTS INVESTING IN MARKETPLACE LOANS.",""
1049305,"OUR PRIMARY BUSINESS IS SUPERVISING ADVISORS UNDER A BROKER DEALER RELATIONSHIP",""
1043707,"THIRD-PARTY INVESTMENT ADMINISTRATION AND MANAGEMENT SERVICES FOR UNAFFILIATED REGISTERED INVESTMENT ADVISERS.",""
1047197,"MANAGEMENT COMPANY OF INVESTMENT TRUSTS AUTHORIZED BY THE FINANCIAL SERVICE AGENCY OF JAPAN",""
1049392,"SOLOMAN HILL LP IS A UK REGISTER PARTNERSHIP. THE PARTNERSHIP PROVIDED CORPORATE FINANCE  ARRANGEMENT BROKER SERVICE.","SOLOMAN HILL LP"
1051732,"BENDER LANE ADVISORY, LLC (""BLA"") PROVIDES MULTI-FAMILY OFFICE SERVICES TO HIGH NET WORTH INDIVIDUALS AND FAMILIES.  BLA ALSO PROVIDES ACCOUNTING AND TAX SERVICES TO FAMILY LIMITED PARTNERSHIPS AND OTHER REGISTERED INVESTMENT ADVISERS.",""
1047956,"FINSER CORPORATION PROVIDES CONSULTING, SERVICE BUREAU, AND INVESTMENT PORTFOLIO ACCOUNTING SOFTWARE TO FINANCIAL INSTITUTIONS.","FINSER CORPORATION"
1048928,"RETAIL AND INSTITUTIONAL BROKERAGE SERVICES",""
1056999,"THE PRIMARY BUSINESS OF LUCAS CAPITAL MANAGEMENT, LLC IS THE PORTFOLIO MANAGEMENT OF OUR TWO HEDGE FUNDS IN TANDEM WITH CUSTOM PORTFOLIO MANAGEMENT OF OUR RETAIL CLIENTS.",""
1058328,"THE RETIREMENT PLAN COMPANY, LLC, WHICH IS THE 100% OWNER OF ASI IS IN THE BUSINESS OF PROVIDING RECORDKEEPING AND OTHER ADMINISTRATIVE SERVICES TO QUALIFIED RETIREMENT AND OTHER PENSION PLANS. THESE SERVICES CONSTITUTE THE MAJORITY OF THE FIRM'S BUSINESS.","THE RETIREMENT PLAN COMPANY, LLC"
1057199,"THE PRIMARY BUSINESS IS INVESTING IN COMMERCIAL REAL ESTATE, LOANS SECURED BY REAL ESTATE AND COLLATERALIZED MORTGAGE BACKED SECURITIES.",""
1051301,"THIRD PARTY MARKETING","PPD FINANCIAL PREMIER PRODUCTS DISTRIBUTORS"
1043899,"ICMA RETIREMENT CORPORATION PROVIDES RETIREMENT PLAN SERVICES TO STATE AND LOCAL GOVERNMENTS, INCLUDING PLAN ADMINISTRATION, PLAN RECORDKEEPING, AND PARTICIPANT EDUCATION SERVICES.",""
1047750,"THE FIRM & ITS AFFILIATES PRIMARILY PROVIDES PROGRAM MANAGEMENT, RECORD-KEEPING, ADMINISTRATION, AND INVESTMENT OVERSIGHT/MANAGEMENT SERVICES FOR QUALIFIED TUITION PLANS (529 PLANS). THESE SERVICES ARE PROVIDED UNDER THE FOLLOWING ENTITIES (SEE BELOW)","ASCENSUS COLLEGE SAVINGS, INC.; ASCENSUS BROKER DEALER SERVICES, INC.; ASCENSUS COLLEGE SAVINGS RECORDKEEPING SERVICES, LLC."
1043894,"CONSULTING SERVICES-ASSET ALLOCATION, INVESTMENT POLICY DEVELOPMENT, INVESTMENT MANAGER/FUND SEARCH AND SELECTION, PERFORMANCE MEASUREMENT, CUSTODIAL SEARCH, 401(K) BUNDLED PROVIDER SEARCH AND FINANCIAL ANALYSIS CONSULTING SERVICES",""
1051642,"WE PROVIDE BACK OFFICE SERVICES AND TECHNOLOGY SOLUTIONS TO OTHER INDEPENDENT REGISTERED INVESTMENT ADVISERS.",""
1055482,"ATCAP PARTNERS PROVIDES BACK OFFICE PROCESSING AND COMPLIANCE SERVICES TO HEDGE FUNDS, INCLUDING REGULATORY FILINGS AND SHADOW NAV CALCULATIONS.",""
1036577,"ROBOTIC TRADING SOLUTIONS IS A FINANCIAL STOCK TRADING PLATFORM TECHNOLOGY FOR ACTIVE INVESTMENT FINANCIAL FIRMS AND INVESTMENT ADVISERS.  OUR FINANCIAL LEARNING INVESTMENT PLATFORM, FLIP, IS NOW AVAILABLE TO INVESTMENT COMPANIES AND INVESTMENT ADVISERS.","ROBOTIC TRADING SOLUTIONS/SERVICES"
1044023,"FINANCIAL PLANNING; BILL PAYING SERVICES; CFO SERVICES, TAX & ACCOUNTING SERVICES",""
1052238,"JEMSTEP IS A TECHNOLOGY SERVICE PROVIDER FOCUSED ON HELPING RIAS AND BROKER-DEALERS ENGAGE, ACQUIRE AND SERVICE NEW CLIENTS EFFICIENTLY THROUGH AN ONLINE PLATFORM THAT FEATURES A PAPERLESS ONBOARDING PROCESS.",""
1054701,"PRIMARY BUSINESS OF PRINCIPALS AND INVESTMENT ADVISER REPRESENTATIVES OF MERIT FINANCIAL GROUP LLC IS PROVIDING BROKERAGE SERVICES THROUGH LPL FINANCIAL, A REGISTERED BROKER/DEALER AND MEMBER FINRA/SIPC.",""
1050907,"MANAGING PROPRIETARY ACCOUNTS COMPOSED OF FUNDS RAISED THROUGH FEDERAL AND STATE TAX CREDIT PROGRAMS, INCLUDING NEW MARKETS TAX CREDIT PROGRAMS THAT MAKE EQUITY & DEBT INVESTMENTS (INCLUDING SBA & USDA GUARANTEED LOANS UNDER THE BIZCAPITAL BRAND).","AFFILIATES OPERATING UNDER THE TRADE NAME: ADVANTAGE CAPITAL PARTNERS.  A COMPLETE LIST IS AVAILABLE UPON REQUEST."
1044435,"EACH INVESTMENT ADVISOR REPRESENTATIVE IS LICENSED AND APPOINTED IN A MANNER THAT ALLOWS THEM TO SOLICIT AND PLACE CERTAIN LIFE INSURANCE AND/OR FIXED ANNUITY CONTRACTS INTO PLACE.  THIS ACTIVITY COMPRISES LESS THAN 5% OF THE REVENUES OF THE FIRM.",""
1038947,"ENGAGES IN THE DISTRIBUTION OF SWISS AND FOREIGN DOMICILED COLLECTIVE INVESTMENT SCHEMES (""CIS""). TO UNDERTAKE CERTAIN DUTIES FOR FOREIGN CIS, PURSUANT TO FINMA, THE REGISTRANT IS ALSO APPOINTED AS A REPRESENTATIVE TO CERTAIN FOREIGN CIS",""
1043301,"INCOME TAX PREPARATION",""
1044585,"BAM IS A TURNKEY ASSET MANAGEMENT PROVIDER PROVIDING BACK-OFFICE SUPPORT SERVICES TO INDEPENDENT REGISTERED INVESTMENT ADVISOR CLIENTS. IN ADDITION TO THESE SERVICES, BAM PROVIDES SUBADVISORY SERVICES TO INDEPENDENT REGISTERED INVESTMENT ADVISOR CLIENTS.",""
1050127,"OUR PRIMARY BUSINESS IS SUPERVISING ADVISORS UNDER A BROKER DEALER RELATIONSHIP",""
1055385,"SEE SCHEDULE D - MISCELLANEOUS",""
1044198,"PJ IS A SECURITIES BROKER/DEALER & INVESTMENT BANKING FIRM. IT EFFECTS TRANSACTIONS IN LISTED & UNLISTED SECURITIES. IT ALSO ACTS AS A BROKER OF OPTIONS CONTRACTS & PROVIDES CERTAIN OTHER FINANCIAL SERVICES.",""
1047195,"BACK OFFICE SERVICES TO OTHER REGISTERED INVESTMENT ADVISERS, INCLUDING PROVIDING TECHNOLOGY AND BACK OFFICE SERVICES.",""
1046080,"PATHSTONE FEDERAL STREET PROVIDES COMPREHENSIVE FAMILY OFFICE AND CONSULTING SERVICES, WHICH MAY INCLUDE TAX-RELATED AND OTHER NON-INVESTMENT RELATED MATTERS. WE ALSO PROVIDES CONSULTING, EXPENSE MANAGEMENT, BILL PAY, AND CONCIERGE SERVICES.",""
1038569,"JEMSTEP IS A TECHNOLOGY SERVICE PROVIDER FOCUSED ON HELPING RIAS AND BROKER-DEALERS ENGAGE, ACQUIRE AND SERVICE NEW CLIENTS EFFICIENTLY THROUGH AN ONLINE PLATFORM THAT FEATURES A PAPERLESS ONBOARDING PROCESS.",""
1047715,"RETAIL AND INSTITUTIONAL BROKERAGE SERVICES",""
1052313,"IN ADDITION TO PROVIDING ADVISORY SERVICES, THE FIRM PROVIDES FINANCING TO MID-SIZED COMPANIES IN THE MIDDLE MARKET. THE FIRM USES ITS OWN CAPITAL AND ITS ADVISORY CLIENTS' CAPITAL TO FUND ITS LENDING ACTIVITIES. PLEASE REFER TO FORM ADV PART 2A.",""
1043803,"FINANCIAL PLANNING",""
