"FilingID","Primary Business","Business Name"
1064850,"WE PROVIDE BACK OFFICE SERVICES AND TECHNOLOGY SOLUTIONS TO OTHER INDEPENDENT REGISTERED INVESTMENT ADVISERS.",""
1074048,"RETIREMENT PLAN ADMINISTRATION, CONSULTING AND SERVICING",""
1056502,"INSTITUTIONAL BROKER-DEALER",""
1064289,"C.P.A. ACCOUNTING FIRM","BRYAN J. BOOHER, CPA, PC"
1074417,"KELLY CRANE'S PRIMARY BUSINESS IS ANOTHER SEC REGISTERED INVESTMENT ADVISORY FIRM.","NAPA VALLEY WEALTH MANAGEMENT, INC."
1077546,"THE RETIREMENT PLAN COMPANY, LLC, WHICH IS THE 100% OWNER OF ASI IS IN THE BUSINESS OF PROVIDING RECORDKEEPING AND OTHER ADMINISTRATIVE SERVICES TO QUALIFIED RETIREMENT AND OTHER PENSION PLANS. THESE SERVICES CONSTITUTE THE MAJORITY OF THE FIRM'S BUSINESS.","THE RETIREMENT PLAN COMPANY, LLC"
1059190,"REGISTRANT PRIMARILY PROVIDES NON-INVESTMENT ADVISORY SERVICES SUCH AS RECORD-KEEPING, CLERICAL, ACCOUNTING, TRUST, TAX, ESTATE PLANNING AND ADMINISTRATIVE SERVICES FOR ITS CLIENTS.",""
1044406,"WATERTON SERVES AS AN INVESTMENT MANAGER TO COMMINGLED INVESTMENT VEHICLES THAT INVEST IN REAL ESTATE ASSETS (I.E. PHYSICAL PROPERTY) AND/OR OTHER REAL ESTATE RELATED ASSETS (I.E. NOTES, MORTGAGES AND OTHER LIENS ON AND INTERESTS IN REAL ESTATE).",""
1066778,"COMMERCIAL FINANCE LENDER THAT STRUCTURES, UNDERWRITES, SELLS AND HOLDS SENIOR SECURED DEBT.",""
1079976,"RETAIL AND INSTITUTIONAL BROKERAGE SERVICES",""
1080333,"ACT AS A SOLICITOR FOR HAMMER ASSET MANAGEMENT, LLC.",""
1064335,"WE PROVIDE BACK OFFICE SERVICES AND TECHNOLOGY SOLUTIONS TO OTHER INDEPENDENT REGISTERED INVESTMENT ADVISERS.",""
1081727,"REGISTERED REPRESENTATIVE OF BROKER-DEALER, ROYAL ALLIANCE ASSOCIATES, INC.",""
1066307,"OUR PRIMARY BUSINESS IS SUPERVISING ADVISORS UNDER A BROKER DEALER RELATIONSHIP",""
1073271,"ATCAP PARTNERS PROVIDES BACK OFFICE PROCESSING AND COMPLIANCE SERVICES TO HEDGE FUNDS, INCLUDING REGULATORY FILINGS AND SHADOW NAV CALCULATIONS.",""
1074186,"TRU INDEPENDENCE ALSO PROVIDES A SERVICE TO INVESTMENT ADVISERS SEEKING TO LAUNCH THEIR OWN INDEPENDENT INVESTMENT ADVISORY FIRMS. THIS OFFERING PROVIDES FIRMS WITH OPERATIONAL AND CONSULTATIVE SUPPORT AIMED AT HELPING THEM START THEIR BUSINESSES.",""
1066293,"SUBSCRIPTION SERVICE FOR A NEWSLETTER, FUTURES, STOCK MARKET","BLACK PEAK VENTURES INC."
1073233,"INVESTMENT ADVISORY BUSINESS",""
1073371,"ATCAP PARTNERS PROVIDES BACK OFFICE PROCESSING AND COMPLIANCE SERVICES TO HEDGE FUNDS, INCLUDING REGULATORY FILINGS AND SHADOW NAV CALCULATIONS.",""
1075633,"WE PROVIDE INVESTMENT ADVISORY SERVICES TO OUR CLIENTS","N/A"
1075721,"RICHARD A. KISSER IS AN INDEPENDENT AGENT AND CEO OF AIP MARKETING ALLIANCE OFFERING FIXED LIFE INSURANCE PRODUCTS TO CLIENTS RONALD J. BRIGGS JR. IS AN INDEPENDENT AGENT OFFERING FIXED LIFE PRODUCTS TO CLIENTS THROUGH VARIOUS INSURANCE CARRIERS","AIP MARKETING ALLIANCE"
1075854,"RICHARD A. KISSER IS AN INDEPENDENT AGENT AND CEO OF AIP MARKETING ALLIANCE OFFERING FIXED LIFE INSURANCE PRODUCTS TO CLIENTS RONALD J. BRIGGS JR. IS AN INDEPENDENT AGENT OFFERING FIXED LIFE PRODUCTS TO CLIENTS THROUGH VARIOUS INSURANCE CARRIERS","AIP MARKETING ALLIANCE"
1075862,"FINSER CORPORATION PROVIDES CONSULTING, SERVICE BUREAU, AND INVESTMENT PORTFOLIO ACCOUNTING SOFTWARE TO FINANCIAL INSTITUTIONS.","FINSER CORPORATION"
1066204,"OUR PRIMARY BUSINESS IS SUPERVISING ADVISORS UNDER A BROKER DEALER RELATIONSHIP",""
1068793,"FINANCIAL, INSURANCE AND INVESTMENT SERVICES",""
1067016,"SECURITIES BROKER/DEALER",""
1059149,"PROVIDING FINANCIAL COUNSELING",""
1060909,"OUR PRIMARY BUSINESS IS SUPERVISING ADVISORS UNDER A BROKER DEALER RELATIONSHIP",""
1060481,"BROKER/DEALER REPRESENTATIVE","SECURITIES AMERICA, INC."
1060990,"BROKER/DEALER REPRESENTATIVE","SECURITIES AMERICA, INC."
1060469,"REAL ESTATE ADVICE",""
1070737,"WE PROVIDE INVESTMENT ADVISORY SERVICES TO OUR CLIENTS","N/A"
1065203,"FINANCIAL ADVISORY AND CONSULTING. PARTICULARLY IN THE AREA OF PRIVATE PLACEMENT LIFE INSURANCE SOLUTIONS, OFTEN IN COMBINATION WITH TRUSTS, FOUNDATIONS AND OTHER STRUCTURES. WE ALSO PROVIDE THE SAME SERVICES FOR NON-U.S. PERSONS.",""
1067990,"OTHER THAN OUR INVESTMENT ADVISORY BUSINESS, WE ALSO ASSIST THE RETIREMENT PLAN IN THE OVERALL REDUCTION OF ITS ADMINISTRATION EXPENSES",""
1076544,"JOSEPH WILLIAM GOETZ IS A FACULTY OF THE UNIVERSITY OF GEORGIA. HE SPENDS THE MAJORITY OF HIS TIME ON THOSE ACTIVITIES AND CONSIDERS THEM HIS PRIMARY BUSINESS.",""
1057722,"CONSULTING SERVICES AND PROJECT MANAGEMENT SERVICES - NOT RELATED TO INVESTMENT ADVISORY. ALSO SEE SECTION 6.B.(3)",""
1059911,"INCOME TAX PREPARATION",""
1070302,"REAL ESTATE ADVICE",""
1073195,"RRE SERVES AS THE COLLATERAL MANAGER AND SPECIAL SERVICER FOR COLLATERALIZED DEBT OBLIGATIONS.",""
1062672,"SUPREME ALLIANCE LLC, BROKER/DEALER. OUR REPRESENTATIVES ARE REGISTERED WITH OUR BROKER/DEALER TO SELL MUTUAL FUND INVESTMENTS AND VARIABLE CONTRACTS. THEY ARE ALSO LICENSED INSURANCE AGENTS TO SELL TRADITIONAL LIFE, HEALTH AND ANNUITY PRODUCTS.",""
1066404,"CAPITECT OFFERS A CLIENT DASHBOARD THAT ENABLES FINANCIAL ADVISORS TO EASILY PROVIDE THEIR CLIENTS A MORE MODERN ONLINE EXPERIENCE. THE CLIENT DASHBOARD FEATURES ACCOUNT AGGREGATION, GOAL TRACKING, PORTFOLIO REPORTING, AND DOCUMENT SHARING.",""
1070840,"SUPREME ALLIANCE LLC, BROKER/DEALER. OUR REPRESENTATIVES ARE REGISTERED WITH OUR BROKER/DEALER TO SELL MUTUAL FUND INVESTMENTS AND VARIABLE CONTRACTS. THEY ARE ALSO LICENSED INSURANCE AGENTS TO SELL TRADITIONAL LIFE, HEALTH AND ANNUITY PRODUCTS.",""
1073512,"RICHARD A. KISSER IS AN INDEPENDENT AGENT AND CEO OF AIP MARKETING ALLIANCE OFFERING FIXED LIFE INSURANCE PRODUCTS TO CLIENTS RONALD J. BRIGGS JR. IS AN INDEPENDENT AGENT OFFERING FIXED LIFE PRODUCTS TO CLIENTS THROUGH VARIOUS INSURANCE CARRIERS","AIP MARKETING ALLIANCE"
1080991,"FINANCIAL SERVICES, INCLUDING INSURANCE, INVESTMENTS, INVESTMENT ADVISORY SERVICES","AMERICAN FINANCIAL GROUP, LTD"
1062210,"PJ IS A SECURITIES BROKER/DEALER & INVESTMENT BANKING FIRM. IT EFFECTS TRANSACTIONS IN LISTED & UNLISTED SECURITIES. IT ALSO ACTS AS A BROKER OF OPTIONS CONTRACTS & PROVIDES CERTAIN OTHER FINANCIAL SERVICES.",""
1069802,"OUR PRIMARY BUSINESS IS SUPERVISING ADVISORS UNDER A BROKER DEALER RELATIONSHIP",""
1074558,"ADVISORY AND CONSULTING SERVICES FOR LENDING INSTITUTIONS, INVESTMENT MANAGERS, AND OTHER COMMERCIAL REAL ESTATE FUNDS INCLUDING BUT NOT LIMITED TO PENSION PLANS.",""
1056821,"INVESTOR RELATIONS","PRINCETON RESEARCH"
1058444,"PENSION CONSULTANT.  CREATE, DOCUMENT, ADMINISTER, QUALIFIED AND NON-QUALIFIED PLANS.",""
1062045,"COMPREHENSIVE FINANCIAL PLANNING AND INVESTMENT MANAGEMENT FOR INDIVIDUALS, FAMILIES AND CHARITABLE ORGANIZATIONS, FOR WHICH ONLY FEES ARE CHARGED.",""
1069200,"ENGAGES IN THE DISTRIBUTION OF SWISS AND FOREIGN DOMICILED COLLECTIVE INVESTMENT SCHEMES (""CIS""). TO UNDERTAKE CERTAIN DUTIES FOR FOREIGN CIS, PURSUANT TO FINMA, THE REGISTRANT IS ALSO APPOINTED AS A REPRESENTATIVE TO CERTAIN FOREIGN CIS",""
1068394,"INCOME TAX PREPARATION",""
1073932,"BYRON FINANCIAL, LLC'S PRIMARY BUSINESS IS THAT OF A LICENSED INSURANCE AGENCY.",""
1061509,"WE PROVIDE BACK OFFICE SERVICES AND TECHNOLOGY SOLUTIONS TO OTHER INDEPENDENT REGISTERED INVESTMENT ADVISERS.",""
1060146,"PRINCIPAL, STUART B. ALLEN, IS PRESIDENT/MAJORITY OWNER OF ALLEN TRUST COMPANY, A PORTLAND, OREGON CHARTERED INDEPENDENT TRUST COMPANY OFFERING COMPREHENSIVE TRUST SERVICES, INCLUDING INVESTMENT MANAGEMENT SERVICES, TO ITS TRUST CLIENTS.",""
1078426,"RESPOND DOES NOT PROVIDE FINANCIAL ADVICE TO INVESTORS.WE PROVIDE A FREE MATCHING SERVICE THAT CONNECTS INVESTORS TO A LIMITED NUMBER OF OUR MEMBER ADVISORS ADVISORS IN OUR SERVICE PAY US A MEMBERSHIP FEE AND A PER REFERRAL FEE,FOR DELIVERED REFERRALS.","WISERADVISOR"
1080244,"FULL SERVICE SECURITIES BROKER/DEALER",""
1069191,"BLACKROCK REALTY ADVISORS, INC. ACTS AS REAL ESTATE INVESTMENT MANAGER FOR INSTITUTIONAL CLIENTS. ITS PRIMARY ACTIVITIES RELATE TO THE ACQUISITION, MANAGEMENT, DISPOSITION OF REAL ESTATE AND REAL ESTATE DEBT INSTRUMENTS FOR ITS CLIENTS.",""
1074755,"FINANCIAL PLANNING",""
1063503,"APPLICANT PROVIDES CONSULTING SERVICES TO CLIENTS BY RECOMMENDING OUTSIDE MANAGERS.  APPLICANT ALSO PROVIDES ADVICE ON INVESTMENT IN AFFILIATED FUND-OF-FUNDS. AS OF THIS FILING, NCM HAS NO CONSULTING CLIENTS.",""
1063643,"APPLICANT PROVIDES CONSULTING SERVICES TO CLIENTS BY RECOMMENDING OUTSIDE MANAGERS.  APPLICANT ALSO PROVIDES ADVICE ON INVESTMENT IN AFFILIATED FUND-OF-FUNDS. AS OF THIS FILING, NCM HAS NO CONSULTING CLIENTS.",""
1063539,"CERTIFIED PUBLIC ACCOUNTANTS",""
1064883,"CHECKS & BALANCES(C&B) RUNS A FAMILY OFFICE BUSINESS.  THE MAJORITY OF CLIENTS ARE RELATED TO THE PRINCIPALS. SERVICES INCLUDE ACCOUNTING, TAX, ESTATE PLANNING, AND INVESTMENT ADVISORY ADVICE.  C&B DOES NOT HOLD ITSELF OUT TO THE PUBLIC OR SOLICIT CLIENTS.",""
1071192,"WEALTH MANAGEMENT",""
1077239,"CONSULTING SERVICES-ASSET ALLOCATION, INVESTMENT POLICY DEVELOPMENT, INVESTMENT MANAGER/FUND SEARCH AND SELECTION, PERFORMANCE MEASUREMENT, CUSTODIAL SEARCH, 401(K) BUNDLED PROVIDER SEARCH AND FINANCIAL ANALYSIS CONSULTING SERVICES",""
1076233,"INVESTMENT RESEARCH",""
1081087,"DR. JEFFREY BROWN IS A PROFESSOR OF RADIOLOGY.  DR. ERIC MALDEN IS IN PRIVATE PRACTICE OF RADIOLOGY IN MEDICINE",""
1059741,"CONSULTING SERVICES AND PROJECT MANAGEMENT SERVICES - NOT RELATED TO INVESTMENT ADVISORY. ALSO SEE SECTION 6.B.(3)",""
1062956,"CONSULTING SERVICES AND PROJECT MANAGEMENT SERVICES - NOT RELATED TO INVESTMENT ADVISORY. ALSO SEE SECTION 6.B.(3)",""
1081334,"SEE SCHEDULE D MISC SECTION.",""
1081465,"PJ IS A SECURITIES BROKER/DEALER & INVESTMENT BANKING FIRM. IT EFFECTS TRANSACTIONS IN LISTED & UNLISTED SECURITIES. IT ALSO ACTS AS A BROKER OF OPTIONS CONTRACTS & PROVIDES CERTAIN OTHER FINANCIAL SERVICES.",""
1061577,"FAMILY WEALTH COUNSELING, FOUNDATION MANAGEMENT.",""
1081411,"FINANCIAL SERVICES, INSURANCE","AMERICAN FINANCIAL GROUP, LTD"
1080542,"ADMINISTRATION OF TAFT-HARTLEY PENSION, AND HEALTH AND WELFARE TRUST FUNDS AND TO A MUCH LESSER DEGREE PRIVATE OR NON-PROFIT CORPORATION HEALTH BENEFIT PLANS.",""
1068929,"ADVISOR OFFERS FINANCIAL ADVISORY SERVICES, INSURANCE PRODUCTS, INVESTMENT ADVISORY / WEALTH MANAGEMENT, LIMITED PARTNERSHIPS, REAL ESTATE INVESTMENT TRUSTS, AND OTHER ALTERNATIVE INVESTMENT STRATEGIES.",""
1068682,"REGULATORY EXAMINATIONS OF INSURANCE COMPANY INVESTMENT HOLDINGS","JP CONSULTING"
1077731,"FEE BASED FINANCIAL PLANNING.",""
1064426,"JOSEPH WILLIAM GOETZ IS A FACULTY OF THE UNIVERSITY OF GEORGIA. HE SPENDS THE MAJORITY OF HIS TIME ON THOSE ACTIVITIES AND CONSIDERS THEM HIS PRIMARY BUSINESS.",""
1047910,"CONSULTING SERVICES-ASSET ALLOCATION, INVESTMENT POLICY DEVELOPMENT, INVESTMENT MANAGER/FUND SEARCH AND SELECTION, PERFORMANCE MEASUREMENT, CUSTODIAL SEARCH, 401(K) BUNDLED PROVIDER SEARCH AND FINANCIAL ANALYSIS CONSULTING SERVICES",""
1068885,"THIRD-PARTY INVESTMENT ADMINISTRATION AND MANAGEMENT SERVICES FOR UNAFFILIATED INVESTMENT ADVISORS.",""
1073722,"FIRM HAS SOLICITOR ARRANGEMENTS WITH OTHER INVESTMENT ADVISERS.",""
1061990,"PRIMARY BUSINESS OF PRINCIPALS AND INVESTMENT ADVISER REPRESENTATIVES OF MERIT FINANCIAL GROUP LLC IS PROVIDING BROKERAGE SERVICES THROUGH LPL FINANCIAL, A REGISTERED BROKER/DEALER AND MEMBER FINRA/SIPC.",""
1062885,"FIRM HAS SOLICITOR ARRANGEMENTS WITH OTHER INVESTMENT ADVISERS.",""
1066687,"INVESTOR RELATIONS","PRINCETON RESEARCH"
1075902,"FINSER CORPORATION PROVIDES CONSULTING, SERVICE BUREAU, AND INVESTMENT PORTFOLIO ACCOUNTING SOFTWARE TO FINANCIAL INSTITUTIONS.","FINSER CORPORATION"
1081489,"COMPANY ISSUES, BUT DOES NOT SELL, FIXED AND VARIABLE ANNUITY PRODUCTS.  THE PRODUCTS ARE SOLD THROUGH BOTH AFFILIATED AND INDEPENDENT BROKER/DEALERS.",""
1066347,"SECURITIES BROKER/DEALER",""
1066356,"SECURITIES BROKER/DEALER",""
1074171,"WE PROVIDE INVESTMENT ADVISORY SERVICES TO OUR CLIENTS","N/A"
1049597,"CAPITECT OFFERS A CLIENT DASHBOARD THAT ENABLES FINANCIAL ADVISORS TO EASILY PROVIDE THEIR CLIENTS A MORE MODERN ONLINE EXPERIENCE. THE CLIENT DASHBOARD FEATURES ACCOUNT AGGREGATION, GOAL TRACKING, PORTFOLIO REPORTING, AND DOCUMENT SHARING.",""
1082085,"INSTITUTIONAL INVESTMENT CONSULTING TO CORPORATIONS, CAPTIVE INSURANCE COMPANIES, FOUNDATIONS, NON PROFIT CLIENTS; INVESTMENT POLICIES, BENCHMARKS, PERFORMANCE MONITORING,MANAGER/CUSTODIAN SELECTION, STRATEGIC PLANS, ASSET ALLOCATION, FEE ANALYSIS",""
1082514,"BROKER DEALER","VECTORGLOBAL WMG"
1068642,"PROVIDE SOFTWARE TO HELP INDIVIDUALS TRACK AND MANAGE THEIR PORTFOLIOS.",""
1072505,"WE PROVIDE COMPREHENSIVE FINANCIAL PLANNING SERVICES.  INVESTMENT ADVICE AND PORTFOLIO MANAGEMENT ARE PART OF THE SERVICES THAT WE OFFER.  IN ADDITION, WE PROVIDE INCOME TAX PLANNING AND PREPARATION SERVICES.",""
1064320,"VALUATION OF MORTGAGE ASSETS; LICENSING OF RISK MANAGEMENT ANALYTICS & SOFTWARE",""
1074797,"FIRM HAS SOLICITOR ARRANGEMENTS WITH OTHER INVESTMENT ADVISERS.",""
1064576,"KELLY CRANE'S PRIMARY BUSINESS IS ANOTHER SEC REGISTERED INVESTMENT ADVISORY FIRM.","NAPA VALLEY WEALTH MANAGEMENT, INC."
1070218,"I PROVIDE PORTFOLIO MANAGEMENT ADVICE FOR A FEE.",""
1064171,"COMPREHENSIVE FINANCIAL PLANNING SERVICES INCLUDING CASH FLOW, TAXATION, RETIREMENT, EDUCATION, RISK MANAGEMENT AND ESTATE PLANNING ADVICE.",""
1064696,"PROVIDE THIRD PARTY ADMINISTRATIVE COMPLIANCE AND RECORDKEEPING SERVICES TO QUALIFIED PLAN CLIENTS.","FRINGE BENEFITS DESIGN OF MN, INC."
1062117,"ONLINE WEBSITE THAT PROVIDES OPTIONS TRADING TOOLS AND NEWSLETTER.","JUMPING AHEAD INC.  DBA ""UNCLEBOBSMONEY.COM"""
1056321,"ATCAP PARTNERS PROVIDES BACK OFFICE PROCESSING AND COMPLIANCE SERVICES TO HEDGE FUNDS, INCLUDING REGULATORY FILINGS AND SHADOW NAV CALCULATIONS.",""
1061654,"ALL PDA MANAGEMENT PERSONNEL ARE ALSO EMPLOYED AS MANAGEMENT PERSONNEL, AND ARE REGISTERED WITH GENEOS WEALTH MANAGEMENT, INC. GENEOS IS A FINRA MEMBER BROKER DEALER AND SEC REGISTERED INVESTMENT ADVISOR.","GENEOS WEALTH MANAGEMENT, INC."
1069649,"FINANCIAL PLANNING FOR INDIVIDUALS PERTAINING TO RETIRMENT PLANNING AND SAVING FOR COLLEGE FOR THEIR CHILDREN.",""
1059142,"BENDER LANE ADVISORY, LLC (""BLA"") PROVIDES MULTI-FAMILY OFFICE SERVICES TO HIGH NET WORTH INDIVIDUALS AND FAMILIES.  BLA ALSO PROVIDES ACCOUNTING AND TAX SERVICES TO FAMILY LIMITED PARTNERSHIPS AND OTHER REGISTERED INVESTMENT ADVISERS.",""
1059163,"PROVIDING FINANCIAL COUNSELING",""
1069143,"SALE OF FIXED INSURANCE PRODUCTS. PARENT OF BROKER/DEALER.",""
1066239,"CERTAIN OF THE PRINCIPALS OF APPLICANT ARE PRINCIPALS OF A CERTIFIED PUBLIC ACCOUNTING FIRM VERGEPOINTE, LLP",""
1069731,"REAL ESTATE ADVICE",""
1062550,"BENDER LANE ADVISORY, LLC (""BLA"") PROVIDES MULTI-FAMILY OFFICE SERVICES TO HIGH NET WORTH INDIVIDUALS AND FAMILIES.  BLA ALSO PROVIDES ACCOUNTING AND TAX SERVICES TO FAMILY LIMITED PARTNERSHIPS AND OTHER REGISTERED INVESTMENT ADVISERS.",""
1073230,"BROKER\DEALER",""
1073435,"KELLY CRANE'S PRIMARY BUSINESS IS ANOTHER SEC REGISTERED INVESTMENT ADVISORY FIRM.","NAPA VALLEY WEALTH MANAGEMENT, INC."
1068159,"CONSULTING SERVICES-ASSET ALLOCATION,INVESTMENT POLICY DEVELOPMENT,INVESTMENT MANAGER/FUND SEARCH AND SELECTION,PERFORMANCE MEASUREMENT,CUSTODIAL SEARCH,401(K) BUNDLED PROVIDER SEARCH,AND FINANCIAL ANALYSIS CONSULTING SERVICES",""
1082047,"IN ADDITION TO ITS ADVISORY BUSINESS, WE PROVIDE (1) WEALTH MANAGEMENT, (2) ESTATE PLANNING ADVICE, (3) FINANCIAL PLANNING, (4) INCOME TAX PLANNING AND PREPARATION SERVICES AND (5) FINANCIAL CONSULTING SERVICES.",""
1064844,"PROVIDE THIRD PARTY ADMINISTRATIVE COMPLIANCE AND RECORDKEEPING SERVICES TO QUALIFIED PLAN CLIENTS.","FRINGE BENEFITS DESIGN OF MN, INC."
1063173,"FINANCIAL PLANNING",""
1063228,"KELLY CRANE'S PRIMARY BUSINESS IS ANOTHER SEC REGISTERED INVESTMENT ADVISORY FIRM.","NAPA VALLEY WEALTH MANAGEMENT, INC."
1074813,"SUPREME ALLIANCE LLC, BROKER/DEALER. OUR REPRESENTATIVES ARE REGISTERED WITH OUR BROKER/DEALER TO SELL MUTUAL FUND INVESTMENTS AND VARIABLE CONTRACTS. THEY ARE ALSO LICENSED INSURANCE AGENTS TO SELL TRADITIONAL LIFE, HEALTH AND ANNUITY PRODUCTS.",""
1075632,"WE PROVIDE INVESTMENT ADVISORY SERVICES TO OUR CLIENTS","N/A"
1075634,"WE PROVIDE INVESTMENT ADVISORY SERVICES TO OUR CLIENTS","N/A"
1068921,"FINANCIAL PLANNING AND ASSET MANAGEMENT",""
1080187,"PERSONAL FINANCIAL PLANNING",""
1061581,"PENSION CONSULTING/PUBLICATIONS FOR INVESTMENT RESEARCH. RERC PROVIDES FOR CERTAIN ERISA-RELATED CLIENTS OVERSIGHT INDEPENDENT FIDUCIARY WORK AS WELL AS VALUATION MANAGEMENT AND REVIEW SERVICES TO CERTAIN ERISA-RELATED CLIENTS.",""
1077997,"PROVIDING FINANCIAL AND RETIREMENT PLANNING SERVICES.",""
1078668,"THIRD PARTY ADMINISTRATION FOR RETIREMENT PLANS",""
1074465,"RETIREMENT PLANNING, WEALTH AND ESTATE MANAGEMENT",""
1077175,"INTRODUCING BROKER DEALER",""
1082499,"FINANCIAL PLANNING",""
1084576,"CONSULTING SERVICES-ASSET ALLOCATION, INVESTMENT POLICY DEVELOPMENT, INVESTMENT MANAGER/FUND SEARCH AND SELECTION, PERFORMANCE MEASUREMENT, CUSTODIAL SEARCH, 401(K) BUNDLED PROVIDER SEARCH AND FINANCIAL ANALYSIS CONSULTING SERVICES",""
1084615,"IN ADDITION TO INVESTMENT ADVISORY SERVICES, I PROVIDE INDIVIDUALIZED FINANCIAL PLANNING TO MANY CLIENTS. I ALSO PROVIDE TAX COMPLIANCE WORK FOR A SUBSET OF CLIENTS.",""
1096361,"VANGUARD ASSET MANAGEMENT, LIMITED PROVIDES ITS CLIENTS WITH CORPORATE, MANAGEMENT, AND ADMINISTRATIVE MUTUAL FUND SERVICES, INCLUDING ACCOUNTING, TRANSFER AGENCY, AND DISTRIBUTION SERVICES.",""
1088203,"THL CREDIT, INC. IS A BUSINESS DEVELOPMENT COMPANY THAT MAKES INVESTMENTS IN PRIVATELY NEGOTIATED DEBT AND EQUITY SECURITIES OF LOWER MIDDLE MARKET COMPANIES, PROVIDING CAPITAL FOR GROWTH, RECAPITALIZATIONS, LEVERAGED BUYOUTS AND ACQUISITIONS.",""
1080101,"THE APPLICANT PROVIDES RECORDKEEPING, ADMINISTRATION, AND EMPLOYEE EDUCATION/COMMUNICATION SERVICES FOR QUALIFIED AND NON-QUALIFIED DEFINED CONTRIBUTION, DEFINED BENEFIT, AND HEALTH AND WELFARE PLANS.","CONDUENT HR OUTSOURCING"
1079703,"SEE SCHEDULE D - MISCELLANEOUS",""
1079130,"PRIMARY BUSINESS IS PROVIDING FAMILY OFFICE SERVICES SUCH AS PROVIDING PERSONALIZED FINANCIAL, TAX, AND ESTATE PLANNING ADVICE, ACCOUNTING SERVICES, ASSISTANCE WITH CHARITABLE GIVING, AND ASSISTANCE WITH PRIVATE INVESTING STRUCTURE/OVERSIGHT/GOVERNANCE.",""
1081929,"EACH INVESTMENT ADVISOR REPRESENTATIVE IS LICENSED AND APPOINTED IN A MANNER THAT ALLOWS THEM TO SOLICIT AND PLACE CERTAIN LIFE INSURANCE AND/OR FIXED ANNUITY CONTRACTS INTO PLACE.  THIS ACTIVITY COMPRISES LESS THAN 5% OF THE REVENUES OF THE FIRM.",""
1092568,"BALANCE SHEET AND ASSET & LIABILITY CONSULTING SERVICES TO CREDIT UNIONS",""
1101384,"MUNICIPAL ADVISORY, FINANCIAL ADVISORY AND CALCULATIONS OF EXCESS EARNINGS, ARBITRAGE, AND REBATE REQUIREMENTS CONTAINED IN THE INTERNAL REVENUE CODE.",""
1099253,"PROVIDE FINANCIAL COUNSELING, BILL PAYING, REPORTING, TAX PLANNING, PREPARATION AND COMPLIANCE TO HIGH NET WORTH FAMILIES.",""
1088442,"THE FIRM & ITS AFFILIATES PRIMARILY PROVIDES PROGRAM MANAGEMENT, RECORD-KEEPING, ADMINISTRATION, AND INVESTMENT OVERSIGHT/MANAGEMENT SERVICES FOR QUALIFIED TUITION PLANS (529 PLANS). THESE SERVICES ARE PROVIDED UNDER THE FOLLOWING ENTITIES (SEE BELOW)","ASCENSUS COLLEGE SAVINGS, INC.; ASCENSUS BROKER DEALER SERVICES, INC.; ASCENSUS COLLEGE SAVINGS RECORDKEEPING SERVICES, LLC."
1075425,"BAM IS A TURNKEY ASSET MANAGEMENT PROVIDER PROVIDING BACK-OFFICE SUPPORT SERVICES TO INDEPENDENT REGISTERED INVESTMENT ADVISOR CLIENTS. IN ADDITION TO THESE SERVICES, BAM PROVIDES SUBADVISORY SERVICES TO INDEPENDENT REGISTERED INVESTMENT ADVISOR CLIENTS.",""
1091380,"FINANCIAL PLANNING, INSURANCE AND TAX PREPARATION FOR INDIVIDUALS IS THE CO-PRIMARY BUSINESS.  IN ADDITION WE PROVIDE TAX PLANNING ADVICE TO HIGH NET WORTH INDIVIDUALS AS PART OF THE FINANCIAL PLANNING AND TAX PREPARATION SERVICES.",""
1099909,"PICTET ASSET MANAGEMENT INC. WILL ONLY ACT AS A SOLICITOR FOR TWO OF ITS AFFILIATES, PICTET ASSET MANAGEMENT LIMITED AND PICTET ASSET MANAGEMENT SA, MARKETING EXCLUSIVELY THE INVESTMENT ADVISER SERVICES AND CAPABILITIES OF THESE TWO AFFILIATES IN THE USA.",""
1091092,"INVESTMENT CONSULTING AND MANAGEMENT SERVICES WITH REGARDING OWNERSHIP AND OPERATION OF REAL ESTATE.",""
1098023,"FINANCIAL PLANNING. INCLUDES INVESTMENT PLANNING, TAX PLANNING,PROTECTION, RETIREMENT INCOME PLANNING, ESTATE PLANNING.",""
1101555,"INVESTMENT ADVISORY SERVICES",""
1096428,"OPHRYS, LLC'S PRIMARY BUSINESS IS PROVIDING DEBT RECOVERY MANAGEMENT SERVICES IN THE DEFAULTED CONSUMER DEBT INDUSTRY.","NOT APPLICABLE."
1098084,"OWNER, INVESTOR, DEVELOPER AND MANAGER OF U.S. DOMESTIC COMMERCIAL REAL ESTATE.",""
1091466,"PICTET ASSET MANAGEMENT INC. WILL ONLY ACT AS A SOLICITOR FOR TWO OF ITS AFFILIATES, PICTET ASSET MANAGEMENT LIMITED AND PICTET ASSET MANAGEMENT SA, MARKETING EXCLUSIVELY THE INVESTMENT ADVISER SERVICES AND CAPABILITIES OF THESE TWO AFFILIATES IN THE USA.",""
1061722,"ROUND HILL MUSIC IS A BOUTIQUE CREATIVE MUSIC COMPANY WITH A CORE FOCUS ON MUSIC PUBLISHING",""
1088212,"MR. DENNIS C. COOK IS AN ATTORNEY PRACTICING LAW IN WYOMING AND COLORADO THROUGH HIS LAW FIRM COOK AND ASSOCIATE, P.C.","COOK AND ASSOCIATE, P.C."
1086298,"PRIMARY BUSINESS IS FINANCIAL PLANNING AND WEALTH ADVISORY, OF WHICH INVESTMENT ADVISORY IS A PART.",""
1064602,"MULTI-FAMILY OFFICE BUSINESS.","N/A"
1094561,"BUSINESS MANAGER FOR PROFESSIONAL ATHLETES",""
1101591,"DRIVE SHACK INC. IS AN OWNER AND OPERATOR OF GOLF-RELATED LEISURE AND ENTERTAINMENT BUSINESSES. DRIVE SHACK INC. CONDUCTS ITS BUSINESS THROUGH THREE PRIMARY SEGMENTS: (1) TRADITIONAL GOLF PROPERTIES, (2) ENTERTAINMENT GOLF VENUES, AND (3) DEBT INVESTMENTS.",""
1083237,"THE RETIREMENT PLAN COMPANY, LLC, WHICH IS THE 100% OWNER OF ASI IS IN THE BUSINESS OF PROVIDING RECORDKEEPING AND OTHER ADMINISTRATIVE SERVICES TO QUALIFIED RETIREMENT AND OTHER PENSION PLANS. THESE SERVICES CONSTITUTE THE MAJORITY OF THE FIRM'S BUSINESS.","THE RETIREMENT PLAN COMPANY, LLC"
1100984,"PROVIDE THIRD PARTY ADMINISTRATIVE COMPLIANCE AND RECORDKEEPING SERVICES TO QUALIFIED PLAN CLIENTS.","FRINGE BENEFITS DESIGN OF MN, INC."
1097671,"APPLICANT IS AN INDEPENDENT PENSION CONSULTING AND ADMINISTRATION COMPANY, PROVIDING PLAN DESIGN, DOCUMENTATION, INSTALLATION AND ANNUAL ADMINISTRATION. IT ASSISTS CLIENTS IN ALL OF THEIR COMPLIANCE OBLIGATIONS. IT ALSO SELLS INSURANCE PRODUCTS.",""
1080040,"THE PRIMARY BUSINESS OF BLX GROUP LLC IS COMPLIANCE CONSULTING SERVICES INCLUDING ARBITRAGE REBATE ANALYSIS, POST ISSUANCE COMPLIANCE, SECONDARY MARKET DISCLOSURE AND PROGRAM ADMINISTRATION SERVICES.",""
1067622,"TVST INVESTS CLIENT FUNDS IN TIMBERLAND AND TIMBER/ENVIRONMENTAL/ECO-RELATED REAL ESTATE INVESTMENTS/ASSETS.  TVST MANAGES SUCH INVESTMENTS ON CLIENT'S BEHALF.  IN CONJUNCTION THEREWITH, TVST MAY ACT AS MM/GP OF CERTAIN INVESTMENT FUNDS.",""
1086182,"WE PROVIDE COMPREHENSIVE FINANCIAL PLANNING TO INDIVIDUALS AND FAMILIES. INVESTMENT ADVICE IS ONLY PART OF THE PLANNING PROCESS.",""
1069975,"INVESCO'S PRIMARY BUSINESS IS THE MANAGEMENT, OPERATION, PROMOTION OF INVESTMENT FUNDS, INCLUDING: SALES, MARKETING, TRANSFER AGENCY, BACK OFFICE SUPPORT.  DISTRIBUTION OF INVESTMENT FUNDS THROUGH APPROPRIATE DISTRIBUTION CHANNELS NOT OPERATED BY INVESCO.",""
1084646,"TRU INDEPENDENCE ALSO PROVIDES A SERVICE TO INVESTMENT ADVISERS SEEKING TO LAUNCH THEIR OWN INDEPENDENT INVESTMENT ADVISORY FIRMS. THIS OFFERING PROVIDES FIRMS WITH OPERATIONAL AND CONSULTATIVE SUPPORT AIMED AT HELPING THEM START THEIR BUSINESSES.",""
1095826,"MORTGAGE BANKING","SAGE FINANCIAL SERVICES, TERRA MORTGAGE"
1098897,"ANDERSEN TAX PROVIDES A WIDE RANGE OF TAX, VALUATION, FINANCIAL ADVISORY AND RELATED CONSULTING SERVICES TO INDIVIDUAL AND COMMERCIAL CLIENTS.",""
1078106,"TAX ADVISORY AND FINANCIAL MANAGEMENT SERVICES",""
1095546,"REAL ESTATE ADVICE",""
1100245,"FINANCIAL PLANNING REGISTERED REPRESENTATIVE OF A BROKER/DEALER",""
1102130,"REGISTRANT'S PRIMARY BUSINESS IS PROVIDING HIGH NET WORTH AND INCOME INDIVIDUALS WITH BUSINESS AND FAMILY WEALTH MANAGEMENT SERVICES, TAX PLANNING, GENERAL CAREER COUNSELING AND CONTRACT NEGOTIATION CONSULTATIONS.",""
1084923,"NORTHWEST PLAN SERVICES, INC. PROVIDES RECORDKEEPING, ADMINISTRATION AND ACTUARIAL SERVICES TO COMPANY SPONSORED RETIREMENT PLANS.",""
1088955,"WE PROVIDE INVESTMENT ADVISORY SERVICES TO OUR CLIENTS","N/A"
1092401,"REGISTRANT IS A PENNSYLVANIA-LICENSED INSURANCE AGENCY.",""
1096845,"ROBOTIC TRADING SOLUTIONS IS A FINANCIAL STOCK TRADING PLATFORM TECHNOLOGY FOR ACTIVE INVESTMENT FINANCIAL FIRMS AND INVESTMENT ADVISERS.  OUR FINANCIAL LEARNING INVESTMENT PLATFORM, FLIP, IS NOW AVAILABLE TO INVESTMENT COMPANIES AND INVESTMENT ADVISERS.","ROBOTIC TRADING SOLUTIONS/SERVICES"
1101796,"THIRD-PARTY INVESTMENT ADMINISTRATION AND MANAGEMENT SERVICES FOR UNAFFILIATED REGISTERED INVESTMENT ADVISERS.",""
1079756,"IN ADDITION TO OUR ADVISORY BUSINESS, WE ALSO LICENSE SOFTWARE TO FINANCIAL COMPANIES, INCLUDING ADVISORS, INDEX PROVIDERS, AND ASSET MANAGERS",""
1102055,"PENSION CONSULTING SERVICES","PENSION ADVISORS"
1084748,"SEE SCHEDULE D MISC SECTION.",""
1086375,"PROVIDING MANAGEMENT SERVICES TO PORTFOLIO COMPANIES. THE FIRM HAS MANAGEMENT SERVICES AGREEMENTS WITH ITS CLIENTS, CODI AND ANHOLT INVESTMENTS, LTD.",""
1083324,"STELAC IS A MULTI-FAMILY OFFICE, WHICH MANAGES AND ADVISES INVESTMENTS PRIMARILY FOR ULTRA-HIGH-NET-WORTH INTERNATIONAL INDIVIDUALS AND FAMILIES. IN ADDITION, STELAC ACTS AS THE INVESTMENT MANAGER OF TWO SEPARATE OFFSHORE INVESTMENT ENTITIES.",""
1082673,"FIRM PROVIDES INVESTMENT MANAGEMENT, COMPREHENSIVE FINANCIAL PLANNING, DIVORCE PLANNING AND VALUATIONS.",""
1099546,"CERTIFIED PUBLIC ACCOUNTANT PRACTICE PROVIDING TAX PREPARATION AND PLANNING  PRIMARILY TO INVESTMENT MANAGEMENT, TRUSTS & ESTATES AND A LIMITED NUMBER OF OTHERS.","JOHN A. BYSKO CPA"
1082524,"REAL ESTATE PROPERTY MANAGEMENT, REAL ESTATE FUND MANAGEMENT","OUR SUBSIDIARY BRIDGE PROPERTY MANAGEMENT LC"
1078831,"PROVIDE SALES AND MARKETING, CLIENT SERVICE, ADMINISTRATIVE AND SUPPORT SERVICES.",""
1080091,"ACTUARIAL AND CONSULTING SERVICES FOR EMPLOYER SPONSORED BENEFIT PLANS.",""
1100239,"PROVIDING PROPERTY MANAGEMENT, CONSTRUCTION MANAGEMENT AND DEVELOPMENT MANAGEMENT SERVICES",""
1086195,"CERTIFIED PUBLIC ACCOUNTANTS","CUMMINGS & CARROLL, PC"
1096406,"HUBBELL'S ""PRIMARY"" BUSINESS IS  CONSULTING  TO EMPLOYER SPONSORED RETIREMENT PLANS WITH RESPECT TO  PLAN DESIGN/COMPLIANCE & PARTICIPANT OUTCOME SOLUTIONS. THESE CONSULTING SERVICES ARE NOT ASSOCIATED WITH ANY FINANCIAL PRODUCT OR SECURITY",""
1088900,"THE PRIMARY BUSINESS OF THE REGISTRANT CONSISTS OF THE DEVELOPMENT, MANAGEMENT, OPERATION, CONSTRUCTION AND LEASING OF REAL ESTATE ASSETS.","THE REAL ESTATE DEVELOPMENT BUSINESS IS USUALLY CONDUCTED UNDER THE NAME OF TISHMAN SPEYER DEVELOPMENT, L.L.C."
1076686,"FIXED INCOME CLIENT REPORTING",""
1084822,"MOLLER & BARRETT, LLP IS A ST. PAUL BASED ACCOUNTING FIRM THAT ENGAGES IN TAX, ACCOUNTING AND CONSULTING ACTIVITIES.",""
1089279,"MADISON INVESTMENT HOLDINGS, INC., AS THE HOLDING COMPANY FOR ITS DIRECTLY AND INDIRECTLY CONTROLLED REGISTERED INVESTMENT ADVISER AND LIMITED PURPOSE BROKER/DEALER AFFILIATES, PROVIDES ADMINISTRATIVE SUPPORT (EG COMMON PAYMASTER, ETC) TO SUCH AFFILIATES.",""
1088554,"PENSION CONSULTING SERVICES","PENSION ADVISORS"
1090269,"REGISTRANT IS OWNED BY THE MERCADIEN GROUP, LLC.  THE MEMBERS OF THE MERCADIEN GROUP, LLC ARE ALSO THE PARTNERS OF MERCADIEN, P.C., A CERTIFIED PUBLIC ACCOUNTING FIRM THAT SHARES THE SAME OFFICE AS REGISTRANT.",""
1092933,"FINANCIAL, INSURANCE AND INVESTMENT SERVICES",""
1087775,"FEE-ONLY FINANCIAL PLANNING AND INVESTMENT MANAGEMENT",""
1078407,"WE SERVE AS SPONSOR/INVESTMENT MANAGER/ADMINISTRATOR AND SHAREHOLDER SERVICING AGENT TO DOMINI FUNDS, AND AS ADMINISTRATOR FOR AN INTEREST-BEARING DEPOSIT ACCOUNT. WE OFFER A DISCRETIONARY SEPARATELY MANAGED ACCOUNT PROGRAM.",""
1097722,"THE FIRM MAY ALSO SUPPORT THE VINCI GROUP IN MARKETING EFFORTS, IN PARTICULAR WITH RESPECT TO THE ""BRANDING"" OF THE VINCI GROUP'S ASSET MANAGEMENT SERVICES IN THE UNITED STATES.",""
1097142,"THE FIRM ACTS AS A SOLICITOR FOR INVESTMENT ADVISERS AND RECEIVES CASH REFERRAL FEES PURSUANT TO INVESTMENT ADVISERS ACT RULE 206(4)-3.",""
1092375,"ARA PROVIDES REAL ESTATE INVESTMENT MANAGEMENT SERVICES PRIMARILY TO TAX EXEMPT ENTITIES WHICH INCLUDES PORTFOLIO AND ASSET MANAGEMENT SERVICES, DUE DILIGENCE, ACQUISITION, DISPOSITION, LOAN UNDERWRITING, LOAN STRUCTURING AND DEVELOPMENT SERVICES.",""
1089523,"PROVIDE (1) STRATEGY, (2) DESIGN, (3) ADMINISTRATIVE, (4) FINANCING AND (5) COMMUNICATION CONSULTING SERVICES TO SPONSORS OF ERISA HEALTH AND PENSION PLANS.",""
1099184,"ARA PROVIDES REAL ESTATE INVESTMENT MANAGEMENT SERVICES PRIMARILY TO TAX EXEMPT ENTITIES WHICH INCLUDES PORTFOLIO AND ASSET MANAGEMENT SERVICES, DUE DILIGENCE, ACQUISITION, DISPOSITION, LOAN UNDERWRITING, LOAN STRUCTURING AND DEVELOPMENT SERVICES.",""
1084353,"FINANCIAL ADVISORY SERVICES FOR HIGH NET WORTH INDIVIDUALS, INCLUDING TAX AND CASH FLOW PLANNING, ESTATE AND TRUST PLANNING, INSURANCE ANALYSIS, INVESTMENT REVIEW, RECOMMENDATION OF INVESTMENT MANAGERS, TAX PREPARATION, AND OTHER TAILORED SERVICES.",""
1084486,"TAG PROVIDES A FULL COMPLEMENT OF TAX CONSULTING, ACCOUNTING AND OTHER FINANCIAL CONSULTING SERVICES TO IT'S CLIENTS.",""
1091544,"PUBLIC ACCOUNTING SERVICES","WARD & SCHMERBECK, P.C."
1099892,"RETIREMENT PLAN ADMINISTRATION","CARROLL CONSULTANTS, LTD."
1066348,"TIS GROUP OFFERS RESEARCH PUBLICATIONS (NEWSLETTERS) AND OFFERS INVESTMENT MANAGEMENT SERVICES.",""
1102381,"BUSINESS VALUATION SERVICES","VALUATION ADVISORS, LLC"
1102626,"WE PROVIDE ASSET AND LIABILITY MANAGEMENT SERVICES TO CLIENTS AND SELL COLI AND BOLI PLANS TO INSTITUTIONAL CLIENTS.","WESTPORT STRATEGIES, LLC"
1085821,"JEMSTEP IS A TECHNOLOGY SERVICE PROVIDER FOCUSED ON HELPING RIAS AND BROKER-DEALERS ENGAGE, ACQUIRE AND SERVICE NEW CLIENTS EFFICIENTLY THROUGH AN ONLINE PLATFORM THAT FEATURES A PAPERLESS ONBOARDING PROCESS.",""
1100812,"RICHARD A. KISSER IS AN INDEPENDENT AGENT AND CEO OF AIP MARKETING ALLIANCE OFFERING FIXED LIFE INSURANCE PRODUCTS TO CLIENTS RONALD J. BRIGGS JR. IS AN INDEPENDENT AGENT OFFERING FIXED LIFE PRODUCTS TO CLIENTS THROUGH VARIOUS INSURANCE CARRIERS","AIP MARKETING ALLIANCE"
1091477,"WE CURRENTLY PROVIDE CONTINUOUS AND REGULAR SUPERVISORY OR MANAGEMENT SERVICES WITH RESPECT TO REAL ESTATE PORTFOLIOS.  THIS REAL ESTATE CONSISTS OF FARMLAND, TIMBERLAND, OR BOTH, AND IS MANAGED BY US EITHER ON A DISCRETIONARY OR NON-DISCRETIONARY BASIS.",""
1078358,"THE FIRM CONCENTRATES ON OFFERING NON-DISCRETIONARY ORDER MANAGEMENT AND OTHER ADMINISTRATIVE, TECHNOLOGY AND DATA SERVICES TO CLIENTS INVESTING IN MARKETPLACE LOANS.",""
1085390,"ZENO CONSULTING GROUP, LLC IS A CONSULTING AND DATA ANALYSIS FIRM DEDICATED TO ENHANCING INVESTMENT PERFORMANCE BY IMPROVING THE TRADING PROCESS, IDENTIFYING SOURCES OF COST AND OBSTACLES TO BETTER PERFORMANCE.",""
1081661,"BUSINESS AND REAL ESTATE CONSULTING SERVICES TO OTHER INVESTMENT ADVISERS AND OTHER ENTITIES",""
1096897,"ACGBRC IS AN INSURANCE AGENCY INCORPORATED AND LICENSED IN THE STATE OF MINNESOTA.   MOST OF ACG-BRC'S BUSINESS CONSISTS OF CONSULTING ON EMPLOYER-SPONSORED HEALTH CARE PLANS AND VOLUNTARY BENEFITS","ADVANCED CAPITAL GROUP BENEFITS AND RISK CONSULTING"
1098433,"CONSTRUCTING PORTFOLIOS FOR INVESTORS CONSISTING OF TRADITIONAL REINSTATEABLE REINSURANCE CONTRACTS AND COLLATERALIZED REINSURANCE ARRANGEMENTS SOURCED THOUGH OUR RELATED LICENSED INSURER.",""
1094932,"BUSINESS AND REAL ESTATE CONSULTING SERVICES TO OTHER INVESTMENT ADVISERS AND OTHER ENTITIES",""
1070639,"CAMPBELL GLOBAL IS A VERTICALLY INTEGRATED TIMBERLAND INVESTMENT AND MANAGEMENT ORGANIZATION THAT ACQUIRES, MANAGES AND SELLS TIMBERLAND AND OTHER NATURAL RESOURCES FOR INVESTORS.",""
1098506,"SECURITIES BROKER/DEALER",""
1082025,"FRATERNAL BENEFIT SOCIETY THAT OFFERS INSURANCE PRODUCTS TO ITS MEMBERS.","THRIVENT FINANCIAL"
1077810,"DRIVE SHACK INC. IS AN OWNER AND OPERATOR OF GOLF-RELATED LEISURE AND ENTERTAINMENT BUSINESSES. DRIVE SHACK INC. CONDUCTS ITS BUSINESS THROUGH THREE PRIMARY SEGMENTS: (1) TRADITIONAL GOLF PROPERTIES, (2) ENTERTAINMENT GOLF VENUES, AND (3) DEBT INVESTMENTS.",""
1091368,"IN ADDITION TO PROVIDING ADVISORY SERVICES, THE FIRM PROVIDES FINANCING TO MID-SIZED COMPANIES IN THE MIDDLE MARKET. THE FIRM USES ITS OWN CAPITAL AND ITS ADVISORY CLIENTS' CAPITAL TO FUND ITS LENDING ACTIVITIES. PLEASE REFER TO FORM ADV PART 2A.",""
1089568,"PLANNING SERVICES INTENDED TO ""PERPETUATE WELL BEING ACROSS GENERATIONS"" - ALIGNING FAMILY RESOURCES AND PRIORITIES FOR LONG TERM GOALS RELATED TO RELATIONSHIPS AND GOVERNANCE, TAX, ACCOUNTING, INSURANCE, ESTATES, LEGAL, EDUCATION AND PHILANTHROPY.",""
1074128,"PENSION CONSULTING/PUBLICATIONS FOR INVESTMENT RESEARCH. RERC PROVIDES FOR CERTAIN ERISA-RELATED CLIENTS OVERSIGHT INDEPENDENT FIDUCIARY WORK AS WELL AS VALUATION MANAGEMENT AND REVIEW SERVICES TO CERTAIN ERISA-RELATED CLIENTS.",""
1087826,"OUR FAMILY WEALTH CONSULTATION SERVICE IS TAILORED TO CLIENT NEEDS AND WILL OFTEN INCLUDE ADVICE ON STRICTLY NON-INVESTMENT RELATED TOPICS SUCH AS FAMILY GOVERNANCE, PHILANTHROPY COORDINATION, AND SUCCESSION PLANNING, AMONG OTHER THINGS.",""
1102879,"SALE OF FIXED INSURANCE PRODUCTS. PARENT OF BROKER/DEALER.",""
1098286,"CONSULTING RELATED TO PENSION PLANS AND OTHER EMPLOYEE BENEFIT PLANS",""
1098060,"FEE-ONLY RETIREMENT PLAN CONSULTING SERVICES.",""
1083077,"VGI PROVIDES ITS CLIENTS WITH CORPORATE, MANAGEMENT & ADMINISTRATIVE MUTUAL FUND SERVICES, INCLUDING LEGAL, ACCOUNTING, TRANSFER AGENCY & DISTRIBUTION SERVICES.",""
1094250,"ADDITIONALLY, AS DEBT ADMINISTRATOR, WE HAVE OVERSIGHT OVER APPROXIMATELY $2.8 BILLON IN DEBT INSTRUMENTS THAT WE FILE REPORTS FOR AND MAKE RECOMMENDATIONS ONLY.",""
1094030,"FINANCIAL INVESTMENTS",""
1095064,"PROVIDING FINANCIAL COUNSELING",""
1074963,"REAL ESTATE ACQUISITION, DEVELOPMENT, OWNERSHIP AND ASSET MANAGEMENT.",""
1086743,"INTRODUCING BROKER DEALER",""
1070951,"DICKMEYER BOYCE FINANCIAL MANAGEMENT INC., IS A FEE-ONLY FINANCIAL PLANNING AND WEALTH MANAGEMENT FIRM.",""
1091534,"BROKER DEALER","VECTORGLOBAL WMG"
1089094,"CHIEF FINANCIAL OFFICER, RZ CAPITAL LLC.",""
1089974,"OUR PRIMARY BUSINESS IS SUPERVISING ADVISORS UNDER A BROKER DEALER RELATIONSHIP",""
1070886,"BENDER LANE ADVISORY, LLC (""BLA"") PROVIDES MULTI-FAMILY OFFICE SERVICES TO HIGH NET WORTH INDIVIDUALS AND FAMILIES.  BLA ALSO PROVIDES ACCOUNTING AND TAX SERVICES TO FAMILY LIMITED PARTNERSHIPS AND OTHER REGISTERED INVESTMENT ADVISERS.",""
1091932,"BROKER DEALER","VECTORGLOBAL WMG"
1097051,"PROVISION OF SECURITIES-RELATED FINANCIAL SERVICES AS A REGISTERED BRANCH OFFICE OF A FINRA-REGISTERED BROKER/DEALER.",""
1097992,"INVESTMENT ADVISORY, CONSULTING AN FINANCIAL PLANNING",""
1099902,"FINANCIAL PLANNING",""
1083862,"ENGAGES IN THE DISTRIBUTION OF SWISS AND FOREIGN DOMICILED COLLECTIVE INVESTMENT SCHEMES (""CIS""). TO UNDERTAKE CERTAIN DUTIES FOR FOREIGN CIS, PURSUANT TO FINMA, THE REGISTRANT IS ALSO APPOINTED AS A REPRESENTATIVE TO CERTAIN FOREIGN CIS",""
1101542,"CORPORATE RETIREMENT PLAN CONSULTING SERVICES","IPS ADVISORS"
1093036,"GREYSTAR AND ITS AFFILIATES PRIMARILY PROVIDE SERVICES IN THE MULTIFAMILY REAL ESTATE BUSINESS. IN ADDITION TO INVESTMENT MANAGEMENT, GREYSTAR AND ITS AFFILIATES PROVIDE PROPERTY MANAGEMENT SERVICES AND DEVELOPMENT AND CONSTRUCTION SERVICES.",""
1103378,"ALL PDA MANAGEMENT PERSONNEL ARE ALSO EMPLOYED AS MANAGEMENT PERSONNEL, AND ARE REGISTERED WITH GENEOS WEALTH MANAGEMENT, INC. GENEOS IS A FINRA MEMBER BROKER DEALER AND SEC REGISTERED INVESTMENT ADVISOR.","GENEOS WEALTH MANAGEMENT, INC."
1101909,"FINANCIAL PLANNING INCLUDING TAX AND ESTATE PLANNING",""
1103271,"ROBERT CHARLES LESSER & CO., LLC (RCLCO) PROVIDES REAL ESTATE CONSULTING SERVICES FOR FOR REAL ESTATE DEVELOPERS, INVESTORS, PUBLIC INSTITUTIONS AND NON-REAL ESTATE COMPANIES.",""
1103280,"CROWN CAPITAL SECURITIES, L.P.S PRIMARY BUSINESS IS THAT OF A SECURITIES BROKER DEALER.",""
1084839,"IN ADDITION TO ITS ADVISORY BUSINESS, WE PROVIDE (1) WEALTH MANAGEMENT, (2) ESTATE PLANNING ADVICE, (3) FINANCIAL PLANNING, (4) INCOME TAX PLANNING AND PREPARATION SERVICES AND (5) FINANCIAL CONSULTING SERVICES.",""
1097504,"BUSINESS VALUATION SERVICES","VALUATION ADVISORS, LLC"
1082004,"MANAGING PROPRIETARY ACCOUNTS COMPOSED OF FUNDS RAISED THROUGH FEDERAL AND STATE TAX CREDIT PROGRAMS, INCLUDING NEW MARKETS TAX CREDIT PROGRAMS THAT MAKE EQUITY & DEBT INVESTMENTS (INCLUDING SBA & USDA GUARANTEED LOANS UNDER THE BIZCAPITAL BRAND).","AFFILIATES OPERATING UNDER NAMES ADVANTAGE CAPITAL AND ADVANTAGE CAPITAL PARTNERS.  A COMPLETE LIST IS AVAILABLE UPON REQUEST."
1085271,"INVEST IN REAL ESTATE LIMITED PARTNERSHIPS & REAL ESTATE MORTGAGES",""
1083450,"FINANCIAL ADVISORY AND CONSULTING. PARTICULARLY IN THE AREA OF PRIVATE PLACEMENT LIFE INSURANCE SOLUTIONS, OFTEN IN COMBINATION WITH TRUSTS, FOUNDATIONS AND OTHER STRUCTURES. WE ALSO PROVIDE THE SAME SERVICES FOR NON-U.S. PERSONS.",""
1081531,"OTHER BUSINESS  INCLUDES TAX ADVICE AND PREPARATION, FINANCIAL PLANNING SERVICES, PROVIDING RECORD-KEEPING SYSTEMS AND TRAINING, INSURANCE REVIEW AND ASESSMENT, ESTATE PLANNING, AND OTHER FINANCIAL ADVICE.",""
1095424,"BUSINESS MANAGER FOR PROFESSIONAL ATHLETES",""
1083704,"INVESTMENT ADVISORY, CONSULTING AN FINANCIAL PLANNING",""
1085985,"FULL SERVICE BROKER DEALER",""
1087009,"MANAGING INVESTMENT PORTFOLIOS FOR HIGH NET WORTH INDIVIDUALS AS WELL AS ADVISING A NO LOAD MUTUAL FUND",""
1083254,"CAREER COUNSELING AND JOB PLACEMENT FOR COMMERCIAL AIRLINE PILOTS","FAPA.AERO"
1103983,"OUR PRIMARY BUSINESS IS SUPERVISING ADVISORS UNDER A BROKER DEALER RELATIONSHIP",""
1092944,"FINANCIAL, INSURANCE AND INVESTMENT SERVICES",""
1081550,"GEORGE PUTNAM, III'S PRIMARY BUSINESS IS NEW GENERATION ADVISORS, THE GENERAL PARTNER TO TWO INVESTMENT PARTNERSHIPS. HE IS ITS PRESIDENT.","NEW GENERATION ADVISORS, LLC"
1075989,"DREXEL MORGAN & CO. IS A FINANCIAL HOLDING COMPANY.",""
1091634,"MOSAIC FINANCIAL GROUP, LLC PROVIDES TAX AND BOOKKEEPING SERVICES.",""
1098202,"FINANCIAL PLANNING SERVICES INCLUDING ESTATE PLANNING, BUSINESS SUCCESSION AND EXIT PLANNING, EXECUTIVE AND FRINGE BENEFIT PLANNING AND RETIREMENT PLANNING.",""
1098505,"COMPREHENSIVE FINANCIAL PLANNING SERVICES, INCLUDING INCOME TAX, ESTATE, RETIREMENT AND RISK PLANNING SEVICES",""
1090595,"PENSION PARAMETERS FINANCIAL SERVICES, INC. IS PRIMARILY A PENSION ADMINISTRATION BUSINESS, PROVIDING CONSULTING, ACTUARIAL AND FORMS PREPARATION SERVICES FOR THE RETIREMENT PLANS OF SMALL BUSINESSES.",""
1098838,"OUR PRIMARY BUSINESS IS TO PROVIDE CONSULTING SERVICES TO EMPLOYER SPONSORED RETIREMENT PLANS.  THESE SERVICES INCLUDE ADMINISTRATION, COMMUNICATION, AND COMPLIANCE SERVICES.",""
1100224,"BUSINESS CONSULTING SERVICES TO SMALL AND MEDIUM-SIZED BUSINESSES",""
1085238,"RLH LLC PROVIDES MANAGEMENT SERVICES TO INVESTMENT VEHICLES THAT INVEST EXCLUSIVELY IN REAL ESTATE ASSETS, ASSOCIATED RIGHTS AND RELATED INTERESTS. SUCH INVESTMENT VEHICLES ARE NOT ADVISORY CLIENTS OF RLH LLC.",""
1086457,"TAX PLANNING & PREPARATION, FINANCIAL PLANNING, AND ACCOUNTING & BOOKKEEPING.",""
1090256,"APPLICANT IS A REGISTERED BROKER/DEALER AND LICENSED INSURANCE AGENCY.",""
1062012,"REGISTRANT PRIMARILY PROVIDES NON-INVESTMENT ADVISORY SERVICES SUCH AS RECORD-KEEPING, CLERICAL, ACCOUNTING, TRUST, TAX, ESTATE PLANNING AND ADMINISTRATIVE SERVICES FOR ITS CLIENTS.",""
1092741,"PROVIDES ACCOUNTING AND TAX SERVICES THROUGH A SEPARATE CPA FIRM.","JANOVER,LLC"
1099977,"TO PROVIDE THE FOLLOWING ADVISORY PLANNING SERVICES:  PRE & POST-RETIREMENT  BUSINESS EDUCATION  ESTATE AND TAX (IN COORDINATION WITH LEGAL COUNSEL WHERE RELEVANT) INVESTMENT RISK MANAGEMENT REAL ESTATE",""
1083724,"PERSONAL FINANCIAL PLANNING / WEALTH MANAGEMENT - WITHIN WHICH INDIVIDUALIZED INVESTMENT ADVISORY SERVICES ARE PROVIDED.",""
1087607,"BOK FINANCIAL ASSET MANAGEMENT, INC.,  PROVIDES PENSION CONSULTING, ADMINISTRATIVE AND ACTUARIAL SERVICES.",""
1083067,"PENSION PLAN ADMINISTRATION AS A CONTRACT ADMINISTRATOR THROUGH 401K PLUS, INC.","401K PLUS, INC."
1083357,"LIFEPLAN ACTIVELY HELPS OUR CLIENTS  BY INTEGRATING INVESTMENT PLANNING, FINANCIAL PLANNING AND LIFEPLANNING.  WE VIEW INVESTMENT ADVICE, ALTHOUGH VITALLY IMPORTANT, IS ONLY A PIECE OF THE LIFEPLANNING PROCESS.",""
1090159,"INSURANCE SALES","FOCUS POINTE FINANCIAL"
1069727,"THE FIRM SERVES AS A GENERAL PARTNER OR MANAGER TO THE COASTEDGE FUNDS.",""
1077714,"SEE SCHEDULE D, MISCELLANEOUS",""
1077702,"SEE SCHEDULE D, MISCELLANEOUS SECTION",""
1086819,"THREE PRIMARY BUSINESSES - SELLING MARKETABLE SECURITIES FOR ANOTHER BD - CU-ISI AND BROKERED CD'S; INVESTMENT ADVISORY; AND RISK MANAGEMENT SERVICES - ALL FOR CREDIT UNIONS.",""
1094689,"TFI PROVIDES OR SUBCONTRACTS TO OTHERS TO PROVIDE SVCS TO QUAL TUITION PRGMS ON BEHALF OF ST SPONSORS: RECKEEPING AND PROCESSING OF ACCOUNT OWNER TRANS REQS, UNIT VALUE CALCS,FEDERAL TAX REP,PERF REPORTING,CERTAIN ADMIN SVCS AND MKTING",""
1100715,"COMPREHENSIVE FEE-ONLY FINANCIAL PLANNING",""
1101720,"PENSION CONSULTING/PUBLICATIONS FOR INVESTMENT RESEARCH. RERC PROVIDES FOR CERTAIN ERISA-RELATED CLIENTS OVERSIGHT INDEPENDENT FIDUCIARY WORK AS WELL AS VALUATION MANAGEMENT AND REVIEW SERVICES TO CERTAIN ERISA-RELATED CLIENTS.",""
1083628,"TAX PREPARATION",""
1077664,"ICMA RETIREMENT CORPORATION PROVIDES RETIREMENT PLAN SERVICES TO STATE AND LOCAL GOVERNMENTS, INCLUDING PLAN ADMINISTRATION, PLAN RECORDKEEPING, AND PARTICIPANT EDUCATION SERVICES.",""
1096318,"SEE SCHEDULE D-MISCENALLANEOUS",""
1087251,"BROKERAGE SERVICES",""
1081541,"BLACKROCK REALTY ADVISORS, INC. ACTS AS REAL ESTATE INVESTMENT MANAGER FOR INSTITUTIONAL CLIENTS. ITS PRIMARY ACTIVITIES RELATE TO THE ACQUISITION, MANAGEMENT, DISPOSITION OF REAL ESTATE AND REAL ESTATE DEBT INSTRUMENTS FOR ITS CLIENTS.",""
1096324,"SEE SCHEDULE D-MISCELLANEOUS",""
1090552,"FINANCIAL PLANNING; BILL PAYING SERVICES; CFO SERVICES, TAX & ACCOUNTING SERVICES, FUND ADMINISTRATION",""
1100746,"FAMILY WEALTH COUNSELING, FOUNDATION MANAGEMENT.",""
1061777,"PLATFORM ADMINISTRATIVE SERVICES RELATED TO A WRAP FEE PROGRAM",""
1083623,"EMPLOYEE BENEFIT CONSULTANTS FOCUSING ON GROUP INSURANCE PROGRAMS.",""
1069406,"PRIVATE EQUITY INVESTING",""
1079780,"I PROVIDE INVESTMENT ADVISORY SERVICES AS PART OF MY BUSINESS OF FINANCIAL PLANNING AS A CERTIFIED FINANCIAL PLANNER.",""
1090291,"FULL SERVICE FINANCIAL PLANNING.",""
1089074,"GENERAL FINANCIAL PLANNING SERVICES, INCLUDING RETIREMENT, EDUCATION AND TAX PLANNING. DIVORCE PLANNING.  INCOME TAX PREPARATION.",""
1090705,"STRATEGIC ADVISORY, TAX PLANNING AND COMPLIANCE, FINANCIAL REPORTING.",""
1097675,"THE FIRM & ITS AFFILIATES PRIMARILY PROVIDE PROG. MGMT., RECORD-KEEPING, ADMINISTRATION, AND INV. OVERSIGHT/MGMT. SERVICES FOR QUALIFIED TUITION PLANS (529 PLANS) & 529A ABLE PROGRAMS. THESE SERVICES ARE PROVIDED UNDER THE FOLLOWING ENTITIES (SEE BELOW)","ASCENSUS COLLEGE SAVINGS, INC.; ASCENSUS BROKER DEALER SERVICES, INC.; ASCENSUS COLLEGE SAVINGS RECORDKEEPING SERVICES, LLC."
1099353,"NETREIT:A MD CORPORATION THAT OPERATES AS A REAL ESTATE INVESTMENT TRUST(REIT),AS DEFINED UNDER INTERNAL REVENUE CODE; NETREIT DUBOSE MODEL HOMES, LP, THAT OPERATES AS A REAL ESTATE INVESTMENT TRUST(REIT), AS DEFINED UNDER INTERNAL REVENUE CODE","NETREIT AND NETREIT DUBOSE"
1066310,"PENSION AND CHARITABLE ORGANIZATION CONSULTING SERVICES",""
1095922,"ADVISOR OFFERS FINANCIAL ADVISORY SERVICES, INSURANCE PRODUCTS, INVESTMENT ADVISORY / WEALTH MANAGEMENT, LIMITED PARTNERSHIPS, REAL ESTATE INVESTMENT TRUSTS, AND OTHER ALTERNATIVE INVESTMENT STRATEGIES.",""
1090953,"BROKER/DEALER OFFERING STOCKS, BONDS, MUTUAL FUNDS, FIXED AND VARIABLE ANNUITIES AND INSURANCE SERVICES.","BANKOH INVESTMENT SERVICES, INC."
1082494,"CHARLES PRATT & COMPANY, L.L.C.'S MAIN BUSINESSES ARE PROVIDING CUSTODY, INVESTMENT ADVISORY, AND TAX SERVICES.",""
1078052,"RICHARD A. KISSER IS AN INDEPENDENT AGENT AND CEO OF AIP MARKETING ALLIANCE OFFERING FIXED LIFE INSURANCE PRODUCTS TO CLIENTS RONALD J. BRIGGS JR. IS AN INDEPENDENT AGENT OFFERING FIXED LIFE PRODUCTS TO CLIENTS THROUGH VARIOUS INSURANCE CARRIERS","AIP MARKETING ALLIANCE"
1091440,"STRATEGIC CONSULTING SERVICES TO INCLUDE ENHANCED ANALYTICAL CAPABILITIES IN GLOBAL THEMATIC SECTOR RESEARCH, CORPORATE GOVERNANCE, AND SPEECHES AND INDUSTRY PRESENTATIONS FOCUSED ON ISSUES RELATING TO ESG AND SUSTAINABILITY.","CORNERSTONE CAPITAL GROUP"
1053749,"FIDUCIARY CONSULTING FOR RETIREMENT PLANS","DOVER CONSULTING GROUP"
1055008,"FEE ONLY FINANCIAL PLANNING AND CONSULTING",""
1095376,"GRANITE EDUCATION FOUNDATION - DIRECTOR (JON) MT. OLYMPUS VOLLEYBALL CLUB - DBA JDTGWT LLC (JON) 2101 PARTNERS LLC (JON & ALAN) CFA SOCIETY OF SALT LAKE CITY (JON & ALAN)",""
1098720,"WE ARE PRIMARILY A FULL-SERVICE FINANCIAL PLANNING FIRM, THAT PROVIDES INVESTMENT ADVISORY SERVICES AS ONE OF THE MANY FACETS OF THE OVERALL FINANCIAL PLANNING PROCESS.",""
1089787,"ARTISAN PARTNERS UK LLP SERVES AS DISTRIBUTOR FOR ARTISAN PARTNERS GLOBAL FUNDS, PLC.",""
1083290,"WE ASSIST CLIENTS IN DEFINING AND ACHIEVING FINANCIAL OBJECTIVES BY PROVIDING THE FOLLOWING SERVICES: INVESTMENT MANAGEMENT, INCOME TAX PLANNING, CASH FLOW BUDGETING, RETIREMENT PLANNING, AND ESTATE PLANNING",""
1092713,"FINANCIAL PLANNING SERVICES INCLUDING ESTATE PLANNING, BUSINESS SUCCESSION AND EXIT PLANNING, EXECUTIVE AND FRINGE BENEFIT PLANNING AND RETIREMENT PLANNING.",""
1099292,"EMPLOYEE BENEFIT CONSULTING",""
1090174,"FINANCIAL SERVICES, INSURANCE","AMERICAN FINANCIAL GROUP, LTD"
1083199,"APPLICANT IS A LEGAL RESERVE MUTUAL LIFE INSURANCE COMPANY ENGAGED IN THE BUSINESS OF SELLING AND UNDERWRITING INDIVIDUAL AND GROUP LIFE, ACCIDENT, AND HEALTH POLICIES AND INDIVIDUAL AND GROUP ANNUITIES.",""
1086917,"CONSULTING SERVICES-ASSET ALLOCATION, INVESTMENT POLICY DEVELOPMENT, INVESTMENT MANAGER/FUND SEARCH AND SELECTION, PERFORMANCE MEASUREMENT, CUSTODIAL SEARCH, 401(K) BUNDLED PROVIDER SEARCH AND FINANCIAL ANALYSIS CONSULTING SERVICES",""
1102571,"ATCAP PARTNERS PROVIDES BACK OFFICE PROCESSING AND COMPLIANCE SERVICES TO HEDGE FUNDS, INCLUDING REGULATORY FILINGS AND SHADOW NAV CALCULATIONS.",""
1093895,"RETIREMENT PLANNING, WEALTH AND ESTATE MANAGEMENT",""
1096149,"MARKETING SERVICES FOR AFFILIATED REGISTERED INVESTMENT ADVISER.",""
1087608,"FULL SERVICE BROKER DEALER",""
1086323,"ATTORNEY - LEGAL SERVICES","DUNTON, SIMMONS & DUNTON, L.L.P."
1070485,"STRATEGIC CONSULTING SERVICES TO INCLUDE ENHANCED ANALYTICAL CAPABILITIES IN GLOBAL THEMATIC SECTOR RESEARCH, CORPORATE GOVERNANCE, AND SPEECHES AND INDUSTRY PRESENTATIONS FOCUSED ON ISSUES RELATING TO ESG AND SUSTAINABILITY.","CORNERSTONE CAPITAL GROUP"
1077952,"KELLY CRANE'S PRIMARY BUSINESS IS ANOTHER SEC REGISTERED INVESTMENT ADVISORY FIRM","NAPA VALLEY WEALTH MANAGEMENT, INC."
1095282,"PROVIDES ASSET/LIABILITY MANAGEMENT CONSULTING SERVICES FOR BANK CLIENTS, AND STRATEGIC PLANNING SERVICES",""
1094477,"OIL AND GAS OPERATING COMPANY",""
1084438,"REALTOR, LICENSED IN WYOMING.",""
1095369,"FINANCIAL PLANNING",""
1096998,"PENSION PLAN ADMINISTRATION",""
1070105,"PATHSTONE FEDERAL STREET PROVIDES COMPREHENSIVE FAMILY OFFICE AND CONSULTING SERVICES, WHICH MAY INCLUDE TAX-RELATED AND OTHER NON-INVESTMENT RELATED MATTERS. WE ALSO PROVIDES CONSULTING, EXPENSE MANAGEMENT, BILL PAY, AND CONCIERGE SERVICES.",""
1094799,"SECURITIES BROKER/DEALER",""
1097178,"CURCIO WEBB IS A HUMAN RESOURCES CONSULTING FIRM SPECIALIZING IN THE DESIGN, FUNDING AND MONITORING OF EMPLOYEE BENEFIT ARRANGEMENTS AND IN HUMAN RESOURCE ADMINISTRATION & SYSTEMS CONSULTING.",""
1081896,"COMPANY ISSUES, BUT DOES NOT SELL, FIXED AND VARIABLE ANNUITY PRODUCTS.  THE PRODUCTS ARE SOLD THROUGH BOTH AFFILIATED AND INDEPENDENT BROKER/DEALERS.",""
1093128,"APPLICANT ALSO PROVIDES PERFORMANCE ATTRIBUTION, AND ADMINISTRATION AND RISK MANAGEMENT SERVICES WHICH IT DOES NOT CONSIDER TO BE ADVISORY SERVICES.",""
1099191,"THE FIRM STRUCTURES AND ACTS AS A PLACEMENT AGENT ON CATASTROPHE BONDS, SIDECARS AND PRIVATE DEBT TRANSACTIONS. THE FIRM MAY ALSO PARTICIPATE AS A CO-MANAGER ON PUBLIC DEBT AND EQUITY OFFERINGS. ALSO CONSULTING SERVICES AND SOFTWARE FOR MANAGING RISK.",""
1093657,"PROVIDING MANAGEMENT SERVICES TO PORTFOLIO COMPANIES. THE FIRM HAS MANAGEMENT SERVICES AGREEMENTS WITH ITS CLIENTS, CODI AND ANHOLT INVESTMENTS, LTD.",""
1102100,"ACTUARIAL AND OTHER CONSULTING SERVICES IN INSURANCE, HEALTHCARE AND EMPLOYEE BENEFITS.",""
1091429,"STRATEGIC CONSULTING SERVICES TO INCLUDE ENHANCED ANALYTICAL CAPABILITIES IN GLOBAL THEMATIC SECTOR RESEARCH, CORPORATE GOVERNANCE, AND SPEECHES AND INDUSTRY PRESENTATIONS FOCUSED ON ISSUES RELATING TO ESG AND SUSTAINABILITY.","CORNERSTONE CAPITAL GROUP"
1088372,"NEW MOUNTAIN FINANCE CORPORATION OPERATES AS A BUSINESS DEVELOPMENT COMPANY (""BDC"") AND HAS ELECTED TO BE REGULATED AS A BDC UNDER THE INVESTMENT COMPANY ACT OF 1940, AS AMENDED.",""
1102695,"ADVISORNET FINANCIAL PROVIDES SUPPORT AND SUPERVISORY SERVICES FOR VARIOUS REGISTERED REPRESENTATIVES OF CETERA ADVISOR NETWORKS LLC, AN UNAFFILIATED BROKER-DEALER.  ADVISORNET FINANCIAL IS ALSO A CORPORATE INSURANCE AGENCY.","ADVISORNET FINANCIAL; ADVISORNET INSURANCE; ADVISORNET BENEFITS; JRA FINANCIAL"
1083653,"ALLIANCE BENEFIT GROUP OF ILLINOIS, INC. PROVIDES CONSULTING AND ACTUARIAL SERVICES FOR ALL TYPES OF EMPLOYEE BENEFIT PLANS. THE FIRM'S CORE SERVICES ARE RECORD KEEPING, REPORTING AND COMPLIANCE, AND PARTICIPANT COMMUNICATION SERVICES FOR RETIREMENT PLANS.",""
1081770,"INTERNATIONAL TAX CONSULTANT",""
1089770,"THE PRIMARY BUSINESS OF LUCAS CAPITAL MANAGEMENT, LLC IS THE PORTFOLIO MANAGEMENT OF OUR TWO HEDGE FUNDS IN TANDEM WITH CUSTOM PORTFOLIO MANAGEMENT OF OUR RETAIL CLIENTS.",""
1078910,"MANAGING THE OPERATIONS OF PORTFOLIO COMPANIES.",""
1070083,"STERLING BAY: REAL ESTATE MANAGEMENT, DEVELOPMENT AND LEASING. FOUR CORNERS: HOSPITALITY MANAGEMENT","STERLING BAY,LLC;STERLING BAY CO; STERLING BAY PROP MGMT; STERLING BAY DEV.MGMT; STERLING BAY REALTY;FOUR CORNERS TAVERN GRP"
1099232,"CWA PROVIDES AN ARRAY OF SUPPORT SERVICES TO AN INDEPENDENT UNAFFILIATED REGISTERED INVESTMENT ADVISORY FIRM.  THESE SERVICES INCLUDE OPERATIONAL,  ADMINISTRATIVE, TECHNOLOGICAL AND FACILITIES SUPPORT ALONG WITH FAMILY OFFICE AND ADVANCED PLANNING SERVICES",""
1051872,"WE OFFER INSURANCE PRODUCTS TO OUR CLIENTS UNDER GLOBAL WEALTH MANAGEMENT INVESTMENT ADVISORY, LLC.",""
1086211,"MADISON CAPITAL FUNDING LLC IS A FINANCE COMPANY WHICH FOCUSES PRIMARILY ON THE CORPORATE FINANCING NEEDS OF PRIVATE EQUITY SPONSORS IN THE MIDDLE MARKET BY PROVIDING ENTERPRISE-VALUE, LEVERAGED FINANCING FOR ACQUISITIONS, RECAPITALIZATIONS, MBOS AND LBOS","N/A"
1088485,"PENSION CONSULTING, ADMINISTRATION AND RECORD KEEPING FOR DEFINED CONTRIBUTION AND DEFINED BENEFIT RETIREMENT PLANS.",""
1084975,"REACT INVESTMENT SOLUTIONS IS IN THE BUSINESS OF RESEARCHING INVESTMENT MANAGERS AND PROVIDING BACK OFFICE SOLUTIONS.",""
1089762,"AMBER PARTNERS LTD. PROVIDES OPERATIONAL RISK CERTIFICATIONS TO HEDGE FUNDS AND CONSULTING SERVICES RELATED TO HEDGE FUND OPERATIONAL RISK ASSESSMENT.",""
1093705,"SECURITIES BROKER/DEALER",""
1093700,"BENEFIT STRATEGIES, INC. PROVIDES CONSULTING, RECORDKEEPING AND ADMINISTRATIVE SERVICES TO RETIREMENT PLAN SPONSORS.","BENEFIT STRATEGIES, INC."
1099281,"APPLICANT PROVIDES A BROAD RANGE OF FINANCIAL CONSULTING SERVICES TO INDIVIDUALS, FAMILY-OWNED AND CLOSELY-HELD BUSINESSES, INCLUDING ESTATE PLANNING, TAX PLANNING, CASH AND DEBT MGMT, COMP AND EMPLOYEE BENEFIT REVIEW, INSURANCE REVIEW, AND MGMT CONSULTING",""
1101696,"DRIVE SHACK INC. IS AN OWNER AND OPERATOR OF GOLF-RELATED LEISURE AND ENTERTAINMENT BUSINESSES. DRIVE SHACK INC. CONDUCTS ITS BUSINESS THROUGH THREE PRIMARY SEGMENTS: (1) TRADITIONAL GOLF PROPERTIES, (2) ENTERTAINMENT GOLF VENUES, AND (3) DEBT INVESTMENTS.",""
1097667,"PROVIDES INVESTMENT ADVISORY SERVICES TO POOLED INVESTMENT VEHICLES THAT INVEST IN SENIOR SECURED FLOATING RATE LOANS WITH NON-INVESTMENT GRADE CREDIT RATINGS, HIGH YIELD BONDS, ASSET-BACKED SECURITIES AND STRUCTURED PRODUCTS.",""
1092481,"INCOME TAX PREPARATION",""
1093352,"REAL ESTATE INVESTMENT MANAGEMENT",""
1102175,"WELLSPRING FINANCIAL ADVISORS, LLC IS A HOLISTIC WEALTH MANAGEMENT FIRM THAT OFFERS THREE PRIMARY SERVICES; FAMILY & LIFE SERVICES, PERSONAL FINANCIAL & TAX MANAGEMENT, AND INVESTMENT CONSULTING.",""
1077303,"ADMINISTERING AND MAINTAINING A SYSTEM OF BENEFITS, PENSIONS OR AIDS TO THE EMPLOYEES OF UNITED STATES STEEL CORPORATION (USS) AND ITS SUCCESSORS, AND OF ORGANIZATIONS AND THEIR SUCCESSORS NOW OR FORMERLY AFFILIATED WITH USS",""
