"FilingID","Individual Name","Firm or Organization Name","CRD Number","Effective Date","Termination Date","Street 1","Street 2","City","State","Country","Postal Code","Private Residence?","Description"
1144469,"ACKERMAN, ROBERT, RICHARD","",1004739,02/01/2015,,"2 HARRISON ST","SUITE 180","SAN FRANCISCO","CA","United States","94105","N","ROBERT ACKERMAN JR. IS THE MANAGING MEMBER OF THE CRYPTOCOMM PARTNERS MANAGEMENT, LLC, THE GENERAL PARTNER FOR CRYPTOCOMM PARTNERS, L.P."
1157630,"MULLEN, DENNIS, BENSON","",6336311,02/06/2012,,"7501 E. TRANQUIL PLACE","","CAREFREE","AZ","United States","85377","Y","MEMBER OF THE GENERAL PARTNER, MULL CAPITAL II"
1157630,"MULLEN, MARK, CHRISTOPHER","",2122401,02/06/2012,,"411 LOMBARD AVE","","PACIFIC PALISADES","CA","United States","90272","Y","MANAGING MEMBER OF THE GENERAL PARTNER, MULL CAPITAL II"
1148403,"HO, KENT CHING-TAK","",6543182,05/29/2015,,"3/F., SING TAO NEWS CORPORATION BUILDING","3 TUNG WONG ROAD","SHAU KEI WAN","","Hong Kong","","N","SHAREHOLDER OF THE GENERAL PARTNER"
1157918,"Rahn, Mark, Dieter","",6764614,05/01/2016,,"16 LOVERS LANE","GRASSCROFT","OLDHAM","","United Kingdom","OL4 4DT","N","DIRECTOR"
1157918,"WARD, DAVID, RUSSELL","",6049709,01/01/2011,,"63 STOCK FARM ROAD","","SUDBURY","MA","United States","01776","Y","DIRECTOR AND SHAREHOLDER"
1157918,"HENDERSON, RICHARD, DAVID","",6049706,01/01/2011,,"83 PRINCES STREET","","EDINBURGH","","United Kingdom","EH2 2ER","N","DIRECTOR AND SHAREHOLDER"
1149270,"LOPES, ALVARO, DA SILVA NETO","",2555892,06/01/2015,,"600 CALIFORNIA ST","11TH FLOOR","SAN FRANCISCO","CA","United States","94109","N","MEMBER"
1150217,"","ARCUS INVESTMENT LIMITED",,12/09/2013,08/10/2017,"5F, 28 KING STREET","","LONDON","","United Kingdom","","N","ARCUS INVESTMENT ASIA LIMITED WAS PREVIOUSLY A 100%-OWNED SUBSIDIARY OF ARCUS INVESTMENT LIMITED BUT WAS SOLD ON 10 AUG 2017."
1156169,"LANE, DAVID","",6044672,06/02/2000,,"2490 SAND HILL ROAD","","MENLO PARK","CA","United States","94025","N","MANAGING PARTNER"
1156169,"KHANNA, RAMAN","",6044662,06/02/2000,,"2490 SAND HILL ROAD","","MENLO PARK","CA","United States","94025","N","GENERAL PARTNER"
1141936,"","THE PORTNOY FAMILY TRUST DATED JULY 12, 2006",,10/04/2012,,"2100 PARK AVE. #680967","","PARK CITY","UT","United States","84068","N","MANAGING MEMBER"
