"FilingID","Full Legal Name","CIK Number"
"953221","HUNTINGTON BANCSHARES INCORPORATED","906092"
"953252","LINCOLN NATIONAL CORPORATION","59558"
"950227","ROYAL BANK OF CANADA","1000275"
"952991","MITSUBISHI UFJ FINANCIAL GROUP, INC.","67088"
"952991","MUFG AMERICAS HOLDINGS CORPORATION","1011659"
"951280","COWEN GROUP, INC.","6211"
"952152","OPPENHEIMER HOLDINGS INC.","791963"
"952687","UNIVEST CORPORATION OF PENNSYLVANIA","102212"
"951899","FRANKLIN RESOURCES, INC.","38777"
"953036","CHESAPEAKE FINANCIAL SHARES, INC.","847538"
"953338","MITSUBISHI UFJ FINANCIAL GROUP, INC.","67088"
"953338","MUFG AMERICAS HOLDINGS CORPORATION","1011659"
"953454","ASSOCIATED BANC-CORP","7789"
"953449","VIRTUS INVESTMENT PARTNERS, INC.","883237"
"953474","UNIVEST CORPORATION OF PENNSYLVANIA","102212"
"944725","VIRTUS INVESTMENT PARTNERS, INC.","883237"
"953549","JANUS CAPITAL GROUP INC.","1065865"
"953262","MARSH & MCLENNAN COMPANIES, INC.","62709"
"953589","WELLESLEY BANCORP, INC.","1526952"
"936458","MARSH & MCLENNAN COMPANIES, INC.","62709"
"953644","EVERBANK FINANCIAL CORPORATION","1502749"
"953648","EVERBANK FINANCIAL CORPORATION","1502749"
"939943","FRANKLIN RESOURCES, INC.","38777"
"953686","MITSUBISHI UFJ FINANCIAL GROUP, INC.","67088"
"953686","UNIONBANCAL CORPORATION","1011659"
"953697","MITSUBISHI UFJ FINANCIAL GROUP, INC.","67088"
"953697","UNIONBANCAL CORPORATION","1011659"
"953712","MITSUBISHI UFJ FINANCIAL GROUP, INC.","67088"
"953712","UNIONBANCAL CORPORATION","1011659"
"953661","AFFILIATED MANAGERS GROUP, INC.","1004434"
"951523","MORNINGSTAR, INC.","1289419"
"953797","AFFILIATED MANAGERS GROUP, INC.","1004434"
"953511","INVESCO, LTD.","914208"
"953828","BB&T CORPORATION","92230"
"953519","INVESCO, LTD.","914208"
"953243","TORONTO-DOMINION BANK","947263"
"953907","BB&T CORPORATION","92230"
"947511","ROYAL BANK OF CANADA","1000275"
"949158","AFFILIATED MANAGERS GROUP, INC.","1004434"
"953925","DEUTSCHE BANK AG","948046"
"953887","THE JONES FINANCIAL COMPANIES, L.L.L.P.","815917"
"953967","BOK FINANCIAL CORPORATION","875357"
"954024","BARCLAYS PLC","312069"
"954024","BARCLAYS BANK PLC","312070"
"953983","NATIONAL HOLDINGS CORPORATION","1023844"
"953620","JPMORGAN CHASE & CO.","19617"
"954080","JPMORGAN CHASE & CO.","19617"
"953939","DEUTSCHE BANK AG","948046"
"954132","J.P. MORGAN CHASE & CO.","19617"
"954152","BANK OF MONTREAL","9622"
"949954","VIRTUS INVESTMENT PARTNERS, INC.","883237"
"954032","FIFTH STREET ASSET MANAGEMENT INC.","161198"
"953900","HP INC.","47217"
"953894","INTERACTIVE BROKERS GROUP","1166521"
"954178","STIFEL FINANCIAL CORP.","720672"
"954195","LADENBURG THALMANN FINANCIAL SERVICES INC.","1029730"
"953561","THE GOLDMAN SACHS GROUP, INC.","886982"
"954021","COMMERCE BANCSHARES, INC.","22356"
"954216","STIFEL FINANCIAL CORP.","720672"
"947541","VALIDUS HOLDINGS, LTD.","1348259"
"954244","JEFFERIES GROUP LLC","1084580"
"953550","UBS GROUP AG","1610520"
"954252","ENVESTNET, INC.","1337619"
"952204","PIPER JAFFRAY COMPANIES","724683"
"954266","PIPER JAFFRAY COMPANIES","724683"
"954260","THE BANK OF NEW YORK MELLON CORPORATION","1390777"
"953103","NORTHSTAR ASSET MANAGEMENT GROUP INC.","1597503"
"953687","BLACKROCK, INC","1364742"
"949595","NOMURA HOLDINGS, INC.","1163653"
"954306","NOMURA HOLDINGS, INC.","1163653"
"953917","DEUTSCHE BANK AG","948046"
"953522","NORTHERN TRUST CORPORATION","73124"
"954333","HUNTINGTON BANCSHARES INCORPORATED","906092"
"954352","MORGAN STANLEY","895421"
"954356","MORGAN STANLEY","895421"
"954358","MORGAN STANLEY","895421"
"954362","MORGAN STANLEY","895421"
"954369","GUARANTY BANCORP","1324410"
"954371","RAYMOND JAMES FINANCIAL, INC.","720005"
"954421","WADDELL & REED FINANCIAL, INC.","1052100"
"953879","DEUTSCHE BANK AG","948046"
"954453","APOLLO GLOBAL MANAGEMENT, LLC","1411494"
"954460","BARCLAYS PLC","312069"
"954460","BARCLAYS BANK PLC","312070"
"954472","MORNINGSTAR, INC.","1289419"
"954370","DEUTSCHE BANK AG","948046"
"954485","AMERICAN CAPITAL, LTD.","817473"
"954598","JONES LANG LASALLE INCORPORATED","1037956"
"954677","JONES LANG LASALLE INCORPORATED","1037956"
"954413","BOSTON PRIVATE FINANCIAL HOLDINGS, INC.","40821127"
"954753","VALLEY NATIONAL BANCORP","714310"
"954789","LEGG MASON, INC.","704051"
"954790","LEGG MASON, INC.","704051"
"953750","DETUSCHE BANK AG","948046"
"953926","THE BANK OF NOVA SCOTIA","1041839"
"954817","THE BANK OF NOVA SCOTIA","1041839"
"954806","PRUDENTIAL FINANCIAL, INC.","1137774"
"954957","RCS CAPITAL CORPORATION","1568832"
"953497","FORTRESS INVESTMENT GROUP LLC","1380393"
"955074","FORTRESS INVESTMENT GROUP LLC","1380393"
"955162","BANK OF AMERICA, NATIONAL ASSOCIATION","1102113"
"955190","THE BANK OF NEW YORK MELLON CORPORATION","1390777"
"955204","DEUTSCHE BANK AG","948046"
"955202","SOUTH STATE BANK","1542445"
"955200","THE BANK OF NEW YORK MELLON CORPORATION","1390777"
"948392","THE BANK OF NEW YORK MELLON CORPORATION","1390777"
"948392","THE BANK OF NEW YORK MELLON","1497973"
"955229","LPL FINANCIAL HOLDINGS INC.","1397911"
"955245","THE BANK OF NEW YORK MELLON CORPORATION","1390777"
"955245","THE BANK OF NEW YORK MELLON","1497973"
"954436","DEUTSCHE BANK AG","948046"
"955265","THE GOLDMAN SACHS GROUP, INC.","886982"
"955286","BANCO SANTANDER, S.A.","891478"
"955318","MORGAN STANLEY","895421"
"953435","NFP CORP.","1183186"
"954651","RCS CAPITAL CORPORATION","1568832"
"955435","KOHLBERG KRAVIS ROBERTS & CO. L.P.","1399770"
"955480","BANK OF AMERICA CORPORATION","70858"
"955481","MERRILL LYNCH & CO., INC.","65100"
"955481","BANK OF AMERICA CORPORATION","70858"
"955488","GENERAL MOTORS COMPANY","1467858"
"954092","THE BANK OF NEW YORK MELLON CORPORATION","1390777"
"955501","MCGRAW HILL FINANCIAL, INC.","64040"
"953872","PRINCIPAL FINANCIAL GROUP, INC.","1126328"
"955600","SIEBERT FINANCIAL CORPORATION","65596"
"953517","ROYAL BANK OF CANADA","1000275"
"955614","TD AMERITRADE HOLDING CORPORATION","1173431"
"955644","THE BANK OF NEW YORK MELLON CORPORATION","1390777"
"955694","CITIGROUP INC.","831001"
"952736","ROYAL BANK OF CANADA","1000275"
"955736","LEGG MASON, INC","704051"
"955750","BANK OF MONTREAL","927971"
"955752","BANK OF MONTREAL","927971"
"955535","JPMORGAN CHASE & CO.","19617"
"955545","OPPENHEIMER HOLDINGS INC.","791963"
"955829","MORGAN STANLEY","895421"
"955854","STANCORP FINANCIAL GROUP","931253576"
"955828","AEGON N.V.","769218"
"955881","NATIONAL HOLDINGS CORPORATION","1023844"
"955827","AFFILIATED MANAGERS GROUP, INC.","1004434"
"955981","BANK OF AMERICA CORPORATION","70858"
"953756","DEUTSCHE BANK AG","948046"
"956002","BB&T CORP","92230"
"956069","WELLESLEY BANCORP, INC.","1526952"
"956103","MCGRAW HILL FINANCIAL, INC.","64040"
"956119","STIFEL FINANCIAL CORPORATION","720672"
"956003","BOSTON PRIVATE FINANCIAL HOLDINGS, INC.","821127"
"956213","STIFEL FINANCIAL CORPORATION","720672"
"956212","ALLIANCEBERNSTEIN L.P.","1109448"
"956210","PRUDENTIAL PLC","1116578"
"956225","NOMURA HOLDINGS, INC. (FORMERLY THE NOMURA SECURITIES CO., LTD.)","1163653"
"956251","LEGG MASON INC.","704051"
"956259","THE ZIEGLER COMPANIES, INC.","109312"
"956261","THE ZIEGLER COMPANIES, INC.","109312"
"956354","STIFEL FINANCIAL CORPORATION","720672"
"956347","ALLIANCEBERNSTEIN L.P.","1109448"
"956333","OPPENHEIMER HOLDINGS INC.","791963"
"956386","TD AMERITRADE HOLDING CORPORATION","1173431"
"956387","TD AMERITRADE HOLDING CORPORATION","1173431"
"955800","OPPENHEIMER HOLDINGS INC.","791963"
"956394","TD AMERITRADE HOLDING CORPORATION","1173431"
"956178","THE BANK OF NEW YORK MELLON CORPORATION","1390777"
"956462","AXA FINANCIAL, INC","888002"
"956462","AXA EQUITABLE FINANCIAL SERVICES, LLC","1257148"
"956462","AXA AMERICA HOLDINGS, INC","1333986"
"956490","RCS CAPITAL CORPORATION","1568832"
"943051","BLACKROCK, INC.","1364742"
"941782","CNO FINANCIAL GROUP, INC.","122460"
"956552","UBS AG","1114446"
"956558","UBS AG","1114446"
"944085","CBRE GROUP, INC.","1138118"
"956605","ROYAL BANK OF CANADA","1000275"
"944073","CBRE GROUP, INC.","1138118"
"956606","ROYAL BANK OF CANADA","1000275"
"956647","THE PNC FINANCIAL SERVICES GROUP, INC.","713676"
"956686","SOUTH STATE BANK","1542445"
"956695","SOUTH STATE BANK","1542445"
"956687","OPPENHEIMER HOLDINGS INC.","791963"
"955599","NORTHWEST BANCSHARES, INC.","147126"
"956765","RCS CAPITAL CORPORATION","1568832"
"956700","TIPTREE FINANCIAL INC.","1393726"
"954071","CITIZENS FINANCIAL GROUP","759944"
"954065","CITIZENS FINANCIAL GROUP","759944"
"956887","AEGON NV","769218"
"956898","UMB FINANCIAL CORP","101382"
"955382","VIRTUS INVESTMENT PARTNERS, INC.","883237"
"956919","VIRTUS INVESTMENT PARTNERS, INC.","883237"
"950992","HFA HOLDINGS LTD","1424483"
"955959","CITY NATIONAL CORPORATION","10521"
"956932","CITY NATIONAL CORPORATION","10521"
"955805","DEUTSCHE BANK AG","948046"
"956857","DEUTSCHE BANK AG","948046"
"956997","CNO FINANCIAL GROUP, INC.","122460"
"956293","AMERIPRISE FINANCIAL, INC.","820027"
"957096","CREDIT SUISSE GROUP AG","1159510"
"957145","STIFEL FINANCIAL CORP.","720672"
"955734","U.S. BANCORP","36104"
"956154","COWEN GROUP, INC.","1466538"
"957234","LPL FINANCIAL HOLDINGS INC.","1397911"
"957271","SIGNATURE BANK","5703"
"956842","DETUSCHE BANK AG","948046"
"957353","JANUS CAPITAL GROUP INC.","106586"
"957294","WELLS FARGO AND COMPANY","105598"
"957328","CITIZENS FINANCIAL GROUP","759944"
"957474","WELLS FARGO AND COMPANY","105598"
"957502","W. P. CAREY INC.","102537"
"956081","THE BLACKSTONE GROUP L.P.","1393818"
"957513","PRINCIPAL FINANCIAL GROUP, INC.","1126328"
"954391","BLACKROCK, INC.","1364742"
"955126","BLACKROCK, INC.","1364742"
"954995","BLACKROCK, INC.","1364742"
"955122","BLACKROCK, INC.","1364742"
"957580","UMB FINANCIAL CORPORATION","101382"
"948158","BROOKFIELD ASSET MANAGEMENT INC.","1001085"
"957754","THE JONES FINANCIAL COMPANIES, L.L.L.P.","815917"
"957570","LEGG MASON INC","704051"
"957641","INVESTEC PLC","1354272"
"957302","NORTHERN TRUST CORPORATION","73124"
"956970","ROYAL BANK OF CANADA","1000275"
"957860","ROYAL BANK OF CANADA","1000275"
"957859","CREDIT SUISSE ASSET MANAGEMENT, LLC","1159510"
"957833","AMERIPRISE FINANCIAL, INC.","820027"
"957943","BANK OF AMERICA CORPORATION","70858"
"952403","HSBC HOLDINGS PLC","108913"
"957699","ARES MANAGEMENT, L.P.","1176948"
"956532","AFFILIATED MANAGERS GROUP, INC.","1004434"
"957308","THE GOLDMAN SACHS GROUP,INC.","86982"
"954437","FIFTH THIRD BANCORP","35527"
"957593","BB&T CORP","92230"
"956017","FRANKLIN RESOURCES, INC.","38777"
"958213","COBIZ FINANCIAL INC","1028734"
"958407","THE GOLDMAN SACHS GROUP, INC.","886982"
"958265","BOSTON PRIVATE FINANCIAL HOLDINGS, INC.","821127"
"957822","STATE STREET CORPORATION","93751"
"957760","OAKTREE CAPITAL GROUP, LLC","1403528"
"953985","ROYAL BANK OF CANADA","1000275"
"958551","AMERISERV FINANCIAL, INC.","707605"
"957939","LAZARD LTD","1311370"
"957939","LAZARD GROUP LLC","1326141"
"954013","ROYAL BANK OF CANADA","1000275"
"958598","RCS CAPITAL CORPORATION","1568832"
"958605","BOK FINANCIAL CORPORATION","875357"
"958608","RCS CAPITAL CORPORATION","1568832"
"958613","RCS CAPITAL CORPORATION","1568832"
"958619","AFFILIATED MANAGERS GROUP, INC.","1004434"
"958662","SYNOVUS FINANCIAL CORP","18349"
"952305","SUNTRUST BANKS, INC.","750556"
"947308","AFFILIATED MANAGERS GROUP INC.","1004434"
"958637","FRANKLIN RESOURCES, INC.","38777"
"958600","UMB FINANCIAL CORP","101382"
"958108","APOLLO GLOBAL MANAGEMENT, LLC","1411494"
"958140","APOLLO GLOBAL MANAGEMENT","1411494"
"958817","APOLLO GLOBAL MANAGEMENT, LLC","1411494"
"957766","THE CHARLES SCHWAB CORPORATION","316709"
"958697","DEUTSCHE BANK AG","948046"
"958852","APOLLO GLOBAL MANAGEMENT, LLC","1411494"
"958854","APOLLO GLOBAL MANAGEMENT, LLC","141494"
"958680","DEUTSCHE BANK AG","948046"
"958985","PRINCIPAL FINANCIAL GROUP, INC.","1126328"
"957625","AFFILIATED MANAGERS GROUP, INC.","1004434"
"958984","BROOKFIELD ASSET MANAGEMENT INC.","10010085"
"958904","THE BANK OF NEW YORK MELLON CORPORATION","1390777"
"958829","APOLLO GLOBAL MANAGEMENT, LLC","1411494"
"959018","APOLLO GLOBAL MANAGEMENT, LLC","1411494"
"959023","APOLLO GLOBAL MANAGEMENT, LLC","1411494"
"959027","APOLLO GLOBAL MANAGEMENT","1411494"
"958992","THE BANK OF NEW YORK MELLON CORPORATION","1390777"
"959073","STIFEL FINANCIAL CORPORATION","720672"
"959060","THE BANK OF NEW YORK MELLON CORPORATION(SUCCESSOR TO MERGER OF MELLON FINANCIAL CORPORATION & THE BANK OF NEW YORK COMPANY, INC)","1390777"
"959069","J.P. MORGAN CHASE & CO.","19617"
"955378","ROYAL BANK OF CANADA","1000275"
"959085","ROYAL BANK OF CANADA","1000275"
"959083","THE BANK OF NEW YORK MELLON CORPORATION","1390777"
"958847","THE BANK OF NEW YORK MELLON CORPORATION","1390777"
"958847","THE BANK OF NEW YORK MELLON","1497973"
"958883","THE BANK OF NEW YORK MELLON CORPORATION","1390777"
"955412","THE BANK OF NEW YORK MELLON CORPORATION","1390777"
"955412","THE BANK OF NEW YORK MELLON","1497973"
"958972","THE BANK OF NEW YORK MELLON CORPORATION","1390777"
"959110","BANK OF MONTREAL","9622"
"958186","THE BLACKSTONE GROUP L.P.","1393818"
"955728","JPMORGAN CHASE & CO.","19617"
"959008","THE CARLYLE GROUP L.P.","1527166"
"959200","THE BANK OF NEW YORK MELLON CORPORATION","1497973"
"958893","BANK OF NEW YORK MELLON CORPORATION","1390777"
"958806","DEUTSCHE BANK AG","948046"
"959233","THE BANK OF NEW YORK MELLON CORPORATION","1390777"
"959205","THE BANK OF NEW YORK MELLON CORPORATION","1390777"
"948739","GREAT-WEST LIFECO INC","850918"
"959297","UBS GROUP AG","1610520"
"952277","MANULIFE FINANCIAL CORPORATION","1086888"
"959303","UBS GROUP AG","1610520"
"959337","PRINCIPAL FINANCIAL GROUP, INC.","1126328"
"955777","ROYAL BANK OF CANADA","1000275"
"959463","JONES LANG LASALLE INCORPORATED","1037976"
"949484","THE BANK OF NEW YORK MELLON CORPORATION","1390777"
"959388","THE BANK OF NEW YORK MELLON CORPORATION","251233834"
"959612","THE BANK OF NEW YORK MELLON CORPORATION","1390777"
"959656","UBS GROUP AG","1610520"
"958918","THE BANK OF NEW YORK MELLON CORPORATION","1390777"
"959667","UBS GROUP AG","1610520"
"959711","STIFEL FINANCIAL CORP.","720672"
"959682","MORNINGSTAR, INC.","1289419"
"959430","ROYAL BANK OF CANADA","1000275"
"958286","HRG GROUP INC.","109177"
"958841","ROYAL BANK OF CANADA","1000275"
"959740","ARES MANAGEMENT, L.P.","1176948"
"959774","PROLOGIS, L.P.","1045610"
"959774","PROLOGIS, INC.","1045609"
"948515","EATON VANCE CORP.","350797"
"950513","EATON VANCE CORP","350797"
"959789","THE BANK OF NEW YORK MELLON CORPORATION","1390777"
"959821","PROLOGIS, L.P.","1045610"
"959821","PROLOGIS, INC.","1045609"
"959826","THE BANK OF NEW YORK MELLON CORPORATION","1390777"
"959851","NORDEA INVESTMENT MANAGEMENT AB","1218210"
"959841","RAYMOND JAMES FINANCIAL, INC.","705"
"959868","PRUDENTIAL PLC","1116578"
"959883","PRUDENTIAL PLC","1116578"
"959495","THE BANK OF NEW YORK MELLON CORPORATION","1390777"
"959918","PROVIDENT FINANCIAL SERVICES, INC.","1178970"
"959661","METLIFE INC.","1099219"
"959952","THE CHARLES SCHWAB CORPORATION","316709"
"959698","THE BANK OF NEW YORK MELLON CORPORATION","1390777"
"959904","T. ROWE PRICE GROUP, INC.","1113169"
"959710","T. ROWE PRICE GROUP, INC.","1113169"
"959756","THE BANK OF NEW YORK MELLON CORPORATION","1390777"
"959482","THE BANK OF NEW YORK MELLON CORPORATION","1390777"
"959752","CROSSWINDS HOLDINGS INC.","227696"
"960059","STIFEL FINANCIAL CORP.","720672"
"959219","THE BANK OF NEW YORK MELLON CORPORATION","1390777"
"959092","THE BANK OF NEW YORK MELLON CORPORATION(SUCCESSOR TO MERGER OF MELLON FINANCIAL CORPORATION & THE BANK OF NEW YORK COMPANY, INC)","1390777"
"959843","ASSOCIATED CAPITAL GROUP, INC.","1642122"
"955062","ROYAL BANK OF CANADA","1000275"
"960096","MANNING & NAPIER, INC.","1524223"
"960327","MANNING & NAPIER, INC.","1524223"
"960350","DEUTSCHE BANK AG","948046"
"959968","SVB FINANCIAL GROUP","719739"
"960379","DEUTSCHE BANK AG","948046"
"958824","DEUTSCHE BANK AG","948046"
"960438","FORTRESS INVESTMENT GROUP LLC","1380393"
"960437","EATON VANCE CORP.","350797"
"960443","EATON VANCE CORP.","350797"
"960451","EATON VANCE CORP.","350797"
"960454","EATON VANCE CORP.","350797"
"960467","RCS CAPITAL CORPORATION","1568832"
"960475","RCS CAPITAL CORPORATION","1568832"
"960501","ASSOCIATED CAPITAL GROUP, INC.","1642122"
"960585","RCS CAPITAL CORPORATION","1568832"
"958831","DEUTSCHE BANK AG","948046"
"959941","RAYMOND JAMES FINANCIAL, INC.","19617"
"960696","RCS CAPITAL HOLDINGS, LLC","1568832"
"960552","GREAT-WEST LIFE & ANNUITY INSURANCE COMPANY","744455"
"960694","THE BANK OF NEW YORK MELLON CORPORATION","1390777"
"960691","PRINCIPAL FINANCIAL GROUP INC","1126328"
"960184","STIFEL FINANCIAL CORPORATION","720672"
"960829","AEGON NV","769218"
"960845","STIFEL FINANCIAL CORPORATION","720672"
"960873","STIFEL FINANCIAL CORP.","720672"
"960615","STIFEL FINANCIAL CORPORATION","720672"
"960951","REGIONS FINANCIAL CORPORATION","1281761"
"960959","PRUDENTIAL FINANCIAL INC","1137774"
"960986","GALLAGHER BENEFIT SERVICES, INC","1527782"
"960986","GALLAGHER FIDUCIARY ADVISORS, LLC","1527781"
"946173","PRUDENTIAL FINANCIAL, INC.","1137774"
"958308","BOK FINANCIAL CORPORATION","875357"
"960978","VIRTUS INVESTMENT PARTNERS, INC.","883237"
"960202","AMERIPRISE FINANCIAL, INC.","820027"
"961097","OPPENHEIMER HOLDINGS INC.","791963"
"961242","BB&T CORPORATION","92230"
"960420","RCS CAPITAL CORPORATION","1568832"
"960966","THE BANK OF NEW YORK MELLON CORPORATION","1390777"
"961327","WELLS FARGO AND COMPANY","105598"
"961343","BANCO BILBAO VIZCAYA ARGENTARIA, S.A.","842180"
"961343","COMPASS BANCSHARES INC.","1409775"
"961010","THE BANK OF NEW YORK MELLON CORPORATION","1390777"
"961369","RCS CAPITAL CORPORATION","1568832"
"961430","RCS CAPITAL CORPORATION","1568832"
"961431","RCS CAPITAL CORPORATION","1568832"
"956079","SIEBERT FINANCIAL CORPORATION","65596"
"959970","MORGAN STANLEY","895421"
"961472","THE BANK OF NEW YORK MELLON CORPORATION","251233834"
"956587","BANK OF MONTREAL","927971"
"961146","PRUDENTIAL PLC","1116578"
"947427","E*TRADE FINANCIAL CORPORATION INC.","1015780"
"958905","TD AMERITRADE HOLDING CORPORATION","1173431"
"957895","TD AMERITRADE HOLDING CORPORATION","1173431"
"961622","BB&T CORP","92230"
"961644","OM ASSET MANAGEMENT PLC","1611702"
"961701","SIEBERT FINANCIAL CORPORATION","65596"
"961639","BOSTON PRIVATE FINANCIAL HOLDINGS, INC.","821127"
"961775","BANK OF AMERICA CORPORATION","70858"
"961815","LADENBURG THALMANN FINANCIAL SERVICES, INC.","1029730"
"947899","DAILY MAIL & GENERAL TRUST PLC","154785"
"961891","MEDLEY MANAGEMENT INC.","1611110"
"961049","NORTHSTAR ASSET MANAGEMENT GROUP INC.","1597503"
"961894","BRYN MAWR BANK CORPORATION","802681"
"961899","BRYN MAWR BANK CORPORATION","802681"
"961902","ACCESS NATIONAL CORPORATION","1176316"
"961898","VERIZON COMMUNICATIONS INC.","732712"
"960711","PRUDENTIAL FINANCIAL, INC.","1137774"
"962110","LEGG MASON, INC.","704051"
"962132","BB&T CORPORATION","92230"
"961353","HUNTINGTON BANCSHARES INCORPORATED","906092"
"962199","WELLS FARGO AND COMPANY","105598"
"962324","RCS CAPITAL CORPORATION","1568832"
"959922","INVESCO LTD.","914208"
"962350","HRG GROUP INC.","109177"
"962459","THE BANK OF NEW YORK MELLON CORPORATION","1390777"
"962511","NOMURA HOLDINGS, INC.","1163653"
"961826","RAYMOND JAMES FINANCIAL SERVICES, INC","52021"
"962549","NOMURA HOLDINGS, INC.","1163653"
"961510","OAKTREE CAPITAL GROUP, LLC","1403528"
"962546","LADENBURG THALMANN FINANCIAL SERVICES INC.","1029730"
"952413","SUNTRUST BANKS, INC.","750556"
"962598","STATE STREET CORPORATION","93751"
"957885","RAYMOND JAMES FINANCIAL INC.","1053092"
"962498","COMMUNITY BANK SYSTEM, INC","723188"
"954902","THE RMR GROUP INC.","1644378"
"962705","UMPQUA HOLDINGS CORP","1077771"
"962518","DEUTSCHE BANK AG","948046"
"962797","BARCLAYS PLC","312069"
"962797","BARCLAYS BANK PLC","312070"
"962380","LEGG MASON, INC.","704051"
"962817","TORONTO-DOMINION BANK","947263"
"962825","CAPITAL ONE FINANCIAL CORP","927628"
"962318","LEGG MASON, INC.","704051"
"962867","BARCLAYS PLC","312069"
"962867","BARCLAYS BANK PLC","312070"
"962868","BARCLAYS PLC","312069"
"962868","BARCLAYS BANK PLC","312070"
"959694","TD AMERITRADE HOLDING CORPORATION","1173431"
"956671","HRG GROUP, INC.","109177"
"962389","LEGG MASON, INC.","704051"
"957437","J.P. MORGAN CHASE & CO.","19617"
"962647","GREAT-WEST LIFECO INC","850918"
"962650","VOYA FINANCIAL, INC.","1535929"
"962948","THE JONES FINANCIAL COMPANIES, L.L.L.P.","815917"
"952715","PACWEST BANCORP","1102112"
"963196","MANULIFE FINANCIAL CORPORATION","1086888"
"960596","HRG GROUP INC.","109177"
"963207","MANULIFE FINANCIAL CORPORATION","1086888"
"963198","JOHN HANCOCK LIFE INSURANCE COMPANY (U.S.A.)","1073894"
"956948","ROYAL BANK OF CANADA","1000275"
"960690","PRINCIPAL FINANCIAL GROUP INC.","1126328"
"962065","PRUDENTIAL FINANCIAL, INC.","1137774"
"963388","LADENBURG THALMANN FINANCIAL SERVICES INC.","1029730"
"948592","VOYA FINANCIAL, INC.","1535929"
"954380","RAYMOND JAMES FINANCIAL, INC.","720005"
"949447","FRANKLIN RESOURCES, INC.","38777"
"949446","FRANKLIN RESOURCES, INC.","38777"
"963450","BOSTON PRIVATE FINANCIAL HOLDINGS, INC.","40821127"
"963407","VALUE LINE, INC.","717720"
"963508","EATON VANCE CORP.","350797"
"963512","EATON VANCE CORP.","350797"
"963515","EATON VANCE CORP.","350797"
"963523","EATON VANCE CORP.","350797"
"949452","FRANKLIN RESOURCES, INC.","38777"
"947838","FRANKLIN RESOURCES, INC.","38777"
"949448","FRANKLIN RESOURCES, INC.","38777"
"963658","ROYAL BANK OF CANADA","1000275"
"952453","FRANKLIN RESOURCES, INC.","38777"
"953713","FRANKLIN RESOURCES, INC.","38777"
"953717","FRANKLIN RESOURCES, INC.","38777"
"963734","VOYA FINANCIAL, INC.","1535929"
"963721","RAYMOND JAMES FINANCIAL","720005"
"949450","FRANKLIN RESOURCES, INC.","38777"
"947828","FRANKLIN RESOURCES, INC.","38777"
"947834","FRANKLIN RESOURCES, INC.","38777"
"960275","LEUCADIA NATIONAL CORPORATION","96223"
"949444","FRANKLIN RESOURCES, INC.","38777"
"947837","FRANKLIN RESOURCES, INC.","38777"
"952450","FRANKLIN RESOURCES, INC.","38777"
"949454","FRANKLIN RESOURCES, INC.","38777"
"963797","PROTECTIVE LIFE CORPORATION","355429"
"963818","PEOPLE'S UNITED FINANCIAL, INC.","1086095"
"963468","THE CHARLES SCHWAB CORPORATION","316709"
"961394","INVESCO LTD","914208"
"963958","BANK OF AMERICA CORPORATION","70858"
"963962","MERRILL LYNCH & CO., INC.","65100"
"963962","BANK OF AMERICA CORPORATION","70858"
"955667","PRINCIPAL FINANCIAL GROUP","1126328"
"964027","PRINCIPAL FINANCIAL GROUP","1126328"
"964022","BROWN ADVISORY SECURITIES, LLC","1389479"
"961161","NATIONAL HOLDINGS CORPORATION","1023844"
"964071","THE GOLDMAN SACHS GROUP, INC.","886982"
"964080","LADENBURG THALMANN FINANCIAL SERVICES INC.","1029730"
"964120","MERRILL LYNCH & CO., INC.","65100"
"964120","BANK OF AMERICA CORPORATION","70858"
"964121","BANK OF AMERICA, NATIONAL ASSOCIATION","1102113"
"964134","BANK OF AMERICA CORPORATION","70858"
"964256","PRUDENTIAL FINANCIAL, INC.","1137774"
"955866","MORGAN STANLEY","895421"
"961108","FIDELITY NATIONAL INFORMATION SERVICES, INC.","1136893"
"964318","FIDELITY NATIONAL INFORMATION SERVICES, INC.","1136893"
"964270","ITAU UNIBANCO HOLDING S.A.","1132597"
"956475","THE BANK OF NEW YORK MELLON CORPORATION","1390777"
"964376","RCS CAPITAL CORPORATION","1568832"
"964409","THE BLACKSTONE GROUP L.P.","1393818"
"964423","OPPENHEIMER HOLDINGS INC.","791963"
"957560","FRANKLIN RESOURCES, INC.","38777"
"959340","PRUDENTIAL PLC","1116578"
"964455","FRANKLIN RESOURCES, INC.","38777"
"961907","NORTHSTAR ASSET MANAGEMENT GROUP INC.","1597503"
"964144","DAILY MAIL & GENERAL TRUST PLC","154785"
"964520","LPL FINANCIAL HOLDINGS INC.","1397911"
"964571","BOSTON PRIVATE FINANCIAL HOLDINGS, INC.","821127"
"964572","BOSTON PRIVATE FINANCIAL HOLDINGS, INC.","821127"
"964670","AMERIPRISE FINANCIAL, INC.","820027"
"958624","STIFEL FINANCIAL CORP.","720672"
"958335","STIFEL FINANCIAL CORP","720672"
"964695","WADDELL & REED FINANCIAL, INC.","1052100"
"963857","FINANCIAL INSTITUTIONS, INC.","862831"
"962314","FRANKLIN RESOURCES, INC.","38777"
"964302","AXA FINANCIAL, INC","888002"
"964302","AXA EQUITABLE FINANCIAL SERVICES, LLC","1257148"
"964302","AXA AMERICA HOLDINGS, INC","1333986"
"964849","RCS CAPITAL CORPORATION","1568832"
"948246","JPMORGAN CHASE & CO.","19617"
"949481","MORGAN STANLEY","895421"
"949498","RAYMOND JAMES FINANCIAL SERVICES, INC","52021"
"949506","SUN LIFE FINANCIAL, INC.","1097362"
"948904","U.S. BANCORP","36104"
"949196","LADENBURG THALMANN FINANCIAL SERVICES INC.","1029730"
"949515","SUN LIFE FINANCIAL, INC.","1097362"
"948393","JANUS CAPITAL GROUP INC.","1065865"
"949551","N/A","1"
"949570","VIRTUS INVESTMENT PARTNERS, INC.","883237"
"949582","KOHLBERG KRAVIS ROBERTS & CO. L.P.","1399770"
"943823","SUN LIFE FINANCIAL INC.","109762"
"945057","AMERIPRISE FINANCIAL, INC.","820027"
"949249","THE PNC FINANCIAL SERVICES GROUP, INC.","713676"
"949730","BANK OF MONTREAL","927971"
"949755","EATON VANCE CORP.","350797"
"949760","EATON VANCE CORP.","350797"
"949761","EATON VANCE CORP.","350797"
"949832","KB FINANCIAL GROUP INC.","53445"
"949871","RCS CAPITAL CORPORATION","1568832"
"949747","RCS CAPITAL CORPORATION","1568832"
"949911","MORNINGSTAR, INC.","1289419"
"945968","STATE STREET CORPORATION","93751"
"949915","CREDIT SUISSE (USA), INC.","29646"
"949919","THE ZIEGLER COMPANIES, INC.","109312"
"949773","JPMORGAN CHASE & CO.","19617"
"949949","HILLTOP HOLDINGS INC.","1265131"
"949951","HILLTOP HOLDINGS INC.","1265131"
"949956","HILLTOP HOLDINGS INC.","1265131"
"949957","HILLTOP HOLDINGS INC.","1265131"
"949963","PRIMERICA, INC.","147592"
"948047","VOYA FINANCIAL, INC.","1535929"
"949964","AMERICAN INTERNATIONAL GROUP, INC.","5272"
"949942","AMERICAN INTERNATIONAL GROUP INC.","5272"
"942810","BLACKROCK, INC.","1364742"
"933926","BLACKROCK, INC.","1364742"
"946492","BLACKROCK, INC.","1364742"
"946494","BLACKROCK, INC.","1364742"
"942617","BLACKROCK, INC.","1364742"
"950123","M&T BANK CORP","36270"
"950126","PRUDENTIAL PLC","1116578"
"946491","BLACKROCK, INC.","1364742"
"950137","THE ZIEGLER COMPANIES, INC.","109312"
"948734","AMERICAN INTERNATIONAL GROUP, INC.","5272"
"950128","OPPENHEIMER HOLDINGS INC.","791963"
"950079","AMERICAN INTERNATIONAL GROUP, INC.","5272"
"948875","CITY NATIONAL BANK","823169"
"950233","MANULIFE FINANCIAL CORPORATION","1086888"
"950202","JANUS CAPITAL GROUP INC.","106586"
"949987","THE BANK OF NEW YORK MELLON CORPORATION","1390777"
"949812","AMERICAN INTERNATIONAL GROUP","5272"
"950287","LEGG MASON INC.","704051"
"949804","AMERICAN INTERNATIONAL GROUP, INC.","5272"
"949814","AMERICAN INTERNATIONAL GROUP, INC.","5272"
"950289","LEGG MASON, INC.","704051"
"949816","AMERICAN INTERNATIONAL GROUP","5272"
"949861","AMERICAN INTERNATIONAL GROUP, INC","5272"
"950298","LEGG MASON INC.","704051"
"950300","LGG MASON, INC.","704051"
"950296","WADDELL & REED FINANCIAL, INC.","1052100"
"950306","LEGG MASON, INC.","704051"
"950117","MANULIFE FINANCIAL CORPORATION","1086888"
"949234","GENERAL MOTORS COMPANY","1467858"
"950320","GENERAL MOTORS COMPANY","1467858"
"950312","LEGG MASON, INC.","704051"
"950339","GENERAL MOTORS COMPANY","1467858"
"950351","RCS CAPITAL CORPORATION","1568832"
"950360","DEUTSCHE BANK AG","948046"
"950207","JPMORGAN CHASE & CO.","19617"
"949101","OCH-ZIFF CAPITAL MANAGEMENT GROUP LLC","1403256"
"950464","BB&T CORPORATION","92230"
"950356","BANK OF MONTREAL","927971"
"950238","DEUTSCHE BANK AG","948046"
"950248","DEUTSCHE BANK AG","948046"
"950615","MORGAN STANLEY","895421"
"949256","OCH-ZIFF CAPITAL MANAGEMENT GROUP LLC","1403256"
"950652","MORGAN STANLEY","895421"
"950655","MORGAN STANLEY","895421"
"950653","PROTECTIVE LIFE CORPORATION","355429"
"950722","VIRTUS INVESTMENT PARTNERS, INC.","883237"
"950758","U.S. BANCORP","36104"
"947530","THE GOLDMAN SACHS GROUP, INC.","886982"
"949355","NORTHERN TRUST CORPORATION","73124"
"950842","AMERICAN INTERNATIONAL GROUP","5272"
"950873","BANK OF AMERICA CORPORATION","70858"
"947312","VALIDUS HOLDINGS, LTD.","1348259"
"950876","BALFOUR BEATTY PLC","1506721"
"949120","PRUDENTIAL FINANCIAL, INC.","1137774"
"950904","TD AMERITRADE HOLDING CORPORATION","1173431"
"950813","METLIFE INC.","1099219"
"950936","TD AMERITRADE HOLDING CORPORATION","1173431"
"950949","CAPITAL ONE FINANCIAL CORPORATION","927628"
"950714","GENERAL MOTORS COMPANY","1467858"
"950933","EATON VANCE CORP.","350797"
"950979","HUNTINGTON BANCSHARES INCORPORATED","906092"
"950985","WELLS FARGO AND COMPANY","105598"
"951010","AXA FINANCIAL, INC","888002"
"951010","AXA EQUITABLE FINANCIAL SERVICES, LLC","1257148"
"951010","AXA AMERICA HOLDINGS, INC","1333986"
"951025","AXA FINANCIAL, INC","888002"
"951025","AXA EQUITABLE FINANCIAL SERVICES, LLC","1257148"
"951025","AXA AMERICA HOLDINGS, INC","1333986"
"950798","GREAT-WEST LIFECO INC.","1243448"
"951064","THE BLACKSTONE GROUP L.P.","1393818"
"951070","THE BLACKSTONE GROUP L.P.","1393818"
"951072","THE BLACKSTONE GROUP L.P.","1393818"
"951071","THE BLACKSTONE GROUP L.P.","1393818"
"951079","THE BLACKSTONE GROUP L.P.","1393818"
"951080","THE BLACKSTONE GROUP L.P.","1393818"
"951081","THE BLACKSTONE GROUP L.P.","1393818"
"950584","FIFTH THIRD BANCORP","35527"
"951103","WELLS FARGO AND COMPANY","105598"
"950244","STIFEL FINANCIAL CORP","720672"
"951131","LINCOLN NATIONAL CORPORATION","59558"
"951139","LINCOLN NATIONAL CORPORATION","59558"
"949628","KOHLBERG KRAVIS ROBERTS & CO. L.P.","1399770"
"951024","STATE STREET CORPORATION","93751"
"951220","THE BLACKSTONE GROUP L.P.","1393818"
"951221","THE BLACKSTONE GROUP L.P.","1393818"
"951225","THE BLACKSTONE GROUP L.P.","1393818"
"951247","RCS CAPITAL CORPORATION","1568832"
"951272","MANULIFE FINANCIAL CORPORATION","1086888"
"950183","LADDER CAPITAL CORP","1577670"
"951320","BB&T CORPORATION","92230"
"951124","JPMORGAN CHASE & CO.","19617"
"951334","BANCO SANTANDER, S.A.","891478"
"951378","WELLS FARGO & CO","72971"
"951378","WELLS FARGO BANK, N.A.","740906"
"951384","WELLS FARGO & CO","105598"
"951380","NOMURA HOLDINGS, INC. (FORMERLY THE NOMURA SECURITIES CO., LTD.)","1163653"
"951389","WELLS FARGO & COMPANY","105598"
"950769","BANK OF MONTREAL","927971"
"951416","BANK OF MONTREAL","927971"
"951422","THE BLACKSTONE GROUP L.P.","1393818"
"950379","THE BANK OF NEW YORK MELLON CORPORATION","1390777"
"951283","LEGG MASON, INC.","704051"
"951223","THE BANK OF NEW YORK MELLON CORPORATION","1390777"
"951223","THE BANK OF NEW YORK MELLON","1497973"
"951476","FORTRESS INVESTMENT GROUP LLC","1380393"
"951491","BANK OF MONTREAL","9622"
"951516","HILLTOP HOLDINGS INC.","1265131"
"951517","HILLTOP HOLDINGS INC.","1265131"
"951522","METLIFE INC.","1099219"
"951530","STATE STREET CORPORATION","93751"
"951403","VIRTUS INVESTMENT PARTNERS, INC.","883237"
"950705","ROYAL BANK OF CANADA","1000275"
"944540","BANK OF MONTREAL","927971"
"951572","E.I. DUPONT DENEMOURS & CO","30554"
"950567","SUNTRUST BANKS, INC.","750556"
"951614","VALLEY NATIONAL BANCORP","714310"
"951619","LEGG MASON, INC.","704051"
"951626","BB&T CORPORATION","92230"
"951173","RCS CAPITAL CORPORATION","1568832"
"950184","BOSTON PRIVATE FINANCIAL HOLDINGS, INC.","40821127"
"951669","BANK OF MONTREAL","9622"
"951662","XEROX CORPORATION","10877"
"951697","LPL FINANCIAL HOLDINGS INC.","1397911"
"951719","DEUTSCHE BANK AG","1022437"
"951273","WELLS FARGO & COMPANY","105598"
"951727","VALIDUS HOLDINGS, LTD.","1348259"
"951749","BANK OF AMERICA CORPORATION","70858"
"948257","JOHN HANCOCK LIFE INSURANCE COMPANY (U.S.A.)","1073894"
"951890","BANK OF NEW YORK MELLON CORPORATION","1390777"
"951038","FRANKLIN RESOURCES, INC.","38777"
"951278","NORDEA INVESTMENT MANAGEMENT AB","1218210"
"951925","BOSTON PRIVATE FINANCIAL HOLDINGS, INC.","821127"
"951757","MERRILL LYNCH & CO., INC.","65100"
"951757","BANK OF AMERICA CORPORATION","70858"
"951959","THE BANK OF NEW YORK MELLON CORPORATION","1390777"
"945379","JMP GROUP LLC","1302350"
"947865","LADENBURG THALMANN FINANCIAL SERVICES, INC.","1029730"
"950700","COWEN GROUP INC.","1466538"
"950578","NEWSTAR FINANCIAL, INC.","160114"
"952037","NEWSTAR FINANCIAL, INC.","160114"
"952050","ENVESTNET, INC.","1337619"
"951133","THE BLACKSTONE GROUP L.P.","1393818"
"951130","THE BLACKSTONE GROUP L.P.","1393818"
"951134","THE BLACKSTONE GROUP L.P.","1393818"
"951137","THE BLACKSTONE GROUP L.P.","1393818"
"951127","THE BLACKSTONE GROUP L.P.","1393818"
"952114","AFFILIATED MANAGERS GROUP","1004434"
"950681","PEOPLE'S UNITED FINANCIAL, INC.","1086095"
"952076","FRANKLIN RESOURCES, INC.","38777"
"952171","MITSUBISHI UFJ FINANCIAL GROUP, INC.","67088"
"952171","UNIONBANCAL CORPORATION","1011659"
"952199","WADDELL & REED FINANCIAL, INC.","1052100"
"952210","ARES MANAGEMENT, L.P.","1176948"
"952256","HSBC HOLDINGS PLC","108913"
"952195","COMMERCE BANCSHARES, INC.","22356"
"942847","MANULIFE FINANCIAL CORPORATION","1086888"
"934982","FIFTH STREET ASSET MANAGEMENT INC.","161198"
"951594","PROTECTIVE LIFE CORPORATION","355429"
"952417","XL GROUP PLC","875159"
"952418","BANK OF AMERICA CORPORATION","70858"
"951676","CITIZENS FINANCIAL GROUP","759944"
"950093","LINCOLN NATIONAL CORPORATION","59558"
"952443","MANULIFE FINANCIAL CORPORATION","1086888"
"952527","STATE STREET CORPORATION","93751"
"952545","THE BANK OF NEW YORK MELLON CORPORATION","1497973"
"952636","THE HANOVER INSURANCE GROUP, INC","944695"
"952663","WINTRUST FINANCIAL CORPORATION","1015328"
"952671","SIEBERT FINANCIAL CORPORATION","65596"
"950749","ORANGE COUNTY BANCORP INC","1096144"
"948740","J.P. MORGAN CHASE & CO.","19617"
"952451","ENVESTNET, INC.","1337619"
"952681","ENVESTNET, INC.","1337619"
"952684","STIFEL FINANCIAL CORP.","720672"
"952709","CREDIT SUISSE (USA), INC.","29646"
"952738","BARCLAYS PLC","312069"
"952738","BARCLAYS BANK PLC","312070"
"952382","THE BANK OF NOVA SCOTIA","9631"
"952759","STIFEL FINANCIAL CORP.","720672"
"952784","ARES MANAGEMENT, L.P.","1176948"
"952820","BANCO SANTANDER, S.A.","891478"
"952825","BANCO SANTANDER, S.A.","891478"
"952838","MORGAN STANLEY","895421"
"952844","TORONTO-DOMINION BANK","947263"
"952856","ARES MANAGEMENT, L.P.","1176948"
"948195","AVIVA PLC","1445956"
"952584","PRUDENTIAL PLC","1116578"
"952885","PRUDENTIAL PLC","1116578"
"952785","J.P. MORGAN CHASE & CO.","19617"
"952947","LADENBURG THALMANN FINANCIAL SERVICES INC.","1029730"
"938646","CREDIT SUISSE GROUP AG","1159510"
"951926","BANCO SANTANDER, S.A.","891478"
"953027","BANK OF AMERICA CORPORATION","70858"
"931014","JPMORGAN CHASE & CO.","19617"
"953075","JPMORGAN CHASE & CO.","19617"
