"FilingID","Full Legal Name","CIK Number"
1146947,"SVB FINANCIAL GROUP",719739
1151032,"BLACKROCK, INC.",1364742
1147287,"THE RMR GROUP INC.",1644378
1151687,"CBIZ INC",944148
1146262,"THE GOLDMAN SACHS GROUP, INC.",886982
1148179,"THE BLACKSTONE GROUP L.P.",1393818
1156308,"XEROX CORPORATION",10877
1153252,"THE GOLDMAN SACHS GROUP, INC.",886982
1158413,"ZIONS BANCORPORATION",109380
1158466,"T ROWE PRICE GROUP INC",1113169
1140655,"SUNTRUST BANKS, INC.",750556
1147589,"PACWEST BANCORP",1102112
1144957,"SANDY SPRING BANCORP",824410
1146833,"WELLS FARGO AND COMPANY",105598
1149821,"BOK FINANCIAL CORPORATION",875357
1158753,"STIFEL FINANCIAL CORP.",720672
1145651,"PIPER JAFFRAY COMPANIES",724683
1146266,"THE GOLDMAN SACHS GROUP, INC.",886982
1154287,"ASSURANT INC.",1267238
1156479,"WADDELL & REED FINANCIAL, INC.",1052100
1152651,"INVESCO LTD",914208
1157321,"THE GOLDMAN SACHS GROUP, INC.",886982
1157889,"CNO FINANCIAL GROUP, INC.",122460
1158442,"RAYMOND JAMES FINANCIAL SERVICES, INC",52021
1155691,"FRANKLIN RESOURCES, INC.",38777
1155860,"FRANKLIN RESOURCES, INC.",38777
1146092,"WELLS FARGO AND COMPANY",105598
1149074,"LENDINGCLUB CORPORATION",1409970
1149812,"BLACKROCK, INC.",1364742
1152719,"OPPENHEIMER HOLDINGS INC.",791963
1148773,"SUNTRUST BANKS, INC.",750556
1154444,"INTL FCSTONE INC.",91376
1158451,"HSBC HOLDINGS PLC",108913
1158438,"GLASSBRIDGE ENTERPRISES, INC.",1014111
1155985,"FRANKLIN RESOURCES, INC.",38777
1146400,"WELLS FARGO AND COMPANY",105598
1147088,"TORONTO-DOMINION BANK",947263
1147190,"BANK OF MONTREAL",927971
1148327,"MORGAN STANLEY",895421
1148080,"BLACKROCK, INC.",1364742
1145604,"RAYMOND JAMES FINANCIAL, INC.",720005
1156135,"OM ASSET MANAGEMENT PLC",1611702
1156648,"MORNINGSTAR, INC.",1289419
1158530,"BANCO BILBAO VIZCAYA ARGENTARIA, S.A.",842180
1158530,"BBVA COMPASS BANCSHARES, INC.",1409775
1157449,"VOYA FINANCIAL, INC.",1535929
1145073,"LEGG MASON, INC. (USA)",704051
1147794,"BANCO BILBAO VIZCAYA ARGENTARIA, S.A.",842180
1147794,"BBVA COMPASS BANCSHARES, INC.",1409775
1148595,"MAIN STREET CAPITAL CORPORATION",1396440
1147982,"LPL FINANCIAL HOLDINGS INC.",1397911
1149583,"THE BANK OF NOVA SCOTIA",1041839
1146722,"AMERIPRISE FINANCIAL, INC.",820027
1155975,"FRANKLIN RESOURCES, INC.",38777
1156265,"FRANKLIN RESOURCES, INC.",38777
1155990,"FRANKLIN RESOURCES, INC.",38777
1155308,"AETNA INC.",1122304
1153211,"BROOKFIELD ASSET MANAGEMENT INC.",1001085
1157718,"MORGAN STANLEY",895421
1145988,"MORGAN STANLEY",895421
1145064,"ARROW FINANCIAL CORP.",717538
1146830,"WELLS FARGO AND COMPANY",105598
1146006,"LINCOLN NATIONAL CORPORATION",59558
1144573,"SYNOVUS FINANCIAL CORP",18349
1154988,"RAYMOND JAMES FINANCIAL, INC.",19617
1156871,"PRINCIPAL FINANCIAL GROUP, INC.",1126328
1144836,"THE HANOVER INSURANCE GROUP, INC",944695
1148103,"SIEBERT FINANCIAL CORPORATION",65596
1149465,"THE BANK OF NEW YORK MELLON CORPORATION",1390777
1157126,"RAYMOND JAMES FINANCIAL SERVICES, INC",52021
1148480,"UBS GROUP AG",1610520
1158826,"BANK OF AMERICA CORPORATION",70858
1144536,"T ROWE PRICE GROUP INC",1113169
1153088,"SIEBERT FINANCIAL CORPORATION",65596
1157700,"COWEN GROUP, INC.",1466538
1149430,"OPPENHEIMER HOLDINGS INC.",791963
1151611,"STIFEL FINANCIAL CORPORATION",720672
1156794,"THE BANK OF NEW YORK MELLON CORPORATION",1497973
1139212,"THE BANK OF NEW YORK MELLON CORPORATION",1390777
1158839,"U.S. BANCORP",36104
1157472,"RAYMOND JAMES FINANCIAL SERVICES INC.",52021
1153303,"THE BANK OF NEW YORK MELLON CORPORATION",1390777
1153303,"THE BANK OF NEW YORK MELLON",1497973
1157143,"INTL FCSTONE INC.",91376
1142892,"DETUSCHE BANK AG",948046
1154670,"AMERIPRISE FINANCIAL, INC.",820027
1154289,"AFFILIATED MANAGERS GROUP, INC.",1004434
1156855,"PRIMERICA, INC.",147592
1142425,"OM ASSET MANAGEMENT PLC",1611702
1148718,"EATON VANCE CORP.",350797
1156357,"AMERICAN INTERNATIONAL GROUP, INC.",5272
1145730,"HSBC HOLDINGS PLC",1089113
1145730,"HSBC USA INC.",83246
1145343,"CAPITAL FINANCIAL HOLDINGS",944696
1151651,"ROYAL BANK OF CANADA",1000275
1153845,"WADDELL & REED FINANCIAL, INC.",1052100
1146035,"THE JONES FINANCIAL COMPANIES, L.L.L.P.",815917
1159321,"GLUSKIN SHEFF + ASSOCIATES INC.",905790
1157426,"TD AMERITRADE HOLDING CORPORATION",1173431
1144470,"LADENBURG THALMANN FINANCIAL SERVICES INC.",1029730
1144894,"THE BLACKSTONE GROUP L.P.",1393818
1157557,"STIFEL FINANCIAL CORP.",720672
1156541,"RAYMOND JAMES FINANCIAL, INC.",720005
1155997,"FRANKLIN RESOURCES, INC.",38777
1159366,"CONDUENT INCORPORATED",1677703
1139790,"AFFILIATED MANAGERS GROUP INC.",1004434
1155745,"ASSOCIATED BANC-CORP",7789
1157660,"ALLIANCEBERNSTEIN HOLDING L.P.",825313
1157660,"AXA EQUITABLE LIFE INSURANCE CO.",727920
1157699,"ALLIANCEBERNSTEIN L.P.",1109448
1157947,"BOK FINANCIAL CORPORATION",875357
1158362,"ARBOR REALTY TRUST, INC.",1338657
1155204,"THE BLACKSTONE GROUP L.P.",1393818
1147433,"THE GOLDMAN SACHS GROUP, INC.",886982
1152341,"BANK OF AMERICA CORPORATION",70858
1152562,"BANK OF AMERICA CORPORATION",70858
1148118,"WASHINGTON TRUST BANCORP, INC.",737468
1146470,"COMMERCE BANCSHARES, INC.",22356
1149262,"DEUTSCHE BANK AG",948046
1155914,"WELLS FARGO AND COMPANY",105598
1145382,"THE BANK OF NEW YORK MELLON CORPORATION",1390777
1150900,"INTERACTIVE BROKERS GROUP",1166521
1144854,"WELLS FARGO & CO",72971
1149322,"RAYMOND JAMES FINANCIAL, INC.",19617
1155572,"MB FINANCIAL, INC.",1139812
1157702,"ALLIANCEBERNSTEIN L.P.",1109448
1147710,"TD AMERITRADE HOLDING CORPORATION",1173431
1149081,"T. ROWE PRICE GROUP, INC.",1113169
1152739,"HSBC HOLDINGS PLC",108913
1151006,"THE BANK OF NEW YORK MELLON CORPORATION",1390777
1155140,"THE BANK OF NEW YORK MELLON CORPORATION",1390777
1155140,"THE BANK OF NEW YORK MELLON",1497973
1149224,"THE RMR GROUP INC.",1644378
1149607,"SANTANDER HOLDINGS USA, INC.",11830
1152504,"BANK OF AMERICA CORPORATION",70858
1152334,"INTERCONTINENTAL EXCHANGE, INC.",1571949
1153403,"COWEN INC.",1466538
1157353,"MB FINANCIAL, INC.",1139812
1144381,"THE CHARLES SCHWAB CORPORATION",316709
1143229,"HSBC HOLDINGS PLC",1089113
1150127,"AVIVA PLC",1445956
1156224,"STIFEL FINANCIAL CORP.",720672
1148317,"BNP PARIBAS S.A.",872786
1148317,"FIRST HAWAIIAN, INC.",36377
1158491,"J.P. MORGAN CHASE & CO.",19617
1145689,"FRANKLIN RESOURCES, INC.",38777
1155144,"MANULIFE FINANCIAL CORPORATION",1086888
1145584,"FUND.COM INC.",1335795
1144404,"KEYCORP",91576
1146857,"KEYCORP",91576
1154214,"J.P. MORGAN CHASE & CO.",19617
1154660,"AMERIPRISE FINANCIAL, INC.",820027
1156819,"BLUCORA, INC.",1068875
1156683,"NATIONAL HOLDINGS CORPORATION",1023844
1156683,"FORTRESS BIOTECH, INC",1429260
1147648,"LEGG MASON, INC. (USA)",704051
1144506,"MORGAN STANLEY",895421
1148560,"PRUDENTIAL FINANCIAL, INC.",1137774
1152902,"AMERIPRISE FINANCIAL, INC.",820027
1147804,"INVESCO",914208
1155652,"T ROWE PRICE GROUP INC",1113169
1156250,"CONDUENT INCORPORATED",1677703
1158811,"ACTUA CORPORATION",1085621
1152391,"DST SYSTEMS, INC.",714603
1152429,"THE BANK OF NEW YORK MELLON CORPORATION",1390777
1145088,"B. RILEY FINANCIAL INC.",1464790
1146594,"AEGON NV",895233
1150770,"MORNINGSTAR INC",1289419
1152003,"ROYAL BANK OF CANADA",1000275
1153774,"MITSUBISHI UFJ FINANCIAL GROUP, INC.",67088
1153774,"MUFG AMERICAS HOLDINGS CORP.",1011659
1158862,"WELLS FARGO & COMPANY",72971
1158206,"FIFTH THIRD BANCORP",35527
1159237,"STIFEL FINANCIAL CORP.",720672
1159252,"STIFEL FINANCIAL CORPORATION",720672
1144723,"ROCKLAND TRUST CO.",84616
1146313,"BANK OF MONTREAL",9622
1146512,"TD AMERITRADE HOLDING CORPORATION",1173431
1147898,"AMERIPRISE FINANCIAL, INC.",820027
1155729,"COLONY NORTHSTAR, INC.",1679688
1152991,"TD AMERITRADE HOLDING CORPORATION",1173431
1155978,"FRANKLIN RESOURCES, INC.",38777
1148856,"MORGAN STANLEY",895421
1152304,"WELLS FARGO & COMPANY",72971
1154801,"BANK OF AMERICA CORPORATION",70858
1156816,"BLUCORA, INC.",1068875
1148833,"U.S. BANCORP",36104
1146247,"THE CARLYLE GROUP, L.P.",1527166
1148199,"OM ASSET MANAGEMENT PLC",1611702
1153352,"OM ASSET MANAGEMENT PLC",1611702
1147273,"OAKTREE CAPITAL GROUP, LLC",1403528
1149737,"PRUDENTIAL PLC",1116578
1143465,"ORIX CORPORATION",1070304
1144781,"AMERIPRISE FINANCIAL, INC.",820027
1149452,"UMB FINANCIAL CORP",101382
1150661,"THE PNC FINANCIAL SERVICES GROUP, INC.",713676
1157166,"WELLS FARGO AND COMPANY",105598
1158801,"JANUS HENDERSON GROUP PLC",1274173
1158802,"JANUS HENDERSON GROUP PLC",1274173
1158505,"J.P. MORGAN CHASE & CO.",19617
1159092,"SANTANDER HOLDINGS USA, INC.",11830
1144486,"CULLLEN/FROST BANKERS, INC.",39263
1148318,"ROYAL BANK OF CANADA",1000275
1144376,"THE JONES FINANCIAL COMPANIES, L.L.L.P.",815917
1145255,"THE GOLDMAN SACHS GROUP, INC.",886982
1151205,"PEAPACK-GLADSTONE FINANCIAL CORPORATION",1050743
1155688,"WELLS FARGO AND COMPANY",105598
1159475,"RAYMOND JAMES FINANCIAL, INC.",720005
1146982,"AETNA INC.",1122304
1151449,"TD AMERITRADE HOLDING CORPORATION",1173431
1144473,"RAYMOND JAMES FINANCIAL, INC.",720005
1157194,"ORIX CORPORATION",1070304
1144437,"FIRST CITIZENS BANCSHARES, INC.",798941
1144925,"CNO FINANCIAL GROUP, INC.",122460
1144448,"U.S. BANCORP",36104
1150097,"DEUTSCHE BANK AG",948046
1150134,"DEUTSCHE BANK AG",948046
1153619,"KOHLBERG KRAVIS ROBERTS & CO. L.P.",1399770
1145612,"WADDELL & REED FINANCIAL, INC.",1052100
1145378,"DEUTSCHE BANK AG",948046
1150218,"BANK OF MONTREAL",927971
1148842,"THE JONES FINANCIAL COMPANIES, L.L.L.P.",815917
1147452,"DEUTSCHE BANK AG",948046
1150686,"CREDIT SUISSE AG",1053092
1151168,"BANYAN CAPITAL MANAGEMENT LLC",9999999996
1146844,"KEYCORP",91576
1151556,"THE CARLYLE GROUP, L.P.",1527166
1144460,"STIFEL FINANCIAL CORP.",720672
1147771,"HFA HOLDINGS LTD",1424483
1156049,"FORTRESS INVESTMENT GROUP LLC",1380393
1155339,"CREDIT SUISSE (USA), INC.",29646
1156182,"CREDIT SUISSE GROUP AG",1159510
1157928,"ALLIANCEBERNSTEIN HOLDING L.P.",825313
1157928,"AXA EQUITABLE LIFE INSURANCE CO.",727920
1158091,"RAYMOND JAMES FINANCIAL",720005
1147702,"BANK OF AMERICA CORPORATION",70858
1149494,"SIEBERT FINANCIAL CORPORATION",65596
1151194,"WELLS FARGO AND COMPANY",105598
1149161,"AEGON NV",895233
1144794,"CULLEN/FROST BANKERS, INC.",39263
1149610,"SOFTBANK GROUP CORP",1065521
1149049,"SYNOVUS FINANCIAL CORPORATION",18349
1157600,"OPPENHEIMER HOLDINGS INC.",791963
1146641,"THE CARLYLE GROUP, L.P.",1527166
1150427,"SIEBERT FINANCIAL CORPORATION",65596
1152059,"BANK OF MONTREAL",9622
1151034,"ALLY FINANCIAL INC.",40729
1148580,"CITIZENS FINANCIAL GROUP",759944
1144578,"FRANKLIN RESOURCES, INC.",38777
1151932,"AMERIPRISE FINANCIAL, INC.",820027
1155035,"DEUTSCHE BANK AG",948046
1156437,"FRANKLIN RESOURCES, INC.",38777
1149645,"MERRILL LYNCH & CO. INC.",65100
1144527,"BLACKROCK, INC.",1364742
1149834,"OM ASSET MANAGEMENT PLC",1611702
1155043,"PRUDENTIAL FINANCIAL, INC.",1137774
1155273,"MB FINANCIAL, INC.",1139812
1156826,"DETUSCHE BANK AG",948046
1156267,"FRANKLIN RESOURCES, INC.",38777
1143033,"JP MORGAN CHASE & CO",19617
1149479,"BANK OF AMERICA CORPORATION",70858
1154311,"AFFILIATED MANAGERS GROUP, INC",1004434
1157703,"ALLIANCEBERNSTEIN L.P.",1109448
1155731,"FRANKLIN RESOURCES, INC.",38777
1157015,"BLACKROCK, INC.",1364742
1158516,"FRANKLIN RESOURCES, INC.",38777
1149079,"SIEBERT FINANCIAL CORPORATION",65596
1154286,"RAYMOND JAMES FINANCIAL, INC.",705
1147503,"LEGG MASON, INC.",704051
1151001,"UNION BANKSHARES CORPORATION",883948
1158341,"INTERCONTINENTAL EXCHANGE, INC.",1571949
1157314,"SUN LIFE FINANCIAL INC.",109762
1149433,"BNP PARIBAS S.A.",872786
1159397,"CNO FINANCIAL GROUP, INC.",122460
1144974,"LADENBURG THALMANN FINANCIAL SERVICES INC.",1029730
1156141,"TD AMERITRADE HOLDING CORPORATION",1173431
1159330,"ROYAL BANK OF CANADA",1000275
1150655,"BANK OF AMERICA CORPORATION",70858
1148896,"THE PNC FINANCIAL SERVICES GROUP, INC.",713676
1147333,"OM ASSET MANAGEMENT PLC",1611702
1155127,"BANK OF AMERICA CORPORATION",70858
1153589,"RAYMOND JAMES FINANCIAL INC.",1053092
1159150,"PRUDENTIAL PLC",1116578
1149122,"INVESCO LTD",914208
1127957,"NOAH HOLDINGS LIMITED",1499543
1127685,"LEGG MASON, INC.",704051
1149515,"MORGAN STANLEY",895421
1148566,"PRIMERICA, INC.",147592
1144633,"FORTRESS INVESTMENT GROUP LLC",1380393
1152581,"STIFEL FINANCIAL CORP.",720672
1144722,"BANCO SANTANDER (BRASIL) S. A.",1471055
1144722,"BANCO SANTANDER S.A. (SPAIN)",891478
1147033,"BANK OF MONTREAL",927971
1143200,"ASSOCIATED BANC-CORP",7789
1145644,"LINCOLN NATIONAL CORPORATION",59558
1147117,"HSBC HOLDINGS PLC",108913
1152240,"J.P. MORGAN CHASE & CO.",19617
1155351,"STIFEL FINANCIAL CORP.",720672
1149988,"GUARANTY BANCORP",1324410
1153473,"BLACKROCK, INC.",1364742
1157973,"JANUS CAPITAL GROUP INC",1065865
1157766,"MORGAN STANLEY",895421
1157850,"MORGAN STANLEY",895421
1157858,"MORGAN STANLEY",895421
1157528,"MORGAN STANLEY",895421
1146678,"TD AMERITRADE HOLDING CORPORATION",1173431
1145904,"J.P. MORGAN CHASE & CO.",19617
1153424,"JOHN HANCOCK LIFE INSURANCE COMPANY (U.S.A.)",1073894
1153990,"BANK OF AMERICA CORPORATION",70858
1158036,"LPL FINANCIAL HOLDINGS INC.",1397911
1158053,"WELLS FARGO & CO",72971
1157755,"MORGAN STANLEY",895421
1157827,"MORGAN STANLEY",895421
1157865,"MORGAN STANLEY",895421
1144767,"MITSUBISHI UFJ FINANCIAL GROUP, INC.",67088
1144767,"MUFG AMERICAS HOLDINGS CORP",1011659
1155698,"DEUTSCHE BANK AG",948046
1158830,"THE GOLDMAN SACHS GROUP, INC.",886982
1145219,"SERVICE CORPORATION INTERNATIONAL",89089
1146293,"ASSOCIATED BANC-CORP",7789
1143634,"ASSOCIATED BANC-CORP",7789
1149067,"AEGON NV",895233
1149905,"WESTERN ASSET MANAGEMENT COMPANY",1138897
1149005,"PRUDENTIAL FINANCIAL, INC.",1137774
1155390,"JANUS CAPITAL GROUP INC",1065865
1144587,"SANDY SPRING BANCORP",824410
1149825,"ASSOCIATED BANC-CORP",7789
1156300,"BLUCORA, INC.",1068875
1155841,"FRANKLIN RESOURCES, INC.",38777
1152167,"FRANKLIN RESOURCES, INC.",38777
1159519,"SANTANDER HOLDINGS USA, INC.",11830
1150543,"WELLS FARGO AND COMPANY",105598
1151734,"THE BLACKSTONE GROUP L.P.",1393818
1147668,"THE PNC FINANCIAL SERVICES GROUP, INC.",713676
1157760,"J.P. MORGAN CHASE & CO.",19617
1157464,"AMERIPRISE FINANCIAL, INC.",820027
1158978,"STIFEL FINANCIAL CORP.",720672
1150922,"CBIZ INC",944148
1147744,"BANK OF AMERICA CORPORATION",70858
1151744,"UMB FINANCIAL CORP",101382
1152309,"DST SYSTEMS, INC.",714603
1149595,"THE BANK OF NEW YORK MELLON CORPORATION",1497973
1144929,"ALLIANCEBERNSTEIN HOLDING L.P.",825313
1144929,"AXA EQUITABLE LIFE INSURANCE CO.",727920
1154332,"PEAPACK-GLADSTONE FINANCIAL CORPORATION",1050743
1156194,"MIDLAND STATES BANCORP, INC.",1466026
1140250,"ALLIANCEBERNSTEIN L.P.",1109448
1157678,"AXA EQUITABLE LIFE INSURANCE CO.",898482
1157698,"ALLIANCEBERNSTEIN L.P.",1109448
1157679,"AXA EQUITABLE LIFE INSURANCE CO.",898482
1157180,"THE JONES FINANCIAL COMPANIES, L.L.L.P.",815917
1158274,"B. RILEY FINANCIAL INC.",1464790
1147726,"WELLS FARGO & COMPANY",72971
1148724,"SANDY SPRING BANCORP",824410
1144314,"PRUDENTIAL FINANCIAL, INC.",1137774
1148079,"BLACKROCK INC.",1364742
1149613,"J.P. MORGAN CHASE & CO.",19617
1137101,"ZIONS BANCORPORATION",109380
1155667,"STATE STREET CORPORATION",93751
1155977,"FRANKLIN RESOURCES, INC.",38777
1155766,"FRANKLIN RESOURCES, INC.",38777
1144786,"THE BANK OF NEW YORK MELLON CORPORATION",1390777
1151208,"THE BANK OF NEW YORK MELLON CORPORATION(SUCCESSOR TO MERGER OF MELLON FINANCIAL CORPORATION & THE BANK OF NEW YORK COMPANY, INC)",1390777
