"FilingID","Full Legal Name","CIK Number"
1059777,"PRUDENTIAL PLC",1116578
1063124,"LPL FINANCIAL HOLDINGS INC.",1397911
1065320,"LPL FINANCIAL HOLDINGS INC.",1397911
1065404,"THE BANK OF NEW YORK MELLON CORPORATION",1390777
1065454,"WILLIS TOWERS WATSON PUBLIC LIMITED COMPANY",1140536
1072757,"APOLLO GLOBAL MANAGEMENT, LLC",1411494
1072776,"FTI CONSULTING, INC.",887936
1063652,"N/A",1
1074621,"HSBC HOLDINGS PLC",1089113
1074621,"HSBC USA INC.",83246
1082242,"WELLS FARGO AND COMPANY",105598
1091051,"STIFEL FINANCIAL CORP.",720672
1091172,"DEUTSCHE BANK AG",948046
1086468,"WELLS FARGO AND COMPANY",105598
1079613,"BANK OF AMERICA CORPORATION",70858
1086713,"ASSOCIATED BANC-CORP",7789
1077716,"ALLIANCEBERNSTEIN L.P.",1109448
1065448,"STIFEL FINANCIAL CORPORATION",720672
1066298,"UWHARRIE CAPITAL CORP",898171
1065975,"PENNYMAC FINANCIAL SERVICES, INC.",1568669
1063164,"THE CARLYLE GROUP L.P.",1527166
1070510,"WELLESLEY BANCORP, INC.",1526952
1068169,"UBS GROUP AG",1610520
1066778,"JEFFERIES GROUP LLC",717867
1066778,"LEUCADIA NATIONAL CORPORATION",96223
1078716,"MORGAN STANLEY",895421
1078366,"LAZARD LTD",1311370
1078366,"LAZARD GROUP LLC",1326141
1074779,"WASHINGTON TRUST BANCORP, INC.",737468
1062494,"ORIX CORPORATION",1070304
1082126,"HANCOCK HOLDING COMPANY",750577
1083121,"INVESCO LTD",914208
1092246,"INVESCO, LTD",914208
1080451,"UNITED OVERSEAS BANK LIMITED",867530
1080096,"AFFILIATED MANAGERS GROUP, INC. (""AMG"")",1004434
1080120,"THE BLACKSTONE GROUP L.P.",1393818
1097129,"ASPEN INSURANCE HOLDINGS LTD",1267395
1082033,"DETUSCHE BANK AG",948046
1098527,"ORANGE COUNTY BANCORP INC",1096144
1080900,"NORTHERN TRUST COMPANY",73124
1098586,"WELLS FARGO AND COMPANY",105598
1095234,"CHINA FINANCE ONLINE CO. LTD",1297830
1098590,"WILLIS TOWERS WATSON PLC.",1140536
1086718,"FRANKLIN RESOURCES, INC.",38777
1081929,"MIDLAND STATES BANCORP, INC.",1466026
1090733,"PROLOGIS, L.P.",1045610
1090733,"PROLOGIS, INC.",1045609
1096825,"WSFS FINANCIAL CORPORATION",828944
1096879,"COWEN GROUP, INC.",1466538
1094791,"PRUDENTIAL PLC",1116578
1095609,"FUND.COM INC.",1335795
1099208,"COWEN GROUP, INC.",1466538
1060353,"MORGAN STANLEY",895421
1069364,"CAPITAL ONE FINANCIAL CORP",927628
1062153,"PIPER JAFFRAY COMPANIES",724683
1066393,"EATON VANCE CORP.",350797
1068681,"SUN LIFE FINANCIAL, INC.",1097362
1066395,"EATON VANCE CORP.",350797
1069715,"NEWSTAR FINANCIAL, INC.",160114
1060698,"KOHLBERG KRAVIS ROBERTS & CO. L.P.",1399770
1070293,"COLONY NORTHSTAR, INC.",1679688
1073414,"JPMORGAN CHASE & CO.",19617
1077968,"JPMORGAN CHASE & CO.",19617
1078539,"SUNTRUST BANKS, INC.",750556
1053165,"AFFILIATED MANAGERS GROUP INC.",1004434
1083888,"METLIFE, INC.",1099219
1075998,"MORGAN STANLEY",895421
1099734,"COWEN GROUP, INC.",1466538
1098262,"FAIRFAX FINANCIAL HOLDINGS LIMITED",915191
1084558,"FINANCIAL ENGINES, INC.",1430592
1085653,"THE BLACKSTONE GROUP L.P.",1393818
1091446,"SIEBERT FINANCIAL CORPORATION",65596
1100846,"LADENBURG THALMANN FINANCIAL SERVICES INC.",1029730
1090608,"UMB FINANCIAL CORPORATION",101382
1072612,"PRINCIPAL FINANCIAL GROUP, INC.",1126328
1077796,"NEWCASTLE INVESTMENT CORP.",1175483
1068828,"BNP PARIBAS S.A.",872786
1080498,"AMERISERV FINANCIAL, INC.",707605
1101603,"VIRTUS INVESTMENT PARTNERS, INC.",883237
1101668,"DRIVE SHACK INC",1175483
1078352,"COLONY NORTHSTAR, INC.",1679688
1098187,"PARTNERRE LTD.",911421
1101151,"CREDIT SUISSE GROUP AG",1159510
1089605,"APOLLO GLOBAL MANAGEMENT, LLC",1411494
1077616,"COLUMBIA PACIFIC ADVISORS, LLC",80167453
1089611,"APOLLO GLOBAL MANAGEMENT",1411494
1087589,"VIRTUS INVESTMENT PARTNERS, INC.",883237
1076391,"MEDLEY MANAGEMENT INC.",1611110
1078430,"THE CARLYLE GROUP L.P.",1527166
1092321,"THE CHARLES SCHWAB CORPORATION",316709
1096285,"CARLYLE GROUP L.P.",1527166
1078085,"COLONY NORTHSTAR, INC.",1679688
1101730,"WADDELL & REED FINANCIAL, INC.",1052100
1082844,"VIRTUS INVESTMENT PARTNERS, INC.",883237
1073585,"BERKSHIRE HATHAWAY INC.",1067983
1090652,"THE HARTFORD FINANCIAL SERVICES GROUP, INC.",874766
1084748,"BANK OF AMERICA CORPORATION",70858
1091396,"PIPER JAFFRAY COMPANIES",1230245
1081400,"THE CARLYLE GROUP L.P.",1527166
1090950,"INVESCO LTD",914208
1073800,"THE CARLYLE GROUP, L.P.",1527166
1100348,"DEUTSCHE BANK AG",948046
1075580,"MITSUBISHI UFJ FINANCIAL GROUP, INC.",67088
1075580,"MUFG AMERICAS HOLDINGS CORP",1011659
1084813,"AFFILIATED MANAGERS GROUP, INC.",1004434
1060377,"STATE STREET CORPORATION",93751
1078664,"OAKTREE CAPITAL GROUP, LLC",1403528
1085219,"VIRTUS INVESTMENT PARTNERS, INC.",883237
1102322,"HILLTOP HOLDINGS INC.",1265131
1102099,"LADENBURG THALMANN FINANCIAL SERVICES, INC",1029730
1085920,"PINNACLE FINANCIAL PARTNERS",1115055
1080092,"COLONY NORTHSTAR, INC.",1679688
1086283,"KCAP FINANCIAL, INC.",1372807
1089936,"INVESCO, LTD.",914208
1093137,"AEGON N.V.",769218
1094073,"ACCESS NATIONAL CORPORATION",1176316
1093468,"GREENHILL & CO., INC.",1282977
1102285,"CBOE HOLDINGS, INC.",1374310
1092485,"THE BLACKSTONE GROUP L.P.",1393818
1055422,"ARBOR REALTY TRUST, INC.",1338657
1059306,"HORACE MANN EDUCATORS CORPORATION",850141
1059189,"PRUDENTIAL FINANCIAL, INC.",1137774
1063584,"BERTHEL FISHER & COMPANY FINANCIAL SERVICES, INC",8016222
1062670,"FORTRESS INVESTMENT GROUP LLC",1380393
1077580,"THE ALLSTATE CORPORATION",899051
1088536,"WADDELL & REED FINANCIAL, INC.",1052100
1080867,"LEUCADIA NATIONAL CORPORATION",9622
1089754,"AFFILIATED MANAGERS GROUP, INC.",1004434
1073396,"AFFILIATED MANAGERS GROUP, INC.",1004434
1061699,"AFFILIATED MANAGERS GROUP, INC.",1004434
1094831,"NATIONAL AUSTRALIA BANK LIMITED",833029
1076030,"PRINCIPAL FINANCIAL GROUP, INC.",1126328
1100075,"DST SYSTEMS, INC.",714603
1100129,"BERTHEL FISHER & COMPANY FINANCIAL SERVICES, INC",8016222
1100159,"MARSH & MCLENNAN COMPANIES, INC.",62709
1083249,"SUNTRUST BANKS, INC.",750556
1102467,"EVERCORE PARTNERS, INC.",1360901
1100634,"MITSUBISHI CORPORATION",877197
1093498,"WALTER INVESTMENT MANAGEMENT CORP",1040719
1088808,"LADENBURG THALMANN FINANCIAL SERVICES INC.",1029730
1091420,"STATE STREET CORPORATION",93751
1058664,"CENTRAL SECURITIES CORP",18748
1049428,"SUNTRUST BANKS, INC.",750556
1064280,"THE BANK OF NEW YORK MELLON CORPORATION",1390777
1074407,"REGIONS FINANCIAL CORPORATION",1281761
1074063,"BOSTON PRIVATE FINANCIAL HOLDINGS, INC.",821127
1079216,"SUNTRUST BANKS, INC.",750556
1079459,"VOYA FINANCIAL INC.",1535929
1083397,"SIMMONS FIRST NATIONAL CORP",90498
1087648,"SANTANDER HOLDINGS USA, INC.",11830
1063125,"AMERIPRISE FINANCIAL, INC.",820027
1065999,"CALAMOS ASSET MANAGEMENT, INC.",1299033
1066651,"M&T BANK CORPORATION",36270
1071217,"STIFEL FINANCIAL CORP.",720672
1071055,"JPMORGAN CHASE & CO.",19617
1071252,"JPMORGAN CHASE & CO.",19617
1073391,"JPMORGAN CHASE & CO.",19617
1073179,"JPMORGAN CHASE & CO.",19617
1074782,"JOHN HANCOCK LIFE INSURANCE COMPANY (U.S.A.)",1073894
1066181,"ITAU UNIBANCO HOLDING S.A.",1132597
1076968,"BANK OF AMERICA CORPORATION",70858
1080806,"DETUSCHE BANK AG",948046
1064717,"PRINCIPAL FINANCIAL GROUP INC",1126328
1074978,"ROCKLAND TRUST CO.",84616
1077502,"POPULAR, INC.",763901
1079893,"INVESCO, LTD.",914208
1082219,"SPROTT INC.",1512920
1087050,"FEDERATED INVESTORS, INC.",1056288
1085756,"COMMERCE BANCSHARES, INC.",22356
1086120,"OPPENHEIMER HOLDINGS INC.",791963
1094441,"HORACE MANN EDUCATORS CORPORATION",850141
1067420,"ZIONS BANCORPORATION",109380
1097299,"MANULIFE FINANCIAL CORPORATION",1086888
1066779,"WELLS FARGO & COMPANY",72971
1066779,"WELLS FARGO BANK, N.A.",740906
1092728,"BROOKFIELD ASSET MANAGEMENT INC.",1001085
1059989,"SVB FINANCIAL GROUP",719739
1052539,"THE BANK OF NEW YORK MELLON CORPORATION",1390777
1066238,"THE BANK OF NEW YORK MELLON CORPORATION",1390777
1066330,"THE BANK OF NEW YORK MELLON CORPORATION",1390777
1073128,"POPULAR, INC.",763901
1072444,"CREDIT SUISSE ASSET MANAGEMENT, LLC",1159510
1072484,"AFFILIATED MANAGERS GROUP, INC.",1004434
1073085,"JPMORGAN CHASE & CO.",19617
1074085,"ROYAL BANK OF CANADA",1000275
1076015,"CBOE HOLDINGS, INC.",1374310
1076042,"HILLTOP HOLDINGS INC.",1265131
1073522,"THE GOLDMAN SACHS GROUP,INC.",886982
1079513,"ROYAL BANK OF CANADA",1000275
1080866,"DEUTSCHE BANK AG",948046
1071947,"ROYAL BANK OF CANADA",1000275
1083864,"METLIFE, INC.",1099219
1068974,"MB FINANCIAL, INC.",1139812
1087186,"MORGAN STANLEY",895421
1087622,"THE BANK OF NOVA SCOTIA",9631
1087670,"THE BANK OF NOVA SCOTIA",1041839
1087393,"STIFEL FINANCIAL CORP.",720672
1075456,"E.I. DUPONT DENEMOURS & CO",30554
1075627,"PRINCIPAL FINANCIAL GROUP INC",1126328
1102740,"BANK OF MONTREAL",927971
1090554,"SYNOVUS FINANCIAL CORPORATION",18349
1103031,"ASSURANT INC.",1267238
1074689,"WRIGHT INVESTORS' SERVICE HOLDINGS, INC.",1279715
1088944,"THE GOLDMAN SACHS GROUP, INC.",886982
1102583,"FIFTH STREET ASSET MANAGEMENT INC.",161198
1086646,"THE GOLDMAN SACHS GROUP, INC.",886982
1070121,"BANK OF MONTREAL",927971
1092791,"DEUTSCHE BANK AG",948046
1100798,"FEDERATED INVESTORS, INC.",1056288
1100808,"FEDERATED INVESTORS, INC.",1056288
1084095,"THE BLACKSTONE GROUP L.P.",1393818
1100805,"FEDERATED INVESTORS, INC.",1056288
1091004,"FINANCIAL INSTITUTIONS, INC.",862831
1078261,"AFFILIATED MANAGERS GROUP, INC.",1004434
1103193,"MARSH & MCLENNAN COMPANIES, INC.",62709
1078831,"UMB FINANCIAL CORPORATION",101382
1084840,"THE BLACKSTONE GROUP L.P.",1393818
1101165,"MORGAN STANLEY",895421
1083161,"KEYCORP",91576
1100431,"CBRE GROUP, INC.",1138118
1099552,"OM ASSET MANAGEMENT PLC",1611702
1094333,"UBS GROUP AG",1610520
1094480,"UBS GROUP AG",1610520
1102959,"AON CORPORATION",315293
1080091,"XEROX CORPORATION",10877
1100156,"U.S. BANCORP",36104
1086422,"WELLS FARGO & COMPANY",105598
1084356,"GREAT-WEST LIFE & ANNUITY INSURANCE COMPANY",744455
1083858,"BLACKROCK, INC.",1364742
1061009,"AXA FINANCIAL, INC",888002
1061009,"AXA EQUITABLE FINANCIAL SERVICES, LLC",1257148
1061009,"AXA AMERICA HOLDINGS, INC",1333986
1084680,"BLACKROCK INC.",1364742
1083987,"BLACKROCK, INC.",1364742
1095732,"MORGAN STANLEY",895421
1103460,"VOYA FINANCIAL, INC.",1535929
1070413,"THE HARTFORD FINANCIAL SERVICES GROUP, INC.",874766
1060295,"SUN LIFE FINANCIAL INC.",109762
1084032,"NORTHERN TRUST CORPORATION",73124
1103529,"VOYA FINANCIAL, INC.",1535929
1083335,"AFFILIATED MANAGERS GROUP, INC.",1004434
1091593,"JPMORGAN CHASE & CO.",19617
1065424,"T. ROWE PRICE GROUP, INC.",1113169
1084143,"WESTWOOD HOLDINGS GROUP, INC.",1165002
1103594,"CAPITAL ONE FINANCIAL CORPORATION",927628
1093329,"B. RILEY FINANCIAL, INC.",1464790
1080798,"HSBC HOLDINGS PLC",108913
1077695,"WELLS FARGO & COMPANY",105598
1065420,"T. ROWE PRICE GROUP, INC.",1113169
1088218,"SUN LIFE FINANCIAL (U.S.) INVESTMENTS LLC",1097632
1098223,"VOYA FINANCIAL, INC.",1535929
1096552,"LEUCADIA NATIONAL CORPORATION",96223
1091127,"STIFEL FINANCIAL CORP.",720672
1103689,"T. ROWE PRICE GROUP, INC.",1113169
1094157,"JPMORGAN CHASE & CO.",19617
1089787,"ARTISAN PARTNERS ASSET MANAGEMENT INC.",1517302
1103788,"ARES MANAGEMENT LP",1536937
1094549,"STATE STREET CORPORATION",93751
1082392,"THE BANK OF NEW YORK MELLON CORPORATION",1390777
1099838,"ARES MANAGEMENT LP",1536937
1084338,"CREDIT SUISSE GROUP AG",1159510
1063482,"THE BANK OF NEW YORK MELLON CORPORATION",1390777
1075352,"J.P. MORGAN CHASE & CO.",19617
1103814,"THE BANK OF NEW YORK MELLON CORPORATION",1390777
1070526,"MARSH & MCLENNAN COMPANIES, INC.",62709
1101569,"AXA AMERICA HOLDINGS, INC.",1333986
1101569,"AXA EQUITABLE FINANCIAL SERVICES, LLC",1257148
1101569,"AXA FINANCIAL, INC.",888002
1061258,"ACTUA CORPORATION",1085621
1101016,"BOSTON PRIVATE FINANCIAL HOLDINGS, INC.",821127
1088679,"WELLS FARGO & COMPANY",72971
1083273,"THE BANK OF NEW YORK MELLON CORPORATION",1390777
1083273,"THE BANK OF NEW YORK MELLON",1497973
1095830,"THE CARLYLE GROUP L.P.",1527166
1096855,"AVIVA PLC",1445956
1087526,"FIFTH THIRD BANCORP",35527
1093331,"ENVESTNET, INC.",1337619
1078850,"WASHINGTONFIRST BANKSHARES, INC.",1476264
1085527,"SIT INVESTMENT ASSOCIATES, INC.",769317
1100358,"VIRTUS INVESTMENT PARTNERS, INC.",883237
1096877,"WELLS FARGO & COMPANY",72971
1069371,"ROYAL BANK OF CANADA",1000275
1100646,"SANDY SPRING BANCORP",824410
1096878,"AFFILIATED MANAGERS GROUP, INC.",1004434
1072518,"MORGAN STANLEY",895421
1075991,"MORGAN STANLEY",895421
1100751,"AFFILIATED MANAGERS GROUP, INC.",1004434
1074734,"MORGAN STANLEY",895421
1094597,"JEFFERIES GROUP LLC",1084580
1094597,"LEUCADIA NATIONAL CORPORATION",96223
1086486,"THE BLACKSTONE GROUP L.P.",1393818
1077292,"FIRST MIDWEST BANCORP, INC.",702325
1071933,"GAMCO INVESTORS, INC.",1060349
1061004,"MANULIFE FINANCIAL CORPORATION",1086888
1060586,"THE CHARLES SCHWAB CORPORATION",316709
1061112,"THE GOLDMAN SACHS GROUP, INC.",886982
1064241,"THE BANK OF NEW YORK MELLON CORPORATION",1390777
1067899,"CREDIT SUISSE (USA), INC.",29646
1067918,"TORONTO-DOMINION BANK",947263
1062098,"BANK OF MONTREAL",927971
1060412,"FRANKLIN RESOURCES, INC.",38777
1066362,"EATON VANCE CORP.",350797
1069752,"NEWSTAR FINANCIAL, INC.",160114
1070451,"RAYMOND JAMES FINANCIAL, INC.",19617
1072674,"WADDELL & REED FINANCIAL, INC.",1052100
1073091,"SUNTRUST BANKS, INC.",750556
1075958,"CBRE GROUP, INC.",1138118
1076001,"U.S. BANCORP",36104
1094418,"M&T BANK CORPORATION",36270
1082087,"AMERICAN INTERNATIONAL GROUP, INC.",5272
1092805,"FEDERATED INVESTORS, INC.",1056288
1098241,"SILVERCREST ASSET MANAGEMENT GROUP INC.",1549966
1102869,"CBOE HOLDINGS, INC.",1374310
1096048,"THE JONES FINANCIAL COMPANIES, L.L.L.P.",815917
1094249,"THE JONES FINANCIAL COMPANIES, L.L.L.P.",815917
1091704,"THE JONES FINANCIAL COMPANIES, L.L.L.P.",815917
1069975,"INVESCO LTD.",914208
1096996,"SUN LIFE FINANCIAL, INC.",1097362
1090076,"VOYA FINANCIAL, INC.",1535929
1065254,"PRUDENTIAL FINANCIAL INC.",1137774
1095546,"COLONY NORTHSTAR, INC.",1679688
1093710,"OM ASSET MANAGEMENT PLC",1611702
1071676,"KKR & CO. L.P.",1404912
1078127,"THE BANK OF NEW YORK MELLON CORPORATION",1390777
1086369,"KKR & CO. L.P.",1404912
1077840,"LADENBURG THALMANN FINANCIAL SERVICES, INC.",1029730
1096972,"FIFTH STREET ASSET MANAGEMENT INC.",161198
1089831,"CAPITAL ONE FINANCIAL CORP",927628
1087345,"THE GOLDMAN SACHS GROUP, INC.",886982
1097182,"FOLGER NOLAN FLEMING DOUGLAS INCORPORATED",37846
1097182,"FOLGER NOLAN FLEMING DOUGLAS CAPITAL MANAGEMENT, INC.",885415
1088421,"THE GOLDMAN SACHS GROUP,INC.",886982
1078239,"MARSH & MCLENNAN COMPANIES, INC.",62709
1089686,"THE BLACKSTONE GROUP",1393818
1103201,"MARSH & MCLENNAN COMPANIES, INC.",62709
1085093,"UBS GROUP AG",1610520
1097973,"CBRE GROUP, INC.",1138118
1086640,"DEUTSCHE BANK AG",948046
1100138,"THE BANK OF NEW YORK MELLON CORPORATION",1390777
1085316,"THE BLACKSTONE GROUP L.P.",1393818
1055672,"COHEN & STEERS, INC.",128481
1097731,"AFFILIATED MANAGERS GROUP, INC.",1004434
1066629,"NASDAQ, INC.",1120193
1101725,"AFFILIATED MANAGERS GROUP, INC.",1004434
1095892,"MORGAN STANLEY",895421
1102151,"AFFILIATED MANAGERS GROUP, INC.",1004434
1061041,"ORIX CORP",1070304
1084995,"BLACKROCK, INC.",1364742
1084532,"DEUTSCHE BANK AG",948046
1103438,"CITIGROUP INC",831001
1083862,"BLACKROCK, INC.",1364742
1073511,"THE PNC FINANCIAL SERVICES GROUP, INC.",713676
1096301,"NORDEA INVESTMENT MANAGEMENT AB",1218210
1090088,"AFFILIATED MANAGERS GROUP, INC.",1004434
1066548,"THE BANK OF NEW YORK MELLON CORPORATION",1390777
1074923,"BANK OF MONTREAL",9622
1083243,"AGNC INVESTMENT CORP.",1423689
1070457,"THE GOLDMAN SACHS GROUP, INC.",886982
1100981,"WESTWOOD HOLDINGS GROUP, INC.",1165002
1065422,"T. ROWE PRICE GROUP, INC.",1113169
1084385,"DEUTSCHE BANK AG",948046
1085779,"MORGAN STANLEY",895421
1069938,"BANK OF MONTREAL",927971
1085725,"MORGAN STANLEY",895421
1084784,"UMB FINANCIAL CORPORATION",101382
1103678,"T. ROWE PRICE GROUP, INC.",1113169
1072232,"THE PNC FINANCIAL SERVICES GROUP, INC.",713676
1085652,"AMERICAN INTERNATIONAL GROUP, INC.",5272
1077299,"STIFEL FINANCIAL CORP",720672
1066628,"UBS AG",1114446
1102336,"CNO FINANCIAL GROUP, INC.",122460
1065423,"T. ROWE PRICE GROUP, INC.",1113169
1079718,"XL GROUP LTD",875159
1071753,"ARES MANAGEMENT, L.P.",1176948
1095461,"STIFEL FINANCIAL CORPORATION",720672
1103824,"THE BANK OF NEW YORK MELLON CORPORATION",1390777
1102648,"JPMORGAN CHASE & CO.",19617
1099605,"PRINCIPAL FINANCIAL GROUP, INC.",1126328
1095982,"MANULIFE FINANCIAL CORPORATION",1086888
1079668,"INVESCO LTD",914208
1101626,"J.P. MORGAN CHASE & CO.",19617
1095801,"JPMORGAN CHASE & CO.",19617
1067236,"GREAT-WEST LIFE & ANNUITY INSURANCE COMPANY",744455
1098342,"THE GOLDMAN SACHS GROUP, INC.",886982
1080486,"JONES LANG LASALLE INCORPORATED",1037956
1088164,"OFG BANCORP",1030469
1096286,"FIRST HORIZON NATIONAL CORP",36966
1097640,"PRUDENTIAL PLC",1116578
1104048,"THE BANK OF NEW YORK MELLON CORPORATION",1390777
1104048,"THE BANK OF NEW YORK MELLON",1497973
1059930,"AMERIPRISE FINANCIAL, INC.",820027
1063855,"BANK OF MONTREAL",927971
1069277,"VOYA FINANCIAL, INC.",1535929
1070884,"NOMURA HOLDINGS, INC. (FORMERLY NAMED THE NOMURA SECURITIES CO., LTD.)",1163653
1071306,"JPMORGAN CHASE & CO.",19617
1069193,"BLACKROCK INC.",1364742
1080039,"DEUTSCHE BANK AG",948046
1080584,"DEUTSCHE BANK AG",948046
1080632,"DEUTSCHE BANK AG",948046
1074075,"FRANKLIN RESOURCES, INC.",38777
1081024,"RAYMOND JAMES FINANCIAL",720005
1074927,"CANANDAIGUA NATIONAL BANK & TRUST CO",107426
1077714,"AXA EQUITABLE LIFE INSURANCE CO.",898482
1084469,"WADDELL & REED FINANCIAL INC.",1052100
1077702,"AXA EQUITABLE LIFE INSURANCE CO.",898482
1077776,"ALLIANCEBERNSTEIN L.P.",1109448
1061780,"INVESCO LTD",914208
1061915,"GENERAL MOTORS COMPANY",1467858
1061956,"STIFEL FINANCIAL CORP.",720672
1066013,"AFFILIATED MANAGERS GROUP, INC",1004434
1067016,"CITIZENS FINANCIAL GROUP",759944
1063543,"BANK OF MONTREAL",927971
1063491,"BANK OF MONTREAL",927971
1060813,"ROYAL BANK OF CANADA",1000275
1066632,"BNP PARIBAS S.A.",310732
1066632,"NATIONAL BANK OF CANADA",926171
1067506,"JPMORGAN CHASE & CO.",19617
1068348,"GUARANTY BANCORP",1324410
1063915,"ROYAL BANK OF CANADA",1000275
1068121,"CANADIAN IMPERIAL BANK OF COMMERCE",16847
1057528,"BANK OF MONTREAL",927971
1075943,"PRUDENTIAL FINANCIAL INC",1137774
1081323,"DEUTSCHE BANK AG",948046
1079750,"TETON ADVISORS, INC.",1444874
1081375,"DEUTSCHE BANK AG",948046
1081129,"THE ALLSTATE CORPORATION",899051
1079160,"METLIFE, INC.",1099219
1084012,"PEOPLE'S UNITED FINANCIAL, INC.",1086095
1059055,"DAILY MAIL & GENERAL TRUST PLC",154785
1060959,"MB FINANCIAL, INC.",1139812
1060987,"MB FINANCIAL, INC.",1139812
1060469,"NORTHSTAR ASSET MANAGEMENT GROUP INC.",1597503
1049308,"ROYAL BANK OF CANADA",1000275
1062845,"ZAIS GROUP HOLDINGS, INC.",1562214
1051447,"CBIZ INC",944148
1070682,"BANK OF HAWAII CORP.",6022
1070717,"FORTRESS INVESTMENT GROUP LLC",1380393
1080286,"AMERICAN INTERNATIONAL GROUP, INC.",5272
1082748,"TRUSTMARK CORPORATION",36146
1083596,"PRINCIPAL FINANCIAL GROUP",1126328
1089450,"OPPENHEIMER HOLDINGS INC.",791963
1094630,"INVESCO LTD.",914208
1099638,"STATE STREET CORPORATION",93751
1092432,"ZAIS GROUP HOLDINGS, INC.",1562214
1062591,"INVESCO LIMITED",914208
1066068,"MORGAN STANLEY",895421
1066491,"CBRE GROUP, INC.",1138118
1066607,"NATIONAL BANK OF CANADA",926171
1070247,"WELLS FARGO AND COMPANY",105598
1076177,"INVESCO LTD.",914208
1073719,"SPROTT INC.",1512920
1086010,"CIT GROUP INC.",20388
1086484,"PRUDENTIAL PLC",1116578
1086008,"MORGAN STANLEY",895421
1085611,"BANK OF AMERICA CORPORATION",70858
1079348,"FIRST HORIZON NATIONAL CORPORATION",36966
1083537,"S&T BANCORP.",719220
1092608,"PRINCIPAL FINANCIAL GROUP INC",1126328
1098541,"KOHLBERG KRAVIS ROBERTS & CO. L.P.",1399770
1098564,"WADDELL & REED FINANCIAL, INC.",1052100
1090947,"AFFILIATED MANAGERS GROUP, INC.",1004434
1099157,"DETUSCHE BANK AG",948046
1067078,"AEGON NV",895233
1085861,"MORNINGSTAR, INC.",1146203
1092488,"THE BLACKSTONE GROUP L.P.",1393818
1077691,"ALLIANCEBERNSTEIN L.P.",1109448
1077764,"COWEN GROUP, INC.",1466538
1080364,"ALLIANCEBERNSTEIN HOLDING L.P.",825313
1080364,"AXA EQUITABLE LIFE INSURANCE CO.",727920
1098961,"RAYMOND JAMES FINANCIAL, INC.",705
1102833,"ROYAL BANK OF CANADA",1000275
1085813,"MARKEL CORPORATION",1096343
1098681,"CANADIAN IMPERIAL BANK OF COMMERCE",16847
1084276,"VOYA FINANCIAL, INC.",1535929
1090339,"FEDERATED INVESTORS, INC.",1056288
1084834,"VOYA FINANCIAL, INC.",1535929
1088771,"WISDOM TREE INVESTMENTS INC.",880631
1093767,"INVESCO, LTD",914208
1092518,"WELLS FARGO & COMPANY",105598
1093097,"ASSURANT INC.",1267238
1060093,"BANK OF MONTREAL",927971
1060307,"MORGAN STANLEY",895421
1059575,"PRUDENTIAL FINANCIAL, INC.",1137774
1060326,"MORGAN STANLEY",895421
1060092,"MARSH & MCLENNAN COMPANIES, INC.",62709
1060678,"LADENBURG THALMANN FINANCIAL SERVICES INC.",1029730
1061610,"VALUE LINE, INC.",717720
1062473,"MORGAN STANLEY",895421
1062517,"LPL FINANCIAL HOLDINGS INC.",1397911
1084088,"CAPITAL ONE FINANCIAL CORPORATION",927628
1082047,"BOSTON PRIVATE FINANCIAL HOLDINGS, INC.",821127
1077465,"FRANKLIN RESOURCES, INC.",38777
1084079,"INVESCO LTD",914208
1094372,"BLUCORA, INC.",1068875
1059097,"METLIFE INC.",1099219
1058858,"DEUTSCHE BANK AG",948046
1060056,"HORACE MANN EDUCATORS CORPORATION",850141
1063220,"CNO FINANCIAL GROUP, INC.",122460
1064257,"THE BANK OF NEW YORK MELLON CORPORATION",1390777
1066103,"GREAT-WEST LIFECO INC",850918
1066385,"STIFEL FINANCIAL CORPORATION",720672
1066719,"JPMORGAN CHASE & CO.",19617
1067025,"RAYMOND JAMES FINANCIAL, INC.",720005
1068582,"FIRST HORIZON NATIONAL CORP",36966
1069211,"BLUCORA, INC.",1068875
1071848,"VOYA FINANCIAL, INC.",1535929
1071057,"CBIZ INC",944148
1070276,"COLONY NORTHSTAR, INC.",1679688
1087235,"KEYCORP",91576
1083757,"AFFILIATED MANAGERS GROUP INC",1004434
1066626,"PRUDENTIAL PLC",1116578
1099770,"SUN LIFE FINANCIAL INC.",109762
1083975,"AMERIPRISE FINANCIAL, INC",820027
1091477,"MANULIFE FINANCIAL CORPORATION",1086888
1098297,"WSFS FINANCIAL CORP.",828944
1084571,"THE BLACKSTONE GROUP L.P.",1393818
1079522,"JPMORGAN CHASE & CO.",19617
1088308,"AMERICAN INTERNATIONAL GROUP, INC.",5272
1099582,"OM ASSET MANAGEMENT PLC",1611702
1090178,"CITIGROUP INC.",831001
1093303,"THE BANK OF NEW YORK MELLON CORPORATION",1390777
1096318,"OM ASSET MANAGEMENT PLC",1611702
1089990,"BROOKFIELD ASSET MANAGEMENT INC.",10010085
1088475,"LEGG MASON, INC.",704051
1081541,"BLACKROCK, INC.",1364742
1096324,"OM ASSET MANAGEMENT PLC",1611702
1091572,"THE GOLDMAN SACHS GROUP, INC.",886982
1098055,"GREAT-WEST LIFECO INC.",1243448
1098215,"VOYA FINANCIAL, INC.",1535929
1092969,"OM ASSET MANAGEMENT PLC",1611702
1091912,"MANULIFE FINANCIAL CORPORATION",1086888
1082580,"MANULIFE FINANCIAL CORPORATION",1086888
1059434,"MORGAN STANLEY",89542
1084652,"JPMORGAN CHASE & CO.",19617
1101872,"ENVESTNET, INC.",1337619
1100719,"PEOPLE'S UNITED FINANCIAL, INC.",1086095
1083536,"AFFILIATED MANAGERS GROUP INC.",1004434
1095189,"AEGON N.V.",769218
1099419,"ARES MANAGEMENT LP",1536937
1099538,"ARES MANAGEMENT LP",1536937
1066674,"BANK OF AMERICA CORPORATION",70858
1066674,"MERRILL LYNCH & CO., INC.",6510
1097248,"MANULIFE FINANCIAL CORPORATION",1086888
1090177,"AFFILIATED MANAGERS GROUP, INC.",1004434
1103711,"BROWN ADVISORY SECURITIES, LLC",1389479
1087618,"INVESCO LTD",914208
1101258,"AFFILIATED MANAGERS GROUP, INC.",1004434
1103769,"AFFILIATED MANAGERS GROUP, INC.",1004434
1103691,"CITIGROUP INC.",831001
1091819,"JMP GROUP LLC",1302350
1093456,"STIFEL FINANCIAL CORP.",720672
1100742,"ARES MANAGEMENT LP",1536937
1095009,"THE BANK OF NEW YORK MELLON CORPORATION",1390777
1099226,"PRUDENTIAL PLC",1116578
1101505,"PRUDENTIAL PLC",1116578
1103435,"PRUDENTIAL PLC",1116578
1103593,"PAULSON CAPITAL CORPORATION",704159
1102237,"THE GOLDMAN SACHS GROUP, INC.",886982
1103986,"OFG BANCORP",1030469
1095337,"THE BANK OF NEW YORK MELLON CORPORATION",1390777
1095337,"THE BANK OF NEW YORK MELLON",1497973
1096100,"ITAU UNIBANCO HOLDING S.A.",1132597
1062893,"WILLIS TOWERS WATSON PUBLIC LIMITED COMPANY",1140536
1061957,"THE BANK OF NEW YORK MELLON CORPORATION",1390777
1061957,"THE BANK OF NEW YORK MELLON",1497973
1066711,"MORGAN STANLEY",895421
1076925,"SUNTRUST BANKS, INC.",750556
1085167,"THE JONES FINANCIAL COMPANIES, L.L.L.P.",815917
1077587,"LADENBURG THALMANN FINANCIAL SERVICES, INC",1029730
1087300,"J.P. MORGAN CHASE & CO.",19617
1072377,"COWEN GROUP, INC.",6211
1097851,"COBIZ FINANCIAL INC",1028734
1098507,"EVERBANK FINANCIAL CORPORATION",1502749
1098624,"EVERBANK FINANCIAL CORPORATION",1502749
1075401,"UMB FINANCIAL CORPORATION",101382
1060130,"ORIX CORPORATION",1070304
1066666,"M&T BANK CORPORATION",36270
1068489,"FIFTH THIRD BANCORP",35527
1070314,"COLONY NORTHSTAR, INC.",1679688
1070302,"COLONY NORTHSTAR, INC.",1679688
1073558,"BIMINI CAPITAL MANAGEMENT, INC.",1275477
1077167,"UMB FINANCIAL CORP",101382
1097018,"FRANKLIN RESOURCES, INC",38777
1099784,"MORGAN STANLEY",895421
1100314,"VIRTUS INVESTMENT PARTNERS, INC.",883237
1098289,"PRUDENTIAL PLC",1116578
1070563,"JANUS CAPITAL GROUP INC.",1065865
1083159,"PENNYMAC FINANCIAL SERVICES, INC.",1568669
1091658,"JP MORGAN CHASE & CO",19617
1070995,"THE CARLYLE GROUP L.P.",1527166
1066905,"WELLS FARGO & COMPANY",105598
1092793,"BNP PARIBAS S.A.",872786
1075934,"MORGAN STANLEY",895421
1095755,"BNP PARIBAS S.A.",872786
1076012,"MORGAN STANLEY",895421
1095103,"AON CORPORATION",315293
1100383,"COWEN GROUP, INC.",1466538
1098506,"CITIZENS FINANCIAL GROUP",759944
1086444,"THE BLACKSTONE GROUP L.P.",1393818
1085376,"THE BLACKSTONE GROUP L.P.",1393818
1085261,"THE BLACKSTONE GROUP L.P.",1393818
1082585,"ORIX CORPORATION",1070304
1086423,"THE BLACKSTONE GROUP L.P.",1393818
1085374,"THE BLACKSTONE GROUP L.P.",1393818
1086493,"THE BLACKSTONE GROUP L.P.",1393818
1086944,"CNO FINANCIAL GROUP, INC.",1224608
1084135,"THE BANK OF NEW YORK MELLON CORPORATION",1390777
1069212,"KB FINANCIAL GROUP INC.",53445
1061043,"WELLS FARGO AND COMPANY",105598
1064808,"THE BANK OF NEW YORK MELLON CORPORATION",1390777
1064999,"STIFEL FINANCIAL CORPORATION",720672
1065206,"SIMMONS FIRST NATIONAL CORP",90498
1068614,"AFFILIATED MANAGERS GROUP, INC.",1004434
1069287,"ALLEGHANY CORPORATION",775368
1067169,"HSBC HOLDINGS PLC",1089113
1067169,"HSBC USA INC.",83246
1069589,"PIPER JAFFRAY COMPANIES",724683
1062210,"PIPER JAFFRAY COMPANIES",724683
1067865,"SUN LIFE FINANCIAL, INC.",1097362
1070358,"SUNTRUST BANKS, INC.",750556
1081993,"CALAMOS ASSET MANAGEMENT, INC.",1299033
1081832,"AMERICAN INTERNATIONAL GROUP INC.",5272
1080959,"AMERIPRISE FINANCIAL, INC.",820027
1100213,"SYNOVUS FINANCIAL CORP",18349
1061039,"WELLS FARGO AND COMPANY",105598
1060680,"VOYA FINANCIAL, INC.",1535929
1064975,"THE BANK OF NEW YORK MELLON CORPORATION",1390777
1057981,"ROYAL BANK OF CANADA",1000275
1068354,"GUARANTY BANCORP",1324410
1068285,"LEGG MASON, INC.",704051
1068119,"GUARANTY BANCORP",1324410
1069830,"UBS AG",1114446
1072626,"MORGAN STANLEY",895421
1074895,"M&T BANK CORPORATION",36270
1077322,"DST SYSTEMS, INC.",714603
1084485,"VIRTUS INVESTMENT PARTNERS, INC.",883237
1085260,"ORANGE COUNTY BANCORP INC",1096144
1085821,"INVESCO",914208
1097354,"JMP GROUP LLC",1302350
1077598,"OM ASSET MANAGEMENT PLC",1611702
1096968,"SOUTH STATE BANK",1542445
1075532,"TRIUMPH BANCORP, INC.",1539638
1084195,"PRUDENTIAL FINANCIAL, INC.",113777
1085378,"THE BLACKSTONE GROUP L.P.",1393818
1085382,"THE BLACKSTONE GROUP L.P.",1393818
1093461,"COLONY NORTHSTAR, INC.",1679688
1086407,"THE BLACKSTONE GROUP L.P.",1393818
1088022,"AMERICAN INTERNATIONAL GROUP, INC.",5272
1087906,"LENDINGCLUB CORPORATION",1409970
1098374,"FRANKLIN RESOURCES, INC.",38777
1101235,"INVESCO LTD",914208
1092629,"CREDIT SUISSE (USA), INC.",29646
1092569,"OM ASSET MANAGEMENT PLC",1611702
1096887,"THE BANK OF NEW YORK MELLON CORPORATION",1497973
1096618,"FIRST FOUNDATION INC.",1413837
1074094,"AFFILIATED MANAGERS GROUP, INC. (""AMG"")",1004434
1089676,"THE BLACKSTONE GROUP",1393818
1058971,"LADENBURG THALMANN FINANCIAL SERVICES, INC.",1029730
1060480,"BB&T CORPORATION",92230
1060615,"MARSH & MCLENNAN COMPANIES, INC.",62709
1060670,"STIFEL FINANCIAL CORP.",720672
1067673,"RAYMOND JAMES FINANCIAL INC.",1053092
1069369,"DEUTSCHE BANK AG",948046
1069617,"UMB FINANCIAL CORP",101382
1066372,"EATON VANCE CORP.",350797
1072883,"THE JONES FINANCIAL COMPANIES, L.L.L.P.",815917
1072933,"PRINCIPAL FINANCIAL GROUP, INC.",1126328
1076168,"PRINCIPAL FINANCIAL GROUP, INC.",1126328
1076188,"JPMORGAN CHASE & CO.",19617
1076296,"INTERACTIVE BROKERS GROUP",1166521
1088977,"EVERCORE PARTNERS",1028772
1088018,"PROVIDENT FINANCIAL SERVICES, INC.",1178970
1094444,"HORACE MANN EDUCATORS CORPORATION",850141
1082884,"PRINCIPAL FINANCIAL GROUP, INC.",1126328
1081414,"M&T BANK CORPORATION",36270
1098433,"VALIDUS HOLDINGS, LTD.",1348259
1090592,"THE BANK OF NEW YORK MELLON CORPORATION(SUCCESSOR TO MERGER OF MELLON FINANCIAL CORPORATION & THE BANK OF NEW YORK COMPANY, INC)",1390777
1083235,"AFFILIATED MANAGERS GROUP, INC.",1004434
1102822,"WADDELL & REED FINANCIAL INC.",1052100
1061681,"PRINCIPAL FINANCIAL GROUP, INC.",1126328
1061681,"PRINCIPAL FINANCIAL SERVICES, INC.",109458
1061681,"PRINCIPAL MANAGEMENT CORPORATION",919627
1067583,"MORGAN STANLEY",895421
1068551,"BANK OF AMERICA CORPORATION",70858
1085586,"MORGAN STANLEY",895421
1095373,"PRINCIPAL FINANCIAL GROUP, INC.",1126328
1070639,"OM ASSET MANAGEMENT PLC",1611702
1069240,"CBRE GROUP, INC.",1138118
1058791,"INTL FCSTONE INC.",91376
1059397,"FINANCIAL ENGINES, INC.",1430592
1063015,"BANK OF MONTREAL",927971
1059182,"BANK OF MONTREAL",927971
1067607,"ROYAL BANK OF CANADA",1000275
1068673,"ROYAL BANK OF CANADA",1000275
1084067,"RAYMOND JAMES FINANCIAL",720005
1085892,"AMERICAN FINANCIAL GROUP, INC.",1042046
1083478,"THE CHARLES SCHWAB CORPORATION",316709
1073192,"PRUDENTIAL PLC",1116578
1101234,"THE PNC FINANCIAL SERVICES GROUP, INC.",713676
1086956,"PRINCIPAL FINANCIAL GROUP, INC",1126328
1099939,"SIMMONS FIRST NATIONAL CORP",90498
1085885,"THE BLACKSTONE GROUP L.P.",1393818
1092858,"FBL FINANCIAL GROUP, INC.",1012771
1090096,"PROTECTIVE LIFE CORPORATION",355429
1067210,"PRUDENTIAL FINANCIAL, INC.",1137774
1100282,"VIRTUS INVESTMENT PARTNERS, INC.",883237
1093685,"AON CORPORATION",315293
1101529,"WADDELL & REED FINANCIAL, INC.",1052100
1091374,"NEWSTAR FINANCIAL, INC.",160114
1101548,"FORTRESS INVESTMENT GROUP LLC",1380393
1079081,"THE CARLYLE GROUP L.P.",1527166
1100664,"COWEN GROUP, INC.",1466538
1076463,"MEDLEY MANAGEMENT INC.",1611110
1101590,"HANCOCK HOLDING COMPANY",750577
1079083,"THE CARLYLE GROUP L.P.",1527166
1077575,"LINCOLN NATIONAL CORPORATION",59558
1071881,"MEDLEY MANAGEMENT INC.",1611110
1089435,"APOLLO GLOBAL MANAGEMENT, LLC",1411494
1079573,"THE CARLYLE GROUP L.P.",1527166
1087273,"MARKEL CORPORATION",1096343
1101699,"HSBC BANK USA",823422
1094454,"CARLYLE GROUP L.P.",1527166
1095340,"VOYA FINANCIAL, INC.",1535929
1084010,"CIGNA CORPORATION",701221
1086027,"THE BLACKSTONE GROUP L.P.",1393818
1092380,"THE CHARLES SCHWAB CORPORATION",316709
1086316,"JANUS CAPITAL GROUP INC.",1065865
1085383,"THE CHARLES SCHWAB CORPORATION",316709
1084839,"BOSTON PRIVATE FINANCIAL HOLDINGS, INC.",821127
1068939,"CITIGROUP INC.",831001
1088238,"INSTITUTIONAL FINANCIAL MARKETS, INC.",1270436
1092876,"THE CHARLES SCHWAB CORPORATION",316709
1067219,"PRUDENTIAL FINANCIAL, INC",1137774
1101420,"PRINCIPAL FINANCIAL GROUP, INC.",1126328
1064103,"PRUDENTIAL FINANCIAL INC",1137774
1068672,"MANULIFE FINANCIAL CORPORATION",1086888
1102209,"LADENBURG THALMANN FINANCIAL SERVICES INC.",1029730
1101955,"BANK OF MONTREAL",927971
1097870,"COWEN GROUP, INC.",1466538
1087566,"BROWN ADVISORY SECURITIES, LLC",1389479
1097218,"VIRTUS INVESTMENT PARTNERS, INC.",883237
1101136,"THE CARLYLE GROUP L.P.",1527166
1102299,"CAPITAL FINANCIAL HOLDINGS",944696
1074641,"XL GROUP LTD",875159
1097331,"MITSUBISHI UFJ FINANCIAL GROUP, INC.",67088
1097331,"MUFG AMERICAS HOLDINGS CORP.",1011659
1083884,"AGNC INVESTMENT CORP.",1423689
1101657,"COWEN GROUP, INC.",1466538
1094329,"OM ASSET MANAGEMENT PLC",1611702
1059264,"PRUDENTIAL FINANCIAL, INC.",1137774
1059230,"INTERCONTINENTAL EXCHANGE, INC.",1571949
1059437,"CNO FINANCIAL GROUP, INC.",1224608
1059436,"SUN LIFE FINANCIAL (U.S.) INVESTMENTS LLC",1097632
1059612,"WADDELL & REED FINANCIAL, INC.",1052100
1059660,"TETON ADVISORS, INC.",1444874
1058996,"ARES CAPITAL CORPORATION",1287750
1061362,"BLUCORA, INC.",1068875
1048008,"DEUTSCHE BANK AG",948046
1067594,"SUNTRUST BANKS, INC.",750556
1069472,"CREDIT SUISSE GROUP AG",1159510
1060652,"BLACKROCK, INC.",1364742
1069188,"BLACKROCK, INC.",1364742
1069200,"BLACKROCK, INC.",1364742
1077700,"FEDERATED INVESTORS, INC.",1056288
1077771,"ARES MANAGEMENT, L.P.",1176948
1075700,"BLACKROCK INC.",1364742
1070106,"S&P GLOBAL INC.",64040
1089262,"PAULSON CAPITAL CORPORATION",704159
1083675,"AFFILIATED MANAGERS GROUP INC.",1004434
1087140,"BOK FINANCIAL CORPORATION",875357
1068872,"SUN LIFE FINANCIAL INC.",109762
1066805,"PRUDENTIAL FINANCIAL, INC.",1137774
1081443,"LAZARD LTD",1311370
1081443,"LAZARD GROUP LLC",1326141
1083360,"W. P. CAREY INC.",102537
1092950,"GUARANTY BANCORP",1324410
1090760,"THE BANK OF NEW YORK MELLON CORPORATION",1390777
1073611,"CREDIT SUISSE ASSET MANAGEMENT, LLC",1159510
1085197,"CREDIT SUISSE ASSET MANAGEMENT, LLC",1159510
1097020,"ALCATEL LUCENT",886125
1096950,"ALLY FINANCIAL INC.",40729
1076737,"CREDIT SUISSE AG (SWISS BANK)",1053092
1067056,"BANCO SANTANDER, S.A.",891478
1088029,"ANNALY CAPITAL MANAGEMENT, INC.",1043219
1094540,"COWEN GROUP, INC.",1466538
1056223,"PRUDENTIAL FINANCIAL INC",1137774
1066042,"THE BANK OF NOVA SCOTIA",9631
1064114,"BLACKROCK, INC",1364742
1057917,"COLONY NORTHSTAR, INC.",1679688
1063134,"WELLS FARGO & CO",72971
1064733,"PRINCIPAL FINANCIAL GROUP INC",1126328
1068248,"ROYAL BANK OF CANADA ('RBC')",1000275
1075245,"SUNTRUST BANKS, INC.",750556
1078634,"FRANKLIN RESOURCES, INC.",38777
1060426,"MB FINANCIAL, INC.",113981
1061538,"DEUTSCHE BANK AG",948046
1058028,"THE GOLDMAN SACHS GROUP,INC.",886982
1058024,"THE GOLDMAN SACHS GROUP,INC.",886982
1052955,"OAKTREE CAPITAL GROUP, LLC",1403528
1070957,"JPMORGAN CHASE & CO.",19617
1070962,"JPMORGAN CHASE & CO.",19617
1070952,"JPMORGAN CHASE & CO.",19617
1093889,"BOK FINANCIAL CORPORATION",875357
1094002,"MB FINANCIAL, INC.",1139812
1090801,"COMMERCE BANCSHARES, INC.",22356
1089842,"HSBC HOLDINGS PLC",1089113
1089842,"HSBC USA INC.",83246
1078842,"VERIZON COMMUNICATIONS INC.",732712
1081792,"TRISTATE CAPITAL HOLDINGS INC.",1380846
1097773,"WSFS FINANCIAL CORP.",828944
1095478,"SVB FINANCIAL GROUP",719739
1080184,"SUNTRUST BANKS, INC.",750556
1080626,"DEUTSCHE BANK AG",948046
1089585,"REGIONS FINANCIAL CORPORATION",1281761
1093694,"NORTHWEST FINANCIAL CORP",1053601
1093688,"MB FINANCIAL, INC.",113981
1090346,"CREDIT SUISSE GROUP AG",1159510
1080849,"ASSOCIATED CAPITAL GROUP, INC.",1642122
1101661,"U.S. BANCORP",36104
1064310,"HUNTINGTON BANCSHARES INCORPORATED",906092
1076414,"MEDLEY MANAGEMENT INC.",1611110
1058927,"BANK OF MONTREAL",927971
1060280,"MARSH & MCLENNAN COMPANIES, INC.",62709
1069186,"BLACKROCK, INC.",1364742
1069191,"BLACKROCK, INC.",1364742
1073218,"JPMORGAN CHASE & CO.",19617
1083256,"VIRTUS INVESTMENT PARTNERS, INC.",883237
1072247,"STIFEL FINANCIAL CORPORATION",720672
1085333,"GUARANTY BANCORP",1324410
1096803,"WELLS FARGO AND COMPANY",105598
1056511,"AMERICAN NATIONAL INSURANCE COMPANY",904163
1098075,"AMERICAN NATIONAL INSURANCE COMPANY",904163
1098076,"AMERICAN NATIONAL INSURANCE COMPANY",904163
1058834,"LENDINGCLUB CORPORATION",1409970
1060847,"DEUTSCHE BANK AG",948046
1061222,"THE GOLDMAN SACHS GROUP, INC.",886982
1061969,"DST SYSTEMS, INC.",714603
1062834,"ZAIS GROUP HOLDINGS, INC.",1562214
1066997,"FRANKLIN RESOURCES, INC.",38777
1073122,"JPMORGAN CHASE & CO.",19617
1065260,"PRUDENTIAL FINANCIAL, INC.",1137774
1061062,"FINANCIAL ENGINES, INC.",1430592
1062719,"PROTECTIVE LIFE CORPORATION",355429
1051097,"EATON VANCE CORP.",350797
1069921,"BANK OF AMERICA CORPORATION",70858
1072598,"HILLTOP HOLDINGS INC.",1265131
1079744,"COWEN GROUP, INC.",1466538
1092596,"AFFILIATED MANAGERS GROUP INC.",1004434
1088441,"BLACKROCK, INC.",1364742
1093318,"WASHINGTON TRUST BANCORP, INC.",737468
1094589,"RCS CAPITAL CORPORATION",1568832
1095055,"RAYMOND JAMES FINANCIAL, INC.",720005
1089046,"MANNING & NAPIER, INC.",1524223
1075282,"ALLEGHANY CORPORATION",775368
1094863,"J.P. MORGAN CHASE & CO.",19617
1090510,"DEUTSCHE BANK AG",1022437
1070927,"BANCO BILBAO VIZCAYA ARGENTARIA, S.A.",842180
1070927,"BBVA COMPASS BANCSHARES, INC.",1409775
1058816,"BOSTON PRIVATE FINANCIAL HOLDINGS, INC.",40821127
1059385,"SUN LIFE FINANCIAL, INC.",1097362
1058244,"ALLY FINANCIAL INC.",40729
1059711,"THE GOLDMAN SACHS GROUP, INC.",886982
1078567,"NATIONAL HOLDINGS CORPORATION",1023844
1078567,"FORTRESS BIOTECH, INC",1429260
1078572,"THE JONES FINANCIAL COMPANIES, L.L.L.P.",815917
1074677,"THE BLACKSTONE GROUP L.P.",1393818
1085241,"AFFILIATED MANAGERS GROUP, INC.",1004434
1058031,"THE GOLDMAN SACHS GROUP, INC.",886982
1058030,"THE GOLDMAN SACHS GROUP, INC.",886982
1058022,"THE GOLDMAN SACHS GROUP, INC.",886982
1061596,"OAKTREE CAPITAL GROUP, LLC",1403528
1064982,"BANK OF NEW YORK MELLON CORPORATION",1390777
1065108,"ASSOCIATED CAPITAL GROUP INC.",807249
1059807,"THE BANK OF NEW YORK MELLON CORPORATION",1497973
1057949,"ROYAL BANK OF CANADA",1000275
1068700,"SUNTRUST BANKS, INC.",750556
1070441,"STIFEL FINANCIAL CORP.",720672
1069246,"ROYAL BANK OF CANADA",1000275
1076074,"CBOE HOLDINGS, INC.",1374310
1098251,"CALAMOS ASSET MANAGEMENT, INC.",1299033
1098467,"WELLS FARGO AND COMPANY",105598
1091616,"PRINCIPAL FINANCIAL GROUP INC",1126328
1081457,"3M COMPANY",6670
1094827,"GAMCO INVESTORS, INC.",1060349
1064391,"THE BANK OF NEW YORK MELLON CORPORATION",1390777
1064537,"M&T BANK CORPORATION",36270
1064607,"THE BANK OF NEW YORK MELLON CORPORATION",1390777
1054546,"ROYAL BANK OF CANADA",1000275
1063266,"PROTECTIVE LIFE CORPORATION",355429
1060540,"OCH-ZIFF CAPITAL MANAGEMENT GROUP LLC",1403256
1070256,"WELLS FARGO AND COMPANY",105598
1071130,"STIFEL FINANCIAL CORP.",720672
1071147,"JPMORGAN CHASE & CO.",19617
1066603,"FORTRESS INVESTMENT GROUP LLC",1380393
1072255,"LINCOLN NATIONAL CORPORATION",59558
1079244,"HSBC HOLDINGS PLC",108913
1074081,"FRANKLIN RESOURCES, INC.",38777
1078544,"FRANKLIN RESOURCES, INC.",38777
1081489,"AMERICAN INTERNATIONAL GROUP INC",5272
1084253,"LEGG MASON, INC.",704051
1091999,"CREDIT SUISSE GROUP AG",1159510
1060403,"FRANKLIN RESOURCES, INC.",38777
1091792,"BANCO SANTANDER, S.A.",891478
1073004,"FORTRESS INVESTMENT GROUP LLC",1380393
1072835,"PRINCIPAL FINANCIAL GROUP, INC.",1126328
1100748,"AFFILIATED MANAGERS GROUP INC",1004434
1086773,"DEUTSCHE BANK AG",948046
1096871,"GALLAGHER BENEFIT SERVICES, INC",1527782
1096871,"GALLAGHER FIDUCIARY ADVISORS, LLC",1527781
1091457,"DEUTSCHE BANK AG",948046
1101637,"FORTRESS INVESTMENT GROUP LLC",1380393
1078152,"AETNA INC.",1122304
1089268,"J.P. MORGAN TRUST COMPANY",1146033
1062241,"LPL FINANCIAL HOLDINGS INC.",1397911
1063945,"WASHINGTON TRUST BANCORP, INC.",737468
1068752,"BOK FINANCIAL CORPORATION",875357
1064541,"PRINCIPAL FINANCIAL GROUP, INC.",1126328
1069101,"NATIONAL HOLDINGS CORPORATION",1023844
1069101,"FORTRESS BIOTECH, INC",1429260
1084593,"BB&T CORP",92230
1076451,"WHITE MOUNTAINS INSURANCE GROUP, LTD.",776867
1085624,"BOSTON PRIVATE FINANCIAL HOLDINGS, INC.",40821127
1078392,"VIRTUS INVESTMENT PARTNERS, INC",883237
1082193,"MARSH & MCLENNAN COMPANIES, INC.",62709
1066514,"CITIGROUP INC",831001
1093786,"SOFTBANK GROUP CORP",1065521
1086553,"SANDY SPRING BANCORP",824410
1075730,"CREDIT SUISSE GROUP AG",1159510
1070428,"METLIFE, INC.",109921
1081847,"PARAMOUNT GROUP, INC.",1605607
1095935,"FIRST CITIZENS BANCSHARES, INC.",798941
1094934,"MAIN STREET CAPITAL CORPORATION",1396440
1067206,"PRUDENTIAL FINANCIAL, INC.",1137774
1076047,"MORGAN STANLEY",895421
1100608,"RAYMOND JAMES FINANCIAL SERVICES, INC",52021
1100669,"OM ASSET MANAGEMENT PLC",1611702
1081095,"PNC FINANCIAL SERVICES GROUP, INC.",713676
1094154,"XL GROUP LTD",875159
1100567,"OM ASSET MANAGEMENT PLC",1611702
1097934,"LADENBURG THALMANN FINANCIAL SERVICES INC.",1029730
1085370,"THE BLACKSTONE GROUP L.P.",1393818
1076062,"MORGAN STANLEY",895421
1076067,"MORGAN STANLEY",895421
1093523,"ROYAL BANK OF CANADA",1000275
1093523,"MIZUHO FINANCIAL GROUP, INC.",1335730
1078666,"ASSOCIATED CAPITAL GROUP INC.",807249
1060413,"THE BLACKSTONE GROUP L.P.",1393818
1064490,"ROYAL BANK OF CANADA",1000275
1067417,"STIFEL FINANCIAL CORPORATION",720672
1066554,"AFFILIATED MANAGERS GROUP, INC.",1004434
1067074,"UNION BANKSHARES CORPORATION",883948
1077765,"THE BANK OF NEW YORK MELLON CORPORATION",1390777
1073057,"SUMITOMO MITSUI TRUST BANK LTD",1046017
1082619,"LADDER CAPITAL CORP",1577670
1084524,"PROVIDENT FINANCIAL SERVICES, INC.",1178970
1085856,"OCH-ZIFF CAPITAL MANAGEMENT GROUP LLC",1403256
1068301,"CAMDEN NATIONAL CORPORATION",750686
1087850,"AMERICAN INTERNATIONAL GROUP INC.",5272
1086033,"OPPENHEIMER HOLDINGS INC.",791963
1091840,"COWEN GROUP, INC.",1466538
1061848,"CULLEN/FROST BANKERS, INC.",39263
1097187,"ASSOCIATED BANC-CORP",7789
1081385,"TETON ADVISORS, INC.",1444874
1072652,"GENERAL MOTORS COMPANY",1467858
1083843,"METLIFE, INC.",1099219
1087607,"BOK FINANCIAL CORPORATION",875357
1093166,"WINTRUST FINANCIAL CORPORATION",1015328
1097417,"OM ASSET MANAGEMENT PLC",1611702
1097727,"AFFILIATED MANAGERS GROUP, INC.",1004434
1086449,"MERRILL LYNCH & CO. INC.",65100
1089616,"APOLLO GLOBAL MANAGEMENT, LLC",141494
1059510,"PRUDENTIAL FINANCIAL, INC.",1137774
1061532,"BANCO BRADESCO S.A.",1160330
1066347,"CITIZENS FINANCIAL GROUP",759944
1066356,"CITIZENS FINANCIAL GROUP",759944
1067821,"PRINCIPAL FINANCIAL GROUP, INC.",1126328
1062660,"CHESAPEAKE FINANCIAL SHARES, INC.",847538
1088990,"THE BANK OF NEW YORK MELLON CORPORATION",1390777
1059277,"FRANKLIN RESOURCES, INC.",38777
1058966,"UBS GROUP AG",1610520
1066225,"ROYAL BANK OF CANADA",1000275
1075300,"THE BANK OF NEW YORK MELLON CORPORATION",1390777
1077444,"LEGG MASON, INC.",704051
1072043,"BLACKROCK, INC.",1364742
1079411,"STIFEL FINANCIAL CORP.",720672
1087165,"BB&T CORPORATION",92230
1080053,"JOHN HANCOCK LIFE INSURANCE CO USA",107389
1095951,"WISDOMTREE INVESTMENTS INC.",880631
1060035,"MORNINGSTAR, INC.",1289419
1061887,"APOLLO GLOBAL MANAGEMENT, LLC",1411494
1064528,"BANCO BILBAO VIZCAYA ARGENTARIA, S.A.",842180
1064528,"BBVA COMPASS BANCSHARES, INC.",1409775
1064575,"CREDIT SUISSE (USA), INC.",29646
1064233,"THE BANK OF NEW YORK MELLON CORPORATION",1390777
1074668,"LEGG MASON, INC.",704051
1075952,"CBRE GROUP, INC.",1138118
1075503,"PRINCIPAL FINANCIAL GROUP, INC.",1126328
1075503,"PRINCIPAL FINANCIAL SERVICES, INC.",109458
1075503,"PRINCIPAL MANAGEMENT CORPORATION",919627
1075760,"ORRSTOWN FINANCIAL SERVICES INC",826154
1076314,"RAYMOND JAMES FINANCIAL SERVICES, INC",52021
1079733,"DEUTSCHE BANK AG",948046
1080714,"BLUCORA, INC.",1068875
1078346,"OCH-ZIFF CAPITAL MANAGEMENT GROUP LLC",1403256
1071615,"AFFILIATED MANAGERS GROUP, INC.",1004434
1075947,"CIT GROUP INC.",20388
1086467,"PRUDENTIAL PLC",1116578
1086565,"AFFILIATED MANAGERS GROUP, INC",1004434
1086753,"PROTECTIVE LIFE CORPORATION",355429
1086800,"MORGAN STANLEY",895421
1086799,"LPL FINANCIAL HOLDINGS INC.",1397911
1088333,"NELNET INC",1258602
1059922,"CNO FINANCIAL GROUP, INC.",122460
1060125,"STIFEL FINANCIAL CORP.",720672
1060214,"LPL FINANCIAL HOLDINGS INC.",1397911
1061632,"INVESCO LTD",914208
1061788,"OAKTREE CAPITAL GROUP, LLC",1403528
1058189,"NATIONAL HOLDINGS CORPORATION",1023844
1058189,"FORTRESS BIOTECH, INC",1429260
1062086,"ROYAL BANK OF CANADA",1000275
1052268,"THE BLACKSTONE GROUP L.P.",1393818
1068018,"OCH-ZIFF CAPITAL MANAGEMENT GROUP LLC",1403256
1076990,"ORRSTOWN FINANCIAL SERVICES INC",826154
1085890,"PAULSON CAPITAL CORPORATION",704159
1089657,"MANULIFE FINANCIAL CORPORATION",1086888
1080060,"HORACE MANN EDUCATORS CORPORATION",850141
1064728,"CNO FINANCIAL GROUP, INC.",1224608
1064383,"FIRST CITIZENS BANCSHARES, INC.",798941
1082110,"INVESCO, LTD",914208
1091672,"THE GOLDMAN SACHS GROUP, INC.",886982
1060905,"LEUCADIA NATIONAL CORPORATION",96223
1087024,"FEDERATED INVESTORS, INC.",1056288
1072119,"EATON VANCE CORP.",350797
1083929,"INVESCO LTD",914208
1060346,"MORGAN STANLEY",895421
1051921,"COBIZ FINANCIAL INC",1028734
1060601,"BOSTON PRIVATE FINANCIAL HOLDINGS, INC.",40821127
1060734,"AMERICAN INTERNATIONAL GROUP INC.",5272
1063451,"SOUTH STATE BANK",1542445
1069129,"ROYAL BANK OF CANADA",1000275
1077689,"THE GOLDMAN SACHS GROUP, INC.",886982
1062042,"OAKTREE CAPITAL GROUP, LLC",1403528
1089765,"UNIVEST CORPORATION OF PENNSYLVANIA",102212
1092638,"AFFILIATED MANAGERS GROUP, INC.",1004434
1090939,"ADAMS DIVERSIFIED EQUITY FUND, INC.",2230
1082006,"INTERCONTINENTAL EXCHANGE, INC.",1571949
1074875,"AETNA INC.",1122304
1090408,"NORTHERN TRUST CORPORATION",73124
1092685,"FIFTH THIRD BANCORP",35527
1099319,"AFFILIATED MANAGERS GROUP INC.",1004434
1060736,"AMERICAN INTERNATIONAL GROUP INC.",5272
1064296,"THE BANK OF NEW YORK MELLON CORPORATION",1497973
1064547,"M&T BANK CORPORATION",36270
1064297,"THE BANK OF NEW YORK MELLON CORPORATION",1390777
1064523,"THE CARLYLE GROUP L.P.",1527166
1066671,"M&T BANK CORPORATION",36270
1068516,"AFFILIATED MANAGERS GROUP, INC.",1004434
1074123,"INTERCONTINENTAL EXCHANGE, INC.",1571949
1082264,"LEGG MASON, INC.",704051
1081254,"SERVICE CORPORATION INTERNATIONAL",89089
1098920,"COWEN GROUP, INC.",1466538
1099436,"CHINA FINANCE ONLINE CO. LTD",1297830
1090953,"BANK OF HAWAII CORP.",6022
1086056,"LAZARD LTD",1311370
1086056,"LAZARD GROUP LLC",1326141
1088338,"AFFILIATED MANAGERS GROUP, INC.",1004434
1099760,"MERRILL LYNCH & CO. INC.",65100
1060613,"BANK OF AMERICA CORPORATION",70858
1062537,"T. ROWE PRICE GROUP, INC.",1113169
1064472,"M&T BANK CORPORATION",36270
1064582,"THE BANK OF NEW YORK MELLON CORPORATION",1390777
1057791,"OCH-ZIFF CAPITAL MANAGEMENT GROUP LLC",1403256
1060282,"ROYAL BANK OF CANADA ('RBC')",1000275
1066012,"THE BANK OF NOVA SCOTIA",1041839
1058631,"THE TORONTO-DOMINION BANK",947263
1072977,"INVESCO LTD",914208
1081334,"BANK OF AMERICA CORPORATION",70858
1074994,"SIEBERT FINANCIAL CORPORATION",65596
1092095,"SANTANDER HOLDINGS USA, INC.",11830
1095674,"THE BANK OF NEW YORK MELLON CORPORATION",1390777
1059224,"U.S. BANCORP",36104
1058979,"T. ROWE PRICE GROUP, INC.",1113169
1060859,"DEUTSCHE BANK AG",948046
1061322,"BANK OF MONTREAL",927971
1061646,"DEUTSCHE BANK AG",948046
1078398,"T. ROWE PRICE GROUP, INC.",1113169
1075920,"ORIX CORPORATION",1070304
1085524,"FRANKLIN RESOURCES, INC.",38777
1093018,"STIFEL FINANCIAL CORP.",720672
1081137,"WILLIS TOWERS WATSON PUBLIC LIMITED COMPANY",1140536
1091007,"BRYN MAWR BANK CORP",802681
1080801,"SIGNATURE BANK",5703
1059567,"AMERIPRISE FINANCIAL, INC.",820027
1060401,"SANTANDER HOLDINGS USA, INC.",11830
1061445,"STIFEL FINANCIAL CORP.",720672
1058018,"THE GOLDMAN SACHS GROUP,INC.",886982
1058236,"JPMORGAN CHASE & CO.",19617
1063276,"REGIONS FINANCIAL CORPORATION",1281761
1064734,"THE BANK OF NEW YORK MELLON CORPORATION(SUCCESSOR TO MERGER OF MELLON FINANCIAL CORPORATION & THE BANK OF NEW YORK COMPANY, INC)",1390777
1064785,"WELLS FARGO AND COMPANY",105598
1067300,"CREDIT SUISSE GROUP AG",1159510
1068020,"FRANKLIN RESOURCES, INC.",38777
1059274,"ALLIANCEBERNSTEIN HOLDING L.P.",825313
1059274,"AXA EQUITABLE LIFE INSURANCE CO.",727920
1070976,"HFA HOLDINGS LTD",1424483
1083130,"SUNTRUST BANKS, INC.",750556
1079434,"ARROW FINANCIAL CORP.",717538
1080953,"COMMUNITY BANK N. A.",723188
1085583,"LADENBURG THALMANN FINANCIAL SERVICES, INC.",1029730
1072250,"STIFEL FINANCIAL CORPORATION",720672
1089771,"PRUDENTIAL PLC",1116578
1082729,"FEDERATED INVESTORS, INC.",1056288
1091971,"REDWOOD TRUST, INC.",930236
1092092,"SANTANDER HOLDINGS USA, INC.",11830
1086760,"MANNING & NAPIER, INC.",1524223
1088417,"JPMORGAN CHASE & CO.",19617
1071690,"STIFEL FINANCIAL CORP.",720672
1069014,"MANNING & NAPIER, INC.",1524223
1077720,"QUANTA SERVICES, INC.",1050915
1066760,"JPMORGAN CHASE & CO.",19617
1069956,"CAPITAL ONE FINANCIAL CORPORATION",927628
1071851,"VOYA FINANCIAL, INC.",1535929
1069668,"THE JONES FINANCIAL COMPANIES, L.L.L.P.",815917
1072867,"WELLS FARGO AND COMPANY",105598
1074272,"ROYAL BANK OF CANADA",1000275
1099250,"INTERCONTINENTAL EXCHANGE, INC.",1571949
1085904,"PACWEST BANCORP",1102112
1094941,"AFFILIATED MANAGERS GROUP, INC.",1004434
1088521,"CREDIT SUISSE GROUP AG",1159510
1093658,"THE PNC FINANCIAL SERVICES GROUP, INC.",713676
1086813,"SUNTRUST BANKS, INC.",750556
1061528,"THE GOVERNOR AND COMPANY OF THE BANK OF IRELAND",1022575
1061544,"THE GOVERNOR AND COMPANY OF THE BANK OF IRELAND",1022575
1058035,"THE GOLDMAN SACHS GROUP,INC.",886982
1061582,"RAYMOND JAMES FINANCIAL SERVICES, INC",52021
1061591,"DEUTSCHE BANK AG",948046
1061739,"APOLLO GLOBAL MANAGEMENT, LLC",1411494
1058029,"THE GOLDMAN SACHS GROUP, INC.",886982
1061679,"THE JONES FINANCIAL COMPANIES, L.L.L.P.",815917
1065298,"STIFEL FINANCIAL CORP.",720672
1065976,"BANK OF AMERICA CORPORATION",70858
1062826,"EATON VANCE CORP.",350797
1070889,"NOMURA HOLDINGS, INC. (FORMERLY NAMED THE NOMURA SECURITIES CO., LTD.)",1163653
1073094,"J.P. MORGAN CHASE & CO.",19617
1082864,"DEUTSCHE BANK AG",948046
1082874,"PROTECTIVE LIFE CORPORATION",355429
1077457,"AFFILIATED MANAGERS GROUP, INC.",1004434
1075541,"OPPENHEIMER HOLDINGS INC.",791963
1081145,"AFFILIATED MANAGERS GROUP, INC.",1004434
1095818,"UWHARRIE CAPITAL CORP",898171
1070711,"STIFEL FINANCIAL CORP.",720
1071914,"AEGON NV",769218
1073831,"WELLS FARGO & COMPANY",72971
1074585,"HSBC HOLDINGS PLC",1089113
1102654,"BANK OF AMERICA CORPORATION",70858
1099729,"MANULIFE FINANCIAL CORPORATION",1086888
1080597,"UBS GROUP AG",1610520
1082575,"PRUDENTIAL FINANCIAL, INC.",1137774
1092866,"WESBANCO, INC.",203596
1067228,"PRUDENTIAL FINANCIAL, INC.",1137774
1102119,"INSTITUTIONAL FINANCIAL MARKETS, INC",1270436
1067225,"PRUDENTIAL FINANCIAL, INC.",1137774
1061218,"BANK OF AMERICA CORPORATION",70858
1061221,"BANK OF AMERICA CORPORATION",70858
1044199,"SIMMONS FIRST NATIONAL CORP",90498
1064291,"THE BANK OF NEW YORK MELLON CORPORATION",1390777
1068024,"PRINCIPAL FINANCIAL GROUP, INC.",1126328
1068291,"TORONTO-DOMINION BANK",947263
1069375,"MORGAN STANLEY",895421
1071392,"BIMINI CAPITAL MANAGEMENT, INC.",1275477
1077428,"CBOE HOLDINGS, INC.",1374310
1078914,"MSCI INC.",1408198
1085336,"STATE STREET CORPORATION",93751
1074810,"WELLESLEY BANCORP, INC.",1526952
1085900,"HONEYWELL INTERNATIONAL INC.",773840
1094292,"THOMSON REUTERS CORPORATION",1075124
1095865,"PRUDENTIAL PLC",1116578
1083563,"SEI INVESTMENTS COMPANY",350894
1085227,"OPPENHEIMER HOLDINGS INC.",791963
1074493,"OPPENHEIMER HOLDINGS INC.",791963
1096149,"PRUDENTIAL PLC",1116578
1097301,"CNO FINANCIAL GROUP, INC.",122460
1084810,"THE BANK OF NEW YORK MELLON CORPORATION",1390777
1062431,"T. ROWE PRICE GROUP, INC.",1113169
1062490,"PROTECTIVE LIFE CORPORATION",355429
1073887,"LAZARD LTD",1311370
1073887,"LAZARD GROUP LLC",1326141
1061874,"LENNAR CORPORATION",5869
1080036,"DEUTSCHE BANK AG",948046
1080631,"DEUTSCHE BANK AG",948046
1064767,"JEFFERIES GROUP LLC",1084580
1080141,"THE HANOVER INSURANCE GROUP, INC",944695
1082354,"REDWOOD TRUST, INC.",930236
1077856,"CARRIAGE SERVICES, INC.",1016281
1085851,"PIPER JAFFRAY COMPANIES",724683
1068933,"PNC FINANCIAL SERVICES GROUP, INC",713676
1083638,"BRYN MAWR BANK CORP",802681
1058959,"AMERICAN INTERNATIONAL GROUP INC.",5272
1069098,"ROYAL BANK OF CANADA",1000275
1069280,"VOYA FINANCIAL, INC.",1535929
1069283,"VOYA FINANCIAL, INC.",1535929
1068842,"BLACKROCK, INC.",1364742
1056357,"OPPENHEIMER HOLDINGS INC.",791963
1074645,"SUNTRUST BANKS, INC.",750556
1074273,"GUARANTY BANCORP",1324410
1073814,"BLACKROCK, INC.",1364742
1088712,"BOK FINANCIAL CORPORATION",875357
1073551,"FINANCIAL ENGINES, INC.",1430592
1084050,"STONEMOR PARTNERS L.P.",1286131
1084050,"CORNERSTONE FAMILY SERVICES OF WEST VIRGINIA SUBSIDIARY, INC.",1488975
1084050,"HENLOPEN MEMORIAL PARK SUBSIDIARY LLC",1488980
1084050,"CORNERSTONE FAMILY SERVICES OF WEST VIRGINIA LLC",1489433
1084050,"CEMETERY MANAGEMENT SERVICES, LLC",1489181
1084050,"STOMEMORE OPERATING LLC",1488902
1094785,"JMP GROUP LLC",1302350
1100507,"OM ASSET MANAGEMENT PLC",1611702
1095776,"UBS AG",1114446
1061346,"BLUCORA, INC.",1068875
1058923,"WELLS FARGO AND COMPANY",72971
1064843,"BANK OF MONTREAL",927971
1065224,"AFFILIATED MANAGERS GROUP, INC.",1004434
1072483,"LPL FINANCIAL HOLDINGS INC.",1397911
1069731,"COLONY NORTHSTAR, INC.",1679688
1072461,"JPMORGAN CHASE & CO.",19617
1072849,"WELLS FARGO AND COMPANY",105598
1080471,"INSTITUTIONAL FINANCIAL MARKETS, INC.",1270436
1085742,"INSTITUTIONAL FINANCIAL MARKETS, INC",1270436
1085514,"OCH-ZIFF CAPITAL MANAGEMENT GROUP LLC",1403256
1084216,"BOSTON PRIVATE FINANCIAL HOLDINGS INC.",821127
1088351,"WINTRUST FINANCIAL CORPORATION",1015328
1082036,"SPROTT INC.",1512920
1089395,"CALAMOS ASSET MANAGEMENT, INC.",1299033
1093812,"WELLS FARGO AND COMPANY",105598
1087997,"AFFILIATED MANAGERS GROUP, INC.",1004434
1051272,"INTERCONTINENTAL EXCHANGE, INC.",1571949
1059915,"ROYAL BANK OF CANADA",1000275
1066783,"HANCOCK HOLDING COMPANY",750577
1045150,"FTI CONSULTING, INC.",887936
1073090,"JP MORGAN CHASE & CO",19617
1073120,"J.P. MORGAN CHASE & CO.",19617
1073215,"AMERIPRISE FINANCIAL, INC.",820027
1054031,"QUANTA SERVICES, INC.",1050915
1084786,"INTL FCSTONE INC.",91376
1090681,"MORGAN STANLEY",895421
1094799,"CITIZENS FINANCIAL GROUP",759944
1065977,"THE BANK OF NEW YORK MELLON CORPORATION",1390777
1065977,"THE BANK OF NEW YORK MELLON",1497973
1066486,"AMERICAN INTERNATIONAL GROUP, INC.",5272
1077819,"UMPQUA HOLDINGS CORP",1077771
1077797,"COWEN GROUP, INC.",1466538
1074318,"BNP PARIBAS S.A.",872786
1080185,"THE BLACKSTONE GROUP L.P.",1393818
1062489,"FRANKLIN RESOURCES, INC.",38777
1080612,"DEUTSCHE BANK AG",948046
1085559,"GAMCO INVESTORS, INC.",1060349
1080820,"POPULAR, INC.",763901
1089120,"ENVESTNET, INC.",1337619
1096105,"AFFILIATED MANAGERS GROUP, INC.",1004434
1085129,"THE BANK OF NEW YORK MELLON CORPORATION",1390777
1088590,"HANCOCK HOLDING COMPANY",750577
1077772,"ALLIANCEBERNSTEIN L.P.",1109448
1097009,"VALIDUS HOLDINGS, LTD.",1348259
1097481,"THE BANK OF NEW YORK MELLON CORPORATION",1390777
1092758,"WADDELL & REED FINANCIAL INC.",1052100
1077757,"ALLIANCEBERNSTEIN L.P.",1109448
1081896,"AMERICAN INTERNATIONAL GROUP INC",5272
1099099,"BROOKFIELD ASSET MANAGEMENT INC.",10010085
1093128,"FEDERATED INVESTORS, INC.",1056288
1099191,"AON CORPORATION",315293
1087551,"CHARLES SCHWAB & CO.",316709
1080087,"M&T BANK CORPORATION",36270
1102147,"MARSH & MCLENNAN COMPANIES, INC.",62709
1093111,"FEDERATED INVESTORS, INC.",1056288
1092835,"FEDERATED INVESTORS, INC.",1056288
1088490,"SUN LIFE FINANCIAL, INC.",1097362
1078142,"ENVESTNET, INC.",1337619
1082401,"INVESCO LTD.",914208
1074692,"WRIGHT INVESTORS' SERVICE HOLDINGS, INC.",1279715
1074413,"WRIGHT INVESTORS' SERVICE HOLDINGS, INC.",1279715
1081090,"KOHLBERG KRAVIS ROBERTS & CO. L.P.",1399770
1086511,"KKR & CO. L.P.",1404912
1102987,"WISDOM TREE INVESTMENTS INC.",880631
1087341,"THE GOLDMAN SACHS GROUP,INC.",886982
1086225,"THE GOLDMAN SACHS GROUP,INC.",886982
1087344,"THE GOLDMAN SACHS GROUP,INC.",886982
1078317,"UBS GROUP AG",1610520
1102700,"TETON ADVISORS, INC.",1444874
1085176,"SVB FINANCIAL GROUP",719739
1090716,"AFFILIATED MANAGERS GROUP, INC",1004434
1090134,"WELLS FARGO & COMPANY",105598
1084965,"THE BLACKSTONE GROUP L.P.",1393818
1090359,"CAPITAL ONE FINANCIAL CORPORATION",927628
1077247,"COHEN & STEERS, INC.",128481
1085024,"THE BLACKSTONE GROUP L.P.",1393818
1084002,"THE BLACKSTONE GROUP L.P.",1393818
1079333,"PRINCIPAL FINANCIAL GROUP INC.",1126328
1100467,"OM ASSET MANAGEMENT PLC",1611702
1080970,"COHEN & STEERS, INC.",1284812
1085201,"DEUTSCHE BANK AG",948046
1100583,"CBRE GROUP, INC.",1138118
1093246,"THE BANK OF NEW YORK MELLON CORPORATION",1390777
1088487,"OM ASSET MANAGEMENT PLC",1611702
1103370,"DEUTSCHE BANK AG",948046
1080101,"CONDUENT INCORPORATED",1677703
1079384,"BLACKROCK, INC.",1364742
1079379,"BLACKROCK, INC.",1364742
1101858,"BLUCORA, INC.",1068875
1077496,"BLACKROCK, INC.",1364742
1084996,"BLACKROCK, INC.",1364742
1079703,"OM ASSET MANAGEMENT PLC",1611702
1079367,"T. ROWE PRICE GROUP, INC.",1113169
1101807,"MORGAN STANLEY",895421
1103507,"SUN LIFE FINANCIAL INC.",109762
1075842,"MEDLEY MANAGEMENT INC.",1611110
1101914,"BROOKFIELD ASSET MANAGEMENT INC.",1001085
1092073,"INVESCO LIMITED",914208
1094034,"LPL FINANCIAL HOLDINGS INC.",1397911
1074501,"AFFILIATED MANAGERS GROUP, INC.",1004434
1091545,"AMERICAN INTERNATIONAL GROUP INC.",5272
1099503,"ARES CAPITAL CORPORATION",1287750
1083417,"MORGAN STANLEY",895421
1086414,"OCH-ZIFF CAPITAL MANAGEMENT GROUP LLC",1403256
1094847,"LADENBURG THALMANN FINANCIAL SERVICES INC.",1029730
1093809,"LPL FINANCIAL HOLDINGS INC.",1397911
1103607,"CAPITAL ONE FINANCIAL CORPORATION",927628
1071113,"ARTISAN PARTNERS ASSET MANAGEMENT INC.",1517302
1100005,"ARES MANAGEMENT, L.P.",1536937
1061466,"MARSH & MCLENNAN COMPANIES, INC.",62709
1093806,"M&T BANK CORP",36270
1099079,"THE BANK OF NEW YORK MELLON CORPORATION",1390777
1089188,"ROYAL BANK OF CANADA",1000275
1089998,"WELLS FARGO & CO",105598
1065418,"T. ROWE PRICE GROUP, INC.",1113169
1092796,"CREDIT SUISSE GROUP AG",1159510
1094813,"JPMORGAN CHASE & CO.",19617
1086048,"LEUCADIA NATIONAL CORPORATION",96223
1099462,"ARES MANAGEMENT, L.P.",1536937
1088439,"JPMORGAN CHASE & CO.",19617
1100165,"ARES MANAGEMENT, L.P.",1536937
1093832,"CARLYLE GROUP L.P.",1527166
1066625,"UBS AG",1114446
1088962,"BROOKFIELD ASSET MANAGEMENT INC.",1001085
1101731,"ENVESTNET, INC.",1337619
1060339,"MORGAN STANLEY",895421
1056103,"PRUDENTIAL FINANCIAL, INC",1137774
1061206,"LEGG MASON, INC.",704051
1063205,"HORACE MANN EDUCATORS CORPORATION",850141
1067070,"BANK OF MONTREAL",927971
1065053,"ROYAL BANK OF CANADA",1000275
1072903,"HILLTOP HOLDINGS INC.",1265131
1072014,"HSBC HOLDINGS PLC",1089113
1084022,"SUNTRUST BANKS, INC.",750556
1089541,"MORNINGSTAR, INC.",1289419
1091470,"THE PNC FINANCIAL SERVICES GROUP, INC.",713676
1079767,"CHARLES SCHWAB & CO, INC.",316709
1099025,"GREAT-WEST LIFECO INC",850918
1059666,"DAILY MAIL & GENERAL TRUST PLC",154785
1061291,"AFFILIATED MANAGERS GROUP, INC.",1004434
1062609,"DST SYSTEMS, INC.",714603
1068319,"TORONTO-DOMINION BANK",947263
1064102,"ROYAL BANK OF CANADA",1000275
1063254,"HP INC.",47217
1081465,"PIPER JAFFRAY COMPANIES",724683
1097782,"COWEN GROUP, INC.",1466538
1102771,"WADDELL & REED FINANCIAL INC.",1052100
1089202,"ASHFORD INC.",1604738
1061953,"STIFEL FINANCIAL CORPORATION",720672
1062018,"CNO FINANCIAL GROUP, INC.",122460
1064411,"OM ASSET MANAGEMENT PLC",1611702
1064500,"CITIGROUP INC.",831001
1073142,"JPMORGAN CHASE & CO.",19617
1078980,"RAYMOND JAMES FINANCIAL, INC.",705
1085113,"OM ASSET MANAGEMENT PLC",1611702
1072252,"STIFEL FINANCIAL CORPORATION",720672
1092683,"AMERIPRISE FINANCIAL, INC.",820027
1077951,"FORTRESS INVESTMENT GROUP LLC",1380393
1083236,"TIPTREE INC.",1393726
1074511,"OPPENHEIMER HOLDINGS INC.",791963
1070617,"JANUS CAPITAL GROUP INC.",1065865
1082422,"AMERIPRISE FINANCIAL, INC.",820027
1092196,"VOYA FINANCIAL, INC.",1535929
1089311,"APOLLO GLOBAL MANAGEMENT, LLC",1411494
1083705,"VIRTUS INVESTMENT PARTNERS, INC.",883237
1099885,"BALLANTYNE STRONG, INC.",946454
1089767,"INSTITUTIONAL FINANCIAL MARKETS, INC",1270436
1079567,"ORIX CORPORATION",1070304
1083748,"VIRTUS INVESTMENT PARTNERS, INC.",883237
1082555,"PRUDENTIAL FINANCIAL INC",1137774
1101248,"BANK OF NEW YORK MELLON CORPORATION",1390777
1077303,"UNITED STATES STEEL CORPORATION",1163302
1088383,"JONES LANG LASALLE INCORPORATED",1037976
1102307,"HILLTOP HOLDINGS INC.",1265131
1076542,"LINCOLN NATIONAL CORPORATION",59558
1102421,"THE BLACKSTONE GROUP L.P.",1393818
1086873,"AFFILIATED MANAGERS GROUP, INC. (""AMG"")",1004434
1102290,"THE BLACKSTONE GROUP L.P.",1393818
1086292,"KCAP FINANCIAL, INC.",1372807
1088904,"INVESCO, LTD.",914208
1092773,"PRIMERICA, INC.",147592
1102474,"MITSUBISHI UFJ FINANCIAL GROUP, INC.",67088
1102474,"MUFG AMERICAS HOLDINGS CORP.",1011659
1090066,"THE BLACKSTONE GROUP L.P.",1393818
1090123,"THE BLACKSTONE GROUP L.P.",1393818
1089431,"THE BLACKSTONE GROUP L.P.",1393818
1065185,"UBS AG",1114446
1070159,"LINCOLN NATIONAL CORPORATION",59558
1070193,"LINCOLN NATIONAL CORPORATION",59558
1069109,"TORONTO-DOMINION BANK",947263
1067645,"JANUS CAPITAL GROUP INC.",106586
1069398,"AFFILIATED MANAGERS GROUP, INC.",1004434
1070728,"THE GOLDMAN SACHS GROUP, INC.",886982
1076089,"HSBC HOLDINGS PLC",108913
1060115,"DIAMOND HILL INVESTMENT GROUP, INC.",909108
1098767,"OPERATIVE CAPITAL L.P.",161613
1078437,"STIFEL FINANCIAL CORP.",720672
1060768,"BANK OF AMERICA CORPORATION",70858
1060801,"MORGAN STANLEY",895421
1060809,"STIFEL FINANCIAL CORP.",720672
1061806,"THE GOLDMAN SACHS GROUP, INC.",886982
1069185,"BLACKROCK, INC.",1364742
1069187,"BLACKROCK, INC.",1364742
1069196,"BLACKROCK, INC.",1364742
1073738,"J.P. MORGAN CHASE & CO.",19617
1073140,"JPMORGAN CHASE & CO.",19617
1073876,"LAZARD LTD",1311370
1073876,"LAZARD GROUP LLC",1326141
1072041,"BOSTON PRIVATE FINANCIAL HOLDINGS, INC.",40821127
1064266,"AFFILIATED MANAGERS GROUP, INC.",1004434
1059683,"UMPQUA HOLDINGS CORP",1077771
1085908,"LEGG MASON INC.",704051
1082151,"NORTHWEST BANCSHARES, INC.",147126
1085782,"GLAMORGAN PARTNERS LP",1486039
1064258,"MB FINANCIAL, INC.",113981
1093705,"CITIZENS FINANCIAL GROUP",759944
1060993,"MB FINANCIAL, INC.",1139812
1079236,"VALLEY NATIONAL BANCORP",714310
1060096,"BANK OF MONTREAL",927971
1059404,"FINANCIAL ENGINES, INC.",1430592
1060225,"LPL FINANCIAL HOLDINGS INC.",1397911
1065174,"PRUDENTIAL PLC",1116578
1067064,"THE BANK OF NEW YORK MELLON CORPORATION",1390777
1076905,"AFFILIATED MANAGERS GROUP, INC",1004434
1082860,"UMB FINANCIAL CORP",101382
1096805,"MANULIFE FINANCIAL CORPORATION",1086888
1095936,"AFFILILATED MANAGERS GROUP INC",1004434
1098948,"MORNINGSTAR, INC.",1289419
1063895,"CBIZ INC",944148
1101476,"INTERCONTINENTAL EXCHANGE, INC.",1571949
1099024,"PROTECTIVE LIFE CORPORATION",355429
1087578,"PZENA INVESTMENT MANAGEMENT, INC.",1399249
1101541,"VOYA FINANCIAL INC.",1535929
1095028,"ALLIED WORLD ASSURANCE CO HOLDINGS, AG",1163348
1087267,"AFFILIATED MANAGERS GROUP, INC.",1004434
1097332,"BANK OF MONTREAL",9622
1089933,"AFFILIATED MANAGERS GROUP, INC.",1004434
1078353,"COLONY NORTHSTAR, INC.",1679688
1081600,"BB&T CORPORATION",92230
1100291,"WOODSTOCK HOLDINGS, INC.",1095373
1079080,"THE CARLYLE GROUP L.P.",1527166
1074337,"FORTRESS INVESTMENT GROUP LLC",1380393
1077189,"THE CARLYLE GROUP L.P.",1527166
1100918,"RCS CAPITAL CORPORATION",1568832
1067164,"PRUDENTIAL FINANCIAL, INC.",1137774
1085184,"THE HARTFORD FINANCIAL SERVICES GROUP, INC.",874766
1081030,"THE GOLDMAN SACHS GROUP, INC.",886982
1088873,"WELLS FARGO AND COMPANY",72971
1102059,"NATIONAL HOLDINGS CORPORATION",1023844
1102059,"FORTRESS BIOTECH, INC",1429260
1088089,"LINCOLN NATIONAL CORPORATION",59558
1092009,"NEW YORK COMMUNITY BANCORP",910073
1075722,"BB&T CORP",92230
1083343,"AXA EQUITABLE LIFE INSURANCE COMPANY",727920
1092238,"NORTHSTAR REALTY FINANCE CORP.",1273801
1092187,"THE BANK OF NEW YORK MELLON CORPORATION",1390777
1078663,"LEUCADIA NATIONAL CORPORATION",96223
1094060,"E*TRADE FINANCIAL CORPORATION INC.",1015780
1102223,"BANK OF NEW YORK MELLON CORPORATION",1390777
1085243,"DEUTSCHE BANK AG",948046
1095542,"MANULIFE FINANCIAL CORPORATION",1086888
1083633,"AFFILIATED MANAGERS GROUP",1004434
1095770,"AFFILIATED MANAGERS GROUP, INC.",1004434
1102245,"HILLTOP HOLDINGS INC.",1265131
1062366,"BROOKFIELD ASSET MANAGEMENT INC.",1001085
1089898,"CREDIT SUISSE GROUP AG",1159510
1102430,"THE BLACKSTONE GROUP L.P.",1393818
1102433,"THE BLACKSTONE GROUP L.P.",1393818
1092428,"THE BLACKSTONE GROUP L.P.",1393818
1087940,"AFFILIATED MANAGERS GROUP, INC.",1004434
1090054,"THE BLACKSTONE GROUP L.P.",1393818
1100285,"THE CARLYLE GROUP, L.P.",1527166
1101392,"AFFILIATED MANAGERS GROUP, INC.",1004434
1092489,"THE BLACKSTONE GROUP L.P.",1393818
1092637,"THE BLACKSTONE GROUP L.P.",1393818
1064951,"THE BANK OF NEW YORK MELLON CORPORATION",1390777
1064974,"WELLS FARGO AND COMPANY",105598
1065020,"BB&T CORPORATION",92230
1077500,"PRUDENTIAL FINANCIAL, INC.",1137774
1081827,"AMERICAN INTERNATIONAL GROUP, INC.",5272
1069258,"COWEN GROUP INC.",1466538
1096768,"BANK OF AMERICA CORPORATION",70858
1098206,"CITIZENS FINANCIAL GROUP",759944
1090964,"JOHN HANCOCK LIFE INSURANCE CO USA",1073894
1089315,"EVERCORE PARTNERS INC.",1360901
1083527,"NOMURA HOLDINGS, INC.",1163653
1097720,"COWEN GROUP INC",1466538
1095998,"BRYN MAWR BANK CORPORATION",802681
1100276,"SIGNATURE BANK",5703
1094503,"NORTHERN TRUST CORPORATION",73124
1083127,"PRUDENTIAL PLC",1116578
