"FilingID","ReferenceID","SubreferenceID","Private Fund Name","Fund ID","State","Country","3(c)(1) Exclusion","3(c)(7) Exclusion"
1126215,173007,117196,"QUANTZ QUARK EQUITY MARKET NEUTRAL FUND, LP",805-6893519619,"Delaware","United States","Y","N"
1126215,173007,117197,"QUANTZ QUARK EMN OFFSHORE FUND, LTD.",805-9793087259,"","Cayman Islands","Y","N"
1134387,173116,117091,"OCEANWOOD PERIPHERAL EUROPEAN SELECT OPPORTUNITIES FUND LTD",805-8999623464,"","Cayman Islands","N","Y"
1134387,15648,3202,"OCEANWOOD OPPORTUNITIES FUND",805-3920170910,"","Cayman Islands","N","Y"
1134387,15648,3203,"OCEANWOOD OPPORTUNITIES FUND LP",805-3615154435,"Delaware","United States","N","Y"
1130753,28988,5344,"TAURUS RESOURCES FUND II LTD",805-8666663022,"","Cayman Islands","N","Y"
1130753,28988,5346,"TAURUS RESOURCES FUND III LLC",805-7527553200,"Delaware","United States","N","Y"
1130753,29406,5351,"TAURUS RESOURCES FUND NO. 2 LTD",805-2116484596,"","Cayman Islands","N","Y"
1130753,65481,13358,"TAURUS MINING FINANCE FUND LTD",805-1193631624,"","Cayman Islands","N","Y"
1130753,65481,13359,"TAURUS MINING FINANCE FUND LLC",805-5527538402,"Delaware","United States","N","Y"
1130753,29406,5353,"TAURUS RESOURCES FUND NO. 2 LLC",805-4317759556,"Delaware","United States","N","Y"
1130753,192161,121201,"TAURUS MINING FINANCE ANNEX FUND LTD",805-9164499150,"","Cayman Islands","N","Y"
1130753,192161,121202,"TAURUS MINING FINANCE ANNEX FUND LLC",805-3509461658,"Delaware","United States","N","Y"
1126517,31387,5714,"PRIVATE CAPITAL PORTFOLIO L.P.",805-8721303887,"","United Kingdom","Y","Y"
1128167,185485,120063,"ATHOS ASIA EVENT DRIVEN OFFSHORE FUND",805-7971013898,"","Cayman Islands","N","Y"
1128167,185485,120064,"ATHOS ASIA EVENT DRIVEN ONSHORE FUND",805-4881792550,"","Cayman Islands","N","Y"
1142139,44430,14102,"TYRUS CAPITAL OPPORTUNITIES FUND, L.P.",805-9423536706,"","Cayman Islands","N","Y"
1142139,44430,8019,"TYRUS CAPITAL EVENT FUND LIMITED",805-9553849450,"","Cayman Islands","N","Y"
1142139,44430,14101,"TYRUS CAPITAL OPPORTUNITIES FUND LIMITED",805-1574683702,"","Cayman Islands","N","Y"
1142139,192715,121947,"TYRUS CAPITAL M&A FUND LIMITED",805-6747046620,"","Cayman Islands","N","Y"
1142139,192715,121948,"TYRUS CAPITAL M&A FUND, L.P",805-8933689006,"","Cayman Islands","N","Y"
1142139,44430,8022,"TYRUS CAPITAL EVENT FUND, L.P.",805-1565693646,"","Cayman Islands","N","Y"
1128694,185485,120063,"ATHOS ASIA EVENT DRIVEN OFFSHORE FUND",805-7971013898,"","Cayman Islands","N","Y"
1128694,185485,120064,"ATHOS ASIA EVENT DRIVEN ONSHORE FUND",805-4881792550,"","Cayman Islands","N","Y"
1131113,44417,13130,"ACTIVUM SG FEEDER FUND I C L.P.",805-8732244489,"","Jersey","Y","N"
1131113,44418,13131,"ACTIVUM SG FEEDER FUND II L.P.",805-8154653098,"","Jersey","Y","N"
1131113,73211,33370,"ACTIVUM SG FORMART CO-INVESTMENT FEEDER L.P.",805-5502378497,"","Jersey","Y","N"
1131113,64578,13129,"ACTIVUM SG FEEDER FUND III L.P.",805-9724771986,"","Jersey","Y","N"
1131113,176363,117709,"ACTIVUM SG IBERIA FEEDER FUND I L.P.",805-7119939593,"","Jersey","Y","N"
1131113,192191,121216,"ACTIVUM SG FEEDER FUND V L.P.",805-4909818724,"","Jersey","Y","N"
1139755,57976,13469,"ARCAPITA VENTURES I HOLDING COMPANY LIMITED",805-2231578671,"","Cayman Islands","Y","Y"
1125554,44430,8019,"TYRUS CAPITAL EVENT FUND LIMITED",805-9553849450,"","Cayman Islands","N","Y"
1125554,44430,14102,"TYRUS CAPITAL OPPORTUNITIES FUND, L.P.",805-9423536706,"","Cayman Islands","N","Y"
1125554,44430,14101,"TYRUS CAPITAL OPPORTUNITIES FUND LIMITED",805-1574683702,"","Cayman Islands","N","Y"
1125554,44430,8022,"TYRUS CAPITAL EVENT FUND, L.P.",805-1565693646,"","Cayman Islands","N","Y"
1144116,188781,120674,"TREZ US #1  INVESTMENT PARTNERSHIP LP",805-6111860971,"Delaware","United States","Y","N"
1144116,185823,120225,"TREZ US #2  INVESTMENT PARTNERSHIP LP",805-9934482693,"Delaware","United States","Y","N"
1127914,76258,117727,"INVICTUS OPPORTUNITY OFFSHORE FEEDER, L.P.",805-9422803145,"","Cayman Islands","N","Y"
1127914,68643,14040,"INVICTUS MANAGED ACCOUNT-P FEEDER, L.P.",805-9860094631,"","United Kingdom","N","Y"
1129789,48602,8922,"GOSHAWK HOLDINGS LIMITED",805-7868181463,"","Cayman Islands","Y","N"
1129789,65195,13315,"OVAL HOLDINGS LIMITED",805-7144568905,"","Cayman Islands","Y","N"
1135957,66509,13710,"BTA US SERIES PLATFORM LLC, SERIES B COLUMBUS",805-9789696662,"Delaware","United States","N","Y"
1135957,66509,13711,"CONCORDE COLUMBUS GLOBAL OPPORTUNITY OFFSHORE FUND, LTD",805-7901697098,"","Cayman Islands","N","Y"
1135957,66510,13713,"BTA SERIES PLATFORM LLC  SERIES A PI",805-1640302777,"Delaware","United States","N","Y"
1135957,66510,13714,"CONCORDE I ALTERNATIVE INVESTMENT FUND LTD.",805-3614122095,"","Cayman Islands","N","Y"
1142502,40113,7331,"TRAFALGAR COPLEY FUND LP",805-1681718179,"","Cayman Islands","N","Y"
1142502,40113,7332,"TRAFALGAR COPLEY NZ FUND LIMITED",805-6561630914,"","Cayman Islands","N","Y"
1142502,40113,7329,"TRAFALGAR COPLEY FUND LIMITED",805-1646380845,"","Cayman Islands","N","Y"
1125719,191739,121152,"HEWES FUND, LP",805-7577859559,"Delaware","United States","Y","N"
1122065,191328,121063,"PARQUET CAPITAL I (CAYMAN), LTD.",805-3867110051,"","Cayman Islands","N","Y"
1122065,191328,121064,"PARQUET CAPITAL I, LLC",805-6677059112,"Delaware","United States","N","Y"
1131398,168454,116029,"CROSS OCEAN EUR ESS FUND I CO-INVEST FEEDER L.P.",805-8224665175,"","Cayman Islands","Y","N"
1131398,168454,116028,"CROSS OCEAN EUR ESS FUND I CAYMAN FEEDER L.P.",805-5733870305,"","Cayman Islands","Y","N"
1131398,168462,116030,"CROSS OCEAN USD ESS FUND I CAYMAN FEEDER L.P.",805-4427352601,"","Cayman Islands","Y","N"
1131398,168462,116031,"CROSS OCEAN USD ESS FUND I DEL. FEEDER L.P.",805-2290049844,"","Cayman Islands","Y","N"
1131398,185904,120173,"CROSS OCEAN EUR ESS FUND II CAYMAN FEEDER L.P.",805-6944318246,"","Cayman Islands","Y","N"
1131398,185904,120174,"CROSS OCEAN EUR ESS FUND II CO-INVEST FEEDER L.P.",805-1122705876,"","Cayman Islands","Y","N"
1131398,186235,120242,"CROSS OCEAN USD ESS FUND II CAYMAN FEEDER L.P.",805-3493484146,"","Cayman Islands","Y","N"
1131398,186235,120243,"CROSS OCEAN USD ESS FUND II DEL FEEDER L.P.",805-6591193615,"Delaware","United States","Y","N"
1139899,34655,6634,"RP EXPLORER FUND (CYPRUS) LIMITED",805-8448178954,"","Cyprus","Y","N"
1139899,34655,6432,"RP EXPLORER FUND",805-4613467789,"","Cayman Islands","Y","N"
1139899,34655,6442,"RP EXPLORER FUND LLC",805-8265692511,"Delaware","United States","Y","N"
1139899,36600,6963,"JAPAN OPPORTUNITIES FUND",805-6980817344,"","Cayman Islands","Y","N"
1139899,36600,6965,"JAPAN OPPORTUNITIES FUND (CYPRUS) LIMITED",805-2439935589,"","Cyprus","Y","N"
1133322,193053,122029,"NIATROSS INVESTMENTS ASIA OPPORTUNITIES FEEDER FUND",805-7578269850,"","Cayman Islands","N","Y"
1142271,65425,13336,"WYETREE EUROPEAN RECOVERY FUND",805-6519804363,"","Ireland","N","Y"
1142271,65425,13337,"WYETREE EUROPEAN RECOVERY FUND LP",805-6106870689,"","Ireland","N","Y"
1142271,32502,6258,"RESIDENTIAL REAL ESTATE TOTAL RETURN OPPORTUNITIES FUND LTD",805-8511494640,"","Cayman Islands","N","Y"
1142271,32502,6261,"RESIDENTIAL REAL ESTATE TOTAL RETURN OPPORTUNITIES FUND L.P.",805-4482009401,"Delaware","United States","N","Y"
1139768,58109,11735,"ARCAPITA VENTURES I HOLDING COMPANY LIMITED",805-2231578671,"","Cayman Islands","Y","Y"
1143721,64503,13093,"WINTON DIVERSIFIED FUTURES FUND (US) L.P.",805-2838865664,"Delaware","United States","N","Y"
1143721,64490,13277,"THE WINTON EVOLUTION FUND",805-6708134764,"","Cayman Islands","N","Y"
1143721,64504,13094,"WINTON DIVERSIFIED STRATEGY FUND (US) L.P.",805-8202755881,"Delaware","United States","N","Y"
1143721,180259,118413,"WINTON DIVERSIFIED INSTITUTIONAL FUND",805-9588752062,"","Ireland","N","Y"
1129677,190604,120934,"LIMIAR FUND (CAYMAN) LP",805-4319780206,"","Cayman Islands","N","Y"
1129677,190604,120933,"LIMIAR FUND (DELAWARE) LP",805-9659033987,"Delaware","United States","N","Y"
1128233,184510,119841,"AQS EUROPEAN ALPHA FUND LLC",805-5076446275,"Delaware","United States","N","Y"
1128233,184510,119843,"AQS SPC, EUROPEAN ALPHA FUND SP",805-6403203806,"","Cayman Islands","N","Y"
1128233,184510,119842,"AQS EUROPEAN ALPHA FUND LTD",805-3237244394,"","Cayman Islands","N","Y"
1128173,191877,121172,"HOLLYPORT SECONDARY OPPORTUNITIES VI LP",805-7003034882,"","Jersey","N","Y"
1129340,27006,4948,"ROYALCAP VALUE FUND, LTD.",805-2503499491,"","Cayman Islands","Y","N"
1125629,178345,118023,"OLD PEAK ASIA FUND LTD.",805-9171437799,"","Cayman Islands","N","Y"
1130115,16005,3239,"KS INTERNATIONAL, INC.",805-5416483350,"","British Virgin Islands","N","Y"
1130115,16005,11918,"KS CAPITAL PARTNERS, L.P.",805-4638304453,"Delaware","United States","N","Y"
1139137,177280,117830,"BH-DG SYSTEMATIC TRADING FUND L.P.",805-4604229177,"Delaware","United States","N","Y"
1139137,177280,117829,"BH-DG SYSTEMATIC TRADING FUND LIMITED",805-9090397459,"","Cayman Islands","N","Y"
1137473,193045,122034,"PSG GLOBAL ALPHA FUND L.P.",805-5902356580,"Delaware","United States","Y","N"
1137473,193045,122031,"PSG GLOBAL ALPHA FEEDER FUND LIMITED",805-7319697640,"","Cayman Islands","Y","N"
1142441,193515,122139,"THE BLU FUND, LTD.",805-1286123359,"","Cayman Islands","Y","N"
1124061,75435,121157,"ASIAN OPPORTUNITIES ABSOLUTE RETURN US FEEDER FUND LIMITED",805-6321661268,"","Cayman Islands","Y","N"
1124061,64945,13254,"ASIAN EQUITY SPEICAL OPPORTUNITIES PORTFOLIO LIMITED",805-2511452204,"","Cayman Islands","Y","N"
1124061,75435,46394,"ASIAN OPPORTUNITIES ABSOLUTE RETURN FUND LIMITED",805-9372897226,"","Cayman Islands","Y","N"
1124061,183956,119754,"ASIAN HEALTHCARE DISCOVERY FUND",805-3364683899,"","Cayman Islands","Y","N"
1124061,64945,121161,"ASIAN EQUITY SPECIAL OPPORTUNITIES PORTFOLIO US FEEDER FUND LIMITED",805-4226754273,"","Cayman Islands","Y","N"
1128449,171153,116746,"HILLTOP FUNDS MASTER ICAV - CORE SELECT FUND UST LEVERAGED FEEDER",805-8158441187,"","Ireland","N","Y"
1128449,171153,116747,"HILLTOP FUNDS ROW ICAV - CORE SELECT FUND ROW FEEDER",805-3454120094,"","Ireland","N","Y"
1128449,171153,116748,"HILLTOP FUNDS ROW ICAV - CORE SELECT FUND ROW LEVERAGED FEEDER",805-7097822290,"","Ireland","N","Y"
1128449,171153,116745,"HILLTOP FUNDS MASTER ICAV - CORE SELECT FUND UST FEEDER",805-2671836782,"","Ireland","N","Y"
1131331,40506,121141,"POLAR LONG/SHORT FUND US LP",805-3468615163,"Delaware","United States","N","Y"
1131331,43416,118037,"POLAR MULTI-STRATEGY FUND",805-4708458066,"","Cayman Islands","N","Y"
1131331,43416,118035,"POLAR MULTI-STRATEGY FUND (LEGACY)",805-7691766952,"","Cayman Islands","N","Y"
1131331,43416,118036,"POLAR MULTI-STRATEGY FUND (US) LP",805-3498150038,"Delaware","United States","N","Y"
1131331,40506,121140,"POLAR LONG/SHORT FUND",805-1419654205,"","Cayman Islands","N","Y"
1131891,56047,11103,"ARUNDEL HEDGED OFFSHORE LTD",805-7682185314,"","Cayman Islands","Y","N"
1135143,192744,121960,"SHREWSBURY RIVER CAPITAL CMBS EVENT-DRIVEN FUND LTD.",805-7886708513,"","Cayman Islands","Y","N"
1135143,192744,121959,"SHREWSBURY RIVER CAPITAL CMBS EVENT-DRIVEN FUND LP",805-7762262504,"Delaware","United States","Y","N"
1121700,63667,12899,"MACROSYNERGY TRADING FUND LIMITED",805-7165020311,"","Cayman Islands","Y","Y"
1121700,63667,12900,"MACROSYNERGY TRADING FUND LP",805-6226397215,"","Cayman Islands","Y","Y"
1140517,168225,116009,"CQS AIGUILLE DU CHARDONNET FF S.C.A. SICAV-SIF",805-9292779020,"","Luxembourg","N","Y"
1140495,73736,39368,"CQS GLOBAL CONVERTIBLE ARBITRAGE FEEDER FUND LIMITED",805-8869198690,"","Cayman Islands","N","Y"
1140495,27676,7134,"CQS DIRECTIONAL OPPORTUNITIES FEEDER FUND LIMITED",805-8129460675,"","Cayman Islands","N","Y"
1140495,27676,7136,"CQS DIRECTIONAL OPPORTUNITIES FEEDER FUND, LP",805-1919423369,"Delaware","United States","N","Y"
1140495,27184,6961,"CQS ABS FEEDER FUND LIMITED",805-6339203210,"","Cayman Islands","N","Y"
1129342,27006,4948,"ROYALCAP VALUE FUND, LTD.",805-2503499491,"","Cayman Islands","Y","N"
1126236,120357,83389,"RASCASSE CAPITAL LIMITED",805-8187313863,"","Cayman Islands","Y","N"
1131114,65827,13451,"LIQUIDALTS H2O FORCE 10 FEEDER FUND",805-5828069236,"","Jersey","N","Y"
1125454,47586,8704,"LNG EUROPA CREDIT FUND LIMITED",805-8173689281,"","Cayman Islands","N","Y"
1125454,47586,12692,"LNG EUROPA CREDIT FUND LP",805-7005982088,"Delaware","United States","N","Y"
1135560,66509,13710,"BTA US SERIES PLATFORM LLC, SERIES B COLUMBUS",805-9789696662,"Delaware","United States","N","Y"
1135560,66509,13711,"CONCORDE COLUMBUS GLOBAL OPPORTUNITY OFFSHORE FUND, LTD",805-7901697098,"","Cayman Islands","N","Y"
1135560,66510,13713,"BTA SERIES PLATFORM LLC  SERIES A PI",805-1640302777,"Delaware","United States","N","Y"
1135560,66510,13714,"CONCORDE I ALTERNATIVE INVESTMENT FUND LTD.",805-3614122095,"","Cayman Islands","N","Y"
1141148,193346,122085,"COLLECTIVE WISDOM FUND LTD.",805-1947275089,"","Cayman Islands","N","Y"
1141148,193346,122075,"COLLECTIVE WISOM FUND LP",805-9457787982,"Delaware","United States","N","Y"
1142852,7538,4431,"MOUNTGRANGE REAL ESTATE OPPORTUNITY FUND (S) L.P.",805-2161201142,"","United Kingdom","Y","Y"
1142852,7538,118029,"MOREOF (PARALLEL I) UNIT TRUST",805-3399584008,"","Isle of Man","Y","Y"
1142852,7538,5000,"MOREOF (PARALLEL II) L.P.",805-8499997407,"","United Kingdom","Y","Y"
1142852,7538,5339,"MOUNTGRANGE REAL ESTATE OPPORTUNITY FUND L.P.",805-7995250414,"","United Kingdom","Y","Y"
1131103,36257,7049,"SISU CAPITAL FUND LIMITED",805-7464278336,"","Cayman Islands","Y","Y"
1130819,47327,8649,"WHARD STEWART PARTNERS, L.P.",805-9780696843,"Delaware","United States","N","Y"
1130819,47327,8648,"WHARD STEWART FUND LIMITED",805-1078196948,"","Cayman Islands","N","Y"
1142100,64503,13093,"WINTON DIVERSIFIED FUTURES FUND (US) L.P.",805-2838865664,"Delaware","United States","N","Y"
1142100,64490,13277,"THE WINTON EVOLUTION FUND",805-6708134764,"","Cayman Islands","N","Y"
1142100,64504,13094,"WINTON DIVERSIFIED STRATEGY FUND (US) L.P.",805-8202755881,"Delaware","United States","N","Y"
1142100,180259,118413,"WINTON DIVERSIFIED INSTITUTIONAL FUND",805-9588752062,"","Ireland","N","Y"
1143491,43711,7921,"IGCF FEEDER FUND L.P.",805-8792379527,"","Cayman Islands","N","Y"
1143491,43707,7920,"THE ABOF II CO-INVESTMENT FUND L.P.",805-8252817131,"","Cayman Islands","N","Y"
1127626,65425,13336,"WYETREE EUROPEAN RECOVERY FUND",805-6519804363,"","Ireland","N","Y"
1127626,65425,13337,"WYETREE EUROPEAN RECOVERY FUND LP",805-6106870689,"","Ireland","N","Y"
1127626,32502,6258,"RESIDENTIAL REAL ESTATE TOTAL RETURN OPPORTUNITIES FUND LTD",805-8511494640,"","Cayman Islands","N","Y"
1127626,32502,6261,"RESIDENTIAL REAL ESTATE TOTAL RETURN OPPORTUNITIES FUND L.P.",805-4482009401,"Delaware","United States","N","Y"
1127354,179831,118263,"WHITE SQUARE PARTNERS FUND INC.",805-1719536772,"","Cayman Islands","N","Y"
1127354,179831,118262,"WHITE SQUARE PARTNERS FUND, LLC",805-4852315282,"Delaware","United States","N","Y"
1133985,15003,3139,"PRIVATE EQUITY VENTURE PARTNERS IV, LTD.",805-6256395006,"","Cayman Islands","Y","N"
1133985,15005,3140,"PRIVATE EQUITY VENTURE PARTNERS V, LTD.",805-8410776565,"","Cayman Islands","Y","N"
1133985,15029,3142,"PRIVATE EQUITY SELECT FUND II, LTD.",805-2680286447,"","Cayman Islands","Y","N"
1133327,44430,8019,"TYRUS CAPITAL EVENT FUND LIMITED",805-9553849450,"","Cayman Islands","N","Y"
1133327,44430,14102,"TYRUS CAPITAL OPPORTUNITIES FUND, L.P.",805-9423536706,"","Cayman Islands","N","Y"
1133327,44430,14101,"TYRUS CAPITAL OPPORTUNITIES FUND LIMITED",805-1574683702,"","Cayman Islands","N","Y"
1133327,44430,8022,"TYRUS CAPITAL EVENT FUND, L.P.",805-1565693646,"","Cayman Islands","N","Y"
1133327,192715,121947,"TYRUS CAPITAL M&A FUND LIMITED",805-6747046620,"","Cayman Islands","N","Y"
1133327,192715,121948,"TYRUS CAPITAL M&A FUND, L.P",805-8933689006,"","Cayman Islands","N","Y"
1128878,192044,121962,"KOYOTE CAPITAL GROUP LLC",805-8481672293,"Delaware","United States","Y","N"
1128878,192044,121182,"SCHOTTENFELD GROUP HOLDINGS, L.P.",805-8082105684,"Delaware","United States","Y","N"
1141856,44430,14102,"TYRUS CAPITAL OPPORTUNITIES FUND, L.P.",805-9423536706,"","Cayman Islands","N","Y"
1141856,44430,8019,"TYRUS CAPITAL EVENT FUND LIMITED",805-9553849450,"","Cayman Islands","N","Y"
1141856,44430,14101,"TYRUS CAPITAL OPPORTUNITIES FUND LIMITED",805-1574683702,"","Cayman Islands","N","Y"
1141856,44430,8022,"TYRUS CAPITAL EVENT FUND, L.P.",805-1565693646,"","Cayman Islands","N","Y"
1141856,192715,121947,"TYRUS CAPITAL M&A FUND LIMITED",805-6747046620,"","Cayman Islands","N","Y"
1141856,192715,121948,"TYRUS CAPITAL M&A FUND, L.P",805-8933689006,"","Cayman Islands","N","Y"
1140139,184844,119907,"SJ JIACHENG US INVESTMENT IX, LP",805-6293266448,"","Cayman Islands","Y","Y"
1140139,183192,121014,"SJ JIACHENG US INVESTMENT II, LP",805-9867665168,"","Cayman Islands","Y","Y"
1140139,183193,121015,"SJ JIACHENG US INVESTMENT IX, LP",805-6293266448,"","Cayman Islands","Y","Y"
1140139,184839,121007,"SJ JIACHENG US INVESTMENT II, LP",805-9867665168,"","Cayman Islands","Y","Y"
1140139,190934,121008,"SJ JIACHENG US INVESTMENT II, LP",805-9867665168,"","Cayman Islands","Y","Y"
1140139,190933,121006,"SJ JIACHENG US INVESTMENT IX, LP",805-6293266448,"","Cayman Islands","Y","Y"
1141324,193367,122082,"TRENCHANT CAPITAL OFFSHORE FUND, LTD",805-4095130998,"","Cayman Islands","N","Y"
1141324,193367,122081,"TRENCHANT CAPITAL ONSHORE FUND, LP",805-9149068760,"Delaware","United States","N","Y"
1138641,193083,122036,"THE FAR EAST VALUE FUND LIMITED",805-4963436063,"","Cayman Islands","N","Y"
1138641,64763,13194,"PEDDER STREET ASIA ABSOLUTE RETURN FUND LIMITED",805-5410216716,"","Cayman Islands","N","Y"
1125022,39580,7467,"MIDMARK CAPITAL II, L.P.",805-9148698025,"Delaware","United States","Y","N"
1117604,28806,5289,"CX PARTNERS FUND ALPHA LIMITED",805-8203494132,"","Cayman Islands","N","Y"
1117604,28806,5290,"CX PARTNERS FUND LIMITED",805-8142840951,"","Cayman Islands","N","Y"
1117604,28806,6786,"CX PARTNERS FUND ALPHA LP",805-5067969724,"","Cayman Islands","N","Y"
1131802,64908,13240,"SOZO FEEDER FUND, L.L.C.",805-4007464977,"Delaware","United States","Y","N"
1131802,64908,61375,"SOZO-TRUEBRIDGE CAYMAN LP",805-5411239503,"","Cayman Islands","Y","N"
1130533,192164,121204,"ISHANA CAPITAL OFFSHORE FUND",805-6478076548,"","Cayman Islands","N","Y"
1130533,192164,121205,"ISHANA CAPITAL ONSHORE FUND",805-8541434007,"","Cayman Islands","N","Y"
1119483,191012,121026,"THAMES ABSOLUTE RETURN OFFSHORE FUND, LTD.",805-8693868153,"","Cayman Islands","Y","N"
1119483,191012,121027,"THAMES ABSOLUTE RETURN FUND, LP",805-6989342729,"Delaware","United States","Y","N"
1126756,167248,115825,"ROC ASIA PACIFIC PRIVATE EQUITY FUND III B L.P.",805-1329122595,"","Cayman Islands","N","Y"
1126756,167248,115824,"ROC ASIA PACIFIC PRIVATE EQUITY FUND III A L.P.",805-9372553252,"","Cayman Islands","N","Y"
1126756,120449,83406,"ROC ASIA PACIFIC CO-INVESTMENT OFFSHORE FUND, LP",805-5347507975,"","Cayman Islands","N","Y"
1126756,120448,83405,"ROC ASIA PACIFIC PRIVATE EQUITY OFFSHORE FUND II,LP",805-8534091796,"","Cayman Islands","N","Y"
1126692,190948,121112,"BLUEDRIVE GLOBAL INVESTORS FUND LIMITED",805-1801482049,"","Cayman Islands","N","Y"
1126692,190948,121113,"BLUEDRIVE GLOBAL INVESTORS FUND LP",805-2513847954,"Delaware","United States","N","Y"
1134246,167357,115843,"HONEYCOMB ECONOMIC DEVELOPMENT (CAYMAN) FUND, L.P.",805-1504288007,"","Cayman Islands","Y","N"
1136963,179909,118270,"CEH FEEDER I L.P.",805-8847521848,"","Cayman Islands","Y","Y"
1136081,44430,8019,"TYRUS CAPITAL EVENT FUND LIMITED",805-9553849450,"","Cayman Islands","N","Y"
1136081,44430,14102,"TYRUS CAPITAL OPPORTUNITIES FUND, L.P.",805-9423536706,"","Cayman Islands","N","Y"
1136081,44430,14101,"TYRUS CAPITAL OPPORTUNITIES FUND LIMITED",805-1574683702,"","Cayman Islands","N","Y"
1136081,44430,8022,"TYRUS CAPITAL EVENT FUND, L.P.",805-1565693646,"","Cayman Islands","N","Y"
1136081,192715,121947,"TYRUS CAPITAL M&A FUND LIMITED",805-6747046620,"","Cayman Islands","N","Y"
1136081,192715,121948,"TYRUS CAPITAL M&A FUND, L.P",805-8933689006,"","Cayman Islands","N","Y"
1141819,44430,14102,"TYRUS CAPITAL OPPORTUNITIES FUND, L.P.",805-9423536706,"","Cayman Islands","N","Y"
1141819,44430,8019,"TYRUS CAPITAL EVENT FUND LIMITED",805-9553849450,"","Cayman Islands","N","Y"
1141819,44430,14101,"TYRUS CAPITAL OPPORTUNITIES FUND LIMITED",805-1574683702,"","Cayman Islands","N","Y"
1141819,44430,8022,"TYRUS CAPITAL EVENT FUND, L.P.",805-1565693646,"","Cayman Islands","N","Y"
1141819,192715,121947,"TYRUS CAPITAL M&A FUND LIMITED",805-6747046620,"","Cayman Islands","N","Y"
1141819,192715,121948,"TYRUS CAPITAL M&A FUND, L.P",805-8933689006,"","Cayman Islands","N","Y"
1137068,63665,13030,"IBIS GLOBAL MEDIA FUND",805-5930776127,"","Cayman Islands","N","Y"
1127353,180780,118443,"IVYROCK CHINA FOCUS FEEDER FUND",805-9076767231,"","Cayman Islands","Y","Y"
1116775,190808,121018,"CORRIENTE PARTNERS II, LP",805-7892347802,"Delaware","United States","N","Y"
1116775,190808,120987,"CORRIENTE OFFSHORE PARTNERS II, LTD.",805-8073044567,"","Cayman Islands","N","Y"
1137642,58979,13896,"MOUNTAIN BROOK PARTNERS OFFSHORE FUND, LTD.",805-9632787870,"","Cayman Islands","N","Y"
1137642,58979,13895,"MOUNTAIN BROOK PARTNERS, LP",805-2769589681,"Delaware","United States","N","Y"
1141075,47178,8593,"NAYA FUND LP",805-7785230383,"Delaware","United States","N","Y"
1141075,47178,8594,"NAYA FUND",805-9287043158,"","Cayman Islands","N","Y"
1141075,56267,11293,"NAYA LINCOLN PARK FUND LTD",805-6288581230,"","Cayman Islands","N","Y"
1136542,192990,122064,"VENUS INDIA STRUCTURED FINANCE (OFFSHORE) FUND LIMITED",805-7204265593,"","British Virgin Islands","N","Y"
1123824,46018,8314,"TRIENT GLOBAL INVESTMENT FUNDS PLC",805-4048069266,"","Ireland","N","Y"
1130966,28269,7533,"BROCKTON CAPITAL II (USA) LP",805-9146224647,"","United Kingdom","Y","Y"
1130966,28269,7532,"BROCKTON CAPITAL II (USA FX) LP",805-7991518834,"","United Kingdom","Y","Y"
1130966,77650,62368,"BROCKTON CAPITAL FUND III (USA) LP",805-5559344481,"","United Kingdom","Y","Y"
1128620,57944,11704,"GLOBAL EQUITY EVENT OPPORTUNITIES FUND (CAYMAN), LTD.",805-7517256769,"","Cayman Islands","N","Y"
1128620,57944,11705,"GLOBAL EQUITY EVENT OPPORTUNITIES FUND, LLC",805-7259178656,"Delaware","United States","N","Y"
1113669,187514,120413,"COVALIS CAPITAL ENHANCED FUND LTD",805-5635445621,"","Cayman Islands","N","Y"
1113669,167320,120423,"COVALIS CAPITAL FUND LP",805-2150151221,"Delaware","United States","N","Y"
1113669,167320,120424,"COVALIS CAPITAL FUND LTD",805-4821928056,"","Cayman Islands","N","Y"
1113669,187514,121080,"COVALIS CAPITAL ENHANCED FUND LP",805-8471798207,"Delaware","United States","N","Y"
1143926,175100,117452,"ONE FIN CAPITAL LP",805-4695011205,"Delaware","United States","N","Y"
1143926,175100,117453,"ONE FIN CAPITAL OFFSHORE LTD.",805-8660397058,"","Cayman Islands","N","Y"
1142143,44430,14102,"TYRUS CAPITAL OPPORTUNITIES FUND, L.P.",805-9423536706,"","Cayman Islands","N","Y"
1142143,44430,8019,"TYRUS CAPITAL EVENT FUND LIMITED",805-9553849450,"","Cayman Islands","N","Y"
1142143,44430,14101,"TYRUS CAPITAL OPPORTUNITIES FUND LIMITED",805-1574683702,"","Cayman Islands","N","Y"
1142143,192715,121947,"TYRUS CAPITAL M&A FUND LIMITED",805-6747046620,"","Cayman Islands","N","Y"
1142143,192715,121948,"TYRUS CAPITAL M&A FUND, L.P",805-8933689006,"","Cayman Islands","N","Y"
1142143,44430,8022,"TYRUS CAPITAL EVENT FUND, L.P.",805-1565693646,"","Cayman Islands","N","Y"
1131198,178769,118090,"RABO F&A VENTURES I C.V.",805-9588884410,"","Netherlands","Y","N"
1131198,178769,118089,"F&A VENTURES I C.V.",805-8671153522,"","Netherlands","Y","Y"
1128432,180359,118398,"MONTERONE PARTNERS LONG SHORT FUND LTD",805-4390560352,"","Cayman Islands","N","Y"
1128432,180359,121174,"MONTERONE PARTNERS LONG SHORT FUND LP",805-6755722145,"Delaware","United States","N","Y"
1137706,43357,7836,"CITI GREENWICH STREET PARTNERS II OFFSHORE FUND",805-3562098082,"","Cayman Islands","N","Y"
1133856,175709,117555,"GLEN POINT GLOBAL MACRO FUND LIMITED",805-5875578621,"","Cayman Islands","N","Y"
1133856,175709,117556,"GLEN POINT GLOBAL MACRO FUND LP",805-2494411562,"Delaware","United States","N","Y"
1130824,192169,122161,"BLANTYRE SPECIAL SITUATIONS FUND I LTD.",805-2136240000,"","Cayman Islands","N","Y"
1130824,193569,122160,"BLANTYRE MULANJE SPC",805-3731260104,"","Cayman Islands","N","Y"
1126865,191186,121043,"TRITON VALUE FUND (CAYMAN) L.P.",805-8752940702,"","Cayman Islands","N","Y"
1126865,191186,121044,"TRITON VALUE FUND LIMITED",805-2854419832,"","Cayman Islands","N","Y"
1126865,191181,121041,"TRITON FUND III US LIMITED",805-5881125683,"","Jersey","N","Y"
1126865,191185,121042,"TRITON FUND IV US LP",805-5827149023,"","Jersey","N","Y"
1126865,191163,121040,"TRITON DEBT OPPORTUNITIES FUND US LP",805-9557533698,"","Jersey","N","Y"
1131178,192194,121217,"GLASSBRIDGE QUANT STRATEGY OFFSHORE, LTD.",805-7867260960,"","Cayman Islands","Y","Y"
1131178,192194,121218,"GLASSBRIDGE QUANT STRATEGY PARTNERS, LP",805-1123828887,"Delaware","United States","Y","Y"
1128615,29331,5342,"BLACK RIVER COMMODITY MULTI-STRATEGY FUND LTD.",805-2857216479,"","Cayman Islands","Y","Y"
1128615,29331,5340,"BLACK RIVER COMMODITY MULTI-STRATEGY FUND LLC",805-7144367947,"Delaware","United States","Y","Y"
1131454,172479,116937,"AVANZ EM PARTNERSHIPS FEEDER II, SPC",805-1397453229,"","Cayman Islands","Y","Y"
1131454,50520,11516,"AVANZ EM PARTNERHIPS FEEDER, SPC",805-8622676077,"","Cayman Islands","Y","Y"
1130967,192190,121229,"ISOMER FUND LP",805-3221792513,"Delaware","United States","N","Y"
1130967,192190,121230,"ISOMER CAYMAN FUND LTD",805-4531637282,"","Cayman Islands","N","Y"
1135659,190948,121112,"BLUEDRIVE GLOBAL INVESTORS FUND LIMITED",805-1801482049,"","Cayman Islands","N","Y"
1135659,190948,121113,"BLUEDRIVE GLOBAL INVESTORS FUND LP",805-2513847954,"Delaware","United States","N","Y"
1123208,34201,13134,"HINDE GOLD FEEDER FUND LP",805-2289993384,"Delaware","United States","Y","N"
1123208,34201,13135,"HINDE GOLD FEEDER FUND LTD.",805-1843495166,"","Cayman Islands","Y","N"
1141549,47135,8575,"DEPMSEY HILL ASIA FUND",805-4619867569,"","Cayman Islands","N","Y"
1128624,29331,5342,"BLACK RIVER COMMODITY MULTI-STRATEGY FUND LTD.",805-2857216479,"","Cayman Islands","Y","Y"
1128624,29331,5340,"BLACK RIVER COMMODITY MULTI-STRATEGY FUND LLC",805-7144367947,"Delaware","United States","Y","Y"
1136828,66509,13710,"BTA US SERIES PLATFORM LLC, SERIES B COLUMBUS",805-9789696662,"Delaware","United States","N","Y"
1136828,66509,13711,"CONCORDE COLUMBUS GLOBAL OPPORTUNITY OFFSHORE FUND, LTD",805-7901697098,"","Cayman Islands","N","Y"
1136828,66510,13713,"BTA SERIES PLATFORM LLC  SERIES A PI",805-1640302777,"Delaware","United States","N","Y"
1136828,66510,13714,"CONCORDE PI ALTERNATIVE INVESTMENT FUND LTD.",805-3614122095,"","Cayman Islands","N","Y"
1138154,173304,119916,"INFRACAPITAL PARTNERS EMPLOYEE FEEDER II",805-8228481050,"","United Kingdom","N","Y"
1138154,173304,119917,"INFRACAPITAL SLP II LP",805-2001328735,"","United Kingdom","N","Y"
1138154,172296,119919,"INFRACAPITAL DF II LP",805-2834364171,"","United Kingdom","N","Y"
1138154,172296,119920,"INFRACAPITAL SLP II LP",805-2001328735,"","United Kingdom","N","Y"
1134157,188735,120666,"ENDURO FUND (CAYMAN) LTD.",805-8097597823,"","Cayman Islands","N","Y"
1134157,188735,120665,"ENDURO FUND (DELAWARE) LLC",805-4663310607,"Delaware","United States","N","Y"
1138240,76570,49418,"BLUE CLAY CAPITAL FUND LTD.",805-5308966648,"","Cayman Islands","Y","N"
1138240,76570,49419,"BLUE CLAY CAPITAL PARTNERS LP",805-7024658191,"Delaware","United States","Y","N"
1142352,32267,5909,"ASOF II FEEDER FUND LP",805-6362269444,"","Guernsey","Y","Y"
1142352,65952,13480,"ASOF III FEEDER FUND LP",805-6050949147,"","Guernsey","Y","Y"
1135381,193071,122035,"TRIUM CREDERE FUND LTD",805-4791592265,"","Cayman Islands","N","Y"
1138994,193114,122050,"BERNINA DIVERSIFIED FUND LIMITED",805-1845916815,"","Cayman Islands","N","Y"
1138994,193114,122051,"BERNINA DIVERSIFIED FUND, L.P.",805-6154024996,"Delaware","United States","N","Y"
1138994,193642,122183,"ALBACORE CAPITAL PARTNERS I FEEDER FUND ICAV",805-7861907507,"","Ireland","N","Y"
1142347,60954,46425,"ORLICK",805-5384335518,"Delaware","United States","Y","N"
1126547,170363,116630,"AQS EMERGING MARKETS CORPORATE DEBT TOTAL RETURN FEEDER FUND II LLC",805-3978127648,"","Ireland","N","Y"
1126547,170363,116629,"AQS EMERGING MARKETS CORPORATE DEBT TOTAL RETURN FEEDER FUND I PLC",805-7114452882,"","Ireland","N","Y"
1140236,38836,7161,"STAIRWAY CAPITAL II LIMITED",805-4812577337,"","Cayman Islands","N","Y"
1129482,27831,117010,"JABCAP GLOBAL BALANCED FUND CAYMAN LP",805-3850361027,"","Cayman Islands","N","Y"
1129482,27821,117011,"JABCAP GLOBAL CONVERTIBLE FUND CAYMAN LP",805-9188671397,"","Cayman Islands","N","Y"
1129482,27753,5114,"JABCAP MULTI STRATEGY FUND LP",805-7900870203,"","Cayman Islands","N","Y"
1129482,27753,5116,"JABCAP MULTI STRATEGY FUND LIMITED",805-8566531481,"","Cayman Islands","N","Y"
1129482,27821,5121,"JABCAP GLOBAL CONVERTIBLE FUND LIMITED",805-9840694429,"","Cayman Islands","N","Y"
1129482,27831,5123,"JABCAP GLOBAL BALANCED FUND LIMITED",805-5129653374,"","Cayman Islands","N","Y"
1129482,27846,5127,"JABCAP EMEA FUND LP",805-1627291442,"","Cayman Islands","N","Y"
1129482,27846,5128,"JABCAP EMEA FUND LIMITED",805-1872003394,"","Cayman Islands","N","Y"
1126278,191739,121152,"HEWES FUND, LP",805-7577859559,"Delaware","United States","Y","N"
1125636,173770,117221,"GREENVALE CAPITAL (CAYMAN) FUND LIMITED",805-6917057460,"","Cayman Islands","Y","Y"
1125636,173770,117222,"GREENVALE CAPITAL (ONSHORE) FUND, L.P.",805-4599282582,"Delaware","United States","Y","Y"
1133765,192744,121960,"SHREWSBURY RIVER CAPITAL CMBS EVENT-DRIVEN FUND LTD.",805-7886708513,"","Cayman Islands","Y","N"
1133765,192744,121959,"SHREWSBURY RIVER CAPITAL CMBS EVENT-DRIVEN FUND LP",805-7762262504,"Delaware","United States","Y","N"
