"FilingID","ReferenceID","SubreferenceID","Name of General Partner, etc."
1020053,178135,118004,"AOGAN FOLEY, DIRECTOR"
1020053,178135,118004,"THOMAS GEARY, DIRECTOR"
1020053,178135,118004,"MICHAEL GREENE, DIRECTOR"
1020053,178135,118004,"DIAMANDIS KARAMAGIAS, DIRECTOR"
1020053,178135,118004,"DAVID MCHUGH, DIRECTOR"
1040675,177954,117968,"NIGEL DAVID STEAD - DIRECTOR"
1040675,177954,117968,"PHILIP ANDREW TYE - DIRECTOR"
1040675,177954,117968,"ZHANG HAO - DIRECTOR"
1040675,177954,117969,"HAO CAPITAL MANAGEMENT LIMITED"
1040675,177954,117968,"HAO CAPITAL MANAGEMENT LIMITED"
1040675,177954,117969,"NIGEL DAVID STEAD - DIRECTOR"
1040675,177954,117969,"PHILIP ANDREW TYE - DIRECTOR"
1040675,177954,117969,"ZHANG HAO - DIRECTOR"
1042510,18608,3662,"JOHN LEWIS (DIRECTOR)"
1042510,18608,3662,"WILLIAM JONES (DIRECTOR)"
1042510,18608,3663,"OCP ASIA (GP) LIMITED (GENERAL PARTNER)"
1042510,18625,3666,"OCP ASIA (GP) LIMITED (GENERAL PARTNER)"
1042510,58578,11820,"OCP ASIA (GP) LIMITED (GENERAL PARTNER)"
1042510,58578,11821,"JOHN LEWIS (DIRECTOR)"
1042510,58578,11821,"WILLIAM JONES (DIRECTOR)"
1042510,18625,12370,"JOHN LEWIS (DIRECTOR)"
1042510,18625,12370,"WILLIAM JONES (DIRECTOR)"
1042511,166598,115643,"ANCHOR EQUITY PARTNERS II GP (CAYMAN), LTD."
1038492,179427,118205,"HANNAH VICTORIA GOODWIN - DIRECTOR"
1038492,179427,118205,"JEFFREY KENNETH LOPEZ - DIRECTOR"
1038492,179427,118206,"JEFFREY KENNETH LOPEZ - DIRECTOR"
1038492,179427,118206,"HANNAH VICTORIA GOODWIN - DIRECTOR"
1038492,179427,118205,"MARC PETER TOWERS - DIRECTOR"
1038492,179427,118205,"ATOMVEST LIMITED - MANAGER"
1038492,179427,118206,"ATOMVEST LIMITED - MANAGER"
1038492,179427,118206,"MARC PETER TOWERS - DIRECTOR"
1040178,43707,7920,"ABRAAJ GENERAL PARTNER V LIMITED"
1040178,43711,7921,"IGCF FEEDER FUND GENERAL PARTNER LIMITED"
1040445,179575,118223,"VERDANE CAPITAL VIII GP APS"
1022666,65995,118054,"MR. ALEXIS P. MICHAS, MR. JOHN A. BARTHOLDSON AND MR. KEVIN A. PHILLIP"
1025543,178282,118013,"DANIEL KREPS, DIRECTOR"
1025543,178282,118018,"MONEY IN MOTION USA LLC"
1025543,178282,118013,"NATHANIEL H. HARTLEY, DIRECTOR"
1025543,178282,118012,"ADVANCE GLOBAL CAPITAL USA LLC"
1025543,178282,118013,"JANET A. MCKINLEY, DIRECTOR"
1030399,6693,1911,"SOLAISE CAPITAL LIMITED"
1027721,173007,117197,"QUANTZ GP"
1027721,173007,117196,"QUANTZ GP"
1028597,113232,80364,"YOLANDA BANKS MCCOY"
1028597,113232,80364,"DARREN STAINROD"
1028597,113232,80365,"INTEGRATED MACRO ADVISORS I LP"
1028597,113232,80364,"HOWARD KURZ"
1039200,64763,13194,"PETER TASKER"
1039200,64763,13194,"RT. HON THE EARL OF CROMER"
1039200,64763,13194,"V-NEE YEH"
1037375,25922,4775,"FTIM IS THE MANAGER, MESSRS. RAJESH SACHDEVA, VANCE THURSTON AND WILTON MCDONALD ARE DIRECTORS"
1038912,179454,118208,"OTSáCAPITALáMANAGEMENTá(CAYMAN)áLIMITED"
1027904,56093,11106,"IDALION FUND GP LIMITED"
1027904,56093,11107,"TAAVI DAVIES"
1027904,56093,11107,"IDALION LIMITED"
1027904,56093,11107,"PHILIP DICKIE"
1027904,56093,11107,"ZIV KATALAN"
1035260,178769,118089,"ANTERRA GP I B.V."
1035260,178769,118090,"ANTERRA GP I B.V."
1030577,43357,7836,"CALEDONIAN TRUST (CAYMAN) LTD., AS TRUSTEE"
1022042,35863,13053,"PRAX CAPITAL CHINA GROWTH FUND III GP, LTD."
1022042,35863,6958,"PRAX CAPITAL CHINA GROWTH FUND III GP, LTD."
1030551,178667,118067,"NEUMANN ADVISORS"
1030551,178667,118066,"NEUMANN ADVISORS"
1039263,65805,13439,"DEUTSCHE BANK INTERNATIONAL LIMITED"
1039263,65827,13451,"DEUTSCHE INTERNATIONAL CUSTODIAL SERVICES LIMITED"
1028106,10747,2535,"COULDIP BASANTA LALA, HARIHARAN JAYAKUMAR, SATEETA JEEWOOLALL, JIHANE MUHAMODSAROAR"
1028106,10280,2480,"COULDIP BASANTA LALA, HARIHARAN JAYAKUMAR, SATEETA JEEWOOLALL, JIHANE MUHAMODSAROOR"
1028106,64681,13151,"TRAUB ALEXANDER RICHARD, KEK SIN SHEN STEVE, RICHARDS MATTHEW PAUL"
1028106,158968,107524,"HARIHARAN JAYAKUMAR, HUSAYN SASSU, YASHIN FOOLAH, PAUL EARNST LEECH"
1028106,158968,107523,"HARIHARAN JAYAKUMAR, HUSAYN SASSU, YASHIN FOOLAH, PAUL EARNST LEECH"
1029961,65805,13439,"DEUTSCHE BANK INTERNATIONAL LIMITED"
1029961,65827,13451,"DEUTSCHE INTERNATIONAL CUSTODIAL SERVICES LIMITED"
1024396,178199,117991,"PHILIP DICKIE/DIRECTOR"
1024396,178199,117991,"RALPH WOODFORD/DIRECTOR"
1024396,178199,117992,"EVERETT OPPORTUNITIES (GP) LIMITED/GENERAL PARTNER"
1024396,178199,117991,"JOHN COMERFORD/ DIRECTOR"
1033529,175865,117590,"SANSAR PERFORMANCE, L.P."
1033529,175879,117596,"MICHELLE M. WILSON-CLARKE"
1033529,31181,5681,"SANSAR SO PERFORMANCE, LP"
1033529,31181,5682,"SCOTT LENNON"
1033529,31181,5682,"MICHELLE M. WILSON-CLARKE"
1033529,175879,117595,"SANSAR SO PERFORMANCE, L.P."
1037745,29331,5340,"BLACK RIVER ASSET MANAGEMENT LLC"
1037745,29331,5342,"GUILHERME SCHMIDT NETTO"
1037745,29331,5342,"LISA J. JEWISON"
1037745,29331,5342,"DAVID A. ROBERTSON"
1034330,65123,13287,"PETER HEAPS"
1034330,65123,13287,"PAUL KAJU"
1034330,65123,13287,"GREGARD HEJE"
1034330,65123,13288,"PETER HEAPS"
1034330,65123,13288,"GREGARD HEJE"
1034330,65123,13288,"PAUL KAJU"
1037280,55919,11097,"CKC CAPITAL GP LLC"
1040674,179454,118208,"OTSáCAPITALáMANAGEMENTá(CAYMAN)áLIMITED"
1040919,64503,13093,"WINTON CAPITAL (CAYMAN) LIMITED"
1040919,64504,13094,"WINTON CAPITAL (CAYMAN) LIMITED"
1040919,64490,13277,"DAVID HARDING"
1040919,64490,13277,"DERMOT BUTLER"
1040919,64490,13277,"ALAN TOOKER"
1018457,56267,11293,"NAYA CAPITAL MANAGEMENT LTD"
1028890,23675,4415,"SEAN MA, JULIUS WANG, ZHEN ZHANG"
1028890,23675,4416,"SEAN MA, JULIUS WANG, ZHEN ZHANG"
1028890,175106,117454,"SEAN MA, JULIUS WANG, ZHEN ZHANG"
1028890,175106,117455,"SEAN MA, JULIUS WANG, ZHEN ZANG"
1029865,32066,5879,"CAPULA MANAGEMENT LIMITED"
1029865,32066,5880,"CAPULA MANAGEMENT LIMITED"
1029865,32066,5881,"INTERTRUST SPV (CAYMAN) LIMITED"
1029865,32066,5882,"CAPULA MANAGEMENT LIMITED"
1029865,32066,5877,"CAPULA GENERAL PARTNER LIMITED"
1029865,32149,5888,"CAPULA MANAGEMENT LIMITED"
1029865,32149,5889,"INTERTRUST SPV (CAYMAN) LIMITED"
1029865,32149,13092,"CAPULA MANAGEMENT LIMITED"
1040182,166837,115722,"CHARLIE WOOLNOUGH - DIRECTOR"
1040182,166837,115722,"TIM SWEETING - DIRECTOR"
1040182,166837,115723,"WESTRAY GP LIMITED"
1041613,57976,13469,"ESSA ZAINAL"
1041613,57976,13469,"MOHAMMED CHOWDHURY"
1041613,57976,13469,"SALAH AL-SHAIKH"
1042302,58109,11735,"ESSA ZAINAL"
1042302,58109,11735,"MOHAMMED CHOWDHURY"
1042302,58109,11735,"SALAH AL-SHAIKH"
1017618,65805,13439,"DEUTSCHE BANK INTERNATIONAL LIMITED"
1017618,65827,13451,"DEUTSCHE INTERNATIONAL CUSTODIAL SERVICES LIMITED"
1029403,23675,4415,"SEAN MA, JULIUS WANG, ZHEN ZHANG"
1029403,23675,4416,"SEAN MA, JULIUS WANG, ZHEN ZHANG"
1029403,175106,117454,"SEAN MA, JULIUS WANG, ZHEN ZHANG"
1029403,175106,117455,"SEAN MA, JULIUS WANG, ZHEN ZANG"
1038309,178314,118019,"CINVEN CAPITAL MANAGEMENT (VI) LIMITED PARTNERSHIP INCORPORATED"
1033274,55601,13825,"JASON LIEBER, DIRECTOR"
1033274,59714,13824,"JASON LIEBER, DIRECTOR"
1025415,178314,118019,"CINVEN CAPITAL MANAGEMENT (VI) LIMITED PARTNERSHIP INCORPORATED"
1039267,65425,13336,"WYETREE ASSET MANAGEMENT LIMITED"
1039267,65425,13337,"WYETREE EUROPEAN RECOVERY FUND GP LTD"
1039267,32502,6258,"PETER ROBINSON"
1039267,32502,6258,"YOLANDA BANKS MCCOY"
1039267,32502,6258,"MARK FAGAN"
1039267,55577,11065,"WYETREE ASSET MANAGEMENT LIMITED"
1039267,55577,11066,"WYETREE ASSET MANAGEMENT LIMITED"
1039267,32502,6261,"RESIDENTIAL REAL ESTATE TOTAL RETURN OPPORTUNITIES GENERAL PARTNER LIMITED"
1030412,178314,118019,"CINVEN CAPITAL MANAGEMENT (VI) LIMITED PARTNERSHIP INCORPORATED"
1031621,174068,117263,"IRE AFIII, LTD - GENERAL PARTNER; IRE (CAYMAN) LIMITED - INVESTMENT MANAGER"
1031621,17361,9124,"DAVID N FARMER"
1031621,17361,9124,"R. SCOTT DENNIS"
1031621,17361,9124,"CHENG SOON LAU"
1031621,17361,9124,"R. LEE PHEGLEY"
1033170,64827,13213,"WILLIAM Y. YUN"
1033170,64827,13213,"ALOK SETHI"
1033170,64827,13216,"FRANKLIN TEMPLETON INSTITUTIONAL GP, LLC"
1033170,64827,13213,"WILLIAM JACKSON"
1027827,64136,13012,"CITCO TRUSTEES (UT) LIMITED - TRUSTEE"
1027827,64137,13013,"CITCO TRUSTEES (CAYMAN) LIMITED - TRUSTEE"
1019995,177344,118045,"SPRING LAKE ASSET MANAGEMENT, INC."
1031475,178769,118089,"ANTERRA GP I B.V."
1031475,178769,118090,"ANTERRA GP I B.V."
1033354,177954,117969,"NIGEL DAVID STEAD - DIRECTOR"
1033354,177954,117969,"PHILIP ANDREW TYE - DIRECTOR"
1033354,177954,117969,"ZHANG HAO - DIRECTOR"
1033354,177954,117968,"NIGEL DAVID STEAD - DIRECTOR"
1033354,177954,117968,"PHILIP ANDREW TYE - DIRECTOR"
1033354,177954,117968,"ZHANG HAO - DIRECTOR"
1033354,177954,117969,"HAO CAPITAL MANAGEMENT LIMITED"
1033354,177954,117968,"HAO CAPITAL MANAGEMENT LIMITED"
1033553,174068,117263,"IRE AFIII, LTD - GENERAL PARTNER; IRE (CAYMAN) LIMITED - INVESTMENT MANAGER"
1033553,17361,9124,"DAVID N FARMER"
1033553,17361,9124,"R. SCOTT DENNIS"
1033553,17361,9124,"CHENG SOON LAU"
1033553,17361,9124,"R. LEE PHEGLEY"
1033558,36257,7049,"SISU CAPITAL LIMITED"
1042068,167044,115784,"ROKOS GLOBAL MACRO (GP) LIMITED"
1042068,167044,115785,"VICTORIA PARRY, DARREN STAINROD, TIMOTHY SWEETING"
1026743,178398,118033,"MARC TOWERS - DIRECTOR"
1026743,178398,118033,"DAVID Y MA - DIRECTOR"
1026743,178398,118033,"YOLANDA BANKS MCCOY - DIRECTOR"
1026743,178398,118034,"DAVID Y MA - DIRECTOR"
1026743,178398,118034,"MARC TOWERS - DIRECTOR"
1026743,178398,118034,"YOLANDA BANKS MCCOY - DIRECTOR"
1028888,15536,4678,"SYLEBRA CAPITAL MANAGEMENT"
1028097,167432,115857,"TAAVI DAVIES"
1028097,167432,115857,"ZIV KATALAN"
1028097,167432,115858,"IDALION FUND GP LIMITED"
1028097,167432,115857,"IDALION LIMITED"
1028097,167432,115857,"PHILIP DICKIE"
1030575,43357,7836,"CALEDONIAN TRUST (CAYMAN) LTD., AS TRUSTEE"
1034349,65805,13439,"DEUTSCHE BANK INTERNATIONAL LIMITED"
1034349,65827,13451,"DEUTSCHE INTERNATIONAL CUSTODIAL SERVICES LIMITED"
1041636,55167,10884,"SILVARIS (GP) LTD"
1041636,55167,10884,"SILVARIS CAPITAL MANAGEMENT LP"
1041636,55167,10885,"SILVARIS CAPITAL MANAGEMENT LP"
1041636,55167,10885,"ANDREW GALLOWAY"
1041636,55167,10885,"CHRISTOPHE PIERRE ALAUX"
1041636,55167,10885,"PAUL KAJU"
1041636,55167,10885,"RALPH WOODFORD"
1032700,65481,13359,"TAURUS MINING FINANCE FUND GP LTD"
1032700,28988,5344,"TAURUS RESOURCES LIMITED GP LLC"
1032700,28988,5346,"TAURUS RESOURCES LIMITED GP LLC"
1032700,29406,5351,"TAURUS RESOURCES LIMITED GP NO. 2 LLC"
1032700,29406,5353,"TAURUS RESOURCES LIMITED GP NO. 2 LLC"
1032700,65481,13358,"TAURUS MINING FINANCE FUND GP LTD"
1037974,65425,13336,"WYETREE ASSET MANAGEMENT LIMITED"
1037974,65425,13337,"WYETREE EUROPEAN RECOVERY FUND GP LTD"
1037974,32502,6258,"PETER ROBINSON"
1037974,32502,6258,"YOLANDA BANKS MCCOY"
1037974,32502,6258,"MARK FAGAN"
1037974,55577,11065,"WYETREE ASSET MANAGEMENT LIMITED"
1037974,55577,11066,"WYETREE ASSET MANAGEMENT LIMITED"
1037974,32502,6261,"RESIDENTIAL REAL ESTATE TOTAL RETURN OPPORTUNITIES GENERAL PARTNER LIMITED"
1037951,178345,118023,"JOHN VAUGHN PRIDJIAN - DIRECTOR"
1037951,178345,118023,"HUGH CARNABY FORWARD - DIRECTOR"
1040524,179578,118225,"SAOLA CAPITAL FUND GP LLC"
1040524,179578,118224,"DON SEYMOUR, PAUL GUGGENHEIMER"
1042986,72373,58365,"JON A. FOSHEIM"
1042986,72373,58365,"PETER A. HEAPS"
1042986,72373,58365,"JEFFREY M. WEINGARTEN"
1034903,177245,118147,"SCP INVESTMENT, LP"
1042758,40113,7329,"CHRISTOPHER AARONS"
1042758,40113,7329,"FREDERIC GEISSBUHLER"
1042758,40113,7329,"GRAEME AARONS"
1042758,40113,7329,"CHARLES DU MARAIS"
1042758,40113,7331,"TRAFALGAR COPLEY GENERAL PARTNER LIMITED"
1042758,40113,7332,"CHARLES DU MARAIS"
1042758,40113,7332,"CHRIS AARONS"
1042758,40113,7332,"FREDERIC GEISSBUHLER"
1042758,40113,7332,"GRAEME AARONS"
1042758,167203,115812,"TRAFALGAR COPLEY GENERAL PARTNER LIMITED"
1042758,167203,115813,"CHARLES DU MARAIS"
1042758,167203,115813,"CHRIS AARONS"
1042758,167203,115813,"FREDERIC GEISSBUHLER"
1042758,167203,115813,"GRAEME AARONS"
1042758,167203,115814,"CHRISTOPHER AARONS"
1042758,167203,115814,"FREDERIC GEISSBUHLER"
1042758,167203,115814,"GRAEME AARONS"
1042758,167203,115814,"CHARLES DU MARAIS"
1032386,62601,12712,"L CAPITAL ASIA 2 SING GP PTE LTD"
1032386,62601,12711,"L CAPITAL ASIA 2 GP"
1035554,179112,118149,"MICHAEL PARTON"
1035554,179112,118148,"VICKY PARRY"
1035554,179112,118148,"RAJ PATEL"
1035554,179112,118148,"DAVID MCGEOUGH"
1035554,179112,118149,"RAJ PATEL"
1035554,179112,118149,"DAVID MCGEOUGH"
1028103,47586,8704,"ALAN TOOKER"
1028103,47586,8704,"DAMIAN JURIC"
1028103,47586,12692,"LNG CAPITAL (CAYMAN) LIMITED"
1036440,179213,118172,"EMP LSO GP LLC"
1036440,179211,118170,"EMP VASARI GP, LLC"
1036440,179211,118171,"EMP VASARI GP LLC"
1036440,179213,118173,"EMP LSO GP LLC"
1038779,52082,10050,"HIP III GP L.P."
1038779,12382,2755,"HIP GP L.P."
1038779,12652,2773,"HIP II GP L.P."
1038779,52082,10049,"HIP III G.P L.P."
1033137,40133,7337,"PARALLEL GENERAL PARTNER LIMITED"
1033137,66278,13561,"PARALLEL GENERAL PARTNER LIMITED"
1039680,18092,5327,"TAPOSEEA RAJKAMAL"
1039680,18092,5327,"THAMOTHIRAM MANOGARAN"
1039680,18092,5327,"SHETH MANISH CHHABILDAS"
1038244,179370,118207,"SOSV ONSHORE III GP, LLC"
1032702,67089,13744,"NICK GAZE"
1032702,67089,13744,"RUSSELL BURT"
1032702,67089,13744,"BARBARA HEALY"
1032702,67089,13744,"ABBEVILLE ASSET MANAGEMENT (CAYMAN) LTD (MANAGER)"
1032702,67089,13745,"NICK GAZE (DIRECTOR)"
1032702,67089,13745,"RUSSELL HURT (DIRECTOR)"
1032702,67089,13745,"BARBARA HEALY (DIRECTOR)"
1032702,67089,13745,"ABBEVILLE ASSET MANAGEMENT LTD (CAYMAN) (MANAGER)"
1032702,67089,13745,"ABBEVILLE OPPORTUNITY FUND GP (CAYMAN) (GENERAL PARTNER)"
1042685,32267,5909,"ASOF II FEEDER FUND (GP) LIMITED"
1042685,65952,13480,"ASOF III FEEDER FUND (GP) LIMITED"
1028594,113232,80364,"YOLANDA BANKS MCCOY"
1028594,113232,80364,"DARREN STAINROD"
1028594,113232,80365,"INTEGRATED MACRO ADVISORS I LP"
1028594,113232,80364,"HOWARD KURZ"
1012077,177587,117870,"AMIYA CAPITAL LLP"
1012077,177587,117870,"AMIYA (CAYMAN) LIMITED"
1012077,177587,117871,"AMIYA CAPITAL LLC"
1012077,177587,117871,"TIMOTHY GUY JONES"
1012077,177587,117871,"BARBARA HEALY"
1012077,177587,117871,"BILL MESSER"
1012077,177587,117871,"CYNTHIA WONG"
1012077,177587,117871,"MICHAEL RIDELL"
1042336,36228,7192,"HOHMAN FINNEY"
1042336,39311,7207,"AMBER RAMSEY"
1042336,39311,7207,"J. MITCHELL HULL"
1042336,36228,7192,"J. MITCHELL HULL"
1042336,39245,7202,"J. MITCHELL HULL"
1042336,39284,7204,"J. MITCHELL HULL"
1039447,34406,6389,"DOWLING CAPITAL I, LLC"
1038929,167248,115825,"ROC III GP LIMITED (GENERAL PARTNER)"
1038929,120449,83406,"PETER HUBER (DIRECTOR)"
1038929,167248,115824,"ROC III GP LIMITED (GENERAL PARTNER)"
1038929,120449,83406,"ABALI HOILETT (DIRECTOR)"
1038929,120449,83406,"LANCE ZARB (DIRECTOR)"
1038929,120448,83405,"PETER HUBER (DIRECTOR)"
1038929,120448,83405,"ABALI HOILETT (DIRECTOR)"
1038929,120448,83405,"LANCE ZARB (DIRECTOR)"
1038929,167248,115824,"ABALI HOILETT (DIRECTOR)"
1038929,167248,115824,"PETER HUBER (DIRECTOR)"
1038929,167248,115824,"LANCE ZARB (DIRECTOR)"
1038929,167248,115825,"PETER HUBER (DIRECTOR)"
1038929,167248,115825,"ABALI HOILETT (DIRECTOR)"
1038929,167248,115825,"LANCE ZARB (DIRECTOR)"
1038929,120448,83405,"ROC II GP LIMITED (GENERAL PARTNER)"
1038929,120449,83406,"ROC CF GP LIMITED (GENERAL PARTNER)"
1038929,167248,115825,"MOTOYA KITAMURA (DIRECTOR)"
1038929,167248,115824,"MOTOYA KITAMURA (DIRECTOR)"
1043094,69711,117294,"JORG-PETER LUHMANN"
1043094,69711,117294,"CHRISTOPHER MEYERING"
1043094,69711,117296,"NEIL DEACON"
1043094,69711,117296,"JORG-PETER LUHMANN"
1043094,174012,117302,"JORG-PETER LUHMANN"
1043094,174019,117313,"JORG-PETER LUHMANN"
1043094,174019,117313,"NEIL DEACON"
1043094,174265,117306,"NEIL DEACON"
1043094,174279,117308,"JORG-PETER LUHMANN"
1043094,174310,117315,"JORG-PETER LUHMANN"
1043094,174310,117315,"NEIL DEACON"
1043094,174154,117275,"JORG-PETER LUHMANN"
1043094,174154,117275,"NEIL DEACON"
1043094,174189,117284,"NEIL DEACON"
1043094,60506,117291,"NEIL DEACON"
1043094,60506,117291,"JORG-PETER LUHMANN"
1043094,174265,117306,"JORG-PETER LUHMANN"
1043094,174279,117308,"NEIL DEACON"
1043094,174189,117284,"JORG-PETER LUHMANN"
1035083,64484,13080,"ROUNDSHIELD FUND I GP, LIMITED"
1035083,64484,13081,"ROUNDSHIELD FUND I GP, LIMITED"
1032662,178861,118109,"PATRICK HARRIGAN - DIRECTOR"
1032662,178861,118109,"CHENG-I TUNG - DIRECTOR"
1032662,178861,118109,"RAJEEV LEEKHA - DIRECTOR"
1020222,34201,13134,"HINDE GOLD FEEDER FUND GP LTD."
1020222,34201,13135,"JOHN CULLINANE"
1020222,34201,13135,"LATONIA SYMONETTE-TINKER"
1020222,34201,13135,"MARK MAHAFFEY"
1028093,174068,117263,"IRE AFIII, LTD - GENERAL PARTNER; IRE (CAYMAN) LIMITED - INVESTMENT MANAGER"
1028093,17361,9124,"DAVID N FARMER"
1028093,17361,9124,"R. SCOTT DENNIS"
1028093,17361,9124,"CHENG SOON LAU"
1028093,17361,9124,"R. LEE PHEGLEY"
1028518,43357,7836,"CALEDONIAN TRUST (CAYMAN) LTD., AS TRUSTEE"
1043200,179575,118223,"VERDANE CAPITAL VIII GP APS"
1024279,178193,118006,"KEVIN M. LALANDE"
1024279,178193,118005,"SANT╔ CAPITAL FUND GP, LLC"
1024279,178193,118006,"ALUN DAVIES"
1024279,178193,118006,"SCOTT P. LENNON"
1027098,44430,8019,"PEDRO FONTANA GARCIA"
1027098,44430,8019,"KEITH DAY"
1027098,44430,8019,"EMILIO COCO FORISCOT"
1027098,44430,8022,"TYRUS CAPITAL GENERAL PARTNER LIMITED"
1027098,44430,14101,"EMILIO COCO FORISCOT"
1027098,44430,14101,"KEITH DAY"
1027098,44430,14101,"PEDRO FONTANA GARCIA"
1027098,44430,14101,"TONY CHEDRAOUI"
1027098,44430,14101,"GUSTAVO HERRERO"
1027098,44430,14102,"TYRUS CAPITAL GENERAL PARTNER LIMITED"
1027098,44430,8019,"GUSTAVO HERRERO"
1027098,44430,8019,"TONY CHEDRAOUI"
1031906,178808,118083,"ARMATUS PARTNERS, LLC"
1031906,178808,118084,"DERRICK BILDERBEEK, DYAN BILDERBEEK PADGETT"
1030091,178875,118106,"SAND GROVE OPPORTUNITIES FUND GP LTD"
1030091,178875,118107,"COLLINS, JENNIFER"
1030091,178875,118107,"GROOME, TODD"
1030091,178875,118107,"LEE, CHI HAO"
1030091,178875,118107,"POLLMAN, STEFAN"
1039523,34406,6389,"DOWLING CAPITAL I, LLC"
1040835,17940,3709,"WFCOF USA LLC"
1040835,17011,3383,"WEST FACE (CAYMAN) INC."
1040835,17011,3382,"WEST FACE CAPITAL LLC"
1040835,17940,3536,"WFCOF CAYMAN INC."
1040835,58420,11781,"WEST FACE ACF CAYMAN GP INC."
1040835,58420,11780,"WEST FACE ACF USA GP, LLC"
1042051,179712,118238,"JULIAN FLETCHER"
1042051,179712,118239,"MARTO CAPITAL PARTNERS GP LLC"
1042051,179712,118238,"KATINA STEFANOVA"
1042051,179712,118238,"WARREN KEENS"
1027568,43596,7901,"CDH III HOLDINGS COMPANY LIMITED"
1027568,43597,7902,"CDH IV FEEDER HOLDINGS COMPANY LIMITED"
1027568,51003,9805,"CDH V FEEDER HOLDINGS COMPANY LIMITED"
1027568,59330,11966,"LI GANG, STUART SCHONBERGER, WILLIAM HSU"
1027568,59330,11967,"LI GANG, STUART SCHONBERGER, WILLIAM HSU"
1027568,43594,7899,"CDH CHINA GROWTH CAPITAL HOLDINGS INVESTORS COMPANY LIMITED"
1027568,43595,7900,"CDH III HOLDINGS COMPANY LIMITED"
1032122,178282,118013,"DANIEL KREPS, DIRECTOR"
1032122,178282,118018,"MONEY IN MOTION USA LLC"
1032122,178282,118013,"NATHANIEL H. HARTLEY, DIRECTOR"
1032122,178282,118012,"ADVANCE GLOBAL CAPITAL USA LLC"
1032122,178282,118013,"JANET A. MCKINLEY, DIRECTOR"
1028647,49263,9065,"PERELLA WEINBERG REAL ESTATE FUND II GP LIMITED"
1028647,30771,5598,"PWP RE FUND I US FEEDER GP LIMITED"
1028647,171883,116836,"PERELLA WEINBERG REAL ESTATE FUND II GP LIMITED"
1024369,178212,117994,"LCM CREDIT OPPORTUNITIES IIIA LTD."
1028117,59099,47375,"JERICA CAPITAL ADVISORS, LLC (MANAGING MEMBER)"
1028117,59099,47376,"JULIE O'HARA (DIRECTOR)"
1028117,59099,47376,"BORIS ONEFATER (DIRECTOR)"
1028117,59099,47378,"JERICA CAPITAL ADVISORS, LLC"
1028117,59099,47376,"WARREN ASHENMIL (DIRECTOR)"
1038933,179112,118149,"MICHAEL PARTON"
1038933,179112,118148,"VICKY PARRY"
1038933,179112,118148,"RAJ PATEL"
1038933,179112,118148,"DAVID MCGEOUGH"
1038933,179112,118149,"RAJ PATEL"
1038933,179112,118149,"DAVID MCGEOUGH"
1034489,179018,118138,"BRX GLOBAL GP LLC"
1034489,179018,118139,"JENNIFER COLLINS, PHILLIP DICKEY, DAVID BROWNE"
1029407,23030,4360,"HPEF6 GP LIMITED"
1033986,169664,116436,"SUNDERLAND CAPITAL GP LLC - GENERAL PARTNER"
1033986,169664,116437,"SUNDERLAND CAPITAL GP LLC - GENERAL PARTNER"
1033181,55518,10955,"DON EBANKS"
1033181,55518,10955,"ROGER H. HANSON"
1033181,55518,10956,"LOREM IPSUM PARTNERS, LLC"
1033181,55518,10955,"JOHN SEGRICH"
1034138,178363,118027,"TRITON VALUE FUND GENERAL PARTNER L.P."
1034138,178363,118028,"TRITON VALUE FUND GENERAL PARTNER L.P."
1034138,29855,5576,"CHARLMAINE VELLA"
1034138,29855,5576,"MATTHEW CRILL"
1034138,54149,10617,"TRITON FUND IV GENERAL PARTNER LP"
1034138,29855,5576,"JONATHAN WILD"
1034138,63998,12980,"TRITON DEBT OPPORTUNITIES FUND I GENERAL PARTNER LP"
1034062,15536,4678,"SYLEBRA CAPITAL MANAGEMENT"
1036497,23030,4360,"HPEF6 GP LIMITED"
1037041,47135,8575,"CHUA WAN HOON, JACLYN; SADIQ CURRIMBHOY; VIVINNE CHENG"
1025019,179753,118251,"LAURIUM CAPITAL INTERNATIONAL GP LTD"
1025019,179750,118249,"STUART H LACEY"
1025019,179750,118249,"MARK FAGAN"
1025019,179753,118254,"MARK FAGAN"
1025019,179753,118252,"MARK FAGAN"
1025019,179753,118252,"STUART H LACEY"
1025019,179753,118254,"MARK PRESTON"
1025019,179753,118254,"CHARLIE WOOLNOUGH"
1025019,179753,118252,"MAREE WILMS"
1025019,179750,118250,"LAURIUM CAPITAL INTERNATIONAL GP LTD"
1025019,179750,118249,"MAREE WILMS"
1031850,63665,13030,"DAVID BREE (DIRECTOR)"
1031850,63665,13030,"ANDREW GALLOWAY (DIRECTOR)"
1031850,63665,13030,"GEORG SCHULTZE (DIRECTOR)"
1031850,63720,13031,"DAVID BREE (DIRECTOR)"
1031850,63720,13031,"ANDREW GALLOWAY (DIRECTOR)"
1031850,63720,13031,"GEORG SCHULTZE (DIRECTOR)"
1041447,69711,117294,"JORG-PETER LUHMANN"
1041447,69711,117294,"CHRISTOPHER MEYERING"
1041447,69711,117296,"NEIL DEACON"
1041447,69711,117296,"JORG-PETER LUHMANN"
1041447,174012,117302,"JORG-PETER LUHMANN"
1041447,174019,117313,"JORG-PETER LUHMANN"
1041447,174019,117313,"NEIL DEACON"
1041447,174265,117306,"NEIL DEACON"
1041447,174279,117308,"JORG-PETER LUHMANN"
1041447,174310,117315,"JORG-PETER LUHMANN"
1041447,174310,117315,"NEIL DEACON"
1041447,174154,117275,"JORG-PETER LUHMANN"
1041447,174154,117275,"NEIL DEACON"
1041447,174189,117284,"JORG-PETER LUHMANN"
1041447,174189,117284,"NEIL DEACON"
1041447,60506,117291,"NEIL DEACON"
1041447,60506,117291,"JORG-PETER LUHMANN"
1041447,174265,117306,"JORG-PETER LUHMANN"
1041447,174279,117308,"NEIL DEACON"
1029171,170127,116615,"PTQ CAPITAL LIMITED"
1029171,170127,116616,"PTQ CAPITAL LIMITED"
1029171,170127,116616,"JORGE RAFAEL CHANG"
1029171,170127,116615,"GUAN SENG ENG"
1029171,170127,116615,"JORGE RAFAEL CHANG"
1029171,170127,116615,"KUANGWEI TAN"
1029171,170127,116616,"GUAN SENG ENG"
1029171,170127,116616,"KUANGWEI TAN"
1030166,68041,13952,"ACION HOLDINGS LIMITED (INVESTMENT MANAGER)"
1030166,68041,13952,"GARY CHARLES LINFORD (DIRECTOR)"
1030166,68041,13952,"JAMES WALKER (DIRECTOR)"
1030166,68041,13953,"GARY CHARLES LINFORD (DIRECTOR)"
1030166,68041,13952,"FENG JIMMY HSIUNG (DIRECTOR)"
1030166,68041,13953,"JAMES WALKER (DIRECTOR)"
1030166,68041,13953,"FENG JIMMY HSIUNG (DIRECTOR)"
1030166,68041,13953,"ACION HOLDINGS LIMITED (INVESTMENT MANAGER)"
1032696,178866,118104,"PAUL KAJU"
1032696,178866,118104,"PETER HUBER"
1032696,178866,118104,"ANDREW WRIGHT"
1026599,171153,116748,"DMS OFFSHORE MANAGEMENT SERVICES (EUROPE) LIMITED"
1026599,171153,116747,"DMS OFFSHORE MANAGEMENT SERVICES (EUROPE) LIMITED"
1026599,171153,116746,"DMS OFFSHORE MANAGEMENT SERVICES (EUROPE) LIMITED"
1026599,171153,116745,"DMS OFFSHORE MANAGEMENT SERVICES (EUROPE) LIMITED"
1026599,171153,116746,"KEVIN OBRIEN"
1026599,171153,116746,"CONOR MACGUINNESS"
1026599,171153,116746,"PAUL SHARMAN"
1026599,171153,116746,"TREVOR SIMON"
1026599,171153,116747,"KEVIN OBRIEN"
1026599,171153,116747,"CONOR MACGUINNESS"
1026599,171153,116747,"PAUL SHARMAN"
1026599,171153,116747,"TREVOR SIMON"
1026599,171153,116748,"KEVIN OBRIEN"
1026599,171153,116748,"CONOR MAGUINNESS"
1026599,171153,116748,"PAUL SHARMAN"
1026599,171153,116748,"TREVOR SIMON"
1026599,171153,116745,"CONOR MACGUINNESS"
1026599,171153,116745,"PAUL SHARMAN"
1026599,171153,116745,"KEVIN O'BRIEN"
1026599,171153,116745,"TREVOR SIMON"
1029409,23030,4360,"HPEF6 GP LIMITED"
1031125,56601,11247,"PETER HEAPS"
1031125,56601,11247,"GERARD JOSEPH SATUR"
1031125,56601,11247,"SIMON COX"
1031014,178731,118070,"HOSEN INVESTMENT FUND III GP, LTD."
1031014,178731,118070,"HANG WANG"
1031014,178731,118070,"ALEX TIANLI ZHANG"
1026219,178345,118023,"JOHN VAUGHN PRIDJIAN - DIRECTOR"
1026219,178345,118023,"HUGH CARNABY FORWARD - DIRECTOR"
1029196,174582,117361,"IAN GOODALL"
1029196,174582,117361,"RYAN MELKONIAN"
1029196,174582,117361,"KARL O'REILLY"
1029196,174582,117360,"LTE MANAGEMENT, LLC"
1029196,174582,117361,"LTE MANAGMENT, LLC"
1038793,159126,109600,"SPRINGBOK INVESTMENT MANAGEMENT LP"
